модуль AMD64Decoder; (** AUTHOR "negelef"; PURPOSE "AMD64 disassembler"; *)

использует НИЗКОУР, Decoder, Потоки;

конст

	objFileSuffix = "Abx";

	(* max argument count *)
	maxArgs = 3;

	(* Legacy prefixes *)
	prOperand = 0;
	prAddress = 1;
	prCS = 2;
	prDS = 3;
	prES = 4;
	prFS = 5;
	prGS = 6;
	prSS = 7;
	prLOCK = 8;
	prREP = 9;
	prREPN = 10;

	prF3 = prREP;
	pr66 = prOperand;
	prF2 = prREPN;

	(* REX prefixes *)
	prREX = 11;
	prREXW = 12;
	prREXR = 13;
	prREXX = 14;
	prREXB = 15;

	(* AMD64 instruction set *)
	opInvalid = 0;
	opReserved = 1;
	opADC = 2;
	opADD = 3;
	opADDPD = 4;
	opADDPS = 5;
	opADDSD = 6;
	opADDSS = 7;
	opADDSUBPD = 8;
	opADDSUBPS = 9;
	opAND = 10;
	opANDNPD = 11;
	opANDNPS = 12;
	opANDPD = 13;
	opANDPS = 14;
	opBSF = 15;
	opBSR = 16;
	opBSWAP = 17;
	opBT = 18;
	opBTC = 19;
	opBTR = 20;
	opBTS = 21;
	opCALL = 22;
	opCBW = 23;
	opCDQ = 24;
	opCDQE = 25;
	opCLC = 26;
	opCLD = 27;
	opCLGI = 28;
	opCLI = 29;
	opCLTS = 30;
	opCMC = 31;
	opCMP = 32;
	opCMPPD = 33;
	opCMPPS = 34;
	opCMPSB = 35;
	opCMPSD = 36;
	opCMPSQ = 37;
	opCMPSS = 38;
	opCMPSW = 39;
	opCMPXCHG = 40;
	opCMPXCHG16B = 41;
	opCMPXCHG8B = 42;
	opCOMISD = 43;
	opCOMISS = 44;
	opCPUID = 45;
	opCQO = 46;
	opCVTDQ2PD = 47;
	opCVTDQ2PS = 48;
	opCVTPD2PI = 49;
	opCVTPD2PS = 50;
	opCVTPI2PD = 51;
	opCVTPI2PS = 52;
	opCVTPS2DQ = 53;
	opCVTPS2PD = 54;
	opCVTPS2PI = 55;
	opCVTSD2SI = 56;
	opCVTSD2SS = 57;
	opCVTSI2SD = 58;
	opCVTSI2SS = 59;
	opCVTSS2SD = 60;
	opCVTSS2SI = 61;
	opCVTTPD2DQ = 62;
	opCVTTPD2PI = 63;
	opCVTTPS2DQ = 64;
	opCVTTPS2PI = 65;
	opCVTTSD2SI = 66;
	opCVTTSS2SI = 67;
	opCWD = 68;
	opCWDE = 69;
	opDEC = 70;
	opDIV = 71;
	opDIVPD = 72;
	opDIVPS = 73;
	opDIVSD = 74;
	opDIVSS = 75;
	opEMMS = 76;
	opENTER = 77;
	opF2XM1 = 78;
	opFABS = 79;
	opFADD = 80;
	opFADDP = 81;
	opFBLD = 82;
	opFBSTP = 83;
	opFCHS = 84;
	opFCMOVB = 85;
	opFCMOVBE = 86;
	opFCMOVE = 87;
	opFCMOVNB = 88;
	opFCMOVNBE = 89;
	opFCMOVNE = 90;
	opFCMOVNU = 91;
	opFCMOVU = 92;
	opFCOM = 93;
	opFCOMI = 94;
	opFCOMIP = 95;
	opFCOMP = 96;
	opFCOMPP = 97;
	opFCOS = 98;
	opFDECSTP = 99;
	opFDIV = 100;
	opFDIVP = 101;
	opFDIVR = 102;
	opFDIVRP = 103;
	opFEMMS = 104;
	opFFREE = 105;
	opFIADD = 106;
	opFICOM = 107;
	opFICOMP = 108;
	opFIDIV = 109;
	opFIDIVR = 110;
	opFILD = 111;
	opFIMUL = 112;
	opFINCSTP = 113;
	opFIST = 114;
	opFISTP = 115;
	opFISTTP = 116;
	opFISUB = 117;
	opFISUBR = 118;
	opFLD = 119;
	opFLD1 = 120;
	opFLDCW = 121;
	opFLDENV = 122;
	opFLDL2E = 123;
	opFLDL2T = 124;
	opFLDLG2 = 125;
	opFLDLN2 = 126;
	opFLDPI = 127;
	opFLDZ = 128;
	opFMUL = 129;
	opFMULP = 130;
	opFNCLEX = 131;
	opFNINIT = 132;
	opFNOP = 133;
	opFNSAVE = 134;
	opFNSTCW = 135;
	opFNSTENV = 136;
	opFNSTSW = 137;
	opFPATAN = 138;
	opFPREM = 139;
	opFPREM1 = 140;
	opFPTAN = 141;
	opFRNDINT = 142;
	opFRSTOR = 143;
	opFSCALE = 144;
	opFSIN = 145;
	opFSINCOS = 146;
	opFSQRT = 147;
	opFST = 148;
	opFSTP = 149;
	opFSUB = 150;
	opFSUBP = 151;
	opFSUBR = 152;
	opFSUBRP = 153;
	opFTST = 154;
	opFUCOM = 155;
	opFUCOMI = 156;
	opFUCOMIP = 157;
	opFUCOMP = 158;
	opFUCOMPP = 159;
	opFWAIT = 160;
	opFXAM = 161;
	opFXCH = 162;
	opFXRSTOR = 163;
	opFXSAVE = 164;
	opFXTRACT = 165;
	opFYL2X = 166;
	opFYL2XP1 = 167;
	opHADDPD = 168;
	opHADDPS = 169;
	opHLT = 170;
	opHSUBPD = 171;
	opHSUBPS = 172;
	opIDIV = 173;
	opIMUL = 174;
	opIN = 175;
	opINC = 176;
	opINSB = 177;
	opINSD = 178;
	opINSW = 179;
	opINT = 180;
	opINVD = 181;
	opINVLPG = 182;
	opINVLPGA = 183;
	opIRET = 184;
	opIRETD = 185;
	opIRETQ = 186;
	opJA = 187;
	opJB = 188;
	opJBE = 189;
	opJCXZ = 190;
	opJE = 191;
	opJECXZ = 192;
	opJG = 193;
	opJGE = 194;
	opJL = 195;
	opJLE = 196;
	opJMP = 197;
	opJNB = 198;
	opJNBE = 199;
	opJNE = 200;
	opJNO = 201;
	opJNP = 202;
	opJO = 203;
	opJP = 204;
	opJRCXZ = 205;
	opJS = 206;
	opLAHF = 207;
	opLAR = 208;
	opLDDQU = 209;
	opLDMXCSR = 210;
	opLEA = 211;
	opLEAVE = 212;
	opLFENCE = 213;
	opLFS = 214;
	opLGDT = 215;
	opLGS = 216;
	opLIDT = 217;
	opLLDT = 218;
	opLMSW = 219;
	opLODSB = 220;
	opLODSD = 221;
	opLODSQ = 222;
	opLODSW = 223;
	opLOOP = 224;
	opLOOPE = 225;
	opLOOPNE = 226;
	opLSL = 227;
	opLSS = 228;
	opLTR = 229;
	opMASKMOVDQU = 230;
	opMASKMOVQ = 231;
	opMAXPD = 232;
	opMAXPS = 233;
	opMAXSD = 234;
	opMAXSS = 235;
	opMFENCE = 236;
	opMINPD = 237;
	opMINPS = 238;
	opMINSD = 239;
	opMINSS = 240;
	opMOV = 241;
	opMOVA = 242;
	opMOVAPD = 243;
	opMOVAPS = 244;
	opMOVB = 245;
	opMOVBE = 246;
	opMOVD = 247;
	opMOVDDUP = 248;
	opMOVDQ2Q = 249;
	opMOVDQA = 250;
	opMOVDQU = 251;
	opMOVE = 252;
	opMOVG = 253;
	opMOVGE = 254;
	opMOVHLPS = 255;
	opMOVHPD = 256;
	opMOVHPS = 257;
	opMOVL = 258;
	opMOVLE = 259;
	opMOVLHPS = 260;
	opMOVLPD = 261;
	opMOVLPS = 262;
	opMOVMSKPD = 263;
	opMOVMSKPS = 264;
	opMOVNB = 265;
	opMOVNBE = 266;
	opMOVNE = 267;
	opMOVNO = 268;
	opMOVNP = 269;
	opMOVNTDQ = 270;
	opMOVNTI = 271;
	opMOVNTPD = 272;
	opMOVNTPS = 273;
	opMOVNTQ = 274;
	opMOVO = 275;
	opMOVP = 276;
	opMOVQ = 277;
	opMOVQ2DQ = 278;
	opMOVS = 279;
	opMOVSB = 280;
	opMOVSD = 281;
	opMOVSHDUP = 282;
	opMOVSLDUP = 283;
	opMOVSQ = 284;
	opMOVSS = 285;
	opMOVSW = 286;
	opMOVSX = 287;
	opMOVSXD = 288;
	opMOVUPD = 289;
	opMOVUPS = 290;
	opMOVZX = 291;
	opMUL = 292;
	opMULPD = 293;
	opMULPS = 294;
	opMULSD = 295;
	opMULSS = 296;
	opNEG = 297;
	opNOP = 298;
	opNOT = 299;
	opOR = 300;
	opORPD = 301;
	opORPS = 302;
	opOUT = 303;
	opOUTSB = 304;
	opOUTSD = 305;
	opOUTSW = 306;
	opPACKSSDW = 307;
	opPACKSSWB = 308;
	opPACKUSWB = 309;
	opPADDB = 310;
	opPADDD = 311;
	opPADDQ = 312;
	opPADDSB = 313;
	opPADDSW = 314;
	opPADDUSB = 315;
	opPADDUSW = 316;
	opPADDW = 317;
	opPAND = 318;
	opPANDN = 319;
	opPAUSE = 320;
	opPAVGB = 321;
	opPAVGUSB = 322;
	opPAVGW = 323;
	opPCMPEQB = 324;
	opPCMPEQD = 325;
	opPCMPEQW = 326;
	opPCMPGTB = 327;
	opPCMPGTD = 328;
	opPCMPGTW = 329;
	opPEXTRW = 330;
	opPF2ID = 331;
	opPF2IW = 332;
	opPFACC = 333;
	opPFADD = 334;
	opPFCMPEQ = 335;
	opPFCMPGE = 336;
	opPFCMPGT = 337;
	opPFMAX = 338;
	opPFMIN = 339;
	opPFMUL = 340;
	opPFNACC = 341;
	opPFPNACC = 342;
	opPFRCP = 343;
	opPFRCPIT1 = 344;
	opPFRSQIT1 = 345;
	opPFRSQRT = 346;
	opPFSUB = 347;
	opPFSUBR = 348;
	opPI2FD = 349;
	opPI2FW = 350;
	opPINSRW = 351;
	opPMADDWD = 352;
	opPMAXSW = 353;
	opPMAXUB = 354;
	opPMINSW = 355;
	opPMINUB = 356;
	opPMOVMSKB = 357;
	opPMULHRW = 358;
	opPMULHUW = 359;
	opPMULHW = 360;
	opPMULLW = 361;
	opPMULUDQ = 362;
	opPOP = 363;
	opPOPF = 364;
	opPOPFD = 365;
	opPOPFQ = 366;
	opPOR = 367;
	opPREFETCH = 368;
	opPREFETCHNTA = 369;
	opPREFETCHT0 = 370;
	opPREFETCHT1 = 371;
	opPREFETCHT2 = 372;
	opPREFETCHW = 373;
	opPSADBW = 374;
	opPSHUFD = 375;
	opPSHUFHW = 376;
	opPSHUFLW = 377;
	opPSHUFW = 378;
	opPSLLD = 379;
	opPSLLDQ = 380;
	opPSLLQ = 381;
	opPSLLW = 382;
	opPSRAD = 383;
	opPSRAW = 384;
	opPSRLD = 385;
	opPSRLDQ = 386;
	opPSRLQ = 387;
	opPSRLW = 388;
	opPSUBB = 389;
	opPSUBD = 390;
	opPSUBQ = 391;
	opPSUBSB = 392;
	opPSUBSW = 393;
	opPSUBUSB = 394;
	opPSUBUSW = 395;
	opPSUBW = 396;
	opPSWAPD = 397;
	opPUNPCKHBW = 398;
	opPUNPCKHDQ = 399;
	opPUNPCKHQDQ = 400;
	opPUNPCKHWD = 401;
	opPUNPCKLBW = 402;
	opPUNPCKLDQ = 403;
	opPUNPCKLQDQ = 404;
	opPUNPCKLWD = 405;
	opPUSH = 406;
	opPUSHF = 407;
	opPUSHFD = 408;
	opPUSHFQ = 409;
	opPXOR = 410;
	opRCL = 411;
	opRCPPS = 412;
	opRCPSS = 413;
	opRCR = 414;
	opRDMSR = 415;
	opRDPMC = 416;
	opRDTSC = 417;
	opRDTSCP = 418;
	opRET = 419;
	opROL = 420;
	opROR = 421;
	opRSM = 422;
	opRSQRTPS = 423;
	opRSQRTSS = 424;
	opSAHF = 425;
	opSAR = 426;
	opSBB = 427;
	opSCASB = 428;
	opSCASD = 429;
	opSCASQ = 430;
	opSCASW = 431;
	opSETA = 432;
	opSETB = 433;
	opSETBE = 434;
	opSETE = 435;
	opSETG = 436;
	opSETGE = 437;
	opSETL = 438;
	opSETLE = 439;
	opSETNB = 440;
	opSETNBE = 441;
	opSETNE = 442;
	opSETNO = 443;
	opSETNP = 444;
	opSETO = 445;
	opSETP = 446;
	opSETS = 447;
	opSFENCE = 448;
	opSGDT = 449;
	opSHL = 450;
	opSHLD = 451;
	opSHR = 452;
	opSHRD = 453;
	opSHUFPD = 454;
	opSHUFPS = 455;
	opSIDT = 456;
	opSKINIT = 457;
	opSLDT = 458;
	opSMSW = 459;
	opSQRTPD = 460;
	opSQRTPS = 461;
	opSQRTSD = 462;
	opSQRTSS = 463;
	opSTC = 464;
	opSTD = 465;
	opSTGI = 466;
	opSTI = 467;
	opSTMXCSR = 468;
	opSTOSB = 469;
	opSTOSD = 470;
	opSTOSQ = 471;
	opSTOSW = 472;
	opSTR = 473;
	opSUB = 474;
	opSUBPD = 475;
	opSUBPS = 476;
	opSUBSD = 477;
	opSUBSS = 478;
	opSWAPGS = 479;
	opSYSCALL = 480;
	opSYSRET = 481;
	opTEST = 482;
	opUCOMISD = 483;
	opUCOMISS = 484;
	opUD2 = 485;
	opUNPCKHPD = 486;
	opUNPCKHPS = 487;
	opUNPCKLPD = 488;
	opUNPCKLPS = 489;
	opVERR = 490;
	opVERW = 491;
	opVMLOAD = 492;
	opVMMCALL = 493;
	opVMRUN = 494;
	opVMSAVE = 495;
	opWBINVD = 496;
	opWRMSR = 497;
	opXADD = 498;
	opXCHG = 499;
	opXLAT = 500;
	opXOR = 501;
	opXORPD = 502;
	opXORPS = 503;

	(* GP registers offsets *)
	regNONE = 0;

	regrAX = 0;
	regrCX = 1;
	regrDX = 2;
	regrBX = 3;
	regrSP = 4;
	regrBP = 5;
	regrSI = 6;
	regrDI = 7;
	regr8 = 8;
	regr9 = 9;
	regr10 = 10;
	regr11 = 11;
	regr12 = 12;
	regr13 = 13;
	regr14 = 14;
	regr15 = 15;

	(* 8bit GP registers *)
	regAL = 1;
	regCL = 2;
	regDL = 3;
	regBL = 4;
	regAH = 5; (* addressable only without REX prefix *)
	regCH = 6; (* addressable only without REX prefix *)
	regDH = 7; (* addressable only without REX prefix *)
	regBH = 8; (* addressable only without REX prefix *)
	regR8B = 9;
	regR9B = 10;
	regR10B = 11;
	regR11B = 12;
	regR12B = 13;
	regR13B = 14;
	regR14B = 15;
	regR15B = 16;
	regSPL = 17; (* addressable only with REX prefix *)
	regBPL = 18; (* addressable only with REX prefix *)
	regSIL = 19; (* addressable only with REX prefix *)
	regDIL = 20; (* addressable only with REX prefix *)

	(* 16bit GP registers *)
	regAX = 21;
	regCX = 22;
	regDX = 23;
	regBX = 24;
	regSP = 25;
	regBP = 26;
	regSI = 27;
	regDI = 28;
	regR8W = 29;
	regR9W = 30;
	regR10W = 31;
	regR11W = 32;
	regR12W = 33;
	regR13W = 34;
	regR14W = 35;
	regR15W = 36;

	(* 32bit GP registers *)
	regEAX = 37;
	regECX = 38;
	regEDX = 39;
	regEBX = 40;
	regESP = 41;
	regEBP = 42;
	regESI = 43;
	regEDI = 44;
	regR8D = 45;
	regR9D = 46;
	regR10D = 47;
	regR11D = 48;
	regR12D = 49;
	regR13D = 50;
	regR14D = 51;
	regR15D = 52;

	(* 64bit GP registers *)
	regRAX = 53;
	regRCX = 54;
	regRDX = 55;
	regRBX = 56;
	regRSP = 57;
	regRBP = 58;
	regRSI = 59;
	regRDI = 60;
	regR8 = 61;
	regR9 = 62;
	regR10 = 63;
	regR11 = 64;
	regR12 = 65;
	regR13 = 66;
	regR14 = 67;
	regR15 = 68;

	(* segment registers *)
	regES = 69;
	regCS = 70;
	regSS = 71;
	regDS = 72;
	regFS = 73;
	regGS = 74;

	(* floating point stack registers *)
	regST0 = 75;
	regST1 = 76;
	regST2 = 77;
	regST3 = 78;
	regST4 = 79;
	regST5 = 80;
	regST6 = 81;
	regST7 = 82;

	(* control registers *)
	regCR0 = 83;
	regCR1 = 84;
	regCR2 = 85;
	regCR3 = 86;
	regCR4 = 87;
	regCR5 = 88;
	regCR6 = 89;
	regCR7 = 90;
	regCR8 = 91;
	regCR9 = 92;
	regCR10 = 93;
	regCR11 = 94;
	regCR12 = 95;
	regCR13 = 96;
	regCR14 = 97;
	regCR15 = 98;

	(* debug registers *)
	regDR0 = 99;
	regDR1 = 100;
	regDR2 = 101;
	regDR3 = 102;
	regDR4 = 103;
	regDR5 = 104;
	regDR6 = 105;
	regDR7 = 106;
	regDR8 = 107;
	regDR9 = 108;
	regDR10 = 109;
	regDR11 = 110;
	regDR12 = 111;
	regDR13 = 112;
	regDR14 = 113;
	regDR15 = 114;

	(* xmm registers *)
	regXMM0 = 115;
	regXMM1 = 116;
	regXMM2 = 117;
	regXMM3 = 118;
	regXMM4 = 119;
	regXMM5 = 120;
	regXMM6 = 121;
	regXMM7 = 122;
	regXMM8 = 123;
	regXMM9 = 124;
	regXMM10 = 125;
	regXMM11 = 126;
	regXMM12 = 127;
	regXMM13 = 128;
	regXMM14 = 129;
	regXMM15 = 130;

	(* mmx registers *)
	regMMX0 = 131;
	regMMX1 = 132;
	regMMX2 = 133;
	regMMX3 = 134;
	regMMX4 = 135;
	regMMX5 = 136;
	regMMX6 = 137;
	regMMX7 = 138;

	regIP = 139;
	regRIP = 140;

тип

	(* generic argument *)
	Arg = окласс

		проц Print (w : Потоки.Писарь);
		кон Print;

	кон Arg;

	(* Immediate argument *)
	ArgImm = окласс (Arg)
		перем
			imm : цел64;

		проц &New *(imm : цел64);
		нач сам.imm := imm;
		кон New;

		проц {перекрыта}Print (w : Потоки.Писарь);
		нач PrintImm (imm, w);
		кон Print;

	кон ArgImm;

	(* register argument *)
	ArgReg = окласс (Arg)
		перем
			reg : цел32;

		проц &New *(reg : цел32);
		нач сам.reg := reg;
		кон New;

		проц {перекрыта}Print (w : Потоки.Писарь);
		нач PrintReg (w, reg);
		кон Print;

	кон ArgReg;

	(* memory reference argument *)
	ArgMem = окласс (Arg)
		перем
			segment, reg, scale, base: цел32; disp : цел64;

		проц &New *(segment, reg, scale , base: цел32; disp : цел64);
		нач
			сам.segment := segment;
			сам.reg := reg;
			сам.scale := scale;
			сам.base := base;
			сам.disp := disp;
		кон New;

		проц {перекрыта}Print (w : Потоки.Писарь);
		нач
			если segment # regNONE то
				PrintReg (w, segment); w.пСтроку8 (":")
			всё;

			w.пСтроку8 ("[");

			если reg # regNONE то
				PrintReg (w, reg);
				если scale > 1 то w.пСтроку8 ("*"); w.пЦел64 (scale, 0) всё;
			всё;

			если base = regNONE то
				если (reg = regNONE) то
					PrintImm (disp, w);
				аесли disp > 0 то
					w.пСтроку8 (" + ");
					PrintImm (disp, w);
				аесли disp < 0 то
					w.пСтроку8 (" - ");
					PrintImm (-disp, w);
				всё
			иначе
				если (reg # regNONE) то
					w.пСтроку8 (" + ");
				всё;
				PrintReg (w, base);
				если disp > 0 то
					w.пСтроку8 (" + ");
					PrintImm (disp, w);
				аесли disp < 0 то
					w.пСтроку8 (" - ");
					PrintImm (-disp, w);
				всё
			всё;

			w.пСтроку8 ("]");
		кон Print;

	кон ArgMem;

	(* AMD64 instruction *)
	AMD64Opcode = окласс (Decoder.Opcode)
	перем
		prefixCount : цел32;
		prefixes : мнвоНаБитахМЗ;
		instr: цел32;
		arg : массив maxArgs из Arg;
		hidePrefixes: булево;

		проц &{перекрыта}New*(proc : Decoder.ProcedureInfo; stream : Потоки.Писарь);
		нач
			New^(proc, stream);
			prefixCount := 0;
			prefixes := {};
			hidePrefixes := ложь;
		кон New;

		проц {перекрыта}PrintOpcodeBytes*(w : Потоки.Писарь);
		перем
			i : размерМЗ;
		нач
			нцДля i := 0 до длинаМассива (code) - 1 делай
				WriteHex8 (кодСимв8 (code[i]), w);
				если i < prefixCount то
					w.пСтроку8 (" | ");
				иначе
					w.пСтроку8 (" ");
				всё
			кц
		кон PrintOpcodeBytes;

		проц {перекрыта}PrintInstruction*(w : Потоки.Писарь);
		нач
			если ~hidePrefixes то
				если prREP в prefixes то w.пСтроку8 ("REP ") всё;
				если prREPN в prefixes то w.пСтроку8 ("REPN ") всё;
			всё;

			если prLOCK в prefixes то w.пСтроку8 ("LOCK ") всё;

			просей instr из
			| opInvalid: w.пСтроку8 ("Invalid");
			| opReserved: w.пСтроку8 ("Reserved");
			| opADC: w.пСтроку8 ("ADC");
			| opADD: w.пСтроку8 ("ADD");
			| opADDPD: w.пСтроку8 ("ADDPD");
			| opADDPS: w.пСтроку8 ("ADDPS");
			| opADDSD: w.пСтроку8 ("ADDSD");
			| opADDSS: w.пСтроку8 ("ADDSS");
			| opADDSUBPD: w.пСтроку8 ("ADDSUBPD");
			| opADDSUBPS: w.пСтроку8 ("ADDSUBPS");
			| opAND: w.пСтроку8 ("AND");
			| opANDNPD: w.пСтроку8 ("ANDNPD");
			| opANDNPS: w.пСтроку8 ("ANDNPS");
			| opANDPD: w.пСтроку8 ("ANDPD");
			| opANDPS: w.пСтроку8 ("ANDPS");
			| opBSF: w.пСтроку8 ("BSF");
			| opBSR: w.пСтроку8 ("BSR");
			| opBSWAP: w.пСтроку8 ("BSWAP");
			| opBT: w.пСтроку8 ("BT");
			| opBTC: w.пСтроку8 ("BTC");
			| opBTR: w.пСтроку8 ("BTR");
			| opBTS: w.пСтроку8 ("BTS");
			| opCALL: w.пСтроку8 ("CALL");
			| opCBW: w.пСтроку8 ("CBW");
			| opCDQ: w.пСтроку8 ("CDQ");
			| opCDQE: w.пСтроку8 ("CDQE");
			| opCLC: w.пСтроку8 ("CLC");
			| opCLD: w.пСтроку8 ("CLD");
			| opCLGI: w.пСтроку8 ("CLGI");
			| opCLI: w.пСтроку8 ("CLI");
			| opCLTS: w.пСтроку8 ("CLTS");
			| opCMC: w.пСтроку8 ("CMC");
			| opCMP: w.пСтроку8 ("CMP");
			| opCMPPD: w.пСтроку8 ("CMPPD");
			| opCMPPS: w.пСтроку8 ("CMPPS");
			| opCMPSB: w.пСтроку8 ("CMPSB");
			| opCMPSD: w.пСтроку8 ("CMPSD");
			| opCMPSQ: w.пСтроку8 ("CMPSQ");
			| opCMPSS: w.пСтроку8 ("CMPSS");
			| opCMPSW: w.пСтроку8 ("CMPSW");
			| opCMPXCHG: w.пСтроку8 ("CMPXCHG");
			| opCMPXCHG16B: w.пСтроку8 ("CMPXCHG16B");
			| opCMPXCHG8B: w.пСтроку8 ("CMPXCHG8B");
			| opCOMISD: w.пСтроку8 ("COMISD");
			| opCOMISS: w.пСтроку8 ("COMISS");
			| opCPUID: w.пСтроку8 ("CPUID");
			| opCQO: w.пСтроку8 ("CQO");
			| opCVTDQ2PD: w.пСтроку8 ("CVTDQ2PD");
			| opCVTDQ2PS: w.пСтроку8 ("CVTDQ2PS");
			| opCVTPD2PI: w.пСтроку8 ("CVTPD2PI");
			| opCVTPD2PS: w.пСтроку8 ("CVTPD2PS");
			| opCVTPI2PD: w.пСтроку8 ("CVTPI2PD");
			| opCVTPI2PS: w.пСтроку8 ("CVTPI2PS");
			| opCVTPS2DQ: w.пСтроку8 ("CVTPS2DQ");
			| opCVTPS2PD: w.пСтроку8 ("CVTPS2PD");
			| opCVTPS2PI: w.пСтроку8 ("CVTPS2PI");
			| opCVTSD2SI: w.пСтроку8 ("CVTSD2SI");
			| opCVTSD2SS: w.пСтроку8 ("CVTSD2SS");
			| opCVTSI2SD: w.пСтроку8 ("CVTSI2SD");
			| opCVTSI2SS: w.пСтроку8 ("CVTSI2SS");
			| opCVTSS2SD: w.пСтроку8 ("CVTSS2SD");
			| opCVTSS2SI: w.пСтроку8 ("CVTSS2SI");
			| opCVTTPD2DQ: w.пСтроку8 ("CVTTPD2DQ");
			| opCVTTPD2PI: w.пСтроку8 ("CVTTPD2PI");
			| opCVTTPS2DQ: w.пСтроку8 ("CVTTPS2DQ");
			| opCVTTPS2PI: w.пСтроку8 ("CVTTPS2PI");
			| opCVTTSD2SI: w.пСтроку8 ("CVTTSD2SI");
			| opCVTTSS2SI: w.пСтроку8 ("CVTTSS2SI");
			| opCWD: w.пСтроку8 ("CWD");
			| opCWDE: w.пСтроку8 ("CWDE");
			| opDEC: w.пСтроку8 ("DEC");
			| opDIV: w.пСтроку8 ("DIV");
			| opDIVPD: w.пСтроку8 ("DIVPD");
			| opDIVPS: w.пСтроку8 ("DIVPS");
			| opDIVSD: w.пСтроку8 ("DIVSD");
			| opDIVSS: w.пСтроку8 ("DIVSS");
			| opEMMS: w.пСтроку8 ("EMMS");
			| opENTER: w.пСтроку8 ("ENTER");
			| opF2XM1: w.пСтроку8 ("F2XM1");
			| opFABS: w.пСтроку8 ("FABS");
			| opFADD: w.пСтроку8 ("FADD");
			| opFADDP: w.пСтроку8 ("FADDP");
			| opFBLD: w.пСтроку8 ("FBLD");
			| opFBSTP: w.пСтроку8 ("FBSTP");
			| opFCHS: w.пСтроку8 ("FCHS");
			| opFCMOVB: w.пСтроку8 ("FCMOVB");
			| opFCMOVBE: w.пСтроку8 ("FCMOVBE");
			| opFCMOVE: w.пСтроку8 ("FCMOVE");
			| opFCMOVNB: w.пСтроку8 ("FCMOVNB");
			| opFCMOVNBE: w.пСтроку8 ("FCMOVNBE");
			| opFCMOVNE: w.пСтроку8 ("FCMOVNE");
			| opFCMOVNU: w.пСтроку8 ("FCMOVNU");
			| opFCMOVU: w.пСтроку8 ("FCMOVU");
			| opFCOM: w.пСтроку8 ("FCOM");
			| opFCOMI: w.пСтроку8 ("FCOMI");
			| opFCOMIP: w.пСтроку8 ("FCOMIP");
			| opFCOMP: w.пСтроку8 ("FCOMP");
			| opFCOMPP: w.пСтроку8 ("FCOMPP");
			| opFCOS: w.пСтроку8 ("FCOS");
			| opFDECSTP: w.пСтроку8 ("FDECSTP");
			| opFDIV: w.пСтроку8 ("FDIV");
			| opFDIVP: w.пСтроку8 ("FDIVP");
			| opFDIVR: w.пСтроку8 ("FDIVR");
			| opFDIVRP: w.пСтроку8 ("FDIVRP");
			| opFEMMS: w.пСтроку8 ("FEMMS");
			| opFFREE: w.пСтроку8 ("FFREE");
			| opFIADD: w.пСтроку8 ("FIADD");
			| opFICOM: w.пСтроку8 ("FICOM");
			| opFICOMP: w.пСтроку8 ("FICOMP");
			| opFIDIV: w.пСтроку8 ("FIDIV");
			| opFIDIVR: w.пСтроку8 ("FIDIVR");
			| opFILD: w.пСтроку8 ("FILD");
			| opFIMUL: w.пСтроку8 ("FIMUL");
			| opFINCSTP: w.пСтроку8 ("FINCSTP");
			| opFIST: w.пСтроку8 ("FIST");
			| opFISTP: w.пСтроку8 ("FISTP");
			| opFISTTP: w.пСтроку8 ("FISTTP");
			| opFISUB: w.пСтроку8 ("FISUB");
			| opFISUBR: w.пСтроку8 ("FISUBR");
			| opFLD: w.пСтроку8 ("FLD");
			| opFLD1: w.пСтроку8 ("FLD1");
			| opFLDCW: w.пСтроку8 ("FLDCW");
			| opFLDENV: w.пСтроку8 ("FLDENV");
			| opFLDL2E: w.пСтроку8 ("FLDL2E");
			| opFLDL2T: w.пСтроку8 ("FLDL2T");
			| opFLDLG2: w.пСтроку8 ("FLDLG2");
			| opFLDLN2: w.пСтроку8 ("FLDLN2");
			| opFLDPI: w.пСтроку8 ("FLDPI");
			| opFLDZ: w.пСтроку8 ("FLDZ");
			| opFMUL: w.пСтроку8 ("FMUL");
			| opFMULP: w.пСтроку8 ("FMULP");
			| opFNCLEX: w.пСтроку8 ("FNCLEX");
			| opFNINIT: w.пСтроку8 ("FNINIT");
			| opFNOP: w.пСтроку8 ("FNOP");
			| opFNSAVE: w.пСтроку8 ("FNSAVE");
			| opFNSTCW: w.пСтроку8 ("FNSTCW");
			| opFNSTENV: w.пСтроку8 ("FNSTENV");
			| opFNSTSW: w.пСтроку8 ("FNSTSW");
			| opFPATAN: w.пСтроку8 ("FPATAN");
			| opFPREM: w.пСтроку8 ("FPREM");
			| opFPREM1: w.пСтроку8 ("FPREM1");
			| opFPTAN: w.пСтроку8 ("FPTAN");
			| opFRNDINT: w.пСтроку8 ("FRNDINT");
			| opFRSTOR: w.пСтроку8 ("FRSTOR");
			| opFSCALE: w.пСтроку8 ("FSCALE");
			| opFSIN: w.пСтроку8 ("FSIN");
			| opFSINCOS: w.пСтроку8 ("FSINCOS");
			| opFSQRT: w.пСтроку8 ("FSQRT");
			| opFST: w.пСтроку8 ("FST");
			| opFSTP: w.пСтроку8 ("FSTP");
			| opFSUB: w.пСтроку8 ("FSUB");
			| opFSUBP: w.пСтроку8 ("FSUBP");
			| opFSUBR: w.пСтроку8 ("FSUBR");
			| opFSUBRP: w.пСтроку8 ("FSUBRP");
			| opFTST: w.пСтроку8 ("FTST");
			| opFUCOM: w.пСтроку8 ("FUCOM");
			| opFUCOMI: w.пСтроку8 ("FUCOMI");
			| opFUCOMIP: w.пСтроку8 ("FUCOMIP");
			| opFUCOMP: w.пСтроку8 ("FUCOMP");
			| opFUCOMPP: w.пСтроку8 ("FUCOMPP");
			| opFWAIT: w.пСтроку8 ("FWAIT");
			| opFXAM: w.пСтроку8 ("FXAM");
			| opFXCH: w.пСтроку8 ("FXCH");
			| opFXRSTOR: w.пСтроку8 ("FXRSTOR");
			| opFXSAVE: w.пСтроку8 ("FXSAVE");
			| opFXTRACT: w.пСтроку8 ("FXTRACT");
			| opFYL2X: w.пСтроку8 ("FYL2X");
			| opFYL2XP1: w.пСтроку8 ("FYL2XP1");
			| opHADDPD: w.пСтроку8 ("HADDPD");
			| opHADDPS: w.пСтроку8 ("HADDPS");
			| opHLT: w.пСтроку8 ("HLT");
			| opHSUBPD: w.пСтроку8 ("HSUBPD");
			| opHSUBPS: w.пСтроку8 ("HSUBPS");
			| opIDIV: w.пСтроку8 ("IDIV");
			| opIMUL: w.пСтроку8 ("IMUL");
			| opIN: w.пСтроку8 ("IN");
			| opINC: w.пСтроку8 ("INC");
			| opINSB: w.пСтроку8 ("INSB");
			| opINSD: w.пСтроку8 ("INSD");
			| opINSW: w.пСтроку8 ("INSW");
			| opINT: w.пСтроку8 ("INT");
			| opINVD: w.пСтроку8 ("INVD");
			| opINVLPG: w.пСтроку8 ("INVLPG");
			| opINVLPGA: w.пСтроку8 ("INVLPGA");
			| opIRET: w.пСтроку8 ("IRET");
			| opIRETD: w.пСтроку8 ("IRETD");
			| opIRETQ: w.пСтроку8 ("IRETQ");
			| opJA: w.пСтроку8 ("JA");
			| opJB: w.пСтроку8 ("JB");
			| opJBE: w.пСтроку8 ("JBE");
			| opJCXZ: w.пСтроку8 ("JCXZ");
			| opJE: w.пСтроку8 ("JE");
			| opJECXZ: w.пСтроку8 ("JECXZ");
			| opJG: w.пСтроку8 ("JG");
			| opJGE: w.пСтроку8 ("JGE");
			| opJL: w.пСтроку8 ("JL");
			| opJLE: w.пСтроку8 ("JLE");
			| opJMP: w.пСтроку8 ("JMP");
			| opJNB: w.пСтроку8 ("JNB");
			| opJNBE: w.пСтроку8 ("JNBE");
			| opJNE: w.пСтроку8 ("JNE");
			| opJNO: w.пСтроку8 ("JNO");
			| opJNP: w.пСтроку8 ("JNP");
			| opJO: w.пСтроку8 ("JO");
			| opJP: w.пСтроку8 ("JP");
			| opJRCXZ: w.пСтроку8 ("JRCXZ");
			| opJS: w.пСтроку8 ("JS");
			| opLAHF: w.пСтроку8 ("LAHF");
			| opLAR: w.пСтроку8 ("LAR");
			| opLDDQU: w.пСтроку8 ("LDDQU");
			| opLDMXCSR: w.пСтроку8 ("LDMXCSR");
			| opLEA: w.пСтроку8 ("LEA");
			| opLEAVE: w.пСтроку8 ("LEAVE");
			| opLFENCE: w.пСтроку8 ("LFENCE");
			| opLFS: w.пСтроку8 ("LFS");
			| opLGDT: w.пСтроку8 ("LGDT");
			| opLGS: w.пСтроку8 ("LGS");
			| opLIDT: w.пСтроку8 ("LIDT");
			| opLLDT: w.пСтроку8 ("LLDT");
			| opLMSW: w.пСтроку8 ("LMSW");
			| opLODSB: w.пСтроку8 ("LODSB");
			| opLODSD: w.пСтроку8 ("LODSD");
			| opLODSQ: w.пСтроку8 ("LODSQ");
			| opLODSW: w.пСтроку8 ("LODSW");
			| opLOOP: w.пСтроку8 ("LOOP");
			| opLOOPE: w.пСтроку8 ("LOOPE");
			| opLOOPNE: w.пСтроку8 ("LOOPNE");
			| opLSL: w.пСтроку8 ("LSL");
			| opLSS: w.пСтроку8 ("LSS");
			| opLTR: w.пСтроку8 ("LTR");
			| opMASKMOVDQU: w.пСтроку8 ("MASKMOVDQU");
			| opMASKMOVQ: w.пСтроку8 ("MASKMOVQ");
			| opMAXPD: w.пСтроку8 ("MAXPD");
			| opMAXPS: w.пСтроку8 ("MAXPS");
			| opMAXSD: w.пСтроку8 ("MAXSD");
			| opMAXSS: w.пСтроку8 ("MAXSS");
			| opMFENCE: w.пСтроку8 ("MFENCE");
			| opMINPD: w.пСтроку8 ("MINPD");
			| opMINPS: w.пСтроку8 ("MINPS");
			| opMINSD: w.пСтроку8 ("MINSD");
			| opMINSS: w.пСтроку8 ("MINSS");
			| opMOV: w.пСтроку8 ("MOV");
			| opMOVA: w.пСтроку8 ("MOVA");
			| opMOVAPD: w.пСтроку8 ("MOVAPD");
			| opMOVAPS: w.пСтроку8 ("MOVAPS");
			| opMOVB: w.пСтроку8 ("MOVB");
			| opMOVBE: w.пСтроку8 ("MOVBE");
			| opMOVD: w.пСтроку8 ("MOVD");
			| opMOVDDUP: w.пСтроку8 ("MOVDDUP");
			| opMOVDQ2Q: w.пСтроку8 ("MOVDQ2Q");
			| opMOVDQA: w.пСтроку8 ("MOVDQA");
			| opMOVDQU: w.пСтроку8 ("MOVDQU");
			| opMOVE: w.пСтроку8 ("MOVE");
			| opMOVG: w.пСтроку8 ("MOVG");
			| opMOVGE: w.пСтроку8 ("MOVGE");
			| opMOVHLPS: w.пСтроку8 ("MOVHLPS");
			| opMOVHPD: w.пСтроку8 ("MOVHPD");
			| opMOVHPS: w.пСтроку8 ("MOVHPS");
			| opMOVL: w.пСтроку8 ("MOVL");
			| opMOVLE: w.пСтроку8 ("MOVLE");
			| opMOVLHPS: w.пСтроку8 ("MOVLHPS");
			| opMOVLPD: w.пСтроку8 ("MOVLPD");
			| opMOVLPS: w.пСтроку8 ("MOVLPS");
			| opMOVMSKPD: w.пСтроку8 ("MOVMSKPD");
			| opMOVMSKPS: w.пСтроку8 ("MOVMSKPS");
			| opMOVNB: w.пСтроку8 ("MOVNB");
			| opMOVNBE: w.пСтроку8 ("MOVNBE");
			| opMOVNE: w.пСтроку8 ("MOVNE");
			| opMOVNO: w.пСтроку8 ("MOVNO");
			| opMOVNP: w.пСтроку8 ("MOVNP");
			| opMOVNTDQ: w.пСтроку8 ("MOVNTDQ");
			| opMOVNTI: w.пСтроку8 ("MOVNTI");
			| opMOVNTPD: w.пСтроку8 ("MOVNTPD");
			| opMOVNTPS: w.пСтроку8 ("MOVNTPS");
			| opMOVNTQ: w.пСтроку8 ("MOVNTQ");
			| opMOVO: w.пСтроку8 ("MOVO");
			| opMOVP: w.пСтроку8 ("MOVP");
			| opMOVQ: w.пСтроку8 ("MOVQ");
			| opMOVQ2DQ: w.пСтроку8 ("MOVQ2DQ");
			| opMOVS: w.пСтроку8 ("MOVS");
			| opMOVSB: w.пСтроку8 ("MOVSB");
			| opMOVSD: w.пСтроку8 ("MOVSD");
			| opMOVSHDUP: w.пСтроку8 ("MOVSHDUP");
			| opMOVSLDUP: w.пСтроку8 ("MOVSLDUP");
			| opMOVSQ: w.пСтроку8 ("MOVSQ");
			| opMOVSS: w.пСтроку8 ("MOVSS");
			| opMOVSW: w.пСтроку8 ("MOVSW");
			| opMOVSX: w.пСтроку8 ("MOVSX");
			| opMOVSXD: w.пСтроку8 ("MOVSXD");
			| opMOVUPD: w.пСтроку8 ("MOVUPD");
			| opMOVUPS: w.пСтроку8 ("MOVUPS");
			| opMOVZX: w.пСтроку8 ("MOVZX");
			| opMUL: w.пСтроку8 ("MUL");
			| opMULPD: w.пСтроку8 ("MULPD");
			| opMULPS: w.пСтроку8 ("MULPS");
			| opMULSD: w.пСтроку8 ("MULSD");
			| opMULSS: w.пСтроку8 ("MULSS");
			| opNEG: w.пСтроку8 ("NEG");
			| opNOP: w.пСтроку8 ("NOP");
			| opNOT: w.пСтроку8 ("NOT");
			| opOR: w.пСтроку8 ("OR");
			| opORPD: w.пСтроку8 ("ORPD");
			| opORPS: w.пСтроку8 ("ORPS");
			| opOUT: w.пСтроку8 ("OUT");
			| opOUTSB: w.пСтроку8 ("OUTSB");
			| opOUTSD: w.пСтроку8 ("OUTSD");
			| opOUTSW: w.пСтроку8 ("OUTSW");
			| opPACKSSDW: w.пСтроку8 ("PACKSSDW");
			| opPACKSSWB: w.пСтроку8 ("PACKSSWB");
			| opPACKUSWB: w.пСтроку8 ("PACKUSWB");
			| opPADDB: w.пСтроку8 ("PADDB");
			| opPADDD: w.пСтроку8 ("PADDD");
			| opPADDQ: w.пСтроку8 ("PADDQ");
			| opPADDSB: w.пСтроку8 ("PADDSB");
			| opPADDSW: w.пСтроку8 ("PADDSW");
			| opPADDUSB: w.пСтроку8 ("PADDUSB");
			| opPADDUSW: w.пСтроку8 ("PADDUSW");
			| opPADDW: w.пСтроку8 ("PADDW");
			| opPAND: w.пСтроку8 ("PAND");
			| opPANDN: w.пСтроку8 ("PANDN");
			| opPAUSE: w.пСтроку8 ("PAUSE");
			| opPAVGB: w.пСтроку8 ("PAVGB");
			| opPAVGUSB: w.пСтроку8 ("PAVGUSB");
			| opPAVGW: w.пСтроку8 ("PAVGW");
			| opPCMPEQB: w.пСтроку8 ("PCMPEQB");
			| opPCMPEQD: w.пСтроку8 ("PCMPEQD");
			| opPCMPEQW: w.пСтроку8 ("PCMPEQW");
			| opPCMPGTB: w.пСтроку8 ("PCMPGTB");
			| opPCMPGTD: w.пСтроку8 ("PCMPGTD");
			| opPCMPGTW: w.пСтроку8 ("PCMPGTW");
			| opPEXTRW: w.пСтроку8 ("PEXTRW");
			| opPF2ID: w.пСтроку8 ("PF2ID");
			| opPF2IW: w.пСтроку8 ("PF2IW");
			| opPFACC: w.пСтроку8 ("PFACC");
			| opPFADD: w.пСтроку8 ("PFADD");
			| opPFCMPEQ: w.пСтроку8 ("PFCMPEQ");
			| opPFCMPGE: w.пСтроку8 ("PFCMPGE");
			| opPFCMPGT: w.пСтроку8 ("PFCMPGT");
			| opPFMAX: w.пСтроку8 ("PFMAX");
			| opPFMIN: w.пСтроку8 ("PFMIN");
			| opPFMUL: w.пСтроку8 ("PFMUL");
			| opPFNACC: w.пСтроку8 ("PFNACC");
			| opPFPNACC: w.пСтроку8 ("PFPNACC");
			| opPFRCP: w.пСтроку8 ("PFRCP");
			| opPFRCPIT1: w.пСтроку8 ("PFRCPIT1");
			| opPFRSQIT1: w.пСтроку8 ("PFRSQIT1");
			| opPFRSQRT: w.пСтроку8 ("PFRSQRT");
			| opPFSUB: w.пСтроку8 ("PFSUB");
			| opPFSUBR: w.пСтроку8 ("PFSUBR");
			| opPI2FD: w.пСтроку8 ("PI2FD");
			| opPI2FW: w.пСтроку8 ("PI2FW");
			| opPINSRW: w.пСтроку8 ("PINSRW");
			| opPMADDWD: w.пСтроку8 ("PMADDWD");
			| opPMAXSW: w.пСтроку8 ("PMAXSW");
			| opPMAXUB: w.пСтроку8 ("PMAXUB");
			| opPMINSW: w.пСтроку8 ("PMINSW");
			| opPMINUB: w.пСтроку8 ("PMINUB");
			| opPMOVMSKB: w.пСтроку8 ("PMOVMSKB");
			| opPMULHRW: w.пСтроку8 ("PMULHRW");
			| opPMULHUW: w.пСтроку8 ("PMULHUW");
			| opPMULHW: w.пСтроку8 ("PMULHW");
			| opPMULLW: w.пСтроку8 ("PMULLW");
			| opPMULUDQ: w.пСтроку8 ("PMULUDQ");
			| opPOP: w.пСтроку8 ("POP");
			| opPOPF: w.пСтроку8 ("POPF");
			| opPOPFD: w.пСтроку8 ("POPFD");
			| opPOPFQ: w.пСтроку8 ("POPFQ");
			| opPOR: w.пСтроку8 ("POR");
			| opPREFETCH: w.пСтроку8 ("PREFETCH");
			| opPREFETCHNTA: w.пСтроку8 ("PREFETCHNTA");
			| opPREFETCHT0: w.пСтроку8 ("PREFETCHT0");
			| opPREFETCHT1: w.пСтроку8 ("PREFETCHT1");
			| opPREFETCHT2: w.пСтроку8 ("PREFETCHT2");
			| opPREFETCHW: w.пСтроку8 ("PREFETCHW");
			| opPSADBW: w.пСтроку8 ("PSADBW");
			| opPSHUFD: w.пСтроку8 ("PSHUFD");
			| opPSHUFHW: w.пСтроку8 ("PSHUFHW");
			| opPSHUFLW: w.пСтроку8 ("PSHUFLW");
			| opPSHUFW: w.пСтроку8 ("PSHUFW");
			| opPSLLD: w.пСтроку8 ("PSLLD");
			| opPSLLDQ: w.пСтроку8 ("PSLLDQ");
			| opPSLLQ: w.пСтроку8 ("PSLLQ");
			| opPSLLW: w.пСтроку8 ("PSLLW");
			| opPSRAD: w.пСтроку8 ("PSRAD");
			| opPSRAW: w.пСтроку8 ("PSRAW");
			| opPSRLD: w.пСтроку8 ("PSRLD");
			| opPSRLDQ: w.пСтроку8 ("PSRLDQ");
			| opPSRLQ: w.пСтроку8 ("PSRLQ");
			| opPSRLW: w.пСтроку8 ("PSRLW");
			| opPSUBB: w.пСтроку8 ("PSUBB");
			| opPSUBD: w.пСтроку8 ("PSUBD");
			| opPSUBQ: w.пСтроку8 ("PSUBQ");
			| opPSUBSB: w.пСтроку8 ("PSUBSB");
			| opPSUBSW: w.пСтроку8 ("PSUBSW");
			| opPSUBUSB: w.пСтроку8 ("PSUBUSB");
			| opPSUBUSW: w.пСтроку8 ("PSUBUSW");
			| opPSUBW: w.пСтроку8 ("PSUBW");
			| opPSWAPD: w.пСтроку8 ("PSWAPD");
			| opPUNPCKHBW: w.пСтроку8 ("PUNPCKHBW");
			| opPUNPCKHDQ: w.пСтроку8 ("PUNPCKHDQ");
			| opPUNPCKHQDQ: w.пСтроку8 ("PUNPCKHQDQ");
			| opPUNPCKHWD: w.пСтроку8 ("PUNPCKHWD");
			| opPUNPCKLBW: w.пСтроку8 ("PUNPCKLBW");
			| opPUNPCKLDQ: w.пСтроку8 ("PUNPCKLDQ");
			| opPUNPCKLQDQ: w.пСтроку8 ("PUNPCKLQDQ");
			| opPUNPCKLWD: w.пСтроку8 ("PUNPCKLWD");
			| opPUSH: w.пСтроку8 ("PUSH");
			| opPUSHF: w.пСтроку8 ("PUSHF");
			| opPUSHFD: w.пСтроку8 ("PUSHFD");
			| opPUSHFQ: w.пСтроку8 ("PUSHFQ");
			| opPXOR: w.пСтроку8 ("PXOR");
			| opRCL: w.пСтроку8 ("RCL");
			| opRCPPS: w.пСтроку8 ("RCPPS");
			| opRCPSS: w.пСтроку8 ("RCPSS");
			| opRCR: w.пСтроку8 ("RCR");
			| opRDMSR: w.пСтроку8 ("RDMSR");
			| opRDPMC: w.пСтроку8 ("RDPMC");
			| opRDTSC: w.пСтроку8 ("RDTSC");
			| opRDTSCP: w.пСтроку8 ("RDTSCP");
			| opRET: w.пСтроку8 ("RET");
			| opROL: w.пСтроку8 ("ROL");
			| opROR: w.пСтроку8 ("ROR");
			| opRSM: w.пСтроку8 ("RSM");
			| opRSQRTPS: w.пСтроку8 ("RSQRTPS");
			| opRSQRTSS: w.пСтроку8 ("RSQRTSS");
			| opSAHF: w.пСтроку8 ("SAHF");
			| opSAR: w.пСтроку8 ("SAR");
			| opSBB: w.пСтроку8 ("SBB");
			| opSCASB: w.пСтроку8 ("SCASB");
			| opSCASD: w.пСтроку8 ("SCASD");
			| opSCASQ: w.пСтроку8 ("SCASQ");
			| opSCASW: w.пСтроку8 ("SCASW");
			| opSETA: w.пСтроку8 ("SETA");
			| opSETB: w.пСтроку8 ("SETB");
			| opSETBE: w.пСтроку8 ("SETBE");
			| opSETE: w.пСтроку8 ("SETE");
			| opSETG: w.пСтроку8 ("SETG");
			| opSETGE: w.пСтроку8 ("SETGE");
			| opSETL: w.пСтроку8 ("SETL");
			| opSETLE: w.пСтроку8 ("SETLE");
			| opSETNB: w.пСтроку8 ("SETNB");
			| opSETNBE: w.пСтроку8 ("SETNBE");
			| opSETNE: w.пСтроку8 ("SETNE");
			| opSETNO: w.пСтроку8 ("SETNO");
			| opSETNP: w.пСтроку8 ("SETNP");
			| opSETO: w.пСтроку8 ("SETO");
			| opSETP: w.пСтроку8 ("SETP");
			| opSETS: w.пСтроку8 ("SETS");
			| opSFENCE: w.пСтроку8 ("SFENCE");
			| opSGDT: w.пСтроку8 ("SGDT");
			| opSHL: w.пСтроку8 ("SHL");
			| opSHLD: w.пСтроку8 ("SHLD");
			| opSHR: w.пСтроку8 ("SHR");
			| opSHRD: w.пСтроку8 ("SHRD");
			| opSHUFPD: w.пСтроку8 ("SHUFPD");
			| opSHUFPS: w.пСтроку8 ("SHUFPS");
			| opSIDT: w.пСтроку8 ("SIDT");
			| opSKINIT: w.пСтроку8 ("SKINIT");
			| opSLDT: w.пСтроку8 ("SLDT");
			| opSMSW: w.пСтроку8 ("SMSW");
			| opSQRTPD: w.пСтроку8 ("SQRTPD");
			| opSQRTPS: w.пСтроку8 ("SQRTPS");
			| opSQRTSD: w.пСтроку8 ("SQRTSD");
			| opSQRTSS: w.пСтроку8 ("SQRTSS");
			| opSTC: w.пСтроку8 ("STC");
			| opSTD: w.пСтроку8 ("STD");
			| opSTGI: w.пСтроку8 ("STGI");
			| opSTI: w.пСтроку8 ("STI");
			| opSTMXCSR: w.пСтроку8 ("STMXCSR");
			| opSTOSB: w.пСтроку8 ("STOSB");
			| opSTOSD: w.пСтроку8 ("STOSD");
			| opSTOSQ: w.пСтроку8 ("STOSQ");
			| opSTOSW: w.пСтроку8 ("STOSW");
			| opSTR: w.пСтроку8 ("STR");
			| opSUB: w.пСтроку8 ("SUB");
			| opSUBPD: w.пСтроку8 ("SUBPD");
			| opSUBPS: w.пСтроку8 ("SUBPS");
			| opSUBSD: w.пСтроку8 ("SUBSD");
			| opSUBSS: w.пСтроку8 ("SUBSS");
			| opSWAPGS: w.пСтроку8 ("SWAPGS");
			| opSYSCALL: w.пСтроку8 ("SYSCALL");
			| opSYSRET: w.пСтроку8 ("SYSRET");
			| opTEST: w.пСтроку8 ("TEST");
			| opUCOMISD: w.пСтроку8 ("UCOMISD");
			| opUCOMISS: w.пСтроку8 ("UCOMISS");
			| opUD2: w.пСтроку8 ("UD2");
			| opUNPCKHPD: w.пСтроку8 ("UNPCKHPD");
			| opUNPCKHPS: w.пСтроку8 ("UNPCKHPS");
			| opUNPCKLPD: w.пСтроку8 ("UNPCKLPD");
			| opUNPCKLPS: w.пСтроку8 ("UNPCKLPS");
			| opVERR: w.пСтроку8 ("VERR");
			| opVERW: w.пСтроку8 ("VERW");
			| opVMLOAD: w.пСтроку8 ("VMLOAD");
			| opVMMCALL: w.пСтроку8 ("VMMCALL");
			| opVMRUN: w.пСтроку8 ("VMRUN");
			| opVMSAVE: w.пСтроку8 ("VMSAVE");
			| opWBINVD: w.пСтроку8 ("WBINVD");
			| opWRMSR: w.пСтроку8 ("WRMSR");
			| opXADD: w.пСтроку8 ("XADD");
			| opXCHG: w.пСтроку8 ("XCHG");
			| opXLAT: w.пСтроку8 ("XLAT");
			| opXOR: w.пСтроку8 ("XOR");
			| opXORPD: w.пСтроку8 ("XORPD");
			| opXORPS: w.пСтроку8 ("XORPS");
			всё;
		кон PrintInstruction;

		проц {перекрыта}PrintArguments*(w : Потоки.Писарь);
		перем
			i: цел32;
		нач
			нцДля i := 0 до maxArgs - 1 делай
				если arg[i] # НУЛЬ то
					если i > 0 то w.пСтроку8 (", ") всё;
					arg[i].Print (w);
				всё
			кц
		кон PrintArguments;

		проц {перекрыта}PrintVariables*(w : Потоки.Писарь);
		перем
			i, count: цел32;
			argMem: ArgMem;
			field : Decoder.FieldInfo;

		нач
			(* actually copied from Decoder.... *)
			count := 0;
			нцДля i := 0 до maxArgs - 1 делай
				если (arg[i] # НУЛЬ) и (arg[i] суть ArgMem) то
					argMem := arg[i](ArgMem);
					если (argMem.reg = regRBP) или (argMem.reg = regEBP) то
						field := proc.GetFieldAtOffset(устарПреобразуйКБолееУзкомуЦел (argMem.disp));
						если field # НУЛЬ то
							field.AddMarkerPosition(w.МестоВПотоке());
							если count > 0 то
								w.пСтроку8(", ")
							всё;
							w.пСтроку8(field.name);
							w.пСтроку8(": ");
							argMem.Print (w);
							увел (count);
						всё
					всё
				всё
			кц
		кон PrintVariables;

	кон AMD64Opcode;

	(* AMD dissassembler*)
	AMD64Decoder = окласс (Decoder.Decoder)

		проц {перекрыта}NewOpcode*() : Decoder.Opcode;
		перем
			opcode : AMD64Opcode;
		нач
			нов(opcode, currentProc, outputStreamWriter);
			возврат opcode
		кон NewOpcode;

		проц {перекрыта}DecodeThis*(opcode : Decoder.Opcode);
		перем
			opc : AMD64Opcode;
			byte, code, arg, mod, segment, reg, rm, scale, index, base, disp: цел32;
			modRM : булево;

			проц ReadImm8 (): цел32;
			нач
				возврат кодСимв8 (ReadChar ());
			кон ReadImm8;

			проц ReadImm16 (): цел32;
			нач
				возврат ReadInt ();
			кон ReadImm16;

			проц ReadImm32 (): цел32;
			нач
				возврат ReadLInt ();
			кон ReadImm32;

			проц ReadImm64 (): цел64;
			нач
				возврат ReadHInt ();
			кон ReadImm64;

			проц ReadOffset8 (): цел32;
			перем
				offset: цел32;
			нач
				offset := кодСимв8 (ReadChar ());
				если offset >= 080H то умень (offset, 100H) всё;
				возврат offset;
			кон ReadOffset8;

			проц ReadOffset16 (): цел32;
			перем
				offset: цел32;
			нач
				offset := ReadInt ();
				если offset >= 08000H то умень (offset, 10000H) всё;
				возврат offset;
			кон ReadOffset16;

			проц ReadOffset32 (): цел32;
			нач
				возврат ReadLInt ();
			кон ReadOffset32;

			проц ReadOffset64 (): цел64;
			нач
				возврат ReadHInt ();
			кон ReadOffset64;

			проц ReadHInt (): цел64;
			перем
				value: цел64;
			нач
				НИЗКОУР.запишиОбъектПоАдресу (адресОт (value), ReadLInt ());
				НИЗКОУР.запишиОбъектПоАдресу (адресОт (value) + 4, ReadLInt ());
				возврат value;
			кон ReadHInt;

			проц Invalid;
			нач
				Instr (opInvalid);
				Bug (code, 0);
			кон Invalid;

			проц Reserved;
			нач
				Instr (opReserved);
			кон Reserved;

			проц DecodePrefixes;
			нач
				нц
					byte := кодСимв8 (ReadChar ());
					просей byte из
					| 066H: включиВоМнвоНаБитах (opc.prefixes, prOperand);
					| 067H: включиВоМнвоНаБитах (opc.prefixes, prAddress);
					| 02EH: включиВоМнвоНаБитах (opc.prefixes, prCS);
					| 03EH: включиВоМнвоНаБитах (opc.prefixes, prDS);
					| 026H: включиВоМнвоНаБитах (opc.prefixes, prES);
					| 064H: включиВоМнвоНаБитах (opc.prefixes, prFS);
					| 065H: включиВоМнвоНаБитах (opc.prefixes, prGS);
					| 036H: включиВоМнвоНаБитах (opc.prefixes, prSS);
					| 0F0H: включиВоМнвоНаБитах (opc.prefixes, prLOCK);
					| 0F3H: включиВоМнвоНаБитах (opc.prefixes, prREP);
					| 0F2H: включиВоМнвоНаБитах (opc.prefixes, prREPN);
					иначе
						если byte DIV 10H = 4H то (* REX prefixes start with 4H *)
							включиВоМнвоНаБитах (opc.prefixes, prREX);
							если byte DIV 8H остОтДеленияНа 2H # 0 то включиВоМнвоНаБитах (opc.prefixes, prREXW) всё;
							если byte DIV 4H остОтДеленияНа 2H # 0 то включиВоМнвоНаБитах (opc.prefixes, prREXR) всё;
							если byte DIV 2H остОтДеленияНа 2H # 0 то включиВоМнвоНаБитах (opc.prefixes, prREXX) всё;
							если byte остОтДеленияНа 2H # 0 то включиВоМнвоНаБитах (opc.prefixes, prREXB) всё;
							byte := кодСимв8 (ReadChar ());
							увел (opc.prefixCount);
						всё;
						возврат;
					всё;
					увел (opc.prefixCount);
				кц;
			кон DecodePrefixes;

			проц Prefix (prefix: цел32): булево;
			нач
				возврат prefix в opc.prefixes;
			кон Prefix;

			(* set the current opcode instruction *)
			проц Instr (instr : цел32);
			нач
				opc.instr := instr;
			кон Instr;

			(* set opcode instruction based on current operand size override *)
			проц InstrOp (instr16, instr32, instr64 : цел32);
			нач
				если Prefix (prREXW) то
					Instr (instr64);
				аесли Prefix (prOperand) то
					Instr (instr16);
				иначе
					Instr (instr32);
				всё
			кон InstrOp;

			(* parse ModRM byte *)
			проц ModRM;
			нач
				если modRM то возврат иначе modRM := истина всё;

				byte := кодСимв8 (ReadChar ());
				mod := byte DIV 40H остОтДеленияНа 4H;
				reg := byte DIV 8H остОтДеленияНа 8H;
				rm := byte остОтДеленияНа 8H;

				если (mod # 3) и (rm = 4) то
					byte := кодСимв8 (ReadChar ());
					scale := byte DIV 40H остОтДеленияНа 4H;
					index := byte DIV 8H остОтДеленияНа 8H;
					base := byte остОтДеленияНа 8H;
				иначе
					base := 0;
				всё;

				если mod = 1 то
					disp := кодСимв8 (ReadChar ());
					если disp > 07FH то умень (disp, 0100H) всё;
				аесли (mod = 2) или ((mod = 0) и (rm = 5)) или (base = 5) то
					disp := ReadLInt ();
				иначе
					disp := 0;
				всё
			кон ModRM;

			проц GetOperandSize () : цел32;
			нач
				если Prefix (prREXW) то
					возврат 64;
				аесли Prefix (prOperand) то
					возврат 16;
				иначе
					возврат 32;
				всё
			кон GetOperandSize;

			проц  GetOperandReg (offset: цел32): цел32;
			нач
				если Prefix (prREXW) то
					возврат regRAX + offset;
				аесли Prefix (prOperand) то
					возврат regAX + offset;
				иначе
					возврат regEAX + offset;
				всё
			кон GetOperandReg;

			проц  GetReg (base, offset : цел32; extension : булево) : цел32;
			нач
				если base = regES то
					если offset >= 6 то Invalid; всё;
					возврат base + offset;
				аесли extension то
					если base = regrAX то
						возврат GetOperandReg (offset + 8)
					иначе
						возврат base + offset + 8
					всё
				аесли (base = regAL) и (offset >= 4) и (prREX в opc.prefixes) то
					возврат regSPL - 4 + offset;
				аесли base = regrAX то
					возврат GetOperandReg (offset)
				иначе
					возврат base + offset;
				всё
			кон GetReg;

			проц GetAddressReg (offset: цел32; extension: булево): цел32;
			нач
				если extension то
					если prAddress в opc.prefixes то возврат regR8D + offset иначе возврат regR8 + offset всё;
				иначе
					если prAddress в opc.prefixes то возврат regEAX + offset иначе возврат regRAX + offset всё;
				всё
			кон GetAddressReg;

			проц  AddImm (imm: цел64);
			перем
				argImm: ArgImm;
			нач
				нов (argImm, imm); opc.arg[arg] := argImm; увел (arg);
			кон AddImm;

			проц  AddReg (reg: цел32);
			перем
				argReg: ArgReg;
			нач
				нов (argReg, reg); opc.arg[arg] := argReg; увел (arg);
			кон AddReg;

			проц  AddRMReg (base: цел32);
			нач
				ModRM; AddReg (GetReg (base, reg, prREXR в opc.prefixes));
			кон AddRMReg;

			проц  AddMem (segment, reg, scale , base: цел32; disp: цел64);
			перем
				argMem: ArgMem;
			нач
				нов (argMem, segment, reg, scale, base, disp); opc.arg[arg] := argMem; увел (arg);
			кон AddMem;

			проц  AddModMem;
			перем
				reg, baseReg, scaling : цел32;
			нач
				ModRM;

				если mod = 3 то
					Invalid; возврат;
				аесли (mod = 0) и (rm = 5) то
					если Prefix (prREXB) и Prefix (prAddress) то reg := regIP иначе reg := regRIP всё;
					scaling := 1;
					baseReg := regNONE;
				аесли rm = 4 то
					если (index = 4) и ~Prefix (prREXX) то
						reg := regNONE
					иначе
						reg := GetAddressReg (index, Prefix (prREXX));
					всё;

					если (base = 5) и (mod = 0) то
						baseReg := regNONE
					иначе
						baseReg := GetAddressReg (base, Prefix (prREXB));
					всё;

					просей scale из
					| 0: scaling := 1;
					| 1: scaling := 2;
					| 2: scaling := 4;
					| 3: scaling := 8;
					всё

				иначе
					reg := GetAddressReg (rm, Prefix (prREXB));
					scaling := 1;
					baseReg := regNONE;
				всё;

				AddMem (segment, reg, scaling, baseReg, disp);
			кон AddModMem;

			проц AddModRM (base: цел32);
			нач
				ModRM;
				если mod = 3 то
					AddReg (GetReg (base, rm, Prefix (prREXB)));
				иначе
					AddModMem;
				всё
			кон AddModRM;

			проц AddFPReg (offset: цел32);
			нач
				AddReg (regST0 + offset);
			кон AddFPReg;

			(* helper functions, see AMD64 programmers manual vol 3, instruction encoding *)

			проц AL; нач AddReg (regAL) кон AL;
			проц CL; нач AddReg (regCL) кон CL;
			проц Cdq; нач AddRMReg (regCR0) кон Cdq;
			проц Ddq; нач AddRMReg (regDR0) кон Ddq;
			проц DX; нач AddReg (regDX) кон DX;
			проц eAX; нач если GetOperandSize () = 16 то AddReg (regAX) иначе AddReg (regEAX) всё; кон eAX;
			проц Eb; нач AddModRM (regAL) кон Eb;
			проц Ed; нач AddModRM (regEAX) кон Ed;
			проц Edq; нач если GetOperandSize () = 64 то AddModRM (regRAX) иначе AddModRM (regEAX) всё кон Edq;
			проц Ev; нач AddModRM (regrAX) кон Ev;
			проц Ew; нач AddModRM (regAX) кон Ew;
			проц FS; нач AddReg (regFS) кон FS;
			проц Fv; кон Fv;
			проц Gb; нач AddRMReg (regAL) кон Gb;
			проц Gd; нач AddRMReg (regEAX) кон Gd;
			проц Gdq; нач если GetOperandSize () = 64 то AddRMReg (regRAX) иначе AddRMReg (regEAX) всё кон Gdq;
			проц Gv; нач AddRMReg (regrAX) кон Gv;
			проц Gz; нач если GetOperandSize () = 16 то AddRMReg (regAX) иначе AddRMReg (regEAX) всё кон Gz;
			проц Ib; нач AddImm (ReadImm8 ()) кон Ib;

			проц Iv;
			нач
				просей GetOperandSize () из
				| 16: AddImm (ReadImm16 ());
				| 32: AddImm (ReadImm32 ());
				| 64: AddImm (ReadImm64 ());
				всё;
			кон Iv;

			проц Iw; нач AddImm (ReadInt ()) кон Iw;
			проц Iz; нач если GetOperandSize () = 16 то AddImm (ReadImm16 ()) иначе AddImm (ReadImm32 ()) всё кон Iz;
			проц Jb; нач AddImm (ReadOffset8 ()) кон Jb;
			проц Jz; нач если GetOperandSize () = 16 то AddImm (ReadOffset16 ()) иначе AddImm (ReadOffset32 ()) всё кон Jz;
			проц M; нач AddModMem () кон M;
			проц Mb; нач AddModMem () кон Mb;
			проц Md; нач AddModMem () кон Md;
			проц Mdq; нач AddModMem () кон Mdq;
			проц Mp; нач AddModMem () кон Mp;
			проц Mq; нач AddModMem () кон Mq;
			проц Ms; нач AddModMem () кон Ms;
			проц MwRv; нач AddModRM (regrAX) кон MwRv;
			проц Ob; нач AddMem (regNONE, regNONE, 1, regNONE, ReadOffset8 ()) кон Ob;

			проц Ov;
			нач
				просей GetOperandSize () из
				| 16: AddMem (regNONE, regNONE, 1, regNONE, ReadOffset16 ());
				| 32: AddMem (regNONE, regNONE, 1, regNONE, ReadOffset32 ());
				| 64: AddMem (regNONE, regNONE, 1, regNONE, ReadOffset64 ());
				всё;
			кон Ov;

			проц Pq; нач AddRMReg (regMMX0) кон Pq;
			проц Pdq; нач AddRMReg (regMMX0) кон Pdq;
			проц PRq; нач ModRM; если mod = 3 то AddModRM (regMMX0) иначе Invalid всё кон PRq;
			проц Qd; нач AddModRM (regMMX0) кон Qd;
			проц Qq; нач AddModRM (regMMX0) кон Qq;
			проц rAX; нач AddReg (GetOperandReg (regrAX)) кон rAX;
			проц Rdq; нач AddModRM (regRAX) кон Rdq;
			проц Sw; нач AddRMReg (regES) кон Sw;
			проц Xb; нач AddMem (regNONE, GetAddressReg (regrSI, ложь), 1, regNONE, 0) кон Xb;
			проц Xv; нач AddMem (regNONE, GetAddressReg (regrSI, ложь), 1, regNONE, 0) кон Xv;
			проц Xz; нач AddMem (regNONE, GetAddressReg (regrSI, ложь), 1, regNONE, 0) кон Xz;
			проц Yb; нач AddMem (regNONE, GetAddressReg (regrDI, ложь), 1, regNONE, 0) кон Yb;
			проц Yv; нач AddMem (regNONE, GetAddressReg (regrDI, ложь), 1, regNONE, 0) кон Yv;
			проц Yz; нач AddMem (regNONE, GetAddressReg (regrDI, ложь), 1, regNONE, 0) кон Yz;
			проц Vdq; нач AddRMReg (regXMM0) кон Vdq;
			проц Vdqsd; нач AddRMReg (regXMM0) кон Vdqsd;
			проц Vdqss; нач AddRMReg (regXMM0) кон Vdqss;
			проц Vps; нач AddRMReg (regXMM0) кон Vps;
			проц Vpd; нач AddRMReg (regXMM0) кон Vpd;
			проц Vq; нач AddRMReg (regXMM0) кон Vq;
			проц VRdq; нач ModRM; если mod = 3 то AddModRM (regXMM0) иначе Invalid всё кон VRdq;
			проц VRpd; нач ModRM; если mod = 3 то AddModRM (regXMM0) иначе Invalid всё кон VRpd;
			проц VRps; нач ModRM; если mod = 3 то AddModRM (regXMM0) иначе Invalid всё кон VRps;
			проц VRq; нач ModRM; если mod = 3 то AddModRM (regXMM0) иначе Invalid всё кон VRq;
			проц Vsd; нач AddRMReg (regXMM0) кон Vsd;
			проц Vss; нач AddRMReg (regXMM0) кон Vss;
			проц Wdq; нач AddModRM (regXMM0) кон Wdq;
			проц Wpd; нач AddModRM (regXMM0) кон Wpd;
			проц Wq; нач AddModRM (regXMM0) кон Wq;
			проц Wps; нач AddModRM (regXMM0) кон Wps;
			проц Wsd; нач AddModRM (regXMM0) кон Wsd;
			проц Wss; нач AddModRM (regXMM0) кон Wss;

			проц Type1 (instr, offset : цел32);
			нач
				Instr (instr);
				просей offset из
				| 0: Eb; Gb;
				| 1: Ev; Gv;
				| 2: Gb; Eb;
				| 3: Gv; Ev;
				| 4: AL; Ib;
				| 5: rAX; Iz;
				всё
			кон Type1;

			проц Type2 (instr, offset : цел32);
			нач
				Instr (instr);

				если prREXB в opc.prefixes то увел (offset, 8) всё;

				если GetOperandSize () = 16 то
					AddReg (regAX + offset);
				иначе
					AddReg (regRAX + offset);
				всё
			кон Type2;

			проц Type3 (instr : цел32);
			нач
				если Prefix (prF3) то Invalid;
				аесли Prefix (pr66) то Instr (instr); Vdq; Wdq;
				аесли Prefix (prF2) то Invalid;
				иначе Instr (instr); Pq; Qq; всё;
			кон Type3;

			проц Group1;
			нач
				ModRM;

				просей reg из
				| 0: Instr (opADD);
				| 1: Instr (opOR);
				| 2: Instr (opADC);
				| 3: Instr (opSBB);
				| 4: Instr (opAND);
				| 5: Instr (opSUB);
				| 6: Instr (opXOR);
				| 7: Instr (opCMP);
				всё;

				просей code из
				| 080H: Eb; Ib;
				| 081H: Ev; Iz;
				| 082H: Invalid;
				| 083H: Ev; Ib;
				всё
			кон Group1;

			проц Group1a;
			нач
				ModRM;

				если reg = 0 то
					Instr (opPOP); Ev;
				иначе
					Invalid;
				всё

			кон Group1a;

			проц Group2;
			нач
				ModRM;

				просей reg из
				| 0: Instr (opROL);
				| 1: Instr (opROR);
				| 2: Instr (opRCL);
				| 3: Instr (opRCR);
				| 4: Instr (opSHL);
				| 5: Instr (opSHR);
				| 6: Instr (opSHL);
				| 7: Instr (opSHR);
				всё;

				просей code из
				| 0C0H: Eb; Ib;
				| 0C1H: Ev; Ib;
				| 0D0H: Eb; AddImm (1);
				| 0D1H: Ev; AddImm (1);
				| 0D2H: Eb; AddReg (regCL);
				| 0D3H: Ev; AddReg (regCL);
				всё

			кон Group2;

			проц Group3;
			нач
				ModRM;

				просей reg из
				| 0..1: Instr (opTEST);
				| 2: Instr (opNOT);
				| 3: Instr (opNEG);
				| 4: Instr (opMUL);
				| 5: Instr (opIMUL);
				| 6: Instr (opDIV);
				| 7: Instr (opIDIV);
				всё;

				просей code из
				| 0F6H: Eb; если reg <= 1 то Ib всё;
				| 0F7H: Ev; если reg <= 1 то Iz всё;
				всё

			кон Group3;

			проц Group4;
			нач
				ModRM;

				просей reg из
				| 0: Instr (opINC);
				| 1: Instr (opDEC);
				иначе
					Invalid; возврат;
				всё;

				Eb;

			кон Group4;

			проц Group5;
			нач
				ModRM;

				просей reg из
				| 0: Instr (opINC); Ev;
				| 1: Instr (opDEC); Ev;
				| 2: Instr (opCALL); Ev;
				| 3: Instr (opCALL); Mp;
				| 4: Instr (opJMP); Ev;
				| 5: Instr (opJMP); Mp;
				| 6: Instr (opPUSH); Ev;
				иначе
					Invalid;
				всё;

			кон Group5;

			проц Group6;
			нач
				ModRM;

				просей reg из
				| 0: Instr (opSLDT); MwRv;
				| 1: Instr (opSTR); MwRv;
				| 2: Instr (opLLDT); Ew;
				| 3: Instr (opLTR); Ew;
				| 4: Instr (opVERR); Ew;
				| 5: Instr (opVERW); Ew;
				иначе
					Invalid;
				всё;

			кон Group6;

			проц Group7;
			нач
				ModRM;

				просей reg из
				| 0: Instr (opSGDT); Ms;
				| 1: Instr (opSIDT); Ms;
				| 2: Instr (opLGDT); Ms;
				| 3: если mod = 3 то GroupModRM иначе Instr (opLIDT); Ms всё;
				| 4: Instr (opSMSW); MwRv;
				| 6: Instr (opLMSW); Ew;
				| 7: если mod = 3 то GroupModRM иначе Instr (opINVLPG); Mb всё;
				иначе
					Invalid;
				всё;

			кон Group7;

			проц Group8;
			нач
				ModRM;

				просей reg из
				| 4: Instr (opBT);
				| 5: Instr (opBTS);
				| 6: Instr (opBTR);
				| 7: Instr (opBTC);
				иначе
					Invalid; возврат;
				всё;

				Ev; Ib;

			кон Group8;

			проц Group9;
			нач
				ModRM;

				если reg = 1 то
					если Prefix (prREXW) то
						Instr (opCMPXCHG16B); Mdq;
					иначе
						Instr (opCMPXCHG8B); Mq;
					всё;
				иначе
					Invalid;
				всё;

			кон Group9;

			проц Group10;
			нач
				Invalid;
			кон Group10;

			проц Group11;
			нач
				ModRM;

				если reg = 0 то
					Instr (opMOV);
				иначе
					Invalid; возврат;
				всё;

				просей code из
				| 0C6H: Eb; Ib;
				| 0C7H: Ev; Iz;
				всё
			кон Group11;

			проц Group12;
			нач
				ModRM;

				если Prefix (prF2) или Prefix (prF3) то
					Invalid; возврат;
				всё;

				просей reg из
				| 2: Instr (opPSRLW);
				| 4: Instr (opPSRAW);
				| 6: Instr (opPSLLW);
				иначе
					Invalid; возврат;
				всё;

				если Prefix (pr66) то
					VRdq; Ib;
				иначе
					PRq; Ib;
				всё;

			кон Group12;

			проц Group13;
			нач
				ModRM;

				если Prefix (prF2) или Prefix (prF3) то
					Invalid; возврат;
				всё;

				просей reg из
				| 2: Instr (opPSRLD);
				| 4: Instr (opPSRAD);
				| 6: Instr (opPSLLD);
				иначе
					Invalid; возврат;
				всё;

				если Prefix (pr66) то
					VRdq; Ib;
				иначе
					PRq; Ib;
				всё;

			кон Group13;

			проц Group14;
			нач
				ModRM;

				если Prefix (prF2) или Prefix (prF3) то
					Invalid; возврат;
				всё;

				просей reg из
				| 2: Instr (opPSRLQ);
				| 3: если Prefix (pr66) то Instr (opPSRLDQ) иначе Invalid; возврат; всё;
				| 6: Instr (opPSLLQ);
				| 7: если Prefix (pr66) то Instr (opPSLLDQ) иначе Invalid; возврат; всё;
				иначе
					Invalid; возврат;
				всё;

				если Prefix (pr66) то
					VRdq; Ib;
				иначе
					PRq; Ib;
				всё;

			кон Group14;

			проц Group15;
			нач
				ModRM;

				если Prefix (pr66) или Prefix (prF2) или Prefix (prF3) то
					Invalid; возврат;
				всё;

				просей reg из
				| 0: Instr (opFXSAVE); M;
				| 1: Instr (opFXRSTOR); M;
				| 2: Instr (opLDMXCSR); Md;
				| 3: Instr (opSTMXCSR); Md;
				| 5..7: GroupModRM;
				иначе
					Invalid;
				всё;

			кон Group15;

			проц Group16;
			нач
				ModRM;

				просей reg из
				| 0: Instr (opPREFETCHNTA);
				| 1: Instr (opPREFETCHT0);
				| 2: Instr (opPREFETCHT1);
				| 3: Instr (opPREFETCHT2);
				| 4..7: Instr (opNOP);
				всё;

			кон Group16;

			проц GroupP;
			нач
				ModRM;

				просей reg из
				| 0: Instr (opPREFETCH);
				| 1, 3: Instr (opPREFETCHW);
				иначе
					Instr (opPREFETCH);
				всё;

			кон GroupP;

			проц GroupModRM;
			нач
				ModRM;

				если code = 0F01H то
					просей reg из
					3:
						просей rm из
						| 0: Instr (opVMRUN);
						| 1: Instr (opVMMCALL);
						| 2: Instr (opVMLOAD);
						| 3: Instr (opVMSAVE);
						| 4: Instr (opSTGI);
						| 5: Instr (opCLGI);
						| 6: Instr (opSKINIT);
						| 7: Instr (opINVLPGA);
						всё;
					| 7:
						просей rm из
						| 0: Instr (opSWAPGS);
						| 1: Instr (opRDTSCP);
						иначе
							Invalid;
						всё;
					всё;
				аесли code = 0FAEH то
					просей reg из
					| 5: Instr (opLFENCE);
					| 6: Instr (opMFENCE);
					| 7: Instr (opSFENCE);
					всё;
				всё;

			кон GroupModRM;

			проц Group3DNow;
			нач
				ModRM;

				просей кодСимв8 (ReadChar ()) из
				| 00CH: Instr (opPI2FW);
				| 00DH: Instr (opPI2FD);
				| 01CH: Instr (opPF2IW);
				| 01DH: Instr (opPF2ID);
				| 08AH: Instr (opPFNACC);
				| 08EH: Instr (opPFPNACC);
				| 090H: Instr (opPFCMPGE);
				| 094H: Instr (opPFMIN);
				| 096H: Instr (opPFRCP);
				| 097H: Instr (opPFRSQRT);
				| 09AH: Instr (opPFSUB);
				| 09EH: Instr (opPFADD);
				| 0A0H: Instr (opPFCMPGT);
				| 0A4H: Instr (opPFMAX);
				| 0A6H: Instr (opPFRCPIT1);
				| 0A7H: Instr (opPFRSQIT1);
				| 0AAH: Instr (opPFSUBR);
				| 0AEH: Instr (opPFACC);
				| 0B0H: Instr (opPFCMPEQ);
				| 0B4H: Instr (opPFMUL);
				| 0B6H: Instr (opPFRCPIT1);
				| 0B7H: Instr (opPMULHRW);
				| 0BBH: Instr (opPSWAPD);
				| 0BFH: Instr (opPAVGUSB);
				иначе
					Reserved; возврат;
				всё;

				Pq; Qq;
			кон Group3DNow;

			проц Groupx87;

				проц MemInstr (instr : цел32);
				нач
					Instr (instr);
					AddModMem;
				кон MemInstr;

				проц StackInstr0i (instr : цел32);
				нач
					Instr (instr);
					AddFPReg (0);
					AddFPReg (rm);
				кон StackInstr0i;

				проц StackInstri0 (instr : цел32);
				нач
					Instr (instr);
					AddFPReg (rm);
					AddFPReg (0);
				кон StackInstri0;

				проц FPInstr0i (meminstr, stackinstr: цел32);
				нач
					если mod # 3 то
						MemInstr (meminstr);
					иначе
						StackInstr0i (stackinstr);
					всё;
				кон FPInstr0i;

				проц FPInstri0 (meminstr, stackinstr: цел32);
				нач
					если mod # 3 то
						MemInstr (meminstr);
					иначе
						StackInstri0 (stackinstr);
					всё;
				кон FPInstri0;

			нач
				ModRM;

				просей code из
				0D8H:
					просей reg из
					| 0: FPInstr0i (opFADD, opFADD);
					| 1: FPInstr0i (opFMUL, opFMUL);
					| 2: FPInstr0i (opFCOM, opFCOM);
					| 3: FPInstr0i (opFCOMP, opFCOMP);
					| 4: FPInstr0i (opFSUB, opFSUB);
					| 5: FPInstr0i (opFSUBR, opFSUBR);
					| 6: FPInstr0i (opFDIV, opFDIV);
					| 7: FPInstr0i (opFDIVR, opFDIVR);
					всё;
				| 0D9H:
					просей reg из
					| 0: FPInstr0i (opFLD, opFLD);
					| 1: если mod # 3 то Invalid иначе StackInstr0i (opFXCH) всё;
					| 2: если mod # 3 то MemInstr (opFST) аесли rm = 0 то Instr (opFNOP) иначе Invalid всё;
					| 3: если mod # 3 то MemInstr (opFSTP) иначе Reserved всё;
					| 4: если mod # 3 то MemInstr (opFLDENV) иначе
						просей rm из
						| 0: Instr (opFCHS);
						| 1: Instr (opFABS);
						| 4: Instr (opFTST);
						| 5: Instr (opFXAM);
						иначе
							Invalid;
						всё; всё;
					| 5: если mod # 3 то MemInstr (opFLDCW) иначе
						просей rm из
						| 0: Instr (opFLD1);
						| 1: Instr (opFLDL2T);
						| 2: Instr (opFLDL2E);
						| 3: Instr (opFLDPI);
						| 4: Instr (opFLDLG2);
						| 5: Instr (opFLDLN2);
						| 6: Instr (opFLDZ);
						| 7: Invalid;
						всё; всё;
					| 6: если mod # 3 то MemInstr (opFNSTENV) иначе
						просей rm из
						| 0: Instr (opF2XM1);
						| 1: Instr (opFYL2X);
						| 2: Instr (opFPTAN);
						| 3: Instr (opFPATAN);
						| 4: Instr (opFXTRACT);
						| 5: Instr (opFPREM1);
						| 6: Instr (opFDECSTP);
						| 7: Instr (opFINCSTP);
						всё; всё;
					| 7: если mod # 3 то MemInstr (opFNSTCW) иначе
						просей rm из
						| 0: Instr (opFPREM);
						| 1: Instr (opFYL2XP1);
						| 2: Instr (opFSQRT);
						| 3: Instr (opFSINCOS);
						| 4: Instr (opFRNDINT);
						| 5: Instr (opFSCALE);
						| 6: Instr (opFSIN);
						| 7: Instr (opFCOS);
						всё; всё;
					всё;
				| 0DAH:
					просей reg из
					| 0: FPInstr0i (opFIADD, opFCMOVB);
					| 1: FPInstr0i (opFIMUL, opFCMOVE);
					| 2: FPInstr0i (opFICOM, opFCMOVBE);
					| 3: FPInstr0i (opFICOMP, opFCMOVU);
					| 4: если mod # 3 то MemInstr (opFISUB) иначе Invalid всё;
					| 5: если mod # 3 то MemInstr (opFISUBR) аесли rm = 1 то Instr (opFUCOMPP) иначе Invalid всё;
					| 6: если mod # 3 то MemInstr (opFIDIV) иначе Invalid всё;
					| 7: если mod # 3 то MemInstr (opFIDIVR) иначе Invalid всё;
					всё;
				| 0DBH:
					просей reg из
					| 0: FPInstr0i (opFILD, opFCMOVNB);
					| 1: FPInstr0i (opFISTTP, opFCMOVNE);
					| 2: FPInstr0i (opFIST, opFCMOVNBE);
					| 3: FPInstr0i (opFISTP, opFCMOVNU);
					| 4: если mod # 3 то Invalid иначе
						просей rm из
						| 2: Instr (opFNCLEX);
						| 3: Instr (opFNINIT);
						иначе
							Reserved;
						всё; всё;
					| 5: FPInstr0i (opFLD, opFUCOMI);
					| 6: если mod # 3 то Invalid иначе StackInstr0i (opFCOMI) всё;
					| 7: если mod # 3 то MemInstr (opFSTP) иначе Invalid всё;
					всё;
				| 0DCH:
					просей reg из
					| 0: FPInstri0 (opFADD, opFADD);
					| 1: FPInstri0 (opFMUL, opFMUL);
					| 2: если mod # 3 то MemInstr (opFCOM) иначе Reserved всё;
					| 3: если mod # 3 то MemInstr (opFCOMP) иначе Reserved всё;
					| 4: FPInstri0 (opFSUB, opFSUBR);
					| 5: FPInstri0 (opFSUBR, opFSUB);
					| 6: FPInstri0 (opFDIV, opFDIVR);
					| 7: FPInstri0 (opFDIVR, opFDIV);
					всё;
				| 0DDH:
					просей reg из
					| 0: если mod # 3 то MemInstr (opFLD) иначе Instr (opFFREE); AddFPReg (rm) всё
					| 1: если mod # 3 то MemInstr (opFISTTP) иначе Reserved всё;
					| 2: если mod # 3 то MemInstr (opFST) иначе Instr (opFST); AddFPReg (rm) всё
					| 3: если mod # 3 то MemInstr (opFSTP) иначе Instr (opFSTP); AddFPReg (rm) всё
					| 4: FPInstri0 (opFRSTOR, opFUCOM);
					| 5: если mod # 3 то Invalid иначе Instr (opFUCOMP); AddFPReg (rm) всё;
					| 6: если mod # 3 то MemInstr (opFNSAVE) иначе Invalid всё;
					| 7: если mod # 3 то MemInstr (opFNSTSW) иначе Invalid всё;
					всё;
				| 0DEH:
					просей reg из
					| 0: FPInstri0 (opFIADD, opFADDP);
					| 1: FPInstri0 (opFIMUL, opFMULP);
					| 2: если mod # 3 то MemInstr (opFICOM) иначе Reserved всё;
					| 3: если mod # 3 то MemInstr (opFICOMP) аесли rm = 1 то Instr (opFCOMPP) иначе Invalid всё;
					| 4: FPInstri0 (opFISUB, opFSUBRP);
					| 5: FPInstri0 (opFISUBR, opFSUBP);
					| 6: FPInstri0 (opFIDIV, opFDIVRP);
					| 7: FPInstri0 (opFIDIVR, opFDIVP);
					всё;
				| 0DFH:
					просей reg из
					| 0: если mod # 3 то MemInstr (opFILD) иначе Reserved всё;
					| 1: если mod # 3 то MemInstr (opFISTTP) иначе Reserved всё;
					| 2: если mod # 3 то MemInstr (opFIST) иначе Reserved всё;
					| 3: если mod # 3 то MemInstr (opFISTP) иначе Reserved всё;
					| 4: если mod # 3 то MemInstr (opFBLD) аесли rm = 0 то Instr (opFNSTSW) иначе Invalid всё;
					| 5: FPInstr0i (opFILD, opFUCOMIP);
					| 6: FPInstr0i (opFBSTP, opFCOMIP);
					| 7: если mod # 3 то MemInstr (opFISTP) иначе Invalid всё;
					всё;
				всё;
			кон Groupx87;

		нач

			opc := opcode(AMD64Opcode);

			DecodePrefixes;

			если prFS в opc.prefixes то segment := regFS
			аесли prGS в opc.prefixes то segment := regGS
			иначе segment := regNONE всё;

			если byte = 00FH то
				code := byte * 0100H + кодСимв8 (ReadChar ());
				opc.hidePrefixes := истина;
			иначе
				code := byte
			всё;

			arg := 0;

			просей code из
			| 000H..005H: Type1 (opADD, code - 000H);
			| 008H..00DH: Type1 (opOR, code - 008H);
			| 010H..015H: Type1 (opADC, code - 010H);
			| 018H..01DH: Type1 (opSBB, code - 018H);
			| 020H..025H: Type1 (opAND, code - 020H);
			| 028H..02DH: Type1 (opSUB, code - 028H);
			| 030H..035H: Type1 (opXOR, code - 030H);
			| 038H..03DH: Type1 (opCMP, code - 038H);
			| 050H..057H: Type2 (opPUSH, (code - 050H) остОтДеленияНа 08H);
			| 058H..05FH: Type2 (opPOP, (code - 058H) остОтДеленияНа 08H);
			| 063H: Instr (opMOVSXD); Gv; Ed;
			| 068H: Instr (opPUSH); Iz;
			| 069H: Instr (opIMUL); Gv; Ev; Iz;
			| 06AH: Instr (opPUSH); Ib;
			| 06BH: Instr (opIMUL); Gv; Ev; Ib;
			| 06CH: Instr (opINSB); Yb; DX;
			| 06DH: InstrOp (opINSW, opINSD, opINSD); Yz; DX;
			| 06EH: Instr (opOUTSB); DX; Xb;
			| 06FH: InstrOp (opOUTSW, opOUTSD, opOUTSD); DX; Xz;
			| 070H: Instr (opJO); Jb;
			| 071H: Instr (opJNO); Jb;
			| 072H: Instr (opJB); Jb;
			| 073H: Instr (opJNB); Jb;
			| 074H: Instr (opJE); Jb;
			| 075H: Instr (opJNE); Jb;
			| 076H: Instr (opJBE); Jb;
			| 077H: Instr (opJNBE); Jb;
			| 078H: Instr (opJA); Jb;
			| 079H: Instr (opJS); Jb;
			| 07AH: Instr (opJP); Jb;
			| 07BH: Instr (opJNP); Jb;
			| 07CH: Instr (opJL); Jb;
			| 07DH: Instr (opJGE); Jb;
			| 07EH: Instr (opJLE); Jb;
			| 07FH: Instr (opJG); Jb;
			| 080H..083H: Group1;
			| 084H: Instr (opTEST); Eb; Gb;
			| 085H: Instr (opTEST); Ev; Gv;
			| 086H: Instr (opXCHG); Eb; Gb;
			| 087H: Instr (opXCHG); Ev; Gv;
			| 088H: Instr (opMOV); Eb; Gb;
			| 089H: Instr (opMOV); Ev; Gv;
			| 08AH: Instr (opMOV); Gb; Eb;
			| 08BH: Instr (opMOV); Gv; Ev;
			| 08CH: Instr (opMOV); Ev; Sw;
			| 08DH: Instr (opLEA); Gv; M;
			| 08EH: Instr (opMOV); Sw; Ev;
			| 08FH: Group1a;
			| 090H: если Prefix (prF3) то Instr (opPAUSE) иначе Instr (opNOP) всё;
			| 091H..097H: Instr (opXCHG); AddReg (GetReg (regrAX, (code - 090H) остОтДеленияНа 8, Prefix (prREXB))); rAX;
			| 098H: InstrOp (opCBW, opCWDE, opCDQE);
			| 099H: InstrOp (opCWD, opCDQ, opCQO);
			| 09BH: Instr (opFWAIT);
			| 09CH: InstrOp (opPUSHF, opPUSHFD, opPUSHFQ); Fv;
			| 09DH: InstrOp (opPOPF, opPOPFD, opPOPFQ); Fv;
			| 09EH: Instr (opSAHF);
			| 09FH: Instr (opLAHF);
			| 0A0H: Instr (opMOV); AL; Ob;
			| 0A1H: Instr (opMOV); rAX; Ov;
			| 0A2H: Instr (opMOV); Ob; AL;
			| 0A3H: Instr (opMOV); Ov; rAX;
			| 0A4H: Instr (opMOVSB); Yb; Xb;
			| 0A5H: InstrOp (opMOVSW, opMOVSD, opMOVSQ); Yv; Xv;
			| 0A6H: Instr (opCMPSB); Xb; Yb;
			| 0A7H: InstrOp (opCMPSW, opCMPSD, opCMPSQ); Xv; Yv;
			| 0A8H: Instr (opTEST); AL; Ib;
			| 0A9H: Instr (opTEST); rAX; Iz;
			| 0AAH: Instr (opSTOSB); Yb; AL;
			| 0ABH: InstrOp (opSTOSW, opSTOSD, opSTOSQ); Yv; rAX;
			| 0ACH: Instr (opLODSB); AL; Xb;
			| 0ADH: InstrOp (opLODSW, opLODSD, opLODSQ); rAX; Xv;
			| 0AEH: Instr (opSCASB); AL; Yb;
			| 0AFH: InstrOp (opSCASW, opSCASD, opSCASQ); rAX; Yv;
			| 0B0H..0B7H: Instr (opMOV); AddReg (GetReg (regAL, (code - 0B0H) остОтДеленияНа 8, Prefix (prREXB))); Ib;
			| 0B8H..0BFH: Instr (opMOV); AddReg (GetReg (regrAX, (code - 0B8H) остОтДеленияНа 8, Prefix (prREXB))); Iv;
			| 0C0H..0C1H: Group2;
			| 0C2H: Instr (opRET); Iw;
			| 0C3H: Instr (opRET);
			| 0C6H..0C7H: Group11;
			| 0C8H: Instr (opENTER); Iw; Ib;
			| 0C9H: Instr (opLEAVE);
			| 0CAH: Instr (opRET); Iw;
			| 0CBH: Instr (opRET);
			| 0CCH: Instr (opINT); AddImm (3);
			| 0CDH: Instr (opINT); Ib;
			| 0CFH: InstrOp (opIRET, opIRETD, opIRETQ);
			| 0D0H..0D3H: Group2;
			| 0D7H: Instr (opXLAT);
			| 0D8H..0DFH: Groupx87;
			| 0E0H: Instr (opLOOPNE); Jb;
			| 0E1H: Instr (opLOOPE); Jb;
			| 0E2H: Instr (opLOOP); Jb;
			| 0E3H: InstrOp (opJCXZ, opJECXZ, opJRCXZ); Jb;
			| 0E4H: Instr (opIN); AL; Ib;
			| 0E5H: Instr (opIN); eAX; Ib;
			| 0E6H: Instr (opOUT); Ib; AL;
			| 0E7H: Instr (opOUT); Ib; eAX;
			| 0E8H: Instr (opCALL); Jz;
			| 0E9H: Instr (opJMP); Jz;
			| 0EBH: Instr (opJMP); Jb;
			| 0ECH: Instr (opIN); AL; DX;
			| 0EDH: Instr (opIN); eAX; DX;
			| 0EEH: Instr (opOUT); DX; AL;
			| 0EFH: Instr (opOUT); DX; eAX;
			| 0F0H: Instr (opINT); AddImm (1);
			| 0F4H: Instr (opHLT);
			| 0F5H: Instr (opCMC);
			| 0F6H..0F7H: Group3;
			| 0F8H: Instr (opCLC);
			| 0F9H: Instr (opSTC);
			| 0FAH: Instr (opCLI);
			| 0FBH: Instr (opSTI);
			| 0FCH: Instr (opCLD);
			| 0FDH: Instr (opSTD);
			| 0FEH: Group4;
			| 0FFH: Group5;
			иначе
			просей code из
			| 00F00H: Group6;
			| 00F01H: Group7;
			| 00F02H: Instr (opLAR); Gv; Ew;
			| 00F03H: Instr (opLSL); Gv; Ew;
			| 00F05H: Instr (opSYSCALL);
			| 00F06H: Instr (opCLTS);
			| 00F07H: Instr (opSYSRET);
			| 00F08H: Instr (opINVD);
			| 00F09H: Instr (opWBINVD);
			| 00F0BH: Instr (opUD2);
			| 00F0DH: GroupP;
			| 00F0EH: Instr (opFEMMS);
			| 00F0FH: Group3DNow;
			| 00F10H:
				если Prefix (prF3) то Instr (opMOVSS); Vdqss; Wss;
				аесли Prefix (pr66) то Instr (opMOVUPD); Vpd; Wpd;
				аесли Prefix (prF2) то Instr (opMOVSD); Vdqsd; Wsd;
				иначе Instr (opMOVUPS); Vps; Wps; всё;
			| 00F11H:
				если Prefix (prF3) то Instr (opMOVSS); Wss; Vss;
				аесли Prefix (pr66) то Instr (opMOVUPD); Wpd; Vpd;
				аесли Prefix (prF2) то Instr (opMOVSD); Wsd; Vsd;
				иначе Instr (opMOVUPS); Wsd; Vsd; всё;
			| 00F12H:
				если Prefix (prF3) то Instr (opMOVSLDUP); Vps; Wps;
				аесли Prefix (pr66) то Instr (opMOVLPD); Vsd; Mq;
				аесли Prefix (prF2) то Instr (opMOVDDUP); Vpd; Wsd;
				иначе ModRM;
					если mod = 3 то Instr (opMOVHLPS); Vps; VRq;
					иначе Instr (opMOVLPS); Vps; Mq; всё;
				всё;
			| 00F13H:
				если Prefix (prF3) то Invalid;
				аесли Prefix (pr66) то Instr (opMOVLPD); Mq; Vsd;
				аесли Prefix (prF2) то Invalid;
				иначе Instr (opMOVLPS); Mq; Vps; всё;
			| 00F14H:
				если Prefix (prF3) то Invalid;
				аесли Prefix (pr66) то Instr (opUNPCKLPD); Vpd; Wq;
				аесли Prefix (prF2) то Invalid;
				иначе Instr (opUNPCKLPS); Vps; Wq; всё;
			| 00F15H:
				если Prefix (prF3) то Invalid;
				аесли Prefix (pr66) то Instr (opUNPCKHPD); Vpd; Wq;
				аесли Prefix (prF2) то Invalid;
				иначе Instr (opUNPCKHPS); Vps; Wq; всё;
			| 00F16H:
				если Prefix (prF3) то Instr (opMOVSHDUP); Vps; Wps;
				аесли Prefix (pr66) то Instr (opMOVHPD); Vsd; Mq;
				аесли Prefix (prF2) то Invalid;
				иначе ModRM;
					если mod = 3 то Instr (opMOVLHPS); Vps; VRq;
					иначе Instr (opMOVHPS); Vps; Mq; всё;
				всё;
			| 00F17H:
				если Prefix (prF3) то Invalid;
				аесли Prefix (pr66) то Instr (opMOVHPD); Mq; Vsd;
				аесли Prefix (prF2) то Invalid;
				иначе Instr (opMOVHPS); Mq; Vps; всё;
			| 00F18H: Group16;
			| 00F19H..00F1FH: Instr (opNOP); ModRM;
			| 00F20H: Instr (opMOV); Rdq; Cdq;
			| 00F21H: Instr (opMOV); Rdq; Ddq;
			| 00F22H: Instr (opMOV); Cdq; Rdq;
			| 00F23H: Instr (opMOV); Ddq; Rdq;
			| 00F28H:
				если Prefix (prF3) то Invalid;
				аесли Prefix (pr66) то Instr (opMOVAPD); Vpd; Wpd;
				аесли Prefix (prF2) то Invalid;
				иначе Instr (opMOVAPS); Vps; Wps; всё;
			| 00F29H:
				если Prefix (prF3) то Invalid;
				аесли Prefix (pr66) то Instr (opMOVAPD); Wpd; Vpd;
				аесли Prefix (prF2) то Invalid;
				иначе Instr (opMOVAPS); Wps; Vps; всё;
			| 00F2AH:
				если Prefix (prF3) то Instr (opCVTSI2SS); Vss; Edq;
				аесли Prefix (pr66) то Instr (opCVTPI2PD); Vpd; Qq;
				аесли Prefix (prF2) то Instr (opCVTSI2SD); Vsd; Edq;
				иначе Instr (opCVTPI2PS); Vps; Qq; всё;
			| 00F2BH:
				если Prefix (prF3) то Invalid;
				аесли Prefix (pr66) то Instr (opMOVNTPD); Mdq; Vpd;
				аесли Prefix (prF2) то Invalid;
				иначе Instr (opMOVNTPS); Mdq; Vps; всё;
			| 00F2CH:
				если Prefix (prF3) то Instr (opCVTTSS2SI); Gdq; Wss;
				аесли Prefix (pr66) то Instr (opCVTTPD2PI); Pq; Wpd;
				аесли Prefix (prF2) то Instr (opCVTTSD2SI); Gdq; Wsd;
				иначе Instr (opCVTTPS2PI); Pq; Wps; всё;
			| 00F2DH:
				если Prefix (prF3) то Instr (opCVTSS2SI); Gdq; Wss;
				аесли Prefix (pr66) то Instr (opCVTPD2PI); Pq; Wpd;
				аесли Prefix (prF2) то Instr (opCVTSD2SI); Gdq; Wsd;
				иначе Instr (opCVTPS2PI); Pq; Wps; всё;
			| 00F2EH:
				если Prefix (prF3) то Invalid;
				аесли Prefix (pr66) то Instr (opUCOMISD); Vsd; Wsd;
				аесли Prefix (prF2) то Invalid;
				иначе Instr (opUCOMISS); Vss; Wss; всё;
			| 00F2FH:
				если Prefix (prF3) то Invalid;
				аесли Prefix (pr66) то Instr (opCOMISD); Vpd; Wsd;
				аесли Prefix (prF2) то Invalid;
				иначе Instr (opCOMISS); Vps; Wps; всё;
			| 00F30H: Instr (opWRMSR);
			| 00F31H: Instr (opRDTSC);
			| 00F32H: Instr (opRDMSR);
			| 00F33H: Instr (opRDPMC);
			| 00F40H: Instr (opMOVO); Gv; Ev;
			| 00F41H: Instr (opMOVNO); Gv; Ev;
			| 00F42H: Instr (opMOVB); Gv; Ev;
			| 00F43H: Instr (opMOVNB); Gv; Ev;
			| 00F44H: Instr (opMOVE); Gv; Ev;
			| 00F45H: Instr (opMOVNE); Gv; Ev;
			| 00F46H: Instr (opMOVBE); Gv; Ev;
			| 00F47H: Instr (opMOVNBE); Gv; Ev;
			| 00F48H: Instr (opMOVA); Gv; Ev;
			| 00F49H: Instr (opMOVS); Gv; Ev;
			| 00F4AH: Instr (opMOVP); Gv; Ev;
			| 00F4BH: Instr (opMOVNP); Gv; Ev;
			| 00F4CH: Instr (opMOVL); Gv; Ev;
			| 00F4DH: Instr (opMOVGE); Gv; Ev;
			| 00F4EH: Instr (opMOVLE); Gv; Ev;
			| 00F4FH: Instr (opMOVG); Gv; Ev;
			| 00F50H:
				если Prefix (prF3) то Invalid;
				аесли Prefix (pr66) то Instr (opMOVMSKPD); Gd; VRpd;
				аесли Prefix (prF2) то Invalid;
				иначе Instr (opMOVMSKPS); Gd; VRps; всё;
			| 00F51H:
				если Prefix (prF3) то Instr (opSQRTSS); Vss; Wss;
				аесли Prefix (pr66) то Instr (opSQRTPD); Vpd; Wpd;
				аесли Prefix (prF2) то Instr (opSQRTSD); Vsd; Wsd;
				иначе Instr (opSQRTPS); Vps; Wps; всё;
			| 00F52H:
				если Prefix (prF3) то Instr (opRSQRTSS); Vss; Wss;
				аесли Prefix (pr66) то Invalid;
				аесли Prefix (prF2) то Invalid;
				иначе Instr (opRSQRTPS); Vps; Wps; всё;
			| 00F53H:
				если Prefix (prF3) то Instr (opRCPSS); Vss; Wss;
				аесли Prefix (pr66) то Invalid;
				аесли Prefix (prF2) то Invalid;
				иначе Instr (opRCPPS); Vps; Wps; всё;
			| 00F54H:
				если Prefix (prF3) то Invalid;
				аесли Prefix (pr66) то Instr (opANDPS); Vps; Wps;
				аесли Prefix (prF2) то Invalid;
				иначе Instr (opANDPD); Vpd; Wpd; всё;
			| 00F55H:
				если Prefix (prF3) то Invalid;
				аесли Prefix (pr66) то Instr (opANDNPS); Vps; Wps;
				аесли Prefix (prF2) то Invalid;
				иначе Instr (opANDNPD); Vpd; Wpd; всё;
			| 00F56H:
				если Prefix (prF3) то Invalid;
				аесли Prefix (pr66) то Instr (opORPS); Vps; Wps;
				аесли Prefix (prF2) то Invalid;
				иначе Instr (opORPD); Vpd; Wpd; всё;
			| 00F57H:
				если Prefix (prF3) то Invalid;
				аесли Prefix (pr66) то Instr (opXORPS); Vps; Wps;
				аесли Prefix (prF2) то Invalid;
				иначе Instr (opXORPD); Vpd; Wpd; всё;
			| 00F58H:
				если Prefix (prF3) то Instr (opADDSS); Vss; Wss;
				аесли Prefix (pr66) то Instr (opADDPD); Vpd; Wpd;
				аесли Prefix (prF2) то Instr (opADDSD); Vsd; Wsd;
				иначе Instr (opADDPS); Vps; Wps; всё;
			| 00F59H:
				если Prefix (prF3) то Instr (opMULSS); Vss; Wss;
				аесли Prefix (pr66) то Instr (opMULPD); Vpd; Wpd;
				аесли Prefix (prF2) то Instr (opMULSD); Vsd; Wsd;
				иначе Instr (opMULPS); Vps; Wps; всё;
			| 00F5AH:
				если Prefix (prF3) то Instr (opCVTSS2SD); Vsd; Wss;
				аесли Prefix (pr66) то Instr (opCVTPD2PS); Vps; Wpd;
				аесли Prefix (prF2) то Instr (opCVTSD2SS); Vss; Wsd;
				иначе Instr (opCVTPS2PD); Vpd; Wps; всё;
			| 00F5BH:
				если Prefix (prF3) то Instr (opCVTTPS2DQ); Vdq; Wps;
				аесли Prefix (pr66) то Instr (opCVTPS2DQ); Vdq; Wps;
				аесли Prefix (prF2) то Invalid;
				иначе Instr (opCVTDQ2PS); Vpd; Wdq; всё;
			| 00F5CH:
				если Prefix (prF3) то Instr (opSUBSS); Vss; Wss;
				аесли Prefix (pr66) то Instr (opSUBPD); Vpd; Wpd;
				аесли Prefix (prF2) то Instr (opSUBSD); Vsd; Wsd;
				иначе Instr (opSUBPS); Vps; Wps; всё;
			| 00F5DH:
				если Prefix (prF3) то Instr (opMINSS); Vss; Wss;
				аесли Prefix (pr66) то Instr (opMINPD); Vpd; Wpd;
				аесли Prefix (prF2) то Instr (opMINSD); Vsd; Wsd;
				иначе Instr (opMINPS); Vps; Wps; всё;
			| 00F5EH:
				если Prefix (prF3) то Instr (opDIVSS); Vss; Wss;
				аесли Prefix (pr66) то Instr (opDIVPD); Vpd; Wpd;
				аесли Prefix (prF2) то Instr (opDIVSD); Vsd; Wsd;
				иначе Instr (opDIVPS); Vps; Wps; всё;
			| 00F5FH:
				если Prefix (prF3) то Instr (opMAXSS); Vss; Wss;
				аесли Prefix (pr66) то Instr (opMAXPD); Vpd; Wpd;
				аесли Prefix (prF2) то Instr (opMAXSD); Vsd; Wsd;
				иначе Instr (opMAXPS); Vps; Wps; всё;
			| 00F60H:
				если Prefix (prF3) то Invalid;
				аесли Prefix (pr66) то Instr (opPUNPCKLBW); Vdq; Wq;
				аесли Prefix (prF2) то Invalid;
				иначе Instr (opPUNPCKLBW); Pq; Qd; всё;
			| 00F61H:
				если Prefix (prF3) то Invalid;
				аесли Prefix (pr66) то Instr (opPUNPCKLWD); Vdq; Wq;
				аесли Prefix (prF2) то Invalid;
				иначе Instr (opPUNPCKLWD); Pq; Qd; всё;
			| 00F62H:
				если Prefix (prF3) то Invalid;
				аесли Prefix (pr66) то Instr (opPUNPCKLDQ); Vdq; Wq;
				аесли Prefix (prF2) то Invalid;
				иначе Instr (opPUNPCKLDQ); Pq; Qd; всё;
			| 00F63H:
				если Prefix (prF3) то Invalid;
				аесли Prefix (pr66) то Instr (opPACKSSWB); Vdq; Wdq;
				аесли Prefix (prF2) то Invalid;
				иначе Instr (opPACKSSWB); Pq; Qq; всё;
			| 00F64H:
				если Prefix (prF3) то Invalid;
				аесли Prefix (pr66) то Instr (opPCMPGTB); Vdq; Wdq;
				аесли Prefix (prF2) то Invalid;
				иначе Instr (opPCMPGTB); Pq; Qq; всё;
			| 00F65H:
				если Prefix (prF3) то Invalid;
				аесли Prefix (pr66) то Instr (opPCMPGTW); Vdq; Wdq;
				аесли Prefix (prF2) то Invalid;
				иначе Instr (opPCMPGTW); Pq; Qq; всё;
			| 00F66H:
				если Prefix (prF3) то Invalid;
				аесли Prefix (pr66) то Instr (opPCMPGTD); Vdq; Wdq;
				аесли Prefix (prF2) то Invalid;
				иначе Instr (opPCMPGTD); Pq; Qq; всё;
			| 00F67H:
				если Prefix (prF3) то Invalid;
				аесли Prefix (pr66) то Instr (opPACKUSWB); Vdq; Wdq;
				аесли Prefix (prF2) то Invalid;
				иначе Instr (opPACKUSWB); Pq; Qq; всё;
			| 00F68H:
				если Prefix (prF3) то Invalid;
				аесли Prefix (pr66) то Instr (opPUNPCKHBW); Vdq; Wq;
				аесли Prefix (prF2) то Invalid;
				иначе Instr (opPUNPCKHBW); Pq; Qd; всё;
			| 00F69H:
				если Prefix (prF3) то Invalid;
				аесли Prefix (pr66) то Instr (opPUNPCKHWD); Vdq; Wq;
				аесли Prefix (prF2) то Invalid;
				иначе Instr (opPUNPCKHWD); Pq; Qd; всё;
			| 00F6AH:
				если Prefix (prF3) то Invalid;
				аесли Prefix (pr66) то Instr (opPUNPCKHDQ); Vdq; Wq;
				аесли Prefix (prF2) то Invalid;
				иначе Instr (opPUNPCKHDQ); Pq; Qd; всё;
			| 00F6BH:
				если Prefix (prF3) то Invalid;
				аесли Prefix (pr66) то Instr (opPACKSSDW); Vdq; Wdq;
				аесли Prefix (prF2) то Invalid;
				иначе Instr (opPACKSSDW); Pq; Qq; всё;
			| 00F6CH:
				если Prefix (pr66) то Instr (opPUNPCKLQDQ); Vdq; Wq;
				иначе Invalid; всё;
			| 00F6DH:
				если Prefix (pr66) то Instr (opPUNPCKHQDQ); Vdq; Wq;
				иначе Invalid; всё;
			| 00F6EH:
				если Prefix (prF3) то Invalid;
				аесли Prefix (pr66) то Instr (opMOVD); Vdq; Edq;
				аесли Prefix (prF2) то Invalid;
				иначе Instr (opMOVD); Pq; Edq; всё;
			| 00F6FH:
				если Prefix (prF3) то Instr (opMOVDQU); Vdq; Wdq;
				аесли Prefix (pr66) то Instr (opMOVDQA); Vdq; Edq;
				аесли Prefix (prF2) то Invalid;
				иначе Instr (opMOVQ); Pq; Qq; всё;
			| 00F70H:
				если Prefix (prF3) то Instr (opPSHUFHW); Vq; Wq; Ib;
				аесли Prefix (pr66) то Instr (opPSHUFD); Vdq; Wdq; Ib;
				аесли Prefix (prF2) то Instr (opPSHUFLW); Vq; Wq; Ib;
				иначе Instr (opPSHUFW); Pq; Qq; Ib; всё;
			| 00F71H:
				если Prefix (prF3) то Invalid;
				аесли Prefix (pr66) то Group12;
				аесли Prefix (prF2) то Invalid;
				иначе Group12; всё;
			| 00F72H:
				если Prefix (prF3) то Invalid;
				аесли Prefix (pr66) то Group13;
				аесли Prefix (prF2) то Invalid;
				иначе Group13; всё;
			| 00F73H:
				если Prefix (prF3) то Invalid;
				аесли Prefix (pr66) то Group14;
				аесли Prefix (prF2) то Invalid;
				иначе Group14; всё;
			| 00F74H:
				если Prefix (prF3) то Invalid;
				аесли Prefix (pr66) то Instr (opPCMPEQB); Vdq; Wdq;
				аесли Prefix (prF2) то Invalid;
				иначе Instr (opPCMPEQB); Pq; Qq; всё;
			| 00F75H:
				если Prefix (prF3) то Invalid;
				аесли Prefix (pr66) то Instr (opPCMPEQW); Vdq; Wdq;
				аесли Prefix (prF2) то Invalid;
				иначе Instr (opPCMPEQW); Pq; Qq; всё;
			| 00F76H:
				если Prefix (prF3) то Invalid;
				аесли Prefix (pr66) то Instr (opPCMPEQD); Vdq; Wdq;
				аесли Prefix (prF2) то Invalid;
				иначе Instr (opPCMPEQD); Pq; Qq; всё;
			| 00F77H:
				если Prefix (prF3) то Invalid;
				аесли Prefix (pr66) то Invalid;
				аесли Prefix (prF2) то Invalid;
				иначе Instr (opEMMS); всё;
			| 00F7CH:
				если Prefix (prF3) то Invalid;
				аесли Prefix (pr66) то Instr (opHADDPD); Vpd; Wpd;
				аесли Prefix (prF2) то Instr (opHADDPS); Vps; Wps;
				иначе Invalid; всё;
			| 00F7DH:
				если Prefix (prF3) то Invalid;
				аесли Prefix (pr66) то Instr (opHSUBPD); Vpd; Wpd;
				аесли Prefix (prF2) то Instr (opHSUBPS); Vps; Wps;
				иначе Invalid; всё;
			| 00F7EH:
				если Prefix (prF3) то Instr (opMOVQ); Vq; Wq;
				аесли Prefix (pr66) то Instr (opMOVD); Edq; Vdq;
				аесли Prefix (prF2) то Invalid;
				иначе Instr (opMOVD); Edq; Pdq; всё;
			| 00F7FH:
				если Prefix (prF3) то Instr (opMOVDQU); Wdq; Vdq;
				аесли Prefix (pr66) то Instr (opMOVDQA); Wdq; Vdq;
				аесли Prefix (prF2) то Invalid;
				иначе Instr (opMOVQ); Qq; Pq; всё;
			| 00F80H: Instr (opJO); Jz;
			| 00F81H: Instr (opJNO); Jz;
			| 00F82H: Instr (opJB); Jz;
			| 00F83H: Instr (opJNB); Jz;
			| 00F84H: Instr (opJE); Jz;
			| 00F85H: Instr (opJNE); Jz;
			| 00F86H: Instr (opJBE); Jz;
			| 00F87H: Instr (opJNBE); Jz;
			| 00F88H: Instr (opJA); Jz;
			| 00F89H: Instr (opJS); Jz;
			| 00F8AH: Instr (opJP); Jz;
			| 00F8BH: Instr (opJNP); Jz;
			| 00F8CH: Instr (opJL); Jz;
			| 00F8DH: Instr (opJGE); Jz;
			| 00F8EH: Instr (opJLE); Jz;
			| 00F8FH: Instr (opJG); Jz;
			| 00F90H: Instr (opSETO); Eb;
			| 00F91H: Instr (opSETNO); Eb;
			| 00F92H: Instr (opSETB); Eb;
			| 00F93H: Instr (opSETNB); Eb;
			| 00F94H: Instr (opSETE); Eb;
			| 00F95H: Instr (opSETNE); Eb;
			| 00F96H: Instr (opSETBE); Eb;
			| 00F97H: Instr (opSETNBE); Eb;
			| 00F98H: Instr (opSETA); Eb;
			| 00F99H: Instr (opSETS); Eb;
			| 00F9AH: Instr (opSETP); Eb;
			| 00F9BH: Instr (opSETNP); Eb;
			| 00F9CH: Instr (opSETL); Eb;
			| 00F9DH: Instr (opSETGE); Eb;
			| 00F9EH: Instr (opSETLE); Eb;
			| 00F9FH: Instr (opSETG); Eb;
			| 00FA0H: Instr (opPUSH); FS;
			| 00FA1H: Instr (opPOP); FS;
			| 00FA2H: Instr (opCPUID);
			| 00FA3H: Instr (opBT); Ev; Gv;
			| 00FA4H: Instr (opSHLD); Ev; Gv; Ib;
			| 00FA5H: Instr (opSHLD); Ev; Gv; CL;
			| 00FA8H: Instr (opPUSH); FS;
			| 00FA9H: Instr (opPOP); FS;
			| 00FAAH: Instr (opRSM);
			| 00FABH: Instr (opBTS); Ev; Gv;
			| 00FACH: Instr (opSHRD); Ev; Gv; Ib;
			| 00FADH: Instr (opSHRD); Ev; Gv; CL;
			| 00FAEH: Group15;
			| 00FAFH: Instr (opIMUL); Gv; Ev;
			| 00FB0H: Instr (opCMPXCHG); Eb; Gb;
			| 00FB1H: Instr (opCMPXCHG); Ev; Gv;
			| 00FB2H: Instr (opLSS); Gz; Mp;
			| 00FB3H: Instr (opBTR); Ev; Gv;
			| 00FB4H: Instr (opLFS); Gz; Mp;
			| 00FB5H: Instr (opLGS); Gz; Mp;
			| 00FB6H: Instr (opMOVZX); Gv; Eb;
			| 00FB7H: Instr (opMOVZX); Gv; Ew;
			| 00FB9H: Group10;
			| 00FBAH: Group8;
			| 00FBBH: Instr (opBTC); Ev; Gv;
			| 00FBCH: Instr (opBSF); Gv; Ev;
			| 00FBDH: Instr (opBSR); Gv; Ev;
			| 00FBEH: Instr (opMOVSX); Gv; Eb;
			| 00FBFH: Instr (opMOVSX); Gv; Ew;
			| 00FC0H: Instr (opXADD); Eb; Gb;
			| 00FC1H: Instr (opXADD); Ev; Gv;
			| 00FC2H:
				если Prefix (prF3) то Instr (opCMPSS); Vss; Wss; Ib;
				аесли Prefix (pr66) то Instr (opCMPPD); Vpd; Wpd; Ib;
				аесли Prefix (prF2) то Instr (opCMPSD); Vsd; Wsd; Ib;
				иначе Instr (opCMPPS); Vps; Wps; Ib; всё;
			| 00FC3H:
				если Prefix (prF3) то Invalid;
				аесли Prefix (pr66) то Invalid;
				аесли Prefix (prF2) то Invalid;
				иначе Instr (opMOVNTI); Mdq; Gdq; всё;
			| 00FC4H:
				если Prefix (prF3) то Invalid;
				аесли Prefix (pr66) то Instr (opPINSRW); Vdq; Ew; Ib;
				аесли Prefix (prF2) то Invalid;
				иначе Instr (opPINSRW); Pq; Ew; Ib; всё;
			| 00FC5H:
				если Prefix (prF3) то Invalid;
				аесли Prefix (pr66) то Instr (opPEXTRW); Gd; VRdq; Ib;
				аесли Prefix (prF2) то Invalid;
				иначе Instr (opPEXTRW); Gd; PRq; Ib; всё;
			| 00FC6H:
				если Prefix (prF3) то Invalid;
				аесли Prefix (pr66) то Instr (opSHUFPD); Vpd; Wpd; Ib;
				аесли Prefix (prF2) то Invalid;
				иначе Instr (opSHUFPS); Vps; Wps; Ib; всё;
			| 00FC7H: Group9;
			| 00FC8H..00FCFH: Instr (opBSWAP); AddReg (GetReg (regEAX, (code - 00FC8H) остОтДеленияНа 8, prREXB в opc.prefixes)); Iv;
			| 00FD0H:
				если Prefix (prF3) то Invalid;
				аесли Prefix (pr66) то Instr (opADDSUBPD); Vpd; Wpd;
				аесли Prefix (prF2) то Instr (opADDSUBPS); Vps; Wps;
				иначе Invalid; всё;
			| 00FD1H: Type3 (opPSRLW);
			| 00FD2H: Type3 (opPSRLD);
			| 00FD3H: Type3 (opPSRLQ);
			| 00FD4H: Type3 (opPADDQ);
			| 00FD5H: Type3 (opPMULLW);
			| 00FD6H:
				если Prefix (prF3) то Instr (opMOVQ2DQ); Vdq; PRq;
				аесли Prefix (pr66) то Instr (opMOVQ); Wq; Vq;
				аесли Prefix (prF2) то Instr (opMOVDQ2Q); Pq; VRq;
				иначе Invalid; всё;
			| 00FD7H:
				если Prefix (prF3) то Invalid;
				аесли Prefix (pr66) то Instr (opPMOVMSKB); Gd; VRdq;
				аесли Prefix (prF2) то Invalid;
				иначе Instr (opPMOVMSKB); Gd; PRq; всё;
			| 00FD8H: Type3 (opPSUBUSB);
			| 00FD9H: Type3 (opPSUBUSW);
			| 00FDAH: Type3 (opPMINUB);
			| 00FDBH: Type3 (opPAND);
			| 00FDCH: Type3 (opPADDUSB);
			| 00FDDH: Type3 (opPADDUSW);
			| 00FDEH: Type3 (opPMAXUB);
			| 00FDFH: Type3 (opPANDN);
			| 00FE0H: Type3 (opPAVGB);
			| 00FE1H: Type3 (opPSRAW);
			| 00FE2H: Type3 (opPSRAD);
			| 00FE3H: Type3 (opPAVGW);
			| 00FE4H: Type3 (opPMULHUW);
			| 00FE5H: Type3 (opPMULHW);
			| 00FE6H:
				если Prefix (prF3) то Instr (opCVTDQ2PD); Vpd; Wq;
				аесли Prefix (pr66) то Instr (opCVTTPD2DQ); Vq; Wpd;
				аесли Prefix (prF2) то Instr (opPSADBW); Pq; Qq;
				иначе Invalid; всё;
			| 00FE7H:
				если Prefix (prF3) то Invalid;
				аесли Prefix (pr66) то Instr (opMOVNTDQ); Mdq; Vdq;
				аесли Prefix (prF2) то Invalid;
				иначе Instr (opMOVNTQ); Mq; Pq; всё;
			| 00FE8H: Type3 (opPSUBSB);
			| 00FE9H: Type3 (opPSUBSW);
			| 00FEAH: Type3 (opPMINSW);
			| 00FEBH: Type3 (opPOR);
			| 00FECH: Type3 (opPADDSB);
			| 00FEDH: Type3 (opPADDSW);
			| 00FEEH: Type3 (opPMAXSW);
			| 00FEFH: Type3 (opPXOR);
			| 00FF0H:
				если Prefix (prF3) то Invalid;
				аесли Prefix (pr66) то Invalid;
				аесли Prefix (prF2) то Instr (opLDDQU); Vpd; Mdq;
				иначе Invalid; всё;
			| 00FF1H: Type3 (opPSLLW);
			| 00FF2H: Type3 (opPSLLD);
			| 00FF3H: Type3 (opPSLLQ);
			| 00FF4H: Type3 (opPMULUDQ);
			| 00FF5H: Type3 (opPMADDWD);
			| 00FF6H: Type3 (opPSADBW);
			| 00FF7H:
				если Prefix (prF3) то Invalid;
				аесли Prefix (pr66) то Instr (opMASKMOVDQU); Vdq; VRdq;
				аесли Prefix (prF2) то Invalid;
				иначе Instr (opMASKMOVQ); Pq; PRq; всё;
			| 00FF8H: Type3 (opPSUBB);
			| 00FF9H: Type3 (opPSUBW);
			| 00FFAH: Type3 (opPSUBD);
			| 00FFBH: Type3 (opPSUBQ);
			| 00FFCH: Type3 (opPADDB);
			| 00FFDH: Type3 (opPADDW);
			| 00FFEH: Type3 (opPADDD);
			иначе
				Invalid;
			всё;
			всё;

			нцПока arg < maxArgs делай
				opc.arg[arg] := НУЛЬ; увел (arg);
			кц

		кон DecodeThis;

	кон AMD64Decoder;

проц PrintReg (w : Потоки.Писарь; reg : цел32);
нач
	просей reg из
	| regAL: w.пСтроку8 ("AL");
	| regCL: w.пСтроку8 ("CL");
	| regDL: w.пСтроку8 ("DL");
	| regBL: w.пСтроку8 ("BL");
	| regAH: w.пСтроку8 ("AH");
	| regCH: w.пСтроку8 ("CH");
	| regDH: w.пСтроку8 ("DH");
	| regBH: w.пСтроку8 ("BH");
	| regSPL: w.пСтроку8 ("SPL");
	| regBPL: w.пСтроку8 ("BPL");
	| regSIL: w.пСтроку8 ("SIL");
	| regDIL: w.пСтроку8 ("DIL");
	| regR8B: w.пСтроку8 ("R8B");
	| regR9B: w.пСтроку8 ("R9B");
	| regR10B: w.пСтроку8 ("R10B");
	| regR11B: w.пСтроку8 ("R11B");
	| regR12B: w.пСтроку8 ("R12B");
	| regR13B: w.пСтроку8 ("R13B");
	| regR14B: w.пСтроку8 ("R14B");
	| regR15B: w.пСтроку8 ("R15B");

	| regAX: w.пСтроку8 ("AX");
	| regCX: w.пСтроку8 ("CX");
	| regDX: w.пСтроку8 ("DX");
	| regBX: w.пСтроку8 ("BX");
	| regSP: w.пСтроку8 ("SP");
	| regBP: w.пСтроку8 ("BP");
	| regSI: w.пСтроку8 ("SI");
	| regDI: w.пСтроку8 ("DI");
	| regR8W: w.пСтроку8 ("R8W");
	| regR9W: w.пСтроку8 ("R9W");
	| regR10W: w.пСтроку8 ("R10W");
	| regR11W: w.пСтроку8 ("R11W");
	| regR12W: w.пСтроку8 ("R12W");
	| regR13W: w.пСтроку8 ("R13W");
	| regR14W: w.пСтроку8 ("R14W");
	| regR15W: w.пСтроку8 ("R15W");

	| regEAX: w.пСтроку8 ("EAX");
	| regECX: w.пСтроку8 ("ECX");
	| regEDX: w.пСтроку8 ("EDX");
	| regEBX: w.пСтроку8 ("EBX");
	| regESP: w.пСтроку8 ("ESP");
	| regEBP: w.пСтроку8 ("EBP");
	| regESI: w.пСтроку8 ("ESI");
	| regEDI: w.пСтроку8 ("EDI");
	| regR8D: w.пСтроку8 ("R8D");
	| regR9D: w.пСтроку8 ("R9D");
	| regR10D: w.пСтроку8 ("R10D");
	| regR11D: w.пСтроку8 ("R11D");
	| regR12D: w.пСтроку8 ("R12D");
	| regR13D: w.пСтроку8 ("R13D");
	| regR14D: w.пСтроку8 ("R14D");
	| regR15D: w.пСтроку8 ("R15D");

	| regRAX: w.пСтроку8 ("RAX");
	| regRCX: w.пСтроку8 ("RCX");
	| regRDX: w.пСтроку8 ("RDX");
	| regRBX: w.пСтроку8 ("RBX");
	| regRSP: w.пСтроку8 ("RSP");
	| regRBP: w.пСтроку8 ("RBP");
	| regRSI: w.пСтроку8 ("RSI");
	| regRDI: w.пСтроку8 ("RDI");
	| regR8: w.пСтроку8 ("R8");
	| regR9: w.пСтроку8 ("R9");
	| regR10: w.пСтроку8 ("R10");
	| regR11: w.пСтроку8 ("R11");
	| regR12: w.пСтроку8 ("R12");
	| regR13: w.пСтроку8 ("R13");
	| regR14: w.пСтроку8 ("R14");
	| regR15: w.пСтроку8 ("R15");

	| regES: w.пСтроку8 ("ES");
	| regCS: w.пСтроку8 ("CS");
	| regSS: w.пСтроку8 ("SS");
	| regDS: w.пСтроку8 ("DS");
	| regFS: w.пСтроку8 ("FS");
	| regGS: w.пСтроку8 ("GS");

	| regST0: w.пСтроку8 ("ST0");
	| regST1: w.пСтроку8 ("ST1");
	| regST2: w.пСтроку8 ("ST2");
	| regST3: w.пСтроку8 ("ST3");
	| regST4: w.пСтроку8 ("ST4");
	| regST5: w.пСтроку8 ("ST5");
	| regST6: w.пСтроку8 ("ST6");
	| regST7: w.пСтроку8 ("ST7");

	| regCR0: w.пСтроку8 ("CR0");
	| regCR1: w.пСтроку8 ("CR1");
	| regCR2: w.пСтроку8 ("CR2");
	| regCR3: w.пСтроку8 ("CR3");
	| regCR4: w.пСтроку8 ("CR4");
	| regCR5: w.пСтроку8 ("CR5");
	| regCR6: w.пСтроку8 ("CR6");
	| regCR7: w.пСтроку8 ("CR7");
	| regCR8: w.пСтроку8 ("CR8");
	| regCR9: w.пСтроку8 ("CR9");
	| regCR10: w.пСтроку8 ("CR10");
	| regCR11: w.пСтроку8 ("CR11");
	| regCR12: w.пСтроку8 ("CR12");
	| regCR13: w.пСтроку8 ("CR13");
	| regCR14: w.пСтроку8 ("CR14");

	| regDR0: w.пСтроку8 ("DR0");
	| regDR1: w.пСтроку8 ("DR1");
	| regDR2: w.пСтроку8 ("DR2");
	| regDR3: w.пСтроку8 ("DR3");
	| regDR4: w.пСтроку8 ("DR4");
	| regDR5: w.пСтроку8 ("DR5");
	| regDR6: w.пСтроку8 ("DR6");
	| regDR7: w.пСтроку8 ("DR7");
	| regDR8: w.пСтроку8 ("DR8");
	| regDR9: w.пСтроку8 ("DR9");
	| regDR10: w.пСтроку8 ("DR10");
	| regDR11: w.пСтроку8 ("DR11");
	| regDR12: w.пСтроку8 ("DR12");
	| regDR13: w.пСтроку8 ("DR13");
	| regDR14: w.пСтроку8 ("DR14");

	| regXMM0: w.пСтроку8 ("XMM0");
	| regXMM1: w.пСтроку8 ("XMM1");
	| regXMM2: w.пСтроку8 ("XMM2");
	| regXMM3: w.пСтроку8 ("XMM3");
	| regXMM4: w.пСтроку8 ("XMM4");
	| regXMM5: w.пСтроку8 ("XMM5");
	| regXMM6: w.пСтроку8 ("XMM6");
	| regXMM7: w.пСтроку8 ("XMM7");
	| regXMM8: w.пСтроку8 ("XMM8");
	| regXMM9: w.пСтроку8 ("XMM9");
	| regXMM10: w.пСтроку8 ("XMM10");
	| regXMM11: w.пСтроку8 ("XMM11");
	| regXMM12: w.пСтроку8 ("XMM12");
	| regXMM13: w.пСтроку8 ("XMM13");
	| regXMM14: w.пСтроку8 ("XMM14");

	| regMMX0: w.пСтроку8 ("MMX0");
	| regMMX1: w.пСтроку8 ("MMX1");
	| regMMX2: w.пСтроку8 ("MMX2");
	| regMMX3: w.пСтроку8 ("MMX3");
	| regMMX4: w.пСтроку8 ("MMX4");
	| regMMX5: w.пСтроку8 ("MMX5");
	| regMMX6: w.пСтроку8 ("MMX6");
	| regMMX7: w.пСтроку8 ("MMX7");

	| regIP: w.пСтроку8 ("IP");
	| regRIP: w.пСтроку8 ("RIP");

	всё
кон PrintReg;

проц PrintImm (n: цел64; w : Потоки.Писарь);
перем high, low: цел32;
нач
	если (n >= -80H) и (n < 100H) то
		w.пЦел64 (цел8(n), 0);
	иначе
		НИЗКОУР.прочтиОбъектПоАдресу (адресОт (n), low);
		НИЗКОУР.прочтиОбъектПоАдресу (адресОт (n) + 4, high);
		если high # 0 то w.п16ричное (high, 0) всё;
		w.п16ричное (low, 0); w.пСимв8 ('H');
	всё;
кон PrintImm;

проц AMD64DecoderFactory (reader : Потоки.Чтец) : Decoder.Decoder;
перем
	amd64Decoder : AMD64Decoder;
нач
	нов(amd64Decoder, reader);
	возврат amd64Decoder
кон AMD64DecoderFactory;

проц Init*;
нач
	Decoder.RegisterDecoder(objFileSuffix, AMD64DecoderFactory, НУЛЬ);
кон Init;

кон AMD64Decoder.

System.Free AMD64Decoder~
AMD64Decoder.Init~
Decoder.Open Test.Abx~

System.Free Decoder~
Decoder.Open Test.Bbx~
