модуль DynamicWebpagePlugin; (** AUTHOR "Luc Blaeser"; PURPOSE "HTTP Webserver Plugin for Dynamic Webpages"; *)

использует
	DynamicWebpage, HTTPSupport, HTTPSession, WebHTTP, WebHTTPServer, Files, Dates, Strings, Потоки, Commands,
	ЛогЯдра, XML, XMLScanner, XMLParser, XMLObjects, DynamicStrings, TFClasses, Configuration, Modules;

конст
	DEBUG = ложь; (* disply debug information *)
	ShowRegisteredElements = ложь; (* show all registered active elements *)

	PluginName = "Dynamic Webpage Plugin";

	PreTransformation = истина;
	PostTransformation = ложь;

	MaxTransformationDepth = 40; (* maxmimum number of recursive steps to transform a transformation result *)
	DocType = '<!DOCTYPE html PUBLIC "-//W3C//DTD XHTML 1.0 Strict//EN" "http://www.w3.org/TR/xhtml1/DTD/xhtml1-strict.dtd">';

тип
	DynamicWebpagePlugin = окласс (WebHTTPServer.HTTPPlugin)
		проц &{перекрыта}Init*(конст name: WebHTTPServer.Name);
		нач
			Init^(PluginName)
		кон Init;

		проц {перекрыта}CanHandle*(host: WebHTTPServer.Host; перем request: WebHTTP.RequestHeader; secure : булево) : булево;
		перем name, ext: Files.FileName; f: Files.File; newuri : массив 4096 из симв8;
		нач
			HTTPSupport.RemoveVariablesFromURI(request.uri, newuri);
			если (request.method в {WebHTTP.GetM, WebHTTP.PostM, WebHTTP.HeadM}) то
				если (newuri[Strings.Length(newuri)-1] = "/") то (* check for default webpage "index.dxp" *)
					копируйСтрокуДо0(host.prefix, name); Strings.Append(name, newuri);
					Strings.Append(name, DynamicWebpage.DefaultWebpage);
					f := Files.Old(name);
					возврат (f # НУЛЬ)
				иначе
					Files.SplitExtension(newuri, name, ext);
					Strings.UpperCase(ext);
					возврат (ext = DynamicWebpage.DynamicWebpageExtension)
				всё
			иначе
				возврат ложь
			всё
		кон CanHandle;

		проц {перекрыта}Handle*(host: WebHTTPServer.Host; перем requestHeader: WebHTTP.RequestHeader; перем reply: WebHTTP.ResponseHeader;
				перем in: Потоки.Чтец; перем out: Потоки.Писарь);
		перем chunker: WebHTTP.ChunkedOutStream; w: Потоки.Писарь; f: Files.File; backupUri: массив 4096 из симв8;
			request: HTTPSupport.HTTPRequest; session: HTTPSession.Session;
		нач
			(* requestHeader.method IN {WebHTTP.GetM, WebHTTP.PostM, WebHTTP.HeadM} *)
			нов(request, requestHeader, in);

			WebHTTP.SetAdditionalFieldValue(requestHeader.additionalFields, "If-Modified-Since", " ");   (* prohibit conditional get for dynamic webpages  *)
			WebHTTPServer.GetDefaultResponseHeader(requestHeader, reply);
			если (request.shortUri[Strings.Length(request.shortUri)-1] = "/") то (* get default webpage "index.dxp" in a directory *)
				Strings.Append(request.shortUri, DynamicWebpage.DefaultWebpage);
				Strings.Concat("http://", requestHeader.host, reply.contentlocation);
				Strings.Append(reply.contentlocation, request.shortUri);
			всё;

			(* LocateResource works only with variable-free URI in requestHeader *)
			копируйСтрокуДо0(requestHeader.uri, backupUri); копируйСтрокуДо0(request.shortUri, requestHeader.uri);
			LocateResource(host, requestHeader, reply, f); (* sets also reply.statuscode *)
			копируйСтрокуДо0(backupUri, requestHeader.uri);

			если ((f # НУЛЬ) и ((reply.statuscode = WebHTTP.OK) или (reply.statuscode = WebHTTP.NotModified))) то
				reply.statuscode := WebHTTP.OK;
				Strings.FormatDateTime(WebHTTP.DateTimeFormat, Dates.Now(), reply.lastmodified); (* dynamic webpages have no last modified *)
				WebHTTP.SetAdditionalFieldValue(reply.additionalFields, "Expires", reply.lastmodified);
					(* deny web caching; Expires=0 is illegal but often used to deny web caching *)
				WebHTTP.SetAdditionalFieldValue(reply.additionalFields, "Pragma", "no-cache");  (* deny web caching *)
				копируйСтрокуДо0("text/html", reply.contenttype); (* result is XHTML *)

				нов(chunker, w, out, requestHeader, reply);
				WebHTTP.SendResponseHeader(reply, out);

				session := HTTPSession.GetSession(request);
				session.IncreaseLifeTime;

				(* detect whether the user has used the back or refresh button of the navigation bar *)
				если (BackRefreshButtonWasPressed(request, session)) то
					HandleBackRefreshButtonError(request, w)
				иначе
					HandleClientAction(request); (* first handle a client event *)

					если ((requestHeader.method = WebHTTP.GetM) или (requestHeader.method = WebHTTP.PostM)) то
						GenerateDynamicWebpage(f, request, w)
					всё
				всё;
				chunker.Close
			аесли (reply.statuscode = WebHTTP.ObjectMoved) то
				нов(chunker, w, out, requestHeader, reply);
				WebHTTP.SendResponseHeader(reply, out);

				w.пСтроку8(DocType); w.пВК_ПС;
				w.пСтроку8("<html><head><title>Document Moved</title></head>"); w.пВК_ПС;
				w.пСтроку8('<body><h1>Document Moved</h1>This document may be found <a href="http://');
				w.пСтроку8(requestHeader.uri); w.пСтроку8(">here</a>.<hr/><address>");
				w.пСтроку8(WebHTTPServer.ServerVersion); w.пСтроку8("</address></body></html>"); w.пВК_ПС;
				w.ПротолкниБуферВПоток;
				chunker.Close
			аесли ((reply.statuscode = WebHTTP.NotFound) или (f = НУЛЬ)) то
				reply.statuscode := WebHTTP.NotFound;
				нов(chunker, w, out, requestHeader, reply);
				WebHTTP.SendResponseHeader(reply, out);

				w.пСтроку8(DocType); w.пВК_ПС;
				w.пСтроку8("<html><head><title>404 - Not Found</title></head>");
				w.пСтроку8("<body>HTTP 404 - File Not Found<hr/><address>");
				w.пСтроку8(WebHTTPServer.ServerVersion); w.пСтроку8("</address></body></html>");
				w.пВК_ПС;
				w.ПротолкниБуферВПоток;
				chunker.Close
			иначе
				reply.statuscode := WebHTTP.NotImplemented;
				WebHTTP.WriteStatus(reply, out)
			всё
		кон Handle;
	кон DynamicWebpagePlugin;

	ParserError = укль на запись
		pos, line, row: Потоки.ТипМестоВПотоке;
		msg: массив 1024 из симв8
	кон;

	SessionStateFullElement = окласс
		перем
			(* each statefull object instance is identified by an object id (constructed out of file and explicit id in xml representation) *)
			objectId: Strings.String;
			session: HTTPSession.Session;
			activeElem: DynamicWebpage.StateFullActiveElement;
			eventHandlers: DynamicWebpage.EventHandlerList;

		проц &Init*(id: Strings.String; sess: HTTPSession.Session; elem: DynamicWebpage.StateFullActiveElement;
			handlerList : DynamicWebpage.EventHandlerList);
		нач (* id # NIL & sess # NIL & elem # NIL *)
			нов(objectId, длинаМассива(id)); копируйСтрокуДо0(id^, objectId^);
			session := sess; activeElem := elem; eventHandlers:= handlerList
		кон Init;
	кон SessionStateFullElement;

	(* Abstracts the creation and delegation to a statefull or stateless active element instances.
	    The type of the active element (stateless or statefull) is defined by the creation on the first access
	    Stateless active elements are singleton and used by all sessions. Statefull active elements belong
	    to exactly one session and have multiple instances identified explicitly by the webpage file and
	    an "id" attribute in the XML representation. *)
	ActiveElementFactory = окласс
		перем
			moduleName: массив 128 из симв8;
			activeElemDesc: DynamicWebpage.ActiveElementDescriptor;

			(* used if it is a stateless active element, otherwise NIL *)
			stateLessActiveElem: DynamicWebpage.StateLessActiveElement; (* singleton *)
			stateLessEventHandlers: DynamicWebpage.EventHandlerList;

			(* used if it is a statefull active element, otherwise NIL *)
			stateFullActiveElems: TFClasses.List; (* List of SessionStateFullElement *)

		проц &Init*(module: Strings.String; desc: DynamicWebpage.ActiveElementDescriptor);
		нач
			утв(module # НУЛЬ); утв(desc # НУЛЬ); утв(desc.factory # НУЛЬ);
			копируйСтрокуДо0(module^, moduleName); activeElemDesc := desc
		кон Init;

		проц SessionExpired(session: HTTPSession.Session);
		перем sessionElem: SessionStateFullElement; expElemList: TFClasses.List; (* List of SessionStateFullElement *)
			i : размерМЗ; p: динамическиТипизированныйУкль;
		нач {единолично}
			(* there could be multiple instances of a statefull active element belonging to session *)
			нов(expElemList);
			stateFullActiveElems.Lock;
			нцДля i := 0 до stateFullActiveElems.GetCount()-1 делай
				p := stateFullActiveElems.GetItem(i); sessionElem := p(SessionStateFullElement); (* sessionElem # NIL *)
				если (sessionElem.session = session) то
					expElemList.Add(sessionElem)
				всё
			кц;
			stateFullActiveElems.Unlock;
			нцДля i:= 0 до expElemList.GetCount()-1 делай
				p := expElemList.GetItem(i);
				stateFullActiveElems.Remove(p)
			кц;
			если (DEBUG) то
				ЛогЯдра.пСтроку8("Statefull active element instances '"); ЛогЯдра.пСтроку8(activeElemDesc.elementName);
				ЛогЯдра.пСтроку8("' in module '"); ЛогЯдра.пСтроку8(moduleName); ЛогЯдра.пСтроку8("' have been freed for session '");
				ЛогЯдра.пСтроку8(session.sessionId); ЛогЯдра.пСтроку8("'."); ЛогЯдра.пВК_ПС
			всё
		кон SessionExpired;

		(* must be called before disposing the object *)
		проц PrepareDisposal;
		нач
			если (stateFullActiveElems # НУЛЬ) то (* contains statefull active element *)
				HTTPSession.RemoveExpirationHandler(SessionExpired)
			всё
		кон PrepareDisposal;

		(* objectId is only used if a statefull active element is requested, otherwise objectId can be NIL *)
		проц GetElementInstance(session : HTTPSession.Session; objectId: Strings.String) : DynamicWebpage.ActiveElement;
		перем i: размерМЗ; p: динамическиТипизированныйУкль; sessionElem: SessionStateFullElement; elem: DynamicWebpage.ActiveElement;
			stateFullElem: DynamicWebpage.StateFullActiveElement; eventHandlerList: DynamicWebpage.EventHandlerList;
		нач {единолично}
			если (stateLessActiveElem # НУЛЬ) то (* it is a stateless active element *)
				возврат stateLessActiveElem
			аесли (stateFullActiveElems # НУЛЬ) то (* it is a statefull active element *)
				если (objectId # НУЛЬ) то
					stateFullActiveElems.Lock;
					нцДля i := 0 до stateFullActiveElems.GetCount()-1 делай
						p := stateFullActiveElems.GetItem(i); sessionElem := p(SessionStateFullElement);
						(* sessionElem # NIL & sessionElem.objectId # NIL *)
						если ((sessionElem.session = session) и (sessionElem.objectId^ = objectId^)) то
							stateFullActiveElems.Unlock;
							возврат sessionElem.activeElem;
						всё
					кц;
					stateFullActiveElems.Unlock;
					(* create a new statefull element *)
					elem := activeElemDesc.factory();
					(* elem # NIL since there was already a statefull element instance created by this factory method *)
					stateFullElem := elem(DynamicWebpage.StateFullActiveElement);
					eventHandlerList := elem.GetEventHandlers();
					нов(sessionElem, objectId, session, stateFullElem, eventHandlerList);
					stateFullActiveElems.Add(sessionElem);
					возврат elem
				иначе
					ЛогЯдра.пСтроку8("Dynamic Webpage Plugin: The statefull active element '");
					ЛогЯдра.пСтроку8(activeElemDesc.elementName); ЛогЯдра.пСтроку8("' in module '");
					ЛогЯдра.пСтроку8(moduleName); ЛогЯдра.пСтроку8("' must be used together with an id in a webpage file.");
					ЛогЯдра.пВК_ПС;
					возврат НУЛЬ
				всё
			иначе (* it is not yet determined if it is a statefull or stateless active element *)
				elem := activeElemDesc.factory();
				если (elem # НУЛЬ) то
					если (elem суть DynamicWebpage.StateFullActiveElement) то
						если (objectId # НУЛЬ) то
							(* initialize as statefull active element factory *)
							нов(stateFullActiveElems);
							HTTPSession.AddExpirationHandler(SessionExpired);

							stateFullElem := elem(DynamicWebpage.StateFullActiveElement);
							eventHandlerList := elem.GetEventHandlers();
							нов(sessionElem, objectId, session, stateFullElem, eventHandlerList);
							stateFullActiveElems.Add(sessionElem);
							возврат stateFullElem
						иначе
							ЛогЯдра.пСтроку8("Dynamic Webpage Plugin: The statefull active element '");
							ЛогЯдра.пСтроку8(activeElemDesc.elementName); ЛогЯдра.пСтроку8("' in module '");
							ЛогЯдра.пСтроку8(moduleName); ЛогЯдра.пСтроку8("' must be used together with an attribute '");
							ЛогЯдра.пСтроку8(DynamicWebpage.XMLAttributeObjectIdName); ЛогЯдра.пСтроку8("'.");
							ЛогЯдра.пВК_ПС;
							возврат НУЛЬ
						всё
					аесли (elem суть DynamicWebpage.StateLessActiveElement) то
						(* initialize as stateless active element factory *)
						stateLessActiveElem := elem(DynamicWebpage.StateLessActiveElement);
						stateLessEventHandlers := elem.GetEventHandlers();
						возврат elem
					иначе (* elem IS DynamicWebpage.ActiveElement *)
						ЛогЯдра.пСтроку8("Dynamic Webpage Plugin: The active element '");
						ЛогЯдра.пСтроку8(activeElemDesc.elementName); ЛогЯдра.пСтроку8("' in module '");
						ЛогЯдра.пСтроку8(moduleName); ЛогЯдра.пСтроку8("' must be either a stateless or statefull active element.");
						ЛогЯдра.пВК_ПС;
						возврат НУЛЬ
					всё
				иначе
					ЛогЯдра.пСтроку8("Dynamic Webpage Plugin: Invalid result from the factory for the active element '");
					ЛогЯдра.пСтроку8(activeElemDesc.elementName); ЛогЯдра.пСтроку8("' in module '");
					ЛогЯдра.пСтроку8(moduleName); ЛогЯдра.пСтроку8("'"); ЛогЯдра.пВК_ПС;
					возврат НУЛЬ
				всё
			всё
		кон GetElementInstance;

		(* objectId is only used for statefull activ elements and is NIL  in case of stateless active elements *)
		проц FindEventHandler(session: HTTPSession.Session; objectId: Strings.String; конст handlerName: массив из симв8) : DynamicWebpage.EventHandler;
		перем elem: DynamicWebpage.ActiveElement; sessionElem: SessionStateFullElement; p: динамическиТипизированныйУкль; i : размерМЗ;

			проц GetEventHandlerFromList(eventList: DynamicWebpage.EventHandlerList) : DynamicWebpage.EventHandler;
			перем j: размерМЗ;
			нач
				если (eventList # НУЛЬ) то
					нцДля j := 0 до длинаМассива(eventList^)-1 делай
						если (eventList[j] # НУЛЬ) то
							если (eventList[j].methodName = handlerName) то
								возврат eventList[j].handler
							всё
						иначе
							ЛогЯдра.пСтроку8("Dynamic Webpage Plugin: The "); ЛогЯдра.пЦел64(j, 0);
							ЛогЯдра.пСтроку8(".th event handler is not defined in the event handler list in the active element '");
							ЛогЯдра.пСтроку8(activeElemDesc.elementName); ЛогЯдра.пСтроку8("' in module '");
							ЛогЯдра.пСтроку8(moduleName); ЛогЯдра.пСтроку8("'"); ЛогЯдра.пВК_ПС
						всё
					кц
				всё;
				возврат НУЛЬ
			кон GetEventHandlerFromList;

		нач
			elem := GetElementInstance(session, objectId); (* this guarantees that the needed active element instance is now present *)
			если ((elem # НУЛЬ) и (elem суть DynamicWebpage.StateLessActiveElement)) то (* it is a stateless active element *)
				возврат GetEventHandlerFromList(stateLessEventHandlers)
			аесли ((objectId # НУЛЬ) и (elem # НУЛЬ) и (elem суть DynamicWebpage.StateFullActiveElement)) то (* it is a statefull active element *)
				(* stateFullActiveElems # NIL by GetElementInstance *)
				stateFullActiveElems.Lock;
				нцДля i := 0 до stateFullActiveElems.GetCount()-1 делай
					p := stateFullActiveElems.GetItem(i); sessionElem := p(SessionStateFullElement); (* sessionElem # NIL *)
					если ((sessionElem.session = session) и (sessionElem.objectId^ = objectId^)) то
						stateFullActiveElems.Unlock;
						возврат GetEventHandlerFromList(sessionElem.eventHandlers);
					всё
				кц;
				stateFullActiveElems.Unlock;
				возврат НУЛЬ
			иначе (* error message already displayed by GetElementInstance *)
				возврат НУЛЬ
			всё
		кон FindEventHandler;

	кон ActiveElementFactory;

	перем
		dynamicPagePlugin: DynamicWebpagePlugin; (* singleton instance to be able to uninstall *)
		lockServingHosts: булево; (* lock hold when operating on servingHosts *)
		servingHosts: TFClasses.List; (* List of WebHTTPServer.Host *)
		registeredActiveElemFact: TFClasses.List; (* List of ActiveElementFactory *)
		parserError: ParserError; (* since there is no DELEGATE for the reportErrorHandler XML-Module possible *)

	(* Returns true iff back or refresh button was pressed and increases the state counter if back button was not pressed *)
	проц BackRefreshButtonWasPressed(request: HTTPSupport.HTTPRequest; session: HTTPSession.Session) : булево;
	перем httpVar: HTTPSupport.HTTPVariable; httpCounter, sessionCounter: цел32; p: динамическиТипизированныйУкль;
		dynStr: DynamicStrings.DynamicString; str: Strings.String; numberStr: массив 14 из симв8;
	нач (* request # NIL & session # NIL *)
		httpVar := request.GetVariableByName(DynamicWebpage.StateCounterVariable);
		httpCounter := 0;
		если (httpVar # НУЛЬ) то
			Strings.StrToInt(httpVar.value, httpCounter);
			p := session.GetVariableValue(DynamicWebpage.StateCounterVariable);
			если ((p # НУЛЬ) и (p суть DynamicStrings.DynamicString)) то
				dynStr := p(DynamicStrings.DynamicString); str := dynStr.ToArrOfChar(); (* str # NIL *)
				Strings.StrToInt(str^, sessionCounter);
				если (httpCounter < sessionCounter) то
					возврат истина
				всё
			всё
		всё;
		увел(sessionCounter);
		Strings.IntToStr(sessionCounter, numberStr); нов(dynStr); dynStr.Append(numberStr);
		session.AddVariableValue(DynamicWebpage.StateCounterVariable, dynStr);
		возврат ложь
	кон BackRefreshButtonWasPressed;

	(* handle the case that the user has used the back button of the browser's navigation bar *)
	проц HandleBackRefreshButtonError(request: HTTPSupport.HTTPRequest; w: Потоки.Писарь);
	перем sessionId: HTTPSession.SessionId;
	нач
		HTTPSession.GetSessionId(request, sessionId);
		w.пСтроку8(DocType); w.пВК_ПС;
		w.пСтроку8("<html><head><title>Do not use the back or refresh button</title></head>"); w.пВК_ПС;
		w.пСтроку8("<body><h1>Do not use the back or refresh button in the navigation bar</h1>");
		w.пСтроку8("Using the back or refresh button in the navigation bar of this browser is not allowed when using dynamic ");
		w.пСтроку8("webpages.<br/>To continue click ");w.пСтроку8('<a href="');
		w.пСтроку8(request.shortUri); w.пСтроку8("?");
		w.пСтроку8(HTTPSession.HTTPVarSessionIdName); w.пСтроку8("="); w.пСтроку8(sessionId);
		w.пСтроку8('">here</a>.<hr/><address>'); w.пСтроку8(WebHTTPServer.ServerVersion);
		w.пСтроку8("</address></body></html>"); w.пВК_ПС;
		w.ПротолкниБуферВПоток;
	кон HandleBackRefreshButtonError;

	проц GenerateDynamicWebpage(f: Files.File; request: HTTPSupport.HTTPRequest; w: Потоки.Писарь);
	перем scanner: XMLScanner.Scanner; parser: XMLParser.Parser; doc: XML.Document;
		root: XML.Element; rootContent: XML.Content; errormsg: массив 1024 из симв8;
		reader : Files.Reader;
	нач  (* f # NIL *)
		нов(reader, f, 0);
		нов(scanner, reader);
		нов(parser, scanner);
		scanner.reportError := ReportXMLParserScannerError;
		parser.reportError := ReportXMLParserScannerError;
		нач {единолично}
			(* the error handler needs additional information about the file and writer but is not a delegate *)
			parserError := НУЛЬ;
			doc := parser.Parse();
			если (parserError # НУЛЬ) то
				Strings.Concat("Error while parsing: ", parserError.msg, errormsg);
				ReportGeneratorError(f, w, parserError.pos, parserError.line, parserError.row, errormsg);
				doc := НУЛЬ
			всё
		кон;

		если doc # НУЛЬ то
			rootContent := doc;
			если (TransformXMLTree(f, rootContent, request, 0, w)) то (* transformation worked successfully *)
				(* SetDocument should be provided by the XML module *)
				если (rootContent суть XML.Element) то
					root := rootContent(XML.Element);
				иначе
				    (* Error "transformation result has not a root element"*)
				всё;
				w.пСтроку8(DocType); w.пВК_ПС;
				doc.Write(w, НУЛЬ, 0); (* externalize transformation result *)
			всё
		всё;
		w.ПротолкниБуферВПоток
	кон GenerateDynamicWebpage;

	(* returns true iff the transformation worked without an error *)
	проц TransformXMLTree(file: Files.File; перем n: XML.Content; перем request: HTTPSupport.HTTPRequest;
		transformationDepth: цел16;  w: Потоки.Писарь) : булево;
	перем enum, resultEnum: XMLObjects.Enumerator; pChild, pResultChild: динамическиТипизированныйУкль; elem: XML.Element;
		child, newChild, resultChild: XML.Content; errormsg: массив 256 из симв8; wasTransformed: булево;
		elemName : Strings.String; container, snapshot, resultContainer: XML.Container;
	нач
		если ((n # НУЛЬ) и (n суть XML.Element) и (transformationDepth > MaxTransformationDepth)) то
			elem := n(XML.Element); elemName := elem.GetName();
			Strings.Concat("In element '", elemName^, errormsg);
			Strings.Append(errormsg, "': Maximum recursive transformation steps reached. There could be an endless loop in a transformation procedure.");
			ReportGeneratorError(file, w, elem.GetPos(), 0, 0, errormsg);
			ЛогЯдра.пСтроку8("Error in Stream: "); ЛогЯдра.пСтроку8(errormsg); ЛогЯдра.пВК_ПС;
			возврат ложь (* stop the further traversal *)
		аесли ((n # НУЛЬ) и (n суть XML.Container)) то
			(* pre-postorder traversal with recursive traversal of the post transformation result
			    increase transformation depth only if it is a transformation of the transformation result *)
			wasTransformed := ложь;

			(* pre transformation *)
			если (n суть XML.Element) то
				elem := n(XML.Element);
				если (IsActive(elem))то
					если (~TransformActiveElement(file, n, PreTransformation, request, w)) то возврат ложь всё;
					wasTransformed := истина
				всё
			всё;

			если ((n # НУЛЬ) и (n суть XML.Container)) то (* transformation result of PreTransform could be not a container *)
				container := n(XML.Container);
				(* no modification while iteration allowed, extract first the contents into a snapshot *)
				ExtractContentsOfContainer(container, snapshot);
				enum := snapshot.GetContents();
				нцПока (enum.HasMoreElements()) делай
					pChild := enum.GetNext(); child := pChild(XML.Content); newChild := child;
					если (~TransformXMLTree(file, newChild, request, transformationDepth, w)) то возврат ложь всё;
					если (newChild # НУЛЬ) то
						если ((newChild суть XML.Container) и (~(newChild суть XML.Element))) то (* avoid nested containers *)
							resultContainer := newChild(XML.Container);
							resultEnum := resultContainer.GetContents();
							нцПока(resultEnum.HasMoreElements()) делай
								pResultChild := resultEnum.GetNext(); resultChild := pResultChild(XML.Content);
								container.AddContent(resultChild)
							кц
						иначе
							container.AddContent(newChild)
						всё
					всё
				кц;

				(* post transformation *)
				если (n суть XML.Element) то
					elem := n(XML.Element);
					если (IsActive(elem)) то
						если (~TransformActiveElement(file, n, PostTransformation, request, w)) то возврат ложь всё
					всё
				всё
			всё;
			если (wasTransformed) то
				(* transformation of the transformation result is needed *)
				если (~TransformXMLTree(file, n, request, transformationDepth+1, w)) то возврат ложь всё;
				если (DEBUG) то Log(elem) всё
			всё
		всё; (* transformation result could be not a container *)
		возврат истина
	кон TransformXMLTree;

	проц Log(elem: XML.Element);
	перем sw: Потоки.ПисарьВСтроку8ФиксированногоРазмера; w: Потоки.Писарь; msg: массив 1024 из симв8;
	нач
		нов(sw, длинаМассива(msg)); w := sw; elem.Write(w, НУЛЬ, 0);
		sw.ДайПрочитанное˛сколькоПоместитсяИСимвол0(msg); ЛогЯдра.пСтроку8(msg); ЛогЯдра.пВК_ПС
	кон Log;

	проц ExtractContentsOfContainer(input: XML.Container; перем output: XML.Container);
	перем e: XMLObjects.Enumerator; p : динамическиТипизированныйУкль; child: XML.Content;
	нач
		нов(output);
		(* first copy contents to output *)
		e := input.GetContents();
		нцПока (e.HasMoreElements()) делай
			p := e.GetNext(); child := p(XML.Content);
			output.AddContent(child);
		кц;

		(* then remove contents from input *)
		e := output.GetContents();
		нцПока (e.HasMoreElements()) делай
			p := e.GetNext(); child := p(XML.Content);
			input.RemoveContent(child);
		кц
	кон ExtractContentsOfContainer;

	проц IsActive(n : XML.Element) : булево;
	перем module, obj: Strings.String;
	нач (* n # NIL *)
		ExtractModuleObjectName(n, module, obj);
		(* check whether the module is declared to represent an active namespace *)
		если ((module # НУЛЬ) и (obj # НУЛЬ)) то
			возврат IsModuleRegistered(module^)
		иначе
			возврат ложь
		всё
	кон IsActive;

	(* get the objectId if specfified used for statefull active elements *)
	проц GetObjectId(конст id: массив из симв8; request: HTTPSupport.HTTPRequest) : Strings.String;
	перем objectId: Strings.String;
	нач
		(* the object id is composed by the actual uri and id attribute for the active element *)
		(* '&' does occur neither in a xml attribute nor in shortUri *)
		нов(objectId, длинаМассива(id)+Strings.Length(request.shortUri)+1);
		Strings.Concat(request.shortUri, "&", objectId^);
		Strings.Append(objectId^, id);
		возврат objectId
	кон GetObjectId;

	(** if isPreTransformation is TRUE then PreTansform() is called otherwise PostTransform(),
	 *  returns true iff the transformation worked without an error *)
	проц TransformActiveElement(file: Files.File; перем n: XML.Content; isPreTransformation: булево;
		request: HTTPSupport.HTTPRequest; w: Потоки.Писарь) : булево;
	перем moduleName, objName, elemName, objectId, oidAttrVal: Strings.String; elem: XML.Element;
		activeElemFact: ActiveElementFactory; errormsg: массив 256 из симв8; activeElem: DynamicWebpage.ActiveElement;
		session: HTTPSession.Session;
		нач (* n IS XML.ELement & IsActive(n) is TRUE *)
		elem := n(XML.Element); elemName := elem.GetName();

		если (DEBUG) то ЛогЯдра.пСтроку8(elemName^); ЛогЯдра.пСтроку8(" is active"); ЛогЯдра.пВК_ПС всё;

		ExtractModuleObjectName(elem, moduleName, objName);
		(* moduleName # NIL & objName # NIL since IsActive(n) = TRUE *)
		activeElemFact := FindActiveElemFactory(moduleName^, objName^);
		если (activeElemFact # НУЛЬ) то
			session := HTTPSession.GetSession(request);

			oidAttrVal := elem.GetAttributeValue(DynamicWebpage.XMLAttributeObjectIdName);
			если (oidAttrVal # НУЛЬ) то (* seems to be a statefull active element *)
				objectId := GetObjectId(oidAttrVal^, request);
			иначе (* seems to be a stateless active element *)
				objectId := НУЛЬ
			всё;

			activeElem := activeElemFact.GetElementInstance(session, objectId);
			если (activeElem # НУЛЬ) то
				(* here would be an exception handler fine *)
				если (isPreTransformation) то
					n := activeElem.PreTransform(elem, request)
				иначе
					n := activeElem.Transform(elem, request)
				всё
			иначе
				Strings.Concat("In element '", elemName^, errormsg);
				Strings.Append(errormsg, "': Could not create an instance for the active element '");
				Strings.Append(errormsg, moduleName^); Strings.Append(errormsg, ".");
				Strings.Append(errormsg, objName^);
				Strings.Append(errormsg, "'. If you use a statefull active element then you must identify the instance with the xml attribute '");
				Strings.Append(errormsg, DynamicWebpage.XMLAttributeObjectIdName); Strings.Append(errormsg, "'.");
				ReportGeneratorError(file, w, elem.GetPos(), 0, 0, errormsg);
				ЛогЯдра.пСтроку8("Error in Stream: "); ЛогЯдра.пСтроку8(errormsg); ЛогЯдра.пВК_ПС;
				возврат ложь (* stop transformation process *)
			всё
		иначе
			Strings.Concat("In element '", elemName^, errormsg);
			Strings.Append(errormsg, "': The active element '");
			Strings.Append(errormsg, moduleName^); Strings.Append(errormsg, ".");
			Strings.Append(errormsg, objName^); Strings.Append(errormsg, "' is not defined.");
			ReportGeneratorError(file, w, elem.GetPos(), 0, 0, errormsg);
			ЛогЯдра.пСтроку8("Error in Stream: "); ЛогЯдра.пСтроку8(errormsg); ЛогЯдра.пВК_ПС;
			возврат ложь (* stop transformation process *)
		всё;

		возврат истина
	кон TransformActiveElement;

	проц IsModuleRegistered(конст moduleName: массив из симв8) : булево;
	перем i : размерМЗ; p : динамическиТипизированныйУкль; obj: ActiveElementFactory;
	нач
		registeredActiveElemFact.Lock;
		нцДля i := 0 до registeredActiveElemFact.GetCount()-1 делай
			p := registeredActiveElemFact.GetItem(i);
			obj := p(ActiveElementFactory);
			если (obj.moduleName = moduleName) то
				registeredActiveElemFact.Unlock;
				возврат истина
			всё
		кц;
		registeredActiveElemFact.Unlock;
		возврат ложь
	кон IsModuleRegistered;

	проц FindActiveElemFactory(конст moduleName, objName: массив из симв8) : ActiveElementFactory;
	перем i : размерМЗ; p : динамическиТипизированныйУкль; obj: ActiveElementFactory;
	нач
		registeredActiveElemFact.Lock;
		нцДля i := 0 до registeredActiveElemFact.GetCount()-1 делай
			p := registeredActiveElemFact.GetItem(i);
			obj := p(ActiveElementFactory);
			если ((obj.moduleName = moduleName) и (obj.activeElemDesc.elementName = objName)) то
				registeredActiveElemFact.Unlock;
				возврат obj
			всё
		кц;
		registeredActiveElemFact.Unlock;
		возврат НУЛЬ
	кон FindActiveElemFactory;

	проц ExtractModuleObjectName(n: XML.Element; перем moduleName: Strings.String; перем objName: Strings.String);
	перем elemNameDyn : DynamicStrings.DynamicString; elemName, namespaceId, attrVal: Strings.String;
		pos: размерМЗ; attrName: массив 128 из симв8; attr: XML.Attribute; tempElem : XML.Element;
	нач (* n # NIL *)
		moduleName := НУЛЬ; objName := НУЛЬ;
		elemName := n.GetName();
		DynamicStrings.Search(":", elemName^, pos);
		если ((pos > 0) и (Strings.Length(elemName^) > pos+1)) то (* elemName^ = "a:b" and len(a) > 0 and len(b) > 0 *)
			нов(elemNameDyn); elemNameDyn.FromArrOfChar(elemName);
			namespaceId := elemNameDyn.Extract(0, pos);
			Strings.Concat("xmlns:", namespaceId^, attrName);

			(* look for the namespace declaration recursively in parent elements *)
			tempElem := n; attr := НУЛЬ;
			нцПока ((tempElem # НУЛЬ) и (attr = НУЛЬ)) делай
				attr := tempElem.GetAttribute(attrName);
				tempElem := tempElem.GetParent();
			кц;
			если (attr # НУЛЬ) то
				attrVal := attr.GetValue();
				moduleName := attrVal; objName := elemNameDyn.Extract(pos+1, Strings.Length(elemName^)-pos)
			всё
		всё
	кон ExtractModuleObjectName;

	проц ReportGeneratorError(f: Files.File; w: Потоки.Писарь; pos, line, row: Потоки.ТипМестоВПотоке; конст msg: массив из симв8);
		перем fname: Files.FileName;
	нач
		если (f # НУЛЬ) то
			f.GetName(fname);
		иначе
			копируйСтрокуДо0("?", fname);
		всё;
		ЛогЯдра.пСтроку8("DynamicWebpagePlugin while processing file '"); ЛогЯдра.пСтроку8(fname);  ЛогЯдра.пСтроку8("':");
		ЛогЯдра.пВК_ПС; ЛогЯдра.пСтроку8("pos "); ЛогЯдра.пЦел64(pos, 6); ЛогЯдра.пСтроку8(", line "); ЛогЯдра.пЦел64(line, 0);
		ЛогЯдра.пСтроку8(", row "); ЛогЯдра.пЦел64(row, 0); ЛогЯдра.пСтроку8("    "); ЛогЯдра.пСтроку8(msg); ЛогЯдра.пВК_ПС;

		w.пСтроку8(DocType); w.пВК_ПС;
		w.пСтроку8("<html><head><title>Error while processing dynamic webpage</title></head>");
		w.пВК_ПС; w.пСтроку8("<body><h1>Error while processing dynamic webpage</h1><p>file '");
		w.пСтроку8(fname); w.пСтроку8("' pos "); w.пЦел64(pos, 6);
		w.пСтроку8(", line "); w.пЦел64(line, 0); w.пСтроку8(", row ");
		w.пЦел64(row, 0); w.пСтроку8("  "); w.пСтроку8(msg); w.пВК_ПС;
		w.пСтроку8("</p><hr/><address>"); w.пСтроку8(WebHTTPServer.ServerVersion);
		w.пСтроку8("</address></body></html>")
	кон ReportGeneratorError;

	проц ReportXMLParserScannerError(pos, line, row: Потоки.ТипМестоВПотоке; конст msg: массив из симв8); (* Error handler for the XML parser *)
	нач
		нов(parserError); parserError.pos := pos; parserError.line := line; копируйСтрокуДо0(msg, parserError.msg)
	кон ReportXMLParserScannerError;

	проц HandleClientAction(request: HTTPSupport.HTTPRequest);
	перем moduleVar, objectVar, methodVar, objectIdVar, var: HTTPSupport.HTTPVariable; par: DynamicWebpage.Parameter;
		params : DynamicWebpage.ParameterList; paramTempList : TFClasses.List; activeFact: ActiveElementFactory;
		handler: DynamicWebpage.EventHandler; p : динамическиТипизированныйУкль; varPrefix : массив 40 из симв8;
		i, prefixLength, restLength: размерМЗ; session: HTTPSession.Session; objectId: Strings.String;
	нач
		prefixLength := Strings.Length(DynamicWebpage.HTTPVarCommandParamPrefix);
		moduleVar := request.GetVariableByName(DynamicWebpage.HTTPVarCommandModule);
		objectVar := request.GetVariableByName(DynamicWebpage.HTTPVarCommandObject);
		objectIdVar := request.GetVariableByName(DynamicWebpage.HTTPVarCommandObjectId);
		methodVar := request.GetVariableByName(DynamicWebpage.HTTPVarCommandMethod);

		если (DEBUG) то
			если (moduleVar # НУЛЬ) то ЛогЯдра.пСтроку8(moduleVar.value) всё;
			ЛогЯдра.пСтроку8(".");
			если (objectVar # НУЛЬ) то ЛогЯдра.пСтроку8(objectVar.value) всё;
			ЛогЯдра.пСтроку8(".");
			если (methodVar # НУЛЬ) то ЛогЯдра.пСтроку8(methodVar.value) всё;
			если (objectIdVar # НУЛЬ) то ЛогЯдра.пСтроку8(" id="); ЛогЯдра.пСтроку8(objectIdVar.value) всё;
			ЛогЯдра.пВК_ПС
		всё;

		если ((moduleVar # НУЛЬ) и (objectVar # НУЛЬ) и (methodVar # НУЛЬ)) то
			(* search all parameters *)
			нов(paramTempList);
			request.variables.Lock;
			нцДля i := 0 до request.variables.GetCount()-1 делай
				p := request.variables.GetItem(i); var := p(HTTPSupport.HTTPVariable);
				Strings.Copy(var.name, 0, prefixLength, varPrefix);
				restLength := Strings.Length(var.name)-prefixLength;
				если ((varPrefix = DynamicWebpage.HTTPVarCommandParamPrefix) и (restLength > 0)) то
					нов(par); нов(par.name, restLength+1);
					Strings.Copy(var.name, prefixLength, restLength, par.name^);
					нов(par.value, Strings.Length(var.value)+1); копируйСтрокуДо0(var.value, par.value^);
					paramTempList.Add(par)
				всё
			кц;
			request.variables.Unlock;
			нов(params);
			если paramTempList.GetCount() > 0 то
				нов(params.parameters, paramTempList.GetCount());
				нцДля i := 0 до paramTempList.GetCount()-1 делай
					p := paramTempList.GetItem(i); params.parameters[i] := p(DynamicWebpage.Parameter)
				кц
			иначе
				params.parameters := НУЛЬ
			всё;

			(* invoke the event delegate *)
			activeFact := FindActiveElemFactory(moduleVar.value, objectVar.value);
			если (activeFact # НУЛЬ) то
				session := HTTPSession.GetSession(request);

				если (objectIdVar # НУЛЬ) то
					objectId:= GetObjectId(objectIdVar.value, request)
				иначе
					objectId := НУЛЬ
				всё;

				handler := activeFact.FindEventHandler(session, objectId, methodVar.value);
				если (handler # НУЛЬ) то
					(* here would be an exception handler fine *)
					handler(request, params)
				иначе
					ЛогЯдра.пСтроку8("Dynamic Webpage Plugin: Event handler '"); ЛогЯдра.пСтроку8(methodVar.value);
					ЛогЯдра.пСтроку8("' in "); ЛогЯдра.пСтроку8(moduleVar.value); ЛогЯдра.пСтроку8("."); ЛогЯдра.пСтроку8(objectVar.value);
					ЛогЯдра.пСтроку8(" is not registered to handle webclient events. If you use a statefull active element then you");
					ЛогЯдра.пСтроку8(" have to specify the instance id."); ЛогЯдра.пВК_ПС
				всё
			иначе
				ЛогЯдра.пСтроку8("Dynamic Webpage Plugin: Active element ");
				ЛогЯдра.пСтроку8(moduleVar.value); ЛогЯдра.пСтроку8("."); ЛогЯдра.пСтроку8(objectVar.value);
				ЛогЯдра.пСтроку8(" is not registered."); ЛогЯдра.пВК_ПС
			всё
		всё
	кон HandleClientAction;

	проц ClearFactoryList;
	перем p: динамическиТипизированныйУкль; fact: ActiveElementFactory; i: размерМЗ;
	нач
		если (registeredActiveElemFact # НУЛЬ) то
			registeredActiveElemFact.Lock;
			нцДля i := 0 до registeredActiveElemFact.GetCount()-1 делай
				p := registeredActiveElemFact.GetItem(i); fact := p(ActiveElementFactory); (* fact # NIL *)
				fact.PrepareDisposal
			кц;
			registeredActiveElemFact.Unlock;
			registeredActiveElemFact := НУЛЬ
		всё
	кон ClearFactoryList;

	проц ReadRegisteredModules;
	перем elem, child: XML.Element; enum: XMLObjects.Enumerator; p: динамическиТипизированныйУкль; childName, moduleName: Strings.String;
		attr: XML.Attribute;
	нач
		ClearFactoryList;
		нов(registeredActiveElemFact);
		если (Configuration.config # НУЛЬ) то
			elem := Configuration.config.GetRoot();
			elem := Configuration.GetNamedElement(elem, "Section", DynamicWebpage.ConfigurationSupperSectionName);
			если (elem # НУЛЬ) то
				elem := Configuration.GetNamedElement(elem, "Section", DynamicWebpage.ConfigurationSubSectionName);
				если (elem # НУЛЬ) то
					enum := elem.GetContents();
					нцПока (enum.HasMoreElements()) делай
						p := enum.GetNext();
						если (p суть XML.Element) то
							child := p(XML.Element); childName := child.GetName();
							если (childName^ = "Setting") то
								attr := child.GetAttribute("value");
								если (attr # НУЛЬ) то
									moduleName := attr.GetValue();
									RegisterModuleByName(moduleName)
								всё
							всё
						всё
					кц
				иначе
					ЛогЯдра.пСтроку8("Dynamic Webpage plugin: In Configuration.XML under '");
					ЛогЯдра.пСтроку8(DynamicWebpage.ConfigurationSupperSectionName); ЛогЯдра.пСтроку8("' is no section '");
					ЛогЯдра.пСтроку8(DynamicWebpage.ConfigurationSubSectionName); ЛогЯдра.пСтроку8(" defined."); ЛогЯдра.пВК_ПС
				всё
			иначе
				ЛогЯдра.пСтроку8("Dynamic Webpage plugin: In Configuration.XML is no section '");
				ЛогЯдра.пСтроку8(DynamicWebpage.ConfigurationSupperSectionName); ЛогЯдра.пСтроку8("' defined."); ЛогЯдра.пВК_ПС
			всё
		иначе
			ЛогЯдра.пСтроку8("Dynamic Webpage plugin: Cannot open Configuration.XML"); ЛогЯдра.пВК_ПС
		всё
	кон ReadRegisteredModules;

	проц RegisterModuleByName(moduleName: Strings.String);
	перем module: Modules.Module; factory : DynamicWebpage.ActiveElementDescSetFactory; i: размерМЗ; res: целМЗ;
		msg: массив 1024 из симв8; desc: DynamicWebpage.ActiveElementDescriptor;
		descList: DynamicWebpage.ActiveElementDescSet;
	нач
		(* load the module if not already loaded *)
		module := Modules.ThisModule(moduleName^, res, msg);
		если ((res = 0) и (module # НУЛЬ)) то
			дайПроцПоИмени(moduleName^, DynamicWebpage.ProcNameGetDescriptors, factory);
			если (factory # НУЛЬ) то
				descList := factory();
				если (descList # НУЛЬ) то (* register all present descriptors *)
					нцДля i := 0 до descList.GetCount()-1 делай
						desc := descList.GetItem(i);
						RegisterActiveElement(moduleName, desc)
					кц
				иначе
					ЛогЯдра.пСтроку8("Dynamic Webpage Plugin: Wrong result type from procedure '");
					ЛогЯдра.пСтроку8(DynamicWebpage.ProcNameGetDescriptors); ЛогЯдра.пСтроку8("' in module '");
					ЛогЯдра.пСтроку8(moduleName^); ЛогЯдра.пСтроку8("'"); ЛогЯдра.пВК_ПС
				всё
			иначе
				ЛогЯдра.пСтроку8("Dynamic Webpage Plugin: Procedure '"); ЛогЯдра.пСтроку8(DynamicWebpage.ProcNameGetDescriptors);
				ЛогЯдра.пСтроку8("' in module '"); ЛогЯдра.пСтроку8(moduleName^); ЛогЯдра.пСтроку8("' is not present."); ЛогЯдра.пВК_ПС
			всё
		иначе
			ЛогЯдра.пСтроку8("Dynamic Webpage Plugin: Module '"); ЛогЯдра.пСтроку8(moduleName^);
			ЛогЯдра.пСтроку8("' is not present."); ЛогЯдра.пВК_ПС
		всё
	кон RegisterModuleByName;

	проц RegisterActiveElement(moduleName: Strings.String; desc: DynamicWebpage.ActiveElementDescriptor);
	перем activeElemFact : ActiveElementFactory;
	нач
		если (desc.factory # НУЛЬ) то
			нов(activeElemFact, moduleName, desc);
			(* the new active element instance is created by the first usage and it is then determined by the dynamic type of
				factory method result whether it is a statefull or stateless active element *)
			registeredActiveElemFact.Add(activeElemFact);
			если ((DEBUG) или (ShowRegisteredElements)) то
				ЛогЯдра.пСтроку8("Active element '"); ЛогЯдра.пСтроку8(moduleName^); ЛогЯдра.пСтроку8(".");
				ЛогЯдра.пСтроку8(desc.elementName); ЛогЯдра.пСтроку8("' has been registered."); ЛогЯдра.пВК_ПС
			всё
		иначе
			ЛогЯдра.пСтроку8("Dynamic Webpage Plugin: No factory method defined for active element '");
			ЛогЯдра.пСтроку8(desc.elementName); ЛогЯдра.пСтроку8("' in module '");
			ЛогЯдра.пСтроку8(moduleName^); ЛогЯдра.пСтроку8("'"); ЛогЯдра.пВК_ПС
		всё
	кон RegisterActiveElement;

	проц LockServingHosts;
	нач {единолично}
		дождись(~lockServingHosts); lockServingHosts := истина
	кон LockServingHosts;

	проц UnlockServingHosts;
	нач {единолично}
		lockServingHosts := ложь
	кон UnlockServingHosts;

	проц Install*(context : Commands.Context); (** [{host}]. Host may include wildcards. *)
	перем host: массив 1024 из симв8; hl: WebHTTPServer.HostList;
	нач
		LockServingHosts;
		если dynamicPagePlugin = НУЛЬ то  (* Singleton *)
			нов(dynamicPagePlugin, PluginName)
		всё;

		если (servingHosts.GetCount() = 0) то
			ReadRegisteredModules
		всё;

		нцДо
			context.arg.чЦепочкуСимволов8ДоБелогоПоляИлиВКавычках(host); Strings.Trim(host, " ");
			hl := WebHTTPServer.FindHosts(host);
			если (hl # НУЛЬ) то
				нцПока (hl # НУЛЬ) делай
					context.out.пСтроку8(PluginName);
					если (servingHosts.IndexOf(hl.host) >= 0) то
						context.out.пСтроку8(" already installed at ")
					иначе
						hl.host.AddPlugin(dynamicPagePlugin);
						servingHosts.Add(hl.host);
						context.out.пСтроку8(" added to ")
					всё;
					если (hl.host.name = "") то context.out.пСтроку8("default host ")
					иначе context.out.пСтроку8(hl.host.name)
					всё;
					context.out.пВК_ПС;
					hl := hl.next
				кц
			иначе
				context.error.пСтроку8("Host '"); context.error.пСтроку8(host); context.error.пСтроку8("' not present."); context.error.пВК_ПС
			всё
		кцПри ((context.arg.кодВозвратаПоследнейОперации # Потоки.Успех) или (Strings.Length(host) = 0));
		UnlockServingHosts;
	кон Install;

	проц ModuleTerminator;
	перем p: динамическиТипизированныйУкль; h: WebHTTPServer.Host; i : размерМЗ;
	нач
		LockServingHosts;
		нцДля i := 0 до servingHosts.GetCount()-1 делай
			p := servingHosts.GetItem(i); h := p(WebHTTPServer.Host);
			UnInstallHost(h)
		кц;
		UnlockServingHosts;
		ClearFactoryList
	кон ModuleTerminator;

	проц UnInstallHost(host: WebHTTPServer.Host);
	нач
		host.RemovePlugin(dynamicPagePlugin);
		ЛогЯдра.пСтроку8(PluginName); ЛогЯдра.пСтроку8(" removed from ");
		если (host.name = "") то ЛогЯдра.пСтроку8("default host ")
		иначе ЛогЯдра.пСтроку8(host.name)
		всё;
		ЛогЯдра.пВК_ПС
	кон UnInstallHost;

	проц Uninstall*(context : Commands.Context); (** [{host}]. Host may include wildcards *)
	перем host: массив 1024 из симв8; hl: WebHTTPServer.HostList;
	нач
		если dynamicPagePlugin # НУЛЬ то
			LockServingHosts;
			нцДо
				context.arg.чЦепочкуСимволов8ДоБелогоПоляИлиВКавычках(host); Strings.Trim(host, " ");
				hl := WebHTTPServer.FindHosts(host);
				если (hl # НУЛЬ) то
					нцПока (hl # НУЛЬ) делай
						UnInstallHost(hl.host);
						servingHosts.Remove(hl.host);
						hl := hl.next
					кц
				иначе
					context.error.пСтроку8("Host '"); context.error.пСтроку8(host); context.error.пСтроку8("' not present."); context.error.пВК_ПС
				всё
			кцПри ((context.arg.кодВозвратаПоследнейОперации # Потоки.Успех) или (Strings.Length(host) = 0));
			UnlockServingHosts
		иначе
			context.error.пСтроку8(PluginName); context.error.пСтроку8(" is not installed"); context.error.пВК_ПС
		всё;

		если (servingHosts.GetCount() = 0) то
			ClearFactoryList
		всё;
	кон Uninstall;

нач
	нов(servingHosts); lockServingHosts := ложь;
	Modules.InstallTermHandler(ModuleTerminator)
кон DynamicWebpagePlugin.

System.Free DynamicWebpagePlugin~
System.Free WebHTTPServerTools WebHTTPServer WebHTTP~

DynamicWebpagePlugin.Install ~
DynamicWebpagePlugin.Uninstall ~
