модуль FoxPrintout; (** AUTHOR "fof & fn"; PURPOSE "Oberon Compiler Module Output for SymbolFile, Pretty Printing and Testing"; *)
(* (c) fof ETHZ 2009 *)

использует
	Scanner := FoxScanner, SyntaxTree := FoxSyntaxTree, Global := FoxGlobal,
	Basic := FoxBasic, Fingerprinter := FoxFingerprinter, Потоки, D:=Debugging,
	НИЗКОУР, UCS32, StringsUCS32;

конст
	(* print modes *)
	Exported*=0; 
	SymbolFile*=1; 
	ЦепочкаЛексем*=2; (* Печать код как цепочку входных лексем, используется для перевода *)
	SourceCode*=3;  (* Код синтезируется из дерева - это режим, к-рый уже был в A2. Он печатает не все комментарии и
		синтезирует пробелы, по второй причине может делать автоформатирование *)
	All*=4; (* Помимо SourceCode, печатает также «скрытые» объекты с атрибутом SyntaxTree.Hidden, 
		а что он значит - то мне неведомо *)

	DebugPosition=ложь;
тип

	Printer*= окласс (SyntaxTree.Посетитель)
	перем
		w-: Basic.Writer; 
		mode: цел32; (* См. константы Exported и т.п. чуть выше *) 
		singleStatement: булево;
		currentScope: SyntaxTree.ВнутренняяОбластьВидимости; ws: Потоки.ПисарьВСтроку8ФиксированногоРазмера;
		лексемыВВидеИсх: булево;
		info: булево; printCase: Scanner.ВариантыПеревода; (* Значения Scanner.ВариантыПеревода.Uppercase, Scanner.Lowercase, Scanner.ВариантыПеревода.Русский *)
		useCase: булево; (* TRUE to enable case conversion in "Identifier" *)
		currentModule: SyntaxTree.ДеревоМодуля; (* заполняется в начале пр-ры Module *)

		alertCount, commentCount: цел32;
		fingerprinter:Fingerprinter.Fingerprinter;
		писарьКартыМест*: Потоки.Писарь;

		проц Keyword(конст a: массив из симв8);
		перем симв : Scanner.ВидЛексемы;
		нач
			симв := Scanner.keywordsUpper.ДайВидЛексемыПоСтроке(a);
			KeywordСимв(симв) кон Keyword;
			
		проц KeywordСимв(симв: Scanner.ВидЛексемы);
		перем str: массив 64 из симв8; 
		нач
			утв(симв # 0);
			просей printCase из
				| Scanner.ВариантыПеревода.Uppercase:
					Scanner.keywordsUpper.ДайСтрокуПоВидуЛексемы(симв, str);
				| Scanner.ВариантыПеревода.Русский:
					Scanner.keywords_Русские.ДайСтрокуПоВидуЛексемы(симв, str) всё;
			w.BeginKeyword;
			w.пСтроку8(str);
			w.EndKeyword;
		кон KeywordСимв;

		проц AlertString(конст s: массив из симв8);
		нач
			w.BeginAlert; w.пСтроку8(s); w.EndAlert;
		кон AlertString;

		проц Indent;
		нач w.пВК_ПС;
		кон Indent;

		проц Identifier*(x: SyntaxTree.ИдентификаторВ_исходнике);
		перем str: Scanner.СтрокаИдентификатора;
		нач
			если (currentModule # НУЛЬ) и (printCase # currentModule.вариантПеревода) то (* мы переводим *)
				утв(mode = ЦепочкаЛексем);
				Basic.GetString(x.п,str) 
			иначе
				Basic.GetString(x.И,str) всё;
			w.пСтроку8(str);
		кон Identifier;


		(* PROCEDURE IdentifierString(x: ARRAY OF CHAR);
		BEGIN
			w.String(x);
		END IdentifierString; *)

		проц QualifiedIdentifier*(x: SyntaxTree.СоставнойИдентификаторВ_исходнике);
		нач
			если info то
				w.пСтроку8("«QualifiedIdentifier»") всё;
			если x.начало.И # SyntaxTree.образцовыйНеверныйИдентификатор.И то Identifier(x.начало); w.пСтроку8("."); всё;
			Identifier(x.конец);
		кон QualifiedIdentifier;

		проц Type*(x: SyntaxTree.Выражениеˉтип);
		нач
			если x= НУЛЬ то
				AlertString("nil type");
			иначе
				ПосетиУзелИзСемьиВыраженияˉтипа(x);
			всё;
		кон Type;

		проц {перекрыта}ПосетиВыражениеˉтип*(x: SyntaxTree.Выражениеˉтип);
		нач
			если x = SyntaxTree.выражениеˉтипОбъявленияИмпортаМодуля то w.пСтроку8("importType")
			аесли x = SyntaxTree.выражениеˉтипОбъявленияТипа то w.пСтроку8("typeDeclarationType");
			иначе
				AlertString("InvalidType");
			всё;
		кон ПосетиВыражениеˉтип;

		проц {перекрыта}ПосетиВыражˉтипИзРодаПримитивных*(x: SyntaxTree.ВыражˉтипИзРодаПримитивных);
		нач
			если x.объявлениеТипа # НУЛЬ то
				Identifier(x.объявлениеТипа.имя);
			иначе
				Identifier(x.имя);
			всё
		кон ПосетиВыражˉтипИзРодаПримитивных;

		проц {перекрыта}ПосетиВыражˉтипБулево*(x: SyntaxTree.ВыражˉтипБулево);
		нач
			ПосетиВыражˉтипИзРодаПримитивных(x);
		кон ПосетиВыражˉтипБулево;

		проц {перекрыта}ПосетиВыражˉтипИзРодаБайт*(x: SyntaxTree.МнвоType);
		нач
			ПосетиВыражˉтипИзРодаПримитивных(x);
		кон ПосетиВыражˉтипИзРодаБайт;

		проц {перекрыта}ПосетиВыражˉтипSIZE*(x: SyntaxTree.ВыражˉтипSIZE);
		нач
			ПосетиВыражˉтипИзРодаПримитивных(x);
		кон ПосетиВыражˉтипSIZE;

		проц {перекрыта}ПосетиВыражˉтипИзРодаЛитер*(x: SyntaxTree.ВыражˉтипИзРодаЛитер);
		нач
			ПосетиВыражˉтипИзРодаПримитивных(x);
		кон ПосетиВыражˉтипИзРодаЛитер;

		проц {перекрыта}ПосетиВыражˉтипИзРодаЧиселЦел*(x: SyntaxTree.ВыражˉтипИзРодаЧиселЦел);
		нач
			ПосетиВыражˉтипИзРодаПримитивных(x);
		кон ПосетиВыражˉтипИзРодаЧиселЦел;

		проц {перекрыта}ПосетиВыражˉтипИзРодаЧиселВещ*(x: SyntaxTree.ВыражˉтипИзРодаЧиселВещ);
		нач
			ПосетиВыражˉтипИзРодаПримитивных(x);
		кон ПосетиВыражˉтипИзРодаЧиселВещ;

		проц {перекрыта}ПосетиВыражˉтипИзРодаЧиселКомплексных*(x: SyntaxTree.ВыражˉтипИзРодаЧиселКомплексных);
		нач
			ПосетиВыражˉтипИзРодаПримитивных(x);
		кон ПосетиВыражˉтипИзРодаЧиселКомплексных;

		проц {перекрыта}ПосетиВыражˉтипНизкоурБайт*(x: SyntaxTree.ВыражˉтипНизкоурБайт);
		нач
			ПосетиВыражˉтипИзРодаПримитивных(x);
		кон ПосетиВыражˉтипНизкоурБайт;

		проц {перекрыта}ПосетиВыражˉтипИзРодаТиповˉНаименований*(x: SyntaxTree.ВыражˉтипИзРодаТиповˉНаименований);
		нач
			если x.резОсмысления = SyntaxTree.образцовоеНеверноеВыражениеˉтип то
				AlertString("(*unresolved*)"); возврат
			аесли x.составнойИдентификатор = НУЛЬ то
				AlertString("NIL (* missing qualified identifier *)"); возврат всё;
			если info то
				w.пСтроку8("VisitQualifiedType:") всё;
			если x.резОсмысления = НУЛЬ то
				AlertString("«не найденный тип»");
				возврат всё;
			useCase := (x.резОсмысления суть SyntaxTree.ВыражˉтипИзРодаПримитивных) и (x.гдеНаписано.УровеньВложенностиОбластиВидимости() = 0);
			если useCase то
				w.пСтроку8("«Это якобы базовый тип»"); (* никогда не случается *)
				СТОП(3330); (* я думал, что эта ветка должна обрабатываться в VisitBasicType, но что-то пошло не так *)
			всё;
			QualifiedIdentifier(x.составнойИдентификатор);
		кон ПосетиВыражˉтипИзРодаТиповˉНаименований;

		проц {перекрыта}ПосетиВыражˉтипИзРодаСтрок*(x: SyntaxTree.ВыражˉтипИзРодаСтрок);
		нач
			w.пСтроку8("STRING"); w.пСтроку8("(* len = "); w.пЦел64(x.длина,1); w.пСтроку8(" *)");
		кон ПосетиВыражˉтипИзРодаСтрок;

		проц {перекрыта}ПосетиВыражˉтипИзРодаПеречислений*(x: SyntaxTree.ВыражˉтипИзРодаПеречислений);
		перем e: SyntaxTree.ОбъявлениеКонстанты; first: булево;
		нач
			Keyword("ENUM"); w.пСтроку8(" ");

			если x.типЧленов # НУЛЬ то
				w.пСтроку8("(");
					Type(x.типЧленов);
				w.пСтроку8(") ");
			всё;

			e := x.внутренняяОбластьВидимости.первоеОбъявлениеКонстанты; first := истина;
			нцПока (e # НУЛЬ) делай
				если ~first то w.пСтроку8(", ") иначе first := ложь всё;
				ПосетиОбъявлениеКонстанты(e);
				e := e.следщОК;
			кц;

			w.пСтроку8(" "); Keyword("END");
		кон ПосетиВыражˉтипИзРодаПеречислений;

		проц {перекрыта}ПосетиВыражˉтипИзРодаДиапазонов*(x: SyntaxTree.ВыражˉтипИзРодаДиапазонов);
		нач ПосетиВыражˉтипИзРодаПримитивных(x);
		кон ПосетиВыражˉтипИзРодаДиапазонов;

		проц {перекрыта}ПосетиВыражˉтипИзРодаМассивов*(x: SyntaxTree.ВыражˉтипИзРодаМассивов);
		нач
			Keyword("ARRAY"); w.пСтроку8(" ");
			если x.длина # НУЛЬ то Expression(x.длина);
			w.пСтроку8( " " );  всё;
			Keyword("OF" ); w.пСтроку8(" ");
			Type(x.типЭлементов);
		кон ПосетиВыражˉтипИзРодаМассивов;

		проц {перекрыта}ПосетиВыражˉтипНУЛЬ*(x: SyntaxTree.ВыражˉтипНУЛЬ);
		нач
			w.пСтроку8("NILTYPE");
		кон ПосетиВыражˉтипНУЛЬ;

		проц {перекрыта}ПосетиВыражˉтипАДРЕС*(x: SyntaxTree.ВыражˉтипАДРЕС);
		нач
			w.пСтроку8("ADDRESSTYPE");
		кон ПосетиВыражˉтипАДРЕС;

		проц {перекрыта}ПосетиВыражˉтипБазовыйОобъект*(x: SyntaxTree.ВыражˉтипБазовыйОобъект);
		нач
			ПосетиВыражˉтипИзРодаПримитивных(x);
		кон ПосетиВыражˉтипБазовыйОобъект;

		проц {перекрыта}ПосетиВыражˉтипДинамическиТипизированныйУкль*(x: SyntaxTree.ВыражˉтипДинамическиТипизированныйУкль);
		нач
			ПосетиВыражˉтипИзРодаПримитивных(x);
		кон ПосетиВыражˉтипДинамическиТипизированныйУкль;

		проц {перекрыта}ПосетиВыражˉтипИзРодаМатМассивов*(x: SyntaxTree.ВыражˉтипИзРодаМатМассивов);
		нач
			Keyword("ARRAY"); w.пСтроку8(" ");
			если x.форма = SyntaxTree.формаМассиваТензорный то w.пСтроку8("[?] ");
			иначе
				w.пСтроку8("[");
				если x.длина = НУЛЬ то
					w.пСтроку8("*")
				иначе
					Expression(x.длина);
				всё;
				нцПока(x.типЭлемента # НУЛЬ) и (x.типЭлемента суть SyntaxTree.ВыражˉтипИзРодаМатМассивов) делай
					x := x.типЭлемента(SyntaxTree.ВыражˉтипИзРодаМатМассивов);
					w.пСтроку8(", ");
					если x.длина = НУЛЬ то
						w.пСтроку8("*")
					иначе
						Expression(x.длина);
					всё;
				кц;
				w.пСтроку8("] ");
			всё;
			если x.типЭлемента # НУЛЬ то
				Keyword("OF"); w.пСтроку8(" ");
				Type(x.типЭлемента);
			всё;
		кон ПосетиВыражˉтипИзРодаМатМассивов;

		проц PointerFlags(x: SyntaxTree.ВыражˉтипИзРодаУклей);
		перем first: булево;
		нач
				если x.модификаторы # НУЛЬ то
					Modifiers(x.модификаторы)
				иначе
					first := истина;
					если x.опасныйДоступК_памятиЛи¿ то Flag(Global.NameUnsafe,first) всё;
					если x.неОтслУборщикомЛи¿ то Flag(Global.NameUntraced,first) всё;
					если x.реальногоВремени¿ то Flag(Global.NameRealtime,first) всё;
					если x.DisposableЛи¿ то Flag(Global.NameDisposable,first) всё;
					если x.безКадраАктивацииЛи¿ то Flag(Global.NamePlain,first) всё;
					FlagEnd(first);
				всё;
		кон PointerFlags;

		проц ObjectFlags ( rec: SyntaxTree.ВыражˉтипИзРодаЗаписей; x: SyntaxTree.ВыражˉтипИзРодаУклей);
		перем first: булево;
		нач
			если x.модификаторы # НУЛЬ то
				Modifiers(x.модификаторы)
			иначе
				first := истина;
				если x.опасныйДоступК_памятиЛи¿ то Flag(Global.NameUnsafe,first) всё;
				если x.реальногоВремени¿ то Flag(Global.NameRealtime,first) всё;
				если x.DisposableЛи¿ то Flag(Global.NameDisposable,first) всё;
				если x.безКадраАктивацииЛи¿ то Flag(Global.NamePlain,first) всё;
				если rec.абстрактнаяЛи¿ то Flag(Global.NameAbstract, first) всё;
				если rec.ЗащищённаяЛи¿() то Flag(Global.NameExclusive, first) всё;
				FlagEnd(first);
			всё;
		кон ObjectFlags;

		проц {перекрыта}ПосетиВыражˉтипИзРодаУклей*(x: SyntaxTree.ВыражˉтипИзРодаУклей);
		перем pointerBase: SyntaxTree.Выражениеˉтип;
		нач
			если x.типУказуемого = НУЛЬ то
				w.BeginAlert; Keyword("POINTER TO NIL"); w.EndAlert;
			иначе
				pointerBase := x.типУказуемого;
				если x.скрытыйЛи¿ то
					Type(x.типУказуемого);
				аесли (pointerBase суть SyntaxTree.ВыражˉтипИзРодаЗаписей) и (pointerBase(SyntaxTree.ВыражˉтипИзРодаЗаписей).ообъектЛи¿) то
					ПосетиВыражˉтипИзРодаЗаписей(pointerBase(SyntaxTree.ВыражˉтипИзРодаЗаписей))
				иначе
					Keyword("POINTER"); w.пСтроку8(" "); PointerFlags(x); KeywordСимв(Scanner.НаТип2); w.пСтроку8(" ");
					если info то
						(* PodrobnajaPechatq.Pech(w,x.pointerBase); w.Update() *) всё;
					Type(x.типУказуемого);
				всё;
			всё;
		кон ПосетиВыражˉтипИзРодаУклей;

		проц {перекрыта}ПосетиВыражˉтипИзРодаПортовВводаВывода*(x: SyntaxTree.ВыражˉтипИзРодаПортовВводаВывода);
		нач
			Keyword("PORT");
			если x.направление = SyntaxTree.OutPort то
				w.пСтроку8(" "); Keyword("OUT")
			иначе
				утв(x.направление = SyntaxTree.InPort);
				w.пСтроку8(" "); Keyword("IN");
			всё;
			если x.sizeExpression # НУЛЬ то
				w.пСтроку8(" ("); Expression(x.sizeExpression); w.пСтроку8(")");
			всё;
		кон ПосетиВыражˉтипИзРодаПортовВводаВывода;

		проц {перекрыта}ПосетиВыражˉтипИзРодаАктивныхЯчеек*(x: SyntaxTree.ВыражˉтипИзРодаАктивныхЯчеек);
		нач
			если x.являетсяЛиСетьюЯчеек¿ то
				Keyword("CELLNET"); w.пСтроку8(" ");
			иначе
				Keyword("CELL"); w.пСтроку8(" ");
			всё;
			Modifiers(x.модификаторы);
			если x.первыйПараметр # НУЛЬ то ParameterList(x.первыйПараметр) всё;
			Scope(x.внутренняяОбластьВидимости);

			если (x.внутренняяОбластьВидимости суть SyntaxTree.ВнутренняяОбластьВидимостиТипаИзРодаАктивныхЯчеек) и (x.внутренняяОбластьВидимости(SyntaxTree.ВнутренняяОбластьВидимостиТипаИзРодаАктивныхЯчеек).процедураˉтело # НУЛЬ) то
				Body(x.внутренняяОбластьВидимости(SyntaxTree.ВнутренняяОбластьВидимостиТипаИзРодаАктивныхЯчеек).процедураˉтело.внутренняяОбластьВидимости.Тело, mode >= SourceCode)
			всё;

			Indent; Keyword("END"); w.пСтроку8(" ");
			если (x.объявлениеТипа # НУЛЬ) то
				Identifier(x.объявлениеТипа.имя);
			всё;
		кон ПосетиВыражˉтипИзРодаАктивныхЯчеек;

			проц {перекрыта}ПосетиВыражˉтипИзРодаЗаписей*(x: SyntaxTree.ВыражˉтипИзРодаЗаписей);
			перем prevScope: SyntaxTree.ВнутренняяОбластьВидимости;
			нач
			если x.ообъектЛи¿ то
				Keyword("OBJECT"); w.пСтроку8(" ");
				если x.выражˉтипУкляВКоторомОпределёнДанныйТип # НУЛЬ то ObjectFlags(x, x.выражˉтипУкляВКоторомОпределёнДанныйТип)
				всё;
				если info то
					BeginComment; w.пСтроку8("ObjectType");

					EndComment;
				всё;
				если (x.типˉородитель # НУЛЬ)  то
					w.пСтроку8( "(" );
					если (x.типˉородитель суть SyntaxTree.ВыражˉтипИзРодаЗаписей) и (x.типˉородитель(SyntaxTree.ВыражˉтипИзРодаЗаписей).выражˉтипУкляВКоторомОпределёнДанныйТип # НУЛЬ) то
						Type(x.типˉородитель(SyntaxTree.ВыражˉтипИзРодаЗаписей).выражˉтипУкляВКоторомОпределёнДанныйТип)
					иначе
						Type(x.типˉородитель);
					всё;
					w.пСтроку8( ")" );
				всё;
				Scope(x.внутренняяОбластьВидимости);

				если (x.внутренняяОбластьВидимости.процедураˉтело # НУЛЬ) то
					Body(x.внутренняяОбластьВидимости.процедураˉтело.внутренняяОбластьВидимости.Тело, mode >= SourceCode)
				всё;

				Indent; Keyword("END"); w.пСтроку8(" ");
				если (x.выражˉтипУкляВКоторомОпределёнДанныйТип # НУЛЬ) и (x.выражˉтипУкляВКоторомОпределёнДанныйТип.объявлениеТипа # НУЛЬ) то
					Identifier(x.выражˉтипУкляВКоторомОпределёнДанныйТип.объявлениеТипа.имя);
				всё;
			иначе
				Keyword("RECORD"); w.пСтроку8(" ");
				Modifiers(x.модификатор);
				если (x.типˉородитель # НУЛЬ) то
					w.пСтроку8( "(" );
					если (x.типˉородитель суть SyntaxTree.ВыражˉтипИзРодаЗаписей) и (x.типˉородитель(SyntaxTree.ВыражˉтипИзРодаЗаписей).выражˉтипУкляВКоторомОпределёнДанныйТип # НУЛЬ) то
						Type(x.типˉородитель(SyntaxTree.ВыражˉтипИзРодаЗаписей).выражˉтипУкляВКоторомОпределёнДанныйТип)
					иначе
						Type(x.типˉородитель);
					всё;
					w.пСтроку8( ")" );
				всё;
				prevScope := currentScope;
				currentScope := x.внутренняяОбластьВидимости;
				VariableList(x.внутренняяОбластьВидимости.первоеОбъявлениеПеременной);
				если x.внутренняяОбластьВидимости.другойСписокПроцедур # НУЛЬ то w.пВК_ПС; ProcedureList(x.внутренняяОбластьВидимости.другойСписокПроцедур) всё;
				currentScope := prevScope;
				Indent; Keyword("END");
				если (x.выражˉтипУкляВКоторомОпределёнДанныйТип = НУЛЬ) и (x.внутренняяОбластьВидимости.другойСписокПроцедур # НУЛЬ) то w.пВК_ПС; ProcedureList(x.внутренняяОбластьВидимости.другойСписокПроцедур) всё;
			всё;
		кон ПосетиВыражˉтипИзРодаЗаписей;

		проц Flag(ивти: SyntaxTree.ИндВТаблИдент; перем first: булево);
		перем name: SyntaxTree.СтрокаИдентификатора; identifier: SyntaxTree.ИдентификаторВ_исходнике;
		нач
			если first то w.пСтроку8("{") иначе w.пСтроку8(", ") всё;
			first := ложь;
			identifier := Global.GetIdentifier(ивти,printCase);
			Basic.GetString(identifier.И,name);
			w.пСтроку8(name);
		кон Flag;

		проц FlagEnd(first: булево);
		нач
			если ~first то w.пСтроку8("} ") всё;
		кон FlagEnd;

		проц Value(identifier: SyntaxTree.ИндВТаблИдент; value: цел64; перем first: булево);
		нач
			Flag(identifier,first);
			w.пСтроку8("("); w.пЦел64(value,1); w.пСтроку8(")");
		кон Value;

		проц {перекрыта}ПосетиВыражˉтипИзРодаПроцедур*(x: SyntaxTree.ВыражˉтипИзРодаПроцедур);
		перем first: булево;
		нач
			Keyword("PROCEDURE" ); w.пСтроку8(" ");
			first := истина;
			если x.делегатЛи¿ то Flag(Global.NameDelegate,first) всё;
			если x.interruptЛи¿ то Flag(Global.NameInterrupt,first) всё;
			если x.noPAFЛи¿ то Flag(Global.NameNoPAF,first) всё;
			если x.NORETURNЛи¿ то Flag(Global.NameNoReturn,first) всё;
			если x.реальногоВремени¿ то Flag(Global.NameRealtime,first) всё;
			если x.соглашениеОВызовах = SyntaxTree.СоглашениеОВызовахWinAPI то
				Flag(Global.NameWinAPI,first)
			аесли x.соглашениеОВызовах = SyntaxTree.СоглашениеОВызовахСи то
				Flag(Global.NameC,first)
			аесли x.соглашениеОВызовах = SyntaxTree.СоглашениеОВызовахПлатформа то
				Flag(Global.NamePlatformCC,first)
			всё;
			если x.выравниваниеСтека > 1 то Value(Global.NameAlignStack,x.выравниваниеСтека,first) всё;
			если ~first то w.пСтроку8("}") всё;

			если (x.модификаторы # НУЛЬ) и info то
				BeginComment;
				Modifiers(x.модификаторы);
				EndComment;
			всё;
			(*
			CallingConvention(x.callingConvention);
			IF x.isDelegate THEN w.String("{DELEGATE}") END;
			*)
			если (x.первыйПараметр # НУЛЬ) или (x.типВозврата # НУЛЬ) то
				ParameterList(x.первыйПараметр)
			всё;
			если x.типВозврата # НУЛЬ то
				w.пСтроку8( ":" );
				если x.возвратНеОтслУборщикомЛи¿ то
						first := истина;
						Flag(Global.NameUntraced, first);
						FlagEnd(first);
				всё;
				Type(x.типВозврата)
			всё;
			если info и (x.воображаемыйПараметрˉвозврат # НУЛЬ) то
				BeginComment;
				ПосетиОбъявлениеПараметра(x.воображаемыйПараметрˉвозврат);
				EndComment;
			всё;

		кон ПосетиВыражˉтипИзРодаПроцедур;

		(*** expressions ****)

		проц ExpressionList(x: SyntaxTree.СписокВыражˉзначенийЧерезЗапятую);
		перем i: размерМЗ;  expression: SyntaxTree.Выражениеˉзначение;
		нач
			нцДля i := 0 до x.Длина() - 1 делай
				expression := x.ДайВыражение( i );  Expression(expression);
				если i < x.Длина() - 1 то w.пСтроку8( ", " );  всё;
			кц;
		кон ExpressionList;

		проц Expression*(x: SyntaxTree.Выражениеˉзначение);
		нач
			если DebugPosition то трассируй(x.начВ_тексте.start, x.начВ_тексте.end, x.конВ_тексте.start, x.конВ_тексте.end) всё;
			если x = НУЛЬ то
				AlertString("nil expression");
			иначе
				ПосетиУзелИзСемьиВыраженияˉзначения(x);
				если info и (x.резОсмысления # НУЛЬ) и (x.резОсмысления # x) то
					BeginComment; w.пСтроку8("value = "); Expression(x.резОсмысления); EndComment;
				всё;
			всё;
			w.ПротолкниБуферВПоток;
		кон Expression;

		проц {перекрыта}ПосетиВыражениеˉзначение*(x: SyntaxTree.Выражениеˉзначение);
		нач
			AlertString("InvalidExpression");
		кон ПосетиВыражениеˉзначение;

		проц {перекрыта}ПосетиВыражˉзначениеКонструкторБайта*(x: SyntaxTree.ВыражˉзначениеКонструкторБайта);
		нач
			w.пСтроку8( "{" );  ExpressionList(x.состав); w.пСтроку8( "}" );
		кон ПосетиВыражˉзначениеКонструкторБайта;

		проц {перекрыта}ПосетиВыражˉзначениеКонструкторМатМассива*(x: SyntaxTree.ВыражˉзначениеКонструкторМатМассива);
		нач
			w.пСтроку8( "[" );  ExpressionList(x.состав); w.пСтроку8( "]" );
		кон ПосетиВыражˉзначениеКонструкторМатМассива;

		проц {перекрыта}ПосетиВыражˉзначениеУнарнаяОперация*(x: SyntaxTree.ВыражˉзначениеУнарнаяОперация);
		перем identifier: SyntaxTree.ИдентификаторВ_исходнике;
		нач
			w.пСтроку8(" ");
			если x.Операция = Scanner.Transpose то
				identifier := Global.GetIdentifier(x.Операция,printCase);
				Expression(x.операнд);
				Identifier(identifier);
			аесли (x.Операция = Scanner.Address) или (x.Операция = Scanner.Size) или (x.Операция = Scanner.Alias) то
				identifier := Global.GetIdentifier(x.Операция,printCase);
				Identifier(identifier);
				w.пСтроку8(" "); Keyword("OF"); w.пСтроку8(" ");
				Expression(x.операнд);
			аесли (x.Операция = Scanner.Size2) или (x.Операция = Scanner.Address2) то
				identifier := Global.GetIdentifier(x.Операция,printCase);
				Identifier(identifier);
				w.пСтроку8(" ");
				Expression(x.операнд);
			иначе
				identifier := Global.GetIdentifier(x.Операция,printCase);
				Identifier(identifier);
				Expression(x.операнд);
			всё;
		кон ПосетиВыражˉзначениеУнарнаяОперация;

		проц {перекрыта}ПосетиВыражˉзначениеБинарнаяОперация*(x: SyntaxTree.ВыражˉзначениеБинарнаяОперация);
		перем identifier: SyntaxTree.ИдентификаторВ_исходнике; operator: цел32;
		нач
			w.пСтроку8( "(" );
			Expression(x.лев);
			operator := x.Операция;
			(* По идее, здесь может попасться And0 или And1, но я не пойму, 
			   как оно может быть здесь обработано *)
			(* HALT(100500); *)
			утв(operator # Scanner.И_или_Родись);
			identifier := Global.GetIdentifier(x.Операция,printCase);
			w.пСтроку8(" "); Identifier(identifier); w.пСтроку8(" ");
			Expression(x.прав);
			w.пСтроку8(")");
		кон ПосетиВыражˉзначениеБинарнаяОперация;

		проц {перекрыта}ПосетиВыражˉзначениеКонструкторДиапазона*(x: SyntaxTree.ВыражˉзначениеКонструкторДиапазона);
		нач
			если x.нетПервого и x.нетПоследнего и x.нетШага то
				(* open range expression *)
				(* the surrounding spaces prevent the asterisk from being next to a parenthesis,
				which could be confused with the beginning or end of a comment *)
				w.пСтроку8(" * ")

			иначе
				если ~x.нетПервого то Expression(x.первое) всё;
				w.пСтроку8(" .. ");
				если ~x.нетПоследнего то Expression(x.последнее) всё;
				если ~x.нетШага то
					w.пСтроку8(" "); Keyword("BY"); w.пСтроку8(" ");
					Expression(x.Шаг)
				всё
			всё;

			если info то
				BeginComment;
				w.пСтроку8("<RangeExpression:");
				ShortType(x.типОсмысленный);
				w.пСтроку8(">");
				EndComment
			всё
		кон ПосетиВыражˉзначениеКонструкторДиапазона;

		проц {перекрыта}ПосетиВыражˉзначениеКонструкторТензорногоДиапазона*(x: SyntaxTree.ВыражˉзначениеКонструкторТензорногоДиапазона);
		нач
			w.пСтроку8(" ? ");
		кон ПосетиВыражˉзначениеКонструкторТензорногоДиапазона;

		проц {перекрыта}ПосетиВыражˉзначениеПреобразованиеТипа*(x: SyntaxTree.ВыражˉзначениеПреобразованиеТипа);
		нач
			если x.типДляПечати # НУЛЬ то Expression(x.типДляПечати); w.пСтроку8("(");
			аесли info то BeginComment; ShortType(x.типОсмысленный); w.пСтроку8("<-"); EndComment;
			всё;
			Expression(x.аргумент);
			если x.типДляПечати # НУЛЬ то w.пСтроку8(")") всё;
		кон ПосетиВыражˉзначениеПреобразованиеТипа;

		проц {перекрыта}ПосетиВыражˉобращение*(x: SyntaxTree.Выражˉобращение);
		нач
			AlertString("InvalidDesignator");
		кон ПосетиВыражˉобращение;

		проц {перекрыта}ПосетиОбращение˛разобранноеКакОбрК_имени*(x: SyntaxTree.Обращение˛разобранноеКакОбрК_имени);
		нач
			если info то AlertString("(*<IdentifierDesignator>*)") всё;
			Identifier(x.идентификатор)
		кон ПосетиОбращение˛разобранноеКакОбрК_имени;

		проц {перекрыта}ПосетиОбращение˛разобранноеКакОбрК_члену*(x: SyntaxTree.Обращение˛разобранноеКакОбрК_члену);
		нач
			Expression(x.лев);
			w.пСтроку8(".");
			если info то AlertString("(*<SelectorDesignator>*)") всё;
			Identifier(x.идентификатор);
		кон ПосетиОбращение˛разобранноеКакОбрК_члену;

		проц {перекрыта}ПосетиОбращение˛разобранноеКакОбрК_элтуВ_квадрСкобках*(x: SyntaxTree.Обращение˛разобранноеКакОбрК_элтуВ_квадрСкобках);
		нач
			Expression(x.лев);
			если info то AlertString("(*<BracketDesignator>*)") всё;
			w.пСтроку8("["); ExpressionList(x.параметры); w.пСтроку8("]");
		кон ПосетиОбращение˛разобранноеКакОбрК_элтуВ_квадрСкобках;

		проц {перекрыта}ПосетиОбращение˛разобранноеКакВызовВ_круглСкобках*(x: SyntaxTree.Обращение˛разобранноеКакВызовВ_круглСкобках);
		нач
			Expression(x.лев);
			если info то AlertString("(*<ParameterDesignator>*)") всё;
			w.пСтроку8("("); ExpressionList(x.параметры); w.пСтроку8(")");
		кон ПосетиОбращение˛разобранноеКакВызовВ_круглСкобках;

		проц {перекрыта}ПосетиОбращение˛осмысленноеКакОбрПоИндексу*(x: SyntaxTree.Обращение˛осмысленноеКакОбрПоИндексу);
		нач
			Expression(x.лев);
			w.пСтроку8("["); ExpressionList(x.параметры); w.пСтроку8("]");
			если info то
				BeginComment;
				w.пСтроку8("<IndexDesignator:");
				ShortType(x.типОсмысленный);
				w.пСтроку8(">");
				EndComment
			всё;
		кон ПосетиОбращение˛осмысленноеКакОбрПоИндексу;

		проц {перекрыта}ПосетиОбращение˛разобранноеКакОбрЧерезКарет*(x: SyntaxTree.Обращение˛разобранноеКакОбрЧерезКарет);
		нач
			Expression(x.лев);
			если info то AlertString("(*<ArrowDesignator>*)") всё;
			w.пСтроку8( "^" );
		кон ПосетиОбращение˛разобранноеКакОбрЧерезКарет;

		проц ShortType(x: SyntaxTree.Выражениеˉтип); (* for debug information, to prevent recursion *)
		нач
			если x = НУЛЬ то w.пСтроку8("NIL TYPE")
			аесли x суть SyntaxTree.ВыражˉтипИзРодаТиповˉНаименований то Type(x)
			аесли x суть SyntaxTree.ВыражˉтипИзРодаПримитивных то Type(x)
			аесли x суть SyntaxTree.ВыражˉтипИзРодаПроцедур то w.пСтроку8("ProcedureType:");ShortType(x(SyntaxTree.ВыражˉтипИзРодаПроцедур).типВозврата);
			иначе w.пСтроку8("(other)") всё;
		кон ShortType;

		проц {перекрыта}ПосетиОбращение˛осмысленноеКакОбрК_именованнойСущности*(x: SyntaxTree.Обращение˛осмысленноеКакОбрК_именованнойСущности);
		нач
			если (x.лев # НУЛЬ) и ~x.лев.скрытВ_активнойЯчейке то
			Expression(x.лев); w.пСтроку8(".");
			всё;
			если x.Объявление суть SyntaxTree.ОбъявлениеОперации то
				w.пСтроку8('"'); Identifier(x.Объявление.имя); w.пСтроку8('"');
			иначе
				useCase :=
					(x.Объявление суть SyntaxTree.ОбъявлениеВстроеннойПроцедуры)
					или ((x.Объявление суть SyntaxTree.ОбъявлениеТипаˉнаименования) и (x.Объявление(SyntaxTree.ОбъявлениеТипаˉнаименования).выражениеˉтип суть SyntaxTree.ВыражˉтипИзРодаПримитивных))
					или (x.Объявление суть SyntaxTree.ДеревоМодуля) и ((x.Объявление.имя.И = Global.systemName.И) или (x.Объявление.имя.И = Global.SystemName.И));
				Identifier(x.Объявление.имя);
				useCase := ложь;
			всё;
			если info то
				BeginComment;
				w.пСтроку8("<SymbolDesignator:");
				ShortType(x.Объявление.Тип);
				w.пСтроку8(">");
				EndComment
			всё;
		кон ПосетиОбращение˛осмысленноеКакОбрК_именованнойСущности;

		проц {перекрыта}ПосетиОбращение˛осмысленноеКакВызовМетодаПредка*(x: SyntaxTree.Обращение˛осмысленноеКакВызовМетодаПредка);
		нач
			Expression(x.лев);
			w.пСтроку8( "^" );
			если info то
				BeginComment;
				w.пСтроку8("<SupercallDesignator:");
				ShortType(x.типОсмысленный);
				w.пСтроку8(">");
				EndComment
			всё;
		кон ПосетиОбращение˛осмысленноеКакВызовМетодаПредка;

		проц {перекрыта}ПосетиОбращение˛осмысленноеКакОбрК_себе*(x: SyntaxTree.Обращение˛осмысленноеКакОбрК_себе);
		нач
			утв(x.лев = НУЛЬ);
			Keyword("SELF");
			если info то
				BeginComment;
				w.пСтроку8("<SelfDesignator:");
				ShortType(x.типОсмысленный);
				w.пСтроку8(">");
				EndComment
			всё;

		кон ПосетиОбращение˛осмысленноеКакОбрК_себе;

		проц {перекрыта}ПосетиОбращение˛осмысленноеКакОбрК_псевдоПеременной«результат»*(x: SyntaxTree.Обращение˛осмысленноеКакОбрК_псевдоПеременной«результат»);
		нач
			утв(x.лев = НУЛЬ);
			Keyword("RESULT");
			если info то
				BeginComment;
				w.пСтроку8("<ResultDesignator:");
				ShortType(x.типОсмысленный);
				w.пСтроку8(">");
				EndComment
			всё;
		кон ПосетиОбращение˛осмысленноеКакОбрК_псевдоПеременной«результат»;

		проц {перекрыта}ПосетиОбращение˛осмысленноеКакРазыменованиеУкля*(x: SyntaxTree.Обращение˛осмысленноеКакРазыменованиеУкля);
		нач
			Expression(x.лев);
			w.пСтроку8( "^" );
			если info то
				BeginComment;
				w.пСтроку8("<DereferenceDesignator:");
				ShortType(x.типОсмысленный);
				w.пСтроку8(">");
				EndComment
			всё;
		кон ПосетиОбращение˛осмысленноеКакРазыменованиеУкля;

		проц {перекрыта}ПосетиОбращение˛осмысленноеКакОхранаТипа*(x: SyntaxTree.Обращение˛осмысленноеКакОхранаТипа);
		нач
			Expression(x.лев);
			если info то
				BeginComment;
				w.пСтроку8("<TypeGuardDesignator:");
				ShortType(x.типОсмысленный);
				w.пСтроку8(">");
				EndComment
			всё;
			w.пСтроку8("(");
			если x.имяОхраняемогоТипаДляПечати # НУЛЬ то Expression(x.имяОхраняемогоТипаДляПечати) иначе Type(x.типОсмысленный) всё;
			w.пСтроку8(")");
		кон ПосетиОбращение˛осмысленноеКакОхранаТипа;

		проц {перекрыта}ПосетиОбращение˛осмысленноеКакВызовПроцедуры*(x: SyntaxTree.Обращение˛осмысленноеКакВызовПроцедуры);
		нач
			Expression(x.лев);
			если info то
				BeginComment;
				w.пСтроку8("<ProcedureCallDesignator:");
				ShortType(x.типОсмысленный);
				w.пСтроку8(">");
				EndComment
			всё;
			w.пСтроку8("("); ExpressionList(x.параметры); w.пСтроку8(")");
		кон ПосетиОбращение˛осмысленноеКакВызовПроцедуры;

		проц {перекрыта}ПосетиОбращение˛осмысленноеКакВызовПодставляемойПроцедуры*(x: SyntaxTree.Обращение˛осмысленноеКакВызовПодставляемойПроцедуры);
		нач
			Scope(x.Тело.областьВидимости);
			ПосетиПредписание«тело»без«выходя»(x.Тело);
		кон ПосетиОбращение˛осмысленноеКакВызовПодставляемойПроцедуры;

		проц {перекрыта}ПосетиОбращение˛осмысленноеКакВызовВстроеннойПроцедуры*(x: SyntaxTree.Обращение˛осмысленноеКакВызовВстроеннойПроцедуры);
		нач
			если x.лев # НУЛЬ то
				Expression(x.лев);
			иначе
				w.пСтроку8("BUILTIN(");
				w.пЦел64(x.номерВстроеннойПроцедуры,1);
				w.пСтроку8(")");
			всё;
			если info то
				BeginComment;
				w.пСтроку8("<BuiltinCallDesignator:");
				ShortType(x.типОсмысленный);
				w.пСтроку8(">");
				EndComment
			всё;
			w.пСтроку8("("); ExpressionList(x.параметры); w.пСтроку8(")");
		кон ПосетиОбращение˛осмысленноеКакВызовВстроеннойПроцедуры;

		проц {перекрыта}ПосетиЗначение˛известноеВоВремяКомпиляции*(x: SyntaxTree.Значение˛известноеВоВремяКомпиляции);
		нач
			AlertString("InvalidValue");
			(* Инспекция(18); *)
		кон ПосетиЗначение˛известноеВоВремяКомпиляции;

		проц {перекрыта}ПосетиЗначение˛известноеВоВремяКомпиляции˛булево*(x: SyntaxTree.Значение˛известноеВоВремяКомпиляции˛булево);
		нач
			если Scanner.ВариантыПеревода.Uppercase = printCase то
				если x.значение то w.пСтроку8("TRUE" ) иначе w.пСтроку8( "FALSE" ) всё
			аесли Scanner.ВариантыПеревода.Русский = printCase то
				если x.значение то w.пСтроку8("истина" ) иначе w.пСтроку8( "ложь" ) всё
			иначе
				если x.значение то w.пСтроку8("true" ) иначе w.пСтроку8( "false" ) всё
			всё
		кон ПосетиЗначение˛известноеВоВремяКомпиляции˛булево;

		проц Hex(x: цел64);
		перем i: цел32; a: массив 20 из симв8; y: цел64;
		нач
			i := 0;
			нцДо
				y := x остОтДеленияНа 10H;
				если y < 10 то a[i] := симв8ИзКода(y+кодСимв8('0'))
				иначе a[i] := симв8ИзКода(y-10+кодСимв8('A'))
				всё;
				x := x DIV 10H;
				увел(i);
			кцПри (x=0) или (i=16);
			если y >=10 то w.пСимв8("0") всё;
			нцДо умень( i ); w.пСимв8( a[i] ) кцПри i = 0
		кон Hex;

		проц {перекрыта}ПосетиЗначение˛известноеВоВремяКомпиляции˛целое*(x: SyntaxTree.Значение˛известноеВоВремяКомпиляции˛целое);
		нач
			w.пЦел64(x.значение,1);
		кон ПосетиЗначение˛известноеВоВремяКомпиляции˛целое;

		проц {перекрыта}ПосетиЗначение˛известноеВоВремяКомпиляции˛символ*(x: SyntaxTree.Значение˛известноеВоВремяКомпиляции˛символ);
		нач
			Hex( кодСимв8(x.значение));  w.пСтроку8( "X" );
		кон ПосетиЗначение˛известноеВоВремяКомпиляции˛символ;

		проц {перекрыта}ПосетиЗначение˛известноеВоВремяКомпиляции˛байт*(x: SyntaxTree.Значение˛известноеВоВремяКомпиляции˛байт);
		перем i: цел32;
		нач
			w.пСтроку8("{");
			i := 0;
			нцПока (i<матМаксимум(Basic.Set)) и ~(i в x.значение)  делай
				увел(i);
			кц;
			если i<матМаксимум(Basic.Set) то
				w.пЦел64(i,1);
				увел(i);
				нцПока i < матМаксимум(Basic.Set) делай
					если i в x.значение то w.пСтроку8(","); w.пЦел64(i,1); всё;
					увел(i)
				кц
			всё;
			w.пСтроку8("}");
		кон ПосетиЗначение˛известноеВоВремяКомпиляции˛байт;

		проц {перекрыта}ПосетиЗначение˛известноеВоВремяКомпиляции˛матМассив*(x: SyntaxTree.Значение˛известноеВоВремяКомпиляции˛матМассив);
		нач
			ПосетиВыражˉзначениеКонструкторМатМассива(x.значение);
		кон ПосетиЗначение˛известноеВоВремяКомпиляции˛матМассив;

		проц FormatedFloat(value: вещ64; subtype: цел32);
		перем string: массив 128 из симв8; i: цел32;
		нач
			если subtype = Scanner.Real то
				ws.ПерейдиКМестуВПотоке(0); ws.пВещ64(value,11(*mantissa X.XXXXXXX *)+5(*exponent E+XXX *)); ws.ДайПрочитанное˛сколькоПоместитсяИСимвол0(string);
				i := 0;
				нцПока(i<длинаМассива(string)) и (string[i] # 0X) делай
					если string[i] = "D" то string[i] := "E" всё;
					увел(i);
				кц;
				w.пСтроку8(string);
			аесли subtype = Scanner.Longreal то
				ws.ПерейдиКМестуВПотоке(0); ws.пВещ64(value,20(*mantissa X.X..(16)..X *)+5(*exponent E+XXX *) ); ws.ДайПрочитанное˛сколькоПоместитсяИСимвол0(string);
				i := 0;
				нцПока(i<длинаМассива(string)) и (string[i] # 0X) делай
					если string[i] = "E" то string[i] := "D" всё;
					увел(i);
				кц;
				w.пСтроку8(string);
			иначе
				w.пВещ64(value,31)
			всё;
		кон FormatedFloat;

		проц {перекрыта}ПосетиЗначение˛известноеВоВремяКомпиляции˛вещ*(x: SyntaxTree.Значение˛известноеВоВремяКомпиляции˛вещ);
		нач FormatedFloat(x.значение, x.кодПодтипа)
		кон ПосетиЗначение˛известноеВоВремяКомпиляции˛вещ;

		проц {перекрыта}ПосетиЗначение˛известноеВоВремяКомпиляции˛комплексное*(x: SyntaxTree.Значение˛известноеВоВремяКомпиляции˛комплексное);
		нач
			если (x.значениеRe = 0) и (x.значениеIm = 1) то
				w.пСтроку8("IMAG")
			иначе
				w.пСтроку8("(");
				FormatedFloat(x.значениеRe, x.кодПодтипа)	;
				w.пСтроку8(" ");
				если x.значениеIm > 0 то w.пСтроку8("+") всё;
				FormatedFloat(x.значениеIm, x.кодПодтипа);
				w.пСтроку8("*IMAG)")
			всё
		кон ПосетиЗначение˛известноеВоВремяКомпиляции˛комплексное;

		проц {перекрыта}ПосетиЗначение˛известноеВоВремяКомпиляции˛строковое*(x: SyntaxTree.Значение˛известноеВоВремяКомпиляции˛строковое);
		перем i: цел32; ch: симв8;
		нач
			i := 0;
			w.пСимв8('\');
			w.пСимв8('"');
			нцПока (i < длинаМассива( x.значение )) и (x.значение[i] # 0X) делай
				ch := x.значение[i];
				если ch = Scanner.CR то w.пСтроку8("\n")
				аесли ch = Scanner.LF то (* ignore *)
				аесли ch = Scanner.TAB то w.пСтроку8("\t")
				аесли ch = '\' то w.пСтроку8("\\")
				аесли ch = '"' то w.пСтроку8(\"""\); (* " *)
				иначе w.пСимв8(ch)
				всё;
				увел( i );
			кц;
			w.пСимв8('"');
			w.пСимв8('\');
		кон ПосетиЗначение˛известноеВоВремяКомпиляции˛строковое;


		проц {перекрыта}ПосетиЗначение˛известноеВоВремяКомпиляции˛цитату*(ц: SyntaxTree.Значение˛известноеВоВремяКомпиляции˛цитата);
		перем
			(* буферМакроВызова : Strings.Buffer;
			печатникМакроВызова: Потоки.Писарь; *)
		нач
			(* нов(буферМакроВызова,256);
			писарьДляСбораТекстаЦитаты := буферМакроВызова.GetWriter(); *)
			Scanner.ПечЦепочкуЛексем(w, писарьКартыМест, ц.перваяЛексема, ц.последняяЛексема, printCase, лексемыВВидеИсх, info, ложь);
		кон ПосетиЗначение˛известноеВоВремяКомпиляции˛цитату;

		проц {перекрыта}ПосетиЗначение˛известноеВоВремяКомпиляции˛НУЛЬ*(x: SyntaxTree.Значение˛известноеВоВремяКомпиляции˛НУЛЬ);
		нач 
		Keyword("NIL");
		если info то BeginComment; Type(x.типОсмысленный); EndComment; всё;
		кон ПосетиЗначение˛известноеВоВремяКомпиляции˛НУЛЬ;

		проц {перекрыта}ПосетиЗначение˛известноеВоВремяКомпиляции˛перечисления*(x: SyntaxTree.Значение˛известноеВоВремяКомпиляции˛перечисления);
		нач w.пЦел64(x.значение,1);
		кон ПосетиЗначение˛известноеВоВремяКомпиляции˛перечисления;

		проц {перекрыта}ПосетиЗначение˛известноеВоВремяКомпиляции˛процедурногоТипа*(x: SyntaxTree.Значение˛известноеВоВремяКомпиляции˛процедурногоТипа);
		нач
			Symbol(x.значение);
		кон ПосетиЗначение˛известноеВоВремяКомпиляции˛процедурногоТипа;

		(**** symbols ****)

		проц Symbol*(x: SyntaxTree.ОбъявлениеИменованнойСущности);
		нач
			если x = НУЛЬ то
				AlertString("nil symbol");
			иначе
				ПосетиУзелИзСемьиОбъявления(x);
			всё
		кон Symbol;

		проц {перекрыта}ПосетиОбъявлениеИменованнойСущности*(x: SyntaxTree.ОбъявлениеИменованнойСущности);
		нач
			AlertString("InvalidSymbol"); (* См. VSymbol *)
		кон ПосетиОбъявлениеИменованнойСущности;

		проц Visible(symbol: SyntaxTree.ОбъявлениеИменованнойСущности): булево;
		нач
			возврат истина (* (SyntaxTree.Public * symbol.access # {}) OR (mode > SymbolFile) *)
				(* using only exported symbols does not work since there might be dependencies ... *)
		кон Visible;

		проц PrintSymbol(x: SyntaxTree.ОбъявлениеИменованнойСущности);
		нач
			если x суть SyntaxTree.ОбъявлениеОперации то
				w.пСтроку8('"');Identifier(x.имя);  w.пСтроку8('"')
			иначе
				Identifier(x.имя)
			всё;

			если SyntaxTree.ЗаписьОбщедоступна в x.праваДоступа то w.пСтроку8( "*" )
			аесли SyntaxTree.ЧтениеОбщедоступно в x.праваДоступа то w.пСтроку8( "-" )
			аесли x.праваДоступа = {} то утв(mode > SourceCode);
				если info то BeginComment; w.пСтроку8("<- hidden"); EndComment  всё;
			всё;

			если x.имяОтКомпоновщика # НУЛЬ то
				w.пСтроку8(" "); Keyword("EXTERN"); w.пСтроку8(" "); w.пСимв8('"');
				w.пСтроку8(x.имяОтКомпоновщика^); w.пСимв8('"');
			всё;

			если info то
				BeginComment;
				если x.смещение˛бит # матМинимум(размерМЗ) то
					w.пСтроку8("@ofs="); w.пЦел64(x.смещение˛бит DIV 8,1);
				иначе
					если x.Тип # НУЛЬ то
						если x.Тип.резОсмысления.выравнивание˛бит #0 то
							w.пСтроку8("@align="); w.пЦел64(x.Тип.резОсмысления.выравнивание˛бит DIV 8,1);
						всё;
					всё;
				всё;
				EndComment;
			всё;
		кон PrintSymbol;

		проц {перекрыта}ПосетиОбъявлениеТипаˉнаименования*(x: SyntaxTree.ОбъявлениеТипаˉнаименования);
		нач
			если Visible(x) то
				если (x.праваДоступа # SyntaxTree.Скрытый) или (mode > SourceCode) то
					Comments(x.комментарий,x,ложь);
					PrintSymbol(x);
					w.пСтроку8(" = ");
					если x.праваДоступа # SyntaxTree.Скрытый то
						Type(x.выражениеˉтип);
					иначе ShortType(x.выражениеˉтип)
					всё;
					Comments(x.комментарий,x,истина);
				всё;
			всё;
		кон ПосетиОбъявлениеТипаˉнаименования;

		проц TypeDeclarationList(x: SyntaxTree.ОбъявлениеТипаˉнаименования);
		нач
			Indent;
			Keyword("TYPE"); w.пСтроку8(" ");
			w.IncIndent;
			нцПока(x # НУЛЬ) делай
				Indent;
				Symbol(x);
				w.пСтроку8(";"); w.пСтроку8(" ");
				x := x.следщОТН;
				если x # НУЛЬ то w.пВК_ПС всё;
			кц;
			w.DecIndent;
		кон TypeDeclarationList;

		проц {перекрыта}ПосетиОбъявлениеКонстанты*(x: SyntaxTree.ОбъявлениеКонстанты);
		нач
			если Visible(x) то
				если (mode > SourceCode) или (x.праваДоступа # SyntaxTree.Скрытый) то
					Comments(x.комментарий,x,ложь);
					PrintSymbol(x);
					если x.выражениеˉзначение # НУЛЬ то
						w.пСтроку8( " = " );  Expression(x.выражениеˉзначение);
					всё;
					если info то BeginComment; ShortType(x.Тип); EndComment; всё;
					если info и (x.выражениеˉзначение.резОсмысления = НУЛЬ) то AlertString("(*NOT A CONSTANT*)") всё;
					Comments(x.комментарий,x,истина);
				всё;
			всё;
		кон ПосетиОбъявлениеКонстанты;

		проц ConstantList(x: SyntaxTree.ОбъявлениеКонстанты);
		нач
			Indent;  Keyword("CONST"); w.пСтроку8(" ");
			w.IncIndent;
			нцПока(x # НУЛЬ) делай
				если (x.праваДоступа # SyntaxTree.Скрытый) или (mode > SourceCode) то
					Indent;
					Symbol(x);
					w.пСтроку8( ";" ); w.пСтроку8(" ");
				всё;
				x := x.следщОК;
			кц;
			w.DecIndent;
		кон ConstantList;

		проц {перекрыта}ПосетиОбъявлениеПеременной*(x: SyntaxTree.ОбъявлениеПеременной);
		нач
			если Visible(x) то
				если (x.праваДоступа # SyntaxTree.Скрытый) то
					Comments(x.комментарий,x,ложь);
					PrintSymbol(x);
					если x.модификаторы # НУЛЬ то w.пСтроку8(" "); Modifiers(x.модификаторы); всё;

					если x.инициализатор # НУЛЬ то
						w.пСтроку8( " := " ); Expression (x.инициализатор);
					всё;
					w.пСтроку8( ": " );
					Type(x.Тип);
					Comments(x.комментарий,x,истина);
				аесли mode>SourceCode то
					Comments(x.комментарий,x,ложь);
					PrintSymbol(x);
					если x.инициализатор # НУЛЬ то
						w.пСтроку8( " := " ); Expression (x.инициализатор);
					всё;
					Comments(x.комментарий,x,истина);
				всё
			всё;
		кон ПосетиОбъявлениеПеременной;

		проц VariableList(x: SyntaxTree.ОбъявлениеПеременной);
		перем next: SyntaxTree.ОбъявлениеПеременной;

			проц Flags(l0x: SyntaxTree.ОбъявлениеПеременной);
			перем first: булево;
			нач
				first := истина;
				если l0x.fixed то
					Value(Global.NameFixed,l0x.выравнивание,first)
				аесли l0x.выравнивание > 1 то
					Value(Global.NameAligned,l0x.выравнивание,first)
				аесли l0x.поСмещениюЛи¿ то
					Value(Global.NameFictive, l0x.СмещениеДляПоляПоСмещению, first);
				аесли l0x.предпочитаетРегистрЛи¿ то
					Flag(Global.NameRegister,first);
				всё;
				если l0x.неОтслУборщикомЛи¿ то
					Flag(Global.NameUntraced,first)
				всё;
				FlagEnd(first);
			кон Flags;

		нач
			w.IncIndent;
			нцПока(x # НУЛЬ) делай
				next := x.следщОП;
				если (x.праваДоступа # SyntaxTree.Скрытый) или (mode > SourceCode) то
					Indent;
					Comments(x.комментарий, x, ложь);
					PrintSymbol(x); Flags(x);
					если x.инициализатор # НУЛЬ то
						w.пСтроку8( " := " ); Expression (x.инициализатор);
					всё;
					нцПока(next # НУЛЬ) и (next.Тип = x.Тип) и ((next.праваДоступа # SyntaxTree.Скрытый) или (mode > SourceCode)) делай

						w.пСтроку8(", "); PrintSymbol(next); Flags(next);
						next := next.следщОП;
					кц;
					если x.праваДоступа # SyntaxTree.Скрытый то
						w.пСтроку8(": ");
						Type(x.Тип);
					иначе
						w.пСтроку8(": ");
						ShortType(x.Тип);
					всё;
					w.пСтроку8("; ");
					Comments(x.комментарий,x, истина);
				всё;
				x := next;
			кц;
			w.DecIndent
		кон VariableList;

		проц AliasList(x: SyntaxTree.ОбъявлениеAlias);
		перем next: SyntaxTree.ОбъявлениеAlias;
		нач
			w.IncIndent;
			нцПока(x # НУЛЬ) делай
				next := x.следщAlias;
				если (x.праваДоступа # SyntaxTree.Скрытый) или (mode > SourceCode) то
					Indent;
					Comments(x.комментарий, x, ложь);
					PrintSymbol(x);
					если x.цель # НУЛЬ то
						w.пСтроку8( " := " ); Expression (x.цель);
					всё;
					если x.праваДоступа # SyntaxTree.Скрытый то
						w.пСтроку8(": ");
						Type(x.Тип);
					иначе
						w.пСтроку8(": ");
						ShortType(x.Тип);
					всё;
					w.пСтроку8("; ");
				всё;
				x := next;
			кц;
			w.DecIndent
		кон AliasList;

		проц {перекрыта}ПосетиОбъявлениеПараметра*(x: SyntaxTree.ОбъявлениеПараметра);
		нач
			если (x.праваДоступа # SyntaxTree.Скрытый) то
				Comments(x.комментарий,x,истина);
				если x.видПараметра = SyntaxTree.ВидПараметраПерем то Keyword("VAR"); w.пСтроку8(" ");
				аесли x.видПараметра = SyntaxTree.ВидПараметраКонст то Keyword("CONST"); w.пСтроку8(" ");
				всё;
				PrintSymbol(x);
				если x.модификаторы # НУЛЬ то w.пСтроку8(" "); Modifiers(x.модификаторы); всё;

				если x.значениеПоУмолчанию # НУЛЬ то
					w.пСтроку8("= "); Expression(x.значениеПоУмолчанию);
				всё;
				w.пСтроку8( ": " );
				Type(x.Тип);
				Comments(x.комментарий,x,истина);
			аесли (mode > SourceCode) то
				Comments(x.комментарий,x,ложь);
				PrintSymbol(x);
				Comments(x.комментарий,x,истина);
			всё;
		кон ПосетиОбъявлениеПараметра;

		проц ParameterList*(x: SyntaxTree.ОбъявлениеПараметра);
		перем next: SyntaxTree.ОбъявлениеПараметра; first: булево;

			проц Flags(l1x: SyntaxTree.ОбъявлениеПараметра);
			перем l2first: булево;
			нач
				если l1x.модификаторы # НУЛЬ то
					Modifiers(l1x.модификаторы)
				иначе
					l2first := истина;
					если l1x.неОтслУборщикомЛи¿ то
						Flag(Global.NameUntraced,l2first)
					всё;

					FlagEnd(l2first);
				всё;
			кон Flags;

		нач
			first := истина;
			w.пСтроку8( "(" );
			нцПока(x # НУЛЬ) делай
				next := x.следщОП;
				если (x.праваДоступа # SyntaxTree.Скрытый) или (mode > SourceCode) то
					если ~first то w.пСтроку8("; ") всё;
					first := ложь;
					если x.видПараметра = SyntaxTree.ВидПараметраПерем то Keyword("VAR"); w.пСтроку8(" ");
					аесли x.видПараметра = SyntaxTree.ВидПараметраКонст то Keyword("CONST"); w.пСтроку8(" ");
					всё;
					PrintSymbol(x); Flags(x);
					если x.значениеПоУмолчанию # НУЛЬ то
						w.пСтроку8("= "); Expression(x.значениеПоУмолчанию);
					всё;

					нцПока (next # НУЛЬ) и (next.Тип = x.Тип) и (next.видПараметра = x.видПараметра) и ((next.праваДоступа # SyntaxTree.Скрытый) или (mode > SourceCode)) делай
						w.пСтроку8(", ");
						PrintSymbol(next); Flags(next);
						если next.значениеПоУмолчанию # НУЛЬ то
							w.пСтроку8("= "); Expression(next.значениеПоУмолчанию);
						всё;
						next := next.следщОП;
					кц;
					если x.праваДоступа # SyntaxTree.Скрытый то
						w.пСтроку8(": ");
						Type(x.Тип);
					иначе
						w.пСтроку8(": ");
						ShortType(x.Тип);
					всё;
				всё;
				x := next;
			кц;
			w.пСтроку8( ")" );
		кон ParameterList;

		(* PROCEDURE Access(access: SET);
		BEGIN
			IF SyntaxTree.PublicWrite IN access THEN w.String(" PublicWrite") END;
			IF SyntaxTree.ProtectedWrite IN access THEN w.String(" ProtectedWrite") END;
			IF SyntaxTree.InternalWrite IN access THEN w.String(" InternalWrite") END;
			IF SyntaxTree.PublicRead IN access THEN w.String(" PublicRead") END;
			IF SyntaxTree.ProtectedRead IN access THEN w.String(" ProtectedRead") END;
			IF SyntaxTree.InternalRead IN access THEN w.String(" InternalRead") END;
		END Access; *)

		проц {перекрыта}ПосетиОбъявлениеПроцедуры*(x: SyntaxTree.ОбъявлениеПроцедуры);
		перем type: SyntaxTree.ВыражˉтипИзРодаПроцедур;  first: булево; fp: SyntaxTree.КонтрольнаяСумма;
		нач
			если Visible(x) то

				Indent;
				Comments(x.комментарий,x,ложь);
				Keyword("PROCEDURE"); w.пСтроку8(" ");
				если (mode = SymbolFile) и ~x.встраиваемаяЛи¿ и ~x.оберонˉвстраиваемаяЛи¿ то
					w.пСтроку8("^ ");
				всё;

				type := x.Тип(SyntaxTree.ВыражˉтипИзРодаПроцедур);

				first := истина;
				если type.выравниваниеСтека > 1 то Value(Global.NameAlignStack,type.выравниваниеСтека,first) всё;
				если (type.реальногоВремени¿) то Flag(Global.NameRealtime,first) всё;
				если (type.NORETURNЛи¿) то Flag(Global.NameNoReturn,first) всё;
				если (x.абстрактнаяЛи¿) то Flag(Global.NameAbstract,first) всё;
				если (x.неРасширяемаяЛи¿) то Flag(Global.NameFinal,first) всё;
				если x.этоМетодПомеченныйКакПерекрытый то Flag(Global.NameПерекрыта,first) всё;
				
				если (x.fixed) то Value(Global.NameFixed, x.выравнивание,first)
				аесли (x.выравнивание >1) то Value(Global.NameAligned, x.выравнивание, first)
				всё;
				если type.соглашениеОВызовах = SyntaxTree.СоглашениеОВызовахWinAPI то
					Flag(Global.NameWinAPI,first)
				аесли type.соглашениеОВызовах = SyntaxTree.СоглашениеОВызовахСи то
					Flag(Global.NameC,first)
				аесли type.соглашениеОВызовах = SyntaxTree.СоглашениеОВызовахПлатформа то
					Flag(Global.NamePlatformCC,first)
				всё;

				если x.встраиваемаяЛи¿ и (mode = SymbolFile) то
					если fingerprinter = НУЛЬ то нов(fingerprinter) всё;
					fp := fingerprinter.SymbolFP(x);
					Value(Global.NameFingerprint, fp.Публичная, first)
				всё;
				FlagEnd(first);

				если x.встраиваемаяЛи¿ или x.оберонˉвстраиваемаяЛи¿ то w.пСтроку8(" - ") всё;
				если x.конструкторЛи¿ то w.пСтроку8(" & ") всё;
				если x.финалайзерЛи¿ то w.пСтроку8(" ~ ") всё;

				если (type.параметрˉсам # НУЛЬ) и ~(type.параметрˉсам.имя.И = "@Self") то
					ParameterList(type.параметрˉсам);
				всё;

				если info то
					BeginComment;
					Modifiers(x.Тип(SyntaxTree.ВыражˉтипИзРодаПроцедур).модификаторы);
					EndComment;
				всё;
				
				PrintSymbol(x);
				если (type.первыйПараметр # НУЛЬ)  или (type.типВозврата # НУЛЬ ) то  (* print parentheses only if not parameterless procedure *)
					ParameterList(type.первыйПараметр);
				всё;
				если type.типВозврата # НУЛЬ то
					w.пСтроку8( ": " );
					если type.возвратНеОтслУборщикомЛи¿ то
						first := истина;
						Flag(Global.NameUntraced, first);
						FlagEnd(first);
					всё;
					Type(type.типВозврата);
				всё;
				если info и (type.воображаемыйПараметрˉвозврат # НУЛЬ) то
					BeginComment;
					w.пСтроку8("retPar = ");
					Symbol(type.воображаемыйПараметрˉвозврат);
					EndComment;
				всё;
				если x.имяОтКомпоновщика = НУЛЬ то
					если (mode > SymbolFile) или (mode = SymbolFile) и (x.встраиваемаяЛи¿ или x.оберонˉвстраиваемаяЛи¿) то
						w.пСтроку8( ";" );
						Comments(x.комментарий,x,истина);
						если (mode >= SymbolFile) или x.оберонˉвстраиваемаяЛи¿ то
							ProcedureScope(x.внутренняяОбластьВидимости);
						всё;
						Indent;  Keyword("END"); w.пСтроку8(" "); Identifier(x.имя);
					всё;
				всё;
			всё;
		кон ПосетиОбъявлениеПроцедуры;

		проц {перекрыта}ПосетиОбъявлениеОперации*(x: SyntaxTree.ОбъявлениеОперации);
		перем type: SyntaxTree.ВыражˉтипИзРодаПроцедур;
			first: булево;
		нач
			если Visible(x) то
				Indent;
				Comments(x.комментарий,x,ложь);
				Keyword("OPERATOR"); w.пСтроку8(" ");

				first := истина;
				если x.встраиваемаяЛи¿  или x.оберонˉвстраиваемаяЛи¿ то
					утв(~x.динамическаяЛи¿);
					w.пСтроку8("-");
				иначе
					если mode = SymbolFile то w.пСтроку8("^ ") всё;
					если x.динамическаяЛи¿ то Flag(Global.NameDynamic, first) всё;
					если ~first то w.пСтроку8("}") всё;
				всё;

				type := x.Тип(SyntaxTree.ВыражˉтипИзРодаПроцедур);
				PrintSymbol(x);

				ParameterList(type.первыйПараметр);
				если type.типВозврата # НУЛЬ то
					w.пСтроку8( ": " );
					если type.возвратНеОтслУборщикомЛи¿ то
						first := истина;
						Flag(Global.NameUntraced, first);
						FlagEnd(first);
					всё;
					Type(type.типВозврата);
				всё;
				если info и (type.воображаемыйПараметрˉвозврат # НУЛЬ) то
					BeginComment;
					(*w.String("retPar = ");*) (*! this is present in VisitProcedure - should it be present here as well??? *)
					Symbol(type.воображаемыйПараметрˉвозврат);
					EndComment;
				всё;

				если x.имяОтКомпоновщика = НУЛЬ то
					если (mode > SymbolFile) или (mode = SymbolFile) и (x.встраиваемаяЛи¿ или x.оберонˉвстраиваемаяЛи¿) то
						w.пСтроку8( ";" );
						Comments(x.комментарий,x,истина);
						если mode >= SymbolFile то
							ProcedureScope(x.внутренняяОбластьВидимости);
						всё;
						Indent; Keyword("END"); w.пСтроку8(" "); w.пСтроку8( '"' ); Identifier(x.имя); w.пСтроку8( '"' );
					всё;
				всё;
			всё
		кон ПосетиОбъявлениеОперации;

		проц ProcedureList(list: SyntaxTree.СписокОбъявленийПроцедур);
		перем x: SyntaxTree.ОбъявлениеПроцедуры; i: размерМЗ; type: SyntaxTree.ВыражˉтипИзРодаПроцедур;
		нач
			w.IncIndent;
			нцДля i := 0 до list.Длина()-1 делай
				x := list.ДайПоИндексу(i);
				если (x.праваДоступа # SyntaxTree.Скрытый) и ~(x.процедураˉтелоЛи¿) или (mode > SourceCode)
				то
					type := x.Тип(SyntaxTree.ВыражˉтипИзРодаПроцедур);
					если (type.параметрˉсам = НУЛЬ) или (type.параметрˉсам.имя.И = "@Self") и (currentScope суть SyntaxTree.ВнутренняяОбластьВидимостиТипаИзРодаЗаписей)
						или ~ (type.параметрˉсам.имя.И = "@Self") и ~(currentScope суть SyntaxTree.ВнутренняяОбластьВидимостиТипаИзРодаЗаписей)
					то
						Symbol(x);
						w.пСтроку8( "; " );
					всё;
				всё;
				если (i# list.Длина()-1) и (mode > SymbolFile) и ((x.праваДоступа # SyntaxTree.Скрытый) или (mode > SourceCode)) то w.пВК_ПС всё;
			кц;
			w.DecIndent;
		кон ProcedureList;

		проц {перекрыта}ПосетиОбъявлениеИспользованияМодуля*(x: SyntaxTree.ОбъявлениеИмпортаМодуля);
		перем context: SyntaxTree.ИдентификаторВ_исходнике; i: размерМЗ;
		нач
			если x.имяМодуля.И # x.имя.И то
				Identifier(x.имя);  w.пСтроку8( " := " ) всё;
			если (x.областьВидимостиГдеОбъявлено = НУЛЬ) или (x.областьВидимостиГдеОбъявлено.модульˉвладелец = НУЛЬ) то context := SyntaxTree.образцовыйНеверныйИдентификатор иначе context := x.областьВидимостиГдеОбъявлено.модульˉвладелец.контекстA2 всё;
			Identifier(x.имяМодуля);
			если x.параметрыШаблона # НУЛЬ то
				w.пСтроку8("(");
				нцДля i := 0 до x.параметрыШаблона.Длина()-1 делай
					Expression(x.параметрыШаблона.ДайВыражение(i));
					если i < x.параметрыШаблона.Длина()-1 то
						w.пСтроку8(",");
					всё;
				кц;
				w.пСтроку8(")");
			всё;
			если (x.контекстA2.И # SyntaxTree.образцовыйНеверныйИдентификатор.И) и (x.контекстA2.И#context.И) то
				w.пСтроку8(" "); Keyword("IN"); w.пСтроку8(" ");
				Identifier(x.контекстA2)
			всё;
		кон ПосетиОбъявлениеИспользованияМодуля;

		проц ImportList(x: SyntaxTree.ОбъявлениеИмпортаМодуля);
		перем first: булево;
		нач
			first := истина;
			нцПока(x # НУЛЬ) делай
				если x.непосредственноИмпортируетсяЛи¿ и (x.деревоМодуля # НУЛЬ) или (mode > SymbolFile) то
					если ~first то w.пСтроку8(", ") иначе Indent; Keyword("IMPORT"); w.пСтроку8(" "); first := ложь всё;
					Symbol(x);
				всё;
				x := x.следщОИМ;
			кц;
			если ~first то w.пСтроку8( ";" ); всё;
		кон ImportList;

		проц {перекрыта}ПосетиОбъявлениеВстроеннойПроцедуры*(x: SyntaxTree.ОбъявлениеВстроеннойПроцедуры);
		нач
			Indent; Keyword("BUILTIN"); w.пСтроку8(" ");
			Identifier(x.имя);
		кон ПосетиОбъявлениеВстроеннойПроцедуры;

		проц BuiltinList(x: SyntaxTree.ОбъявлениеВстроеннойПроцедуры);
		нач
			нцПока(x # НУЛЬ) делай
				ПосетиОбъявлениеВстроеннойПроцедуры(x);
				x := x.следщОВП;
			кц;
		кон BuiltinList;

		проц BeginComment;
		нач
			w.BeginComment; w.пСтроку8("(*");
		кон BeginComment;

		проц EndComment;
		нач
			w.пСтроку8("*)");w.EndComment
		кон EndComment;

		проц Comment(x: SyntaxTree.Комментарий);
		перем i: цел32; ch: симв8;
		нач
			BeginComment;
			нцПока (i<длинаМассива(x.строкаИсходногоТекста^)) и (x.строкаИсходногоТекста[i] #  0X) делай
				ch := x.строкаИсходногоТекста[i];
				если ch = 0DX то w.пВК_ПС
				иначе w.пСимв8(ch)
				всё;
				увел(i);
			кц;
			EndComment;
		кон Comment;

		проц Comments(c: SyntaxTree.Комментарий; x: динамическиТипизированныйУкль; sameLine: булево);
		нач
			если mode >= SourceCode то
				нцПока (c # НУЛЬ) и (c.К_чемуОтносится = x) делай
					если c.вТойЖеСтрокеЧтоИ_тоК_чемуОтносится = sameLine то
						Comment(c);
						если ~sameLine то
							Indent;
						всё;
					всё;
					c := c.следщКомментарий;
				кц;
			всё;
		кон Comments;

		проц CommentList(x: SyntaxTree.Комментарий);
		нач
			если info то
				нцПока (x#НУЛЬ) делай
					Indent;
					w.пСтроку8("comment at position "); w.пЦел64(x.начВ_тексте.start,1);
					если x.вТойЖеСтрокеЧтоИ_тоК_чемуОтносится то w.пСтроку8("(in line with item)") всё;
					если x.К_чемуОтносится = НУЛЬ то w.пСтроку8("(no item)"); всё;
					w.пСтроку8(":");
					Comment(x);
					x := x.следщКомментарий;
				кц;
			всё;
		кон CommentList;

		(*** scopes ****)

		проц Scope*(x: SyntaxTree.ВнутренняяОбластьВидимости);
		перем prevScope: SyntaxTree.ВнутренняяОбластьВидимости;
		нач
			prevScope := currentScope;
			currentScope := x;
			(* ASSERT(currentScope.outerScope = prevScope); (* sanity check *) *)
			просейТип x: SyntaxTree.ВнутренняяОбластьВидимостиТипаИзРодаАктивныхЯчеек делай
				если x.первыйИмпорт # НУЛЬ то ImportList(x.первыйИмпорт) всё;
			иначе
			всё;
			если x.первоеОбъявлениеКонстанты # НУЛЬ то ConstantList(x.первоеОбъявлениеКонстанты); всё;
			если x.первоеОбъявлениеТипаˉнаименования # НУЛЬ то TypeDeclarationList(x.первоеОбъявлениеТипаˉнаименования); всё;
			если x.первоеОбъявлениеПеременной # НУЛЬ то Indent;  Keyword("VAR"); w.пСтроку8(" "); VariableList(x.первоеОбъявлениеПеременной);  всё;
			если x.первыйAlias # НУЛЬ то Indent; Keyword("ALIAS"); w.пСтроку8(" "); AliasList(x.первыйAlias) всё;
			если x.другойСписокПроцедур # НУЛЬ то w.пВК_ПС; ProcedureList(x.другойСписокПроцедур) всё;
			currentScope := prevScope;
		кон Scope;

		проц ProcedureScope(x: SyntaxTree.ВнутренняяОбластьВидимостиПроцедуры);
		перем prevScope: SyntaxTree.ВнутренняяОбластьВидимости;
		нач
			prevScope := currentScope;
			currentScope := x;
			если (mode  >= SourceCode) или (x.процедураˉвладелец.встраиваемаяЛи¿) или (x.процедураˉвладелец.оберонˉвстраиваемаяЛи¿) то
				Scope(x);
			всё;
			если (mode >= SymbolFile) и (x.Тело # НУЛЬ) то Body(x.Тело,  (mode  >= SourceCode) или (x.процедураˉвладелец.встраиваемаяЛи¿) или (x.процедураˉвладелец.оберонˉвстраиваемаяЛи¿) ) всё;
			currentScope := prevScope;
		кон ProcedureScope;

		проц Statement*(x: SyntaxTree.Предписание);
		нач
			если x = НУЛЬ то
				AlertString("nil statement")
			иначе
				Comments(x.комментарий, x, ложь);
				если DebugPosition то трассируй(x.начВ_тексте.start, x.начВ_тексте.end, x.конВ_тексте.start, x.конВ_тексте.end) всё;
				ПосетиУзелИзСемьиПредписания(x);
				Comments(x.комментарий,x,истина);
			всё
		кон Statement;

		проц StatementSequence*(x: SyntaxTree.ПоследовательностьПредписаний);
		перем statement: SyntaxTree.Предписание;  i: размерМЗ;
		нач
			если singleStatement то
				w.пСтроку8("...")
			иначе
				нцДля i := 0 до x.Длина() - 1 делай
					statement := x.ДайПредписание( i );
					Indent; Statement(statement);
					если i < x.Длина() - 1 то w.пСтроку8( "; " );  всё;
				кц;
			всё;
		кон StatementSequence;

		проц {перекрыта}ПосетиПредписание*(x: SyntaxTree.Предписание);
		нач
			AlertString("InvalidStatement");
		кон ПосетиПредписание;

		проц {перекрыта}ПосетиПредписаниеВызватьПроцедуру*(x: SyntaxTree.ПредписаниеВызватьПроцедуру);
		нач
			если x.РезультатИгнорируетсяЛи¿ то Keyword("IGNORE"); w.пСтроку8(" "); всё;
			Expression(x.узелВызова);
		кон ПосетиПредписаниеВызватьПроцедуру;

		проц {перекрыта}ПосетиПредписаниеПрисвоитьЗначение*(x: SyntaxTree.ПредписаниеПрисвоитьЗначение);
		нач
			Expression(x.куда); w.пСтроку8( " := " );  Expression(x.что);
		кон ПосетиПредписаниеПрисвоитьЗначение;

		проц {перекрыта}ПосетиПредписаниеВвестиˉВывестиЧерезПорт*(x: SyntaxTree.ПредписаниеВвестиˉВывестиЧерезПорт);
		перем identifier: SyntaxTree.ИдентификаторВ_исходнике;
		нач
			Expression(x.левыйОперанд);
			identifier := Global.GetIdentifier(x.видЛексемыОперации, printCase);
			w.пСтроку8(" "); Identifier(identifier); w.пСтроку8(" ");
			Expression(x.правыйОперанд);
		кон ПосетиПредписаниеВвестиˉВывестиЧерезПорт;

		проц IfPart(x: SyntaxTree.ВеткаПредписания«если»);
		нач
			если DebugPosition то трассируй(x.начВ_тексте.start, x.начВ_тексте.end, x.конВ_тексте.start, x.конВ_тексте.end) всё;
			Comments(x.комментарий, x, ложь);
			Keyword("IF"); w.пСтроку8(" ");
			Expression(x.условие);
			w.пСтроку8(" "); Keyword("THEN"); w.пСтроку8(" ");
			Comments(x.комментарий,x,истина);
			w.IncIndent;
			StatementSequence(x.действия);
			w.DecIndent;
		кон IfPart;

		проц {перекрыта}ПосетиПредписание«если»*(x: SyntaxTree.Предписание«если»);
		перем i: размерМЗ;  elsif: SyntaxTree.ВеткаПредписания«если»;
		нач
			IfPart(x.веткаЕсли);
			нцДля i := 0 до x.ElsifParts() - 1 делай
				elsif := x.ДайВеткуАесли( i );
				Indent; Keyword("ELSIF");
				IfPart(elsif);
			кц;
			если x.веткаИначе # НУЛЬ то
				Indent;  Keyword("ELSE" );
				w.IncIndent;
				StatementSequence(x.веткаИначе);
				w.DecIndent;
			всё;
			Indent;  Keyword("END" );
		кон ПосетиПредписание«если»;

		проц WithPart(x: SyntaxTree.ВеткаПредписания«просейТип»);
		нач
			Comments(x.действия, x, ложь);
			Type(x.условие);
			w.пСтроку8(" "); Keyword("DO"); w.пСтроку8(" ");
			Comments(x.действия,x, истина);
			w.IncIndent;  StatementSequence(x.statements);  w.DecIndent;
		кон WithPart;

		проц {перекрыта}ПосетиВеткуПредписания«просейТип»*(x: SyntaxTree.Предписание«просейТип»);
		перем i: размерМЗ;
		нач
			Indent; Keyword("WITH"); w.пСтроку8(" ");
			Expression(x.чтоПросеиваем);
			w.пСтроку8(" : ");
			WithPart(x.ДайВетку(0));
			нцДля i := 1 до x.ДайВеткиДляТипов()-1 делай
				Indent; w.пСтроку8("| ");
				WithPart(x.ДайВетку(i));
			кц;
			если x.веткаИначе # НУЛЬ то
				Indent; w.пСтроку8("ELSE"); w.пСтроку8(" ");
				w.IncIndent;  StatementSequence(x.веткаИначе);  w.DecIndent;
			всё;
			Indent; Keyword("END" );
		кон ПосетиВеткуПредписания«просейТип»;

		проц CasePart(x: SyntaxTree.ВеткаПредписания«просей»);
		перем case: SyntaxTree.ДиапазонДляУсловияСитаПредписания«просей»;
		нач
			Comments(x.комментарий, x, ложь);
			ExpressionList(x.составУсловия);
			если info то
				w.BeginComment;
				case := x.диапазоныУсловия;
				нцПока(case # НУЛЬ) делай
					если case # x.диапазоныУсловия то w.пСтроку8(",") всё;
					w.пЦел64(case.мин,1); w.пСтроку8(".."); w.пЦел64(case.макс,1);
					case := case.следщ;
				кц;
				EndComment;
			всё;
			w.пСтроку8( ":" );
			Comments(x.комментарий,x,истина);
			w.IncIndent; StatementSequence(x.действия);  w.DecIndent;
		кон CasePart;

		проц {перекрыта}ПосетиПредписание«просей»*(x: SyntaxTree.Предписание«просей»);
		перем i: размерМЗ;  case: SyntaxTree.ВеткаПредписания«просей»;
		нач
			Keyword("CASE" );
			Expression(x.чтоПросеиваем);
			w.пСтроку8(" "); Keyword("OF"); w.пСтроку8(" ");
			нцДля i := 0 до x.ДайВеткиУсловий() - 1 делай
				case := x.ДайВетку( i );
				Indent;
				w.пСтроку8( "| " );
				CasePart(case);
			кц;
			если x.ветка«Иначе» # НУЛЬ то
				Indent;
				Keyword("ELSE" );
				w.IncIndent;
				StatementSequence(x.ветка«Иначе»);
				w.DecIndent;
			всё;
			Indent;
			Keyword("END" );
		кон ПосетиПредписание«просей»;

		проц {перекрыта}ПосетиПредписание«циклПока»*(x: SyntaxTree.Предписание«циклПока»);
		нач
			Keyword("WHILE" ); w.пСтроку8(" ");
			Expression(x.условие);
			Keyword("DO" ); w.пСтроку8(" ");
			w.IncIndent;
			StatementSequence(x.действия);
			w.DecIndent;
			Indent;
			Keyword("END" );
		кон ПосетиПредписание«циклПока»;

		проц {перекрыта}ПосетиПредписание«циклДо»*(x: SyntaxTree.Предписание«циклДо»);
		нач
			Keyword("REPEAT" ); w.пСтроку8(" ");
			w.IncIndent;
			StatementSequence(x.действия);
			w.DecIndent;
			Indent;  Keyword("UNTIL" ); w.пСтроку8(" ");
			Expression(x.условие);
		кон ПосетиПредписание«циклДо»;

		проц {перекрыта}ПосетиПредписание«циклДля»*(x: SyntaxTree.Предписание«циклДля»);
		нач
			Keyword("FOR" ); w.пСтроку8(" ");
			Expression(x.Счётчик);
			w.пСтроку8( " := " );
			Expression(x.От);
			KeywordСимв(Scanner.ДоПредела2); w.пСтроку8(" ");
			Expression(x.До);
			если x.Шаг # НУЛЬ то
				Keyword("BY" ); w.пСтроку8(" ");
				Expression(x.Шаг);
			всё;
			w.пСтроку8(" "); Keyword("DO" ); w.пСтроку8(" ");
			w.IncIndent;
			StatementSequence(x.Действия);
			w.DecIndent;
			Indent;
			Keyword("END" );
		кон ПосетиПредписание«циклДля»;

		проц {перекрыта}ПосетиПредписание«цикл»*(x: SyntaxTree.Предписание«цикл»);
		нач
			Keyword("LOOP" ); w.пСтроку8(" ");
			w.IncIndent;  StatementSequence(x.Действия);  w.DecIndent;
			Indent;  Keyword("END" );
		кон ПосетиПредписание«цикл»;

		проц {перекрыта}ПосетиПредписаниеExitableBlock*(x: SyntaxTree.ПредписаниеExitableBlock);
		нач
			Keyword("EXITABLE" ); w.пСтроку8(" ");
			w.IncIndent;  StatementSequence(x.Действия);  w.DecIndent;
			Indent;  Keyword("END" ); w.пСтроку8(" ");
		кон ПосетиПредписаниеExitableBlock;

		проц {перекрыта}ПосетиПредписание«прервиЦикл»*(x: SyntaxTree.Предписание«прервиЦикл»);
		нач
			Keyword("EXIT" );
		кон ПосетиПредписание«прервиЦикл»;

		проц {перекрыта}ПосетиПредписание«возврат»*(x: SyntaxTree.Предписание«возврат»);
		нач
			Keyword("RETURN" ); w.пСтроку8(" ");
			если x.возвращаемоеЗначение # НУЛЬ то Expression(x.возвращаемоеЗначение) всё
		кон ПосетиПредписание«возврат»;

		проц {перекрыта}ПосетиПредписание«дождись»*(x: SyntaxTree.Предписание«дождись»);
		нач
			Keyword("AWAIT"); w.пСтроку8("(");  Expression(x.условие);  w.пСтроку8( ")" );
		кон ПосетиПредписание«дождись»;

		проц Modifiers(x: SyntaxTree.Модификатор);
		перем name: Scanner.СтрокаИдентификатора; first: булево;
		нач
			first := истина;
			нцПока x # НУЛЬ делай
				если first то w.пСтроку8("{"); first := ложь иначе w.пСтроку8(", ") всё;
				Basic.GetString(x.идентификатор.И,name);
				w.пСтроку8(name);
				если x.выражение # НУЛЬ то
					w.пСтроку8("(");
					Expression(x.выражение);
					w.пСтроку8(")");
				всё;
				x := x.следщМодификатор;
			кц;
			если ~first то w.пСтроку8("} ") всё;
		кон Modifiers;

		(*
		PROCEDURE BlockModifier(x: SyntaxTree.StatementBlock);
		VAR first: BOOLEAN;
			PROCEDURE Comma;
			BEGIN
				IF first THEN first := FALSE ELSE w.String(", "); END;
			END Comma;
		BEGIN
			first := TRUE;
				IF x.flags # {} THEN
					w.String("{");
					IF SyntaxTree.ActiveFlag IN x.flags THEN Comma; w.String("ACTIVE") END;
					IF SyntaxTree.PriorityFlag IN x.flags THEN Comma; w.String("PRIORITY("); Expression(x(SyntaxTree.Body).priority); w.String(")"); first := FALSE; END;
					IF SyntaxTree.SafeFlag IN x.flags THEN Comma; w.String("SAFE") END;
					IF SyntaxTree.ExclusiveFlag IN x.flags THEN Comma; w.String("EXCLUSIVE") END;
					w.String("}");
				END;
		END BlockModifier;
		*)

		проц {перекрыта}ПосетиПредписание«тело»без«выходя»*(x: SyntaxTree.Предписание«тело»без«выходя»);
		нач
			Keyword("BEGIN"); Modifiers(x.модификаторы);
			w.IncIndent;
			если x.действия # НУЛЬ то StatementSequence(x.действия);  всё;
			w.DecIndent;
			Indent; Keyword("END");
		кон ПосетиПредписание«тело»без«выходя»;

		проц Code(x: SyntaxTree.Предписание«машКод»);
		перем  i: цел32; ch: симв8; cr: булево; procedure: SyntaxTree.ОбъявлениеПроцедуры; procedureType: SyntaxTree.ВыражˉтипИзРодаПроцедур;
		конст CR=0DX;
		нач
			если (currentScope # НУЛЬ) и (currentScope суть SyntaxTree.ВнутренняяОбластьВидимостиПроцедуры) то
				procedure := currentScope(SyntaxTree.ВнутренняяОбластьВидимостиПроцедуры).процедураˉвладелец;
				procedureType := procedure.Тип(SyntaxTree.ВыражˉтипИзРодаПроцедур);
			всё;
			если (mode >= SourceCode) или (procedure = НУЛЬ) или (procedure.праваДоступа * SyntaxTree.ВиденВсем # {}) и (procedure.встраиваемаяЛи¿ или procedure.оберонˉвстраиваемаяЛи¿) то
				(*
				IF x.inlineCode # NIL THEN
					unit := 8;
					w.String(" D"); w.Int(unit,1);
					i := 0; size := x.inlineCode.GetSize();
					WHILE i < size DO
						value := x.inlineCode.GetBits(i,unit);
						w.String(" "); w.Int(value,1);
						INC(i,unit);
					END;
				ELS*)
				если (x.строкаИсходногоТекста # НУЛЬ) то
					i := 0;
					ch := x.строкаИсходногоТекста[0];
					нцПока (ch # 0X) делай
						если ch = CR то
							cr := истина;
						иначе
							если cr то Indent; cr := ложь всё;
							w.пСимв8(ch);
						всё;
						увел(i); ch := x.строкаИсходногоТекста[i];
					кц;
				всё;
				(*
				IF x.inlineCode # NIL THEN
					w.String("; ");
					size := x.inlineCode.GetSize() DIV 8;
					FOR i := 0 TO size-1 DO
						value := x.inlineCode.GetBits(i*8,8);
						w.Hex(value,-2); w.String(" ");
					END;
				END;
				*)
			всё;
		кон Code;

		проц {перекрыта}ПосетиПредписание«машКод»*(x: SyntaxTree.Предписание«машКод»);
		нач
			Indent; Keyword("CODE");
			Code(x);
			Indent; Keyword("END");
		кон ПосетиПредписание«машКод»;

		проц Body(x: SyntaxTree.Предписание«тело»; implementation: булево);
		перем
		нач
			если DebugPosition то трассируй(x.начВ_тексте.start, x.начВ_тексте.end, x.конВ_тексте.start, x.конВ_тексте.end) всё;
			если x.МашКод # НУЛЬ то
				Indent; Keyword("CODE");
				если implementation то
					Code(x.МашКод);
				всё;
			иначе
				Indent;  Keyword("BEGIN" ); Modifiers(x.модификаторы);
				если implementation то
					если x.действия # НУЛЬ то
						w.IncIndent;
						StatementSequence(x.действия);
						w.DecIndent;
					всё;
					если x.действияЧасти«выходя» # НУЛЬ то
						Indent;  Keyword("FINALLY" );
						w.IncIndent;
						StatementSequence(x.действияЧасти«выходя»);
						w.DecIndent
					всё;
				всё;
			всё;
			(* "END" written by caller *)
		кон Body;

		
		проц {перекрыта}ПосетиМакроЦепочкуИныхЛексем*(м: SyntaxTree.МакроЦепочкаИныхЛексем);
		нач 
			утв(mode = ЦепочкаЛексем);
			если м.перваяЛексема = НУЛЬ то возврат всё;
			Scanner.ПечЦепочкуЛексем(w, писарьКартыМест, м.перваяЛексема, м.последняяЛексема, printCase, лексемыВВидеИсх, info, ложь) кон ПосетиМакроЦепочкуИныхЛексем;

		проц (*{перекрыта}*)ПосетиКонтейнерМакроБлоков*(д: SyntaxTree.КонтейнерМакроБлоков);
		перем ч: размерМЗ; мв : окласс;
		нач
		
			нцДля ч := 0 до д.макроВызовы.Length() - 1 делай
				мв := д.макроВызовы.Get(ч);
				просейТип мв:
				| SyntaxTree.МакроВызов делай
					w.пСтроку8("Опаньки, попался макровызов - его обязательно нужно научиться печатать в целях отладки, чтобы сделать macroexpand-1");
				| SyntaxTree.МакроЦепочкаИныхЛексем делай
					ПосетиМакроЦепочкуИныхЛексем(мв); 
				| SyntaxTree.КонтейнерМакроБлоков делай
					ПосетиКонтейнерМакроБлоков(мв)
				всё;
			кц; кон ПосетиКонтейнерМакроБлоков;

		проц {перекрыта}ПосетиДеревоМодуля*(x: SyntaxTree.ДеревоМодуля);
		нач Module(x)
		кон ПосетиДеревоМодуля;

		проц TemplateParameter(x: SyntaxTree.TemplateParameter);
		нач
			если x.type = SyntaxTree.TemplateType.Const то
				Keyword("CONST"); w.пСтроку8(" ");
			аесли x.type = SyntaxTree.TemplateType.Type то
				Keyword("TYPE"); w.пСтроку8(" ");
			иначе СТОП(200) всё;
			Identifier(x.ИД);
		кон TemplateParameter;


		проц Module*(x: SyntaxTree.ДеревоМодуля);
		перем i: размерМЗ;
		нач
			currentModule := x;

			если mode = ЦепочкаЛексем то
				Scanner.ПечЦепочкуЛексем(w, НУЛЬ, x.перваяЛексема, НУЛЬ, printCase,лексемыВВидеИсх,info, ложь);
				возврат всё;
			
			если x = НУЛЬ то
				AlertString("(* no module *)");
			иначе
				currentScope := x.внутренняяОбластьВидимостиМодуля.охватывающаяОбластьВидимости;
				Comments(x.комментарий,x,ложь);
				Keyword("MODULE"); w.пСтроку8(" ");

				Identifier(x.имя);
				если x.параметрыШаблона # НУЛЬ то
					w.пСтроку8("(");
					нцДля i := 0 до x.параметрыШаблона.Length()-1 делай
						TemplateParameter(x.параметрыШаблона.Дай(i));
						если i < x.параметрыШаблона.Length()-1 то
							w.пСтроку8(", ");
						всё;
					кц;
					w.пСтроку8(")");
				всё;
				если (x.контекстA2.И # SyntaxTree.образцовыйНеверныйИдентификатор.И) и (x.контекстA2.И#Global.A2Name.И) то
					w.пСтроку8(" "); Keyword("IN"); w.пСтроку8(" ");
					Identifier(x.контекстA2)
				всё;

				если (x.Тип суть SyntaxTree.ВыражˉтипИзРодаАктивныхЯчеек) и (x.Тип(SyntaxTree.ВыражˉтипИзРодаАктивныхЯчеек).первыйПараметр # НУЛЬ) то (* for actors *)
					ParameterList(x.Тип(SyntaxTree.ВыражˉтипИзРодаАктивныхЯчеек).первыйПараметр);
				всё;

				w.пСтроку8(";");
				Comments(x.комментарий,x,истина);
				w.IncIndent;
				если x.внутренняяОбластьВидимостиМодуля.первыйИмпорт # НУЛЬ то
					ImportList(x.внутренняяОбластьВидимостиМодуля.первыйИмпорт)
				всё;
				w.DecIndent;
				Scope(x.внутренняяОбластьВидимостиМодуля);
				если x.внутренняяОбластьВидимостиМодуля.первоеОбъявлениеВстроеннойПроцедуры # НУЛЬ то
					BuiltinList(x.внутренняяОбластьВидимостиМодуля.первоеОбъявлениеВстроеннойПроцедуры)
				всё;

				если (x.внутренняяОбластьВидимостиМодуля.процедураˉтело # НУЛЬ) и (x.внутренняяОбластьВидимостиМодуля.процедураˉтело.внутренняяОбластьВидимости.Тело # НУЛЬ) то
					Body(x.внутренняяОбластьВидимостиМодуля.процедураˉтело.внутренняяОбластьВидимости.Тело, mode >= SourceCode)
				всё;
				Indent; Keyword("END"); w.пСтроку8(" "); Identifier(x.имя); w.пСтроку8( "." ); w.пВК_ПС;  w.ПротолкниБуферВПоток;

				Comments(x.закрывающийКомментарий,x, ложь);

				если (mode > SourceCode) и (x.внутренняяОбластьВидимостиМодуля.первыйКомментарий # НУЛЬ) то w.пВК_ПС; CommentList(x.внутренняяОбластьВидимостиМодуля.первыйКомментарий) всё;

			всё
		кон Module;

		проц SingleStatement*(b: булево);
		нач singleStatement := b
		кон SingleStatement;

		проц &Init*(l3w: Потоки.Писарь; l4mode: цел32; вх_лексемыВВидеИсх, l5info: булево; l6printCase: Scanner.ВариантыПеревода);
		нач
			сам.w := Basic.GetWriter(l3w);
			сам.mode := l4mode; нов(ws,128); 
			сам.лексемыВВидеИсх := вх_лексемыВВидеИсх; сам.info := l5info;
			сам.printCase := l6printCase;
			commentCount := 0; alertCount := 0; singleStatement := ложь;
		кон Init;

	кон Printer;

(* debugging helper *)
перем
	debug: Printer;

	проц NewPrinter*(w: Потоки.Писарь; mode: цел32; лексемыВВидеИсх, info: булево; printCase : Scanner.ВариантыПеревода): Printer;
	перем p: Printer;
	нач
		нов(p,w,mode,лексемыВВидеИсх,info,printCase); возврат p
	кон NewPrinter;

	проц Info*(конст info: массив из симв8; a: динамическиТипизированныйУкль);
	перем symbol: SyntaxTree.ОбъявлениеИменованнойСущности; scope: SyntaxTree.ВнутренняяОбластьВидимости;
	нач
		debug.w := Basic.GetWriter(D.Log);
		D.Ln;
		D.Str(" --------> ");
		D.Str(info);
		D.Str(" ");
		D.Hex(НИЗКОУР.подмениТипЗначения(адресВПамяти,a),8);
		D.Str(" : ");

		если a = НУЛЬ то
			D.Str("NIL");
		аесли a суть SyntaxTree.Выражениеˉзначение то
			debug.Expression(a(SyntaxTree.Выражениеˉзначение));
			Info("with type",a(SyntaxTree.Выражениеˉзначение).типОсмысленный);
		аесли a суть SyntaxTree.Выражениеˉтип то
			если a суть SyntaxTree.ВыражˉтипИзРодаТиповˉНаименований то
				D.Str("[QualifiedType] ");
			всё;
			debug.Type(a(SyntaxTree.Выражениеˉтип))
		аесли a суть SyntaxTree.ОбъявлениеИменованнойСущности то
			debug.Symbol(a(SyntaxTree.ОбъявлениеИменованнойСущности))
		аесли a суть SyntaxTree.Предписание то
			debug.Statement(a(SyntaxTree.Предписание))
		аесли a суть SyntaxTree.ПоследовательностьПредписаний то
			debug.StatementSequence(a(SyntaxTree.ПоследовательностьПредписаний));
		аесли a суть SyntaxTree.ВнутренняяОбластьВидимости то
			scope := a(SyntaxTree.ВнутренняяОбластьВидимости);
			нцПока(scope # НУЛЬ) делай
				D.Ln; D.Str("      ");
				если scope суть SyntaxTree.ВнутренняяОбластьВидимостиМодуля то D.Str("ModuleScope: ")
				аесли scope суть SyntaxTree.ВнутренняяОбластьВидимостиПроцедуры то D.Str("ProcedureScope: ");
				аесли scope суть SyntaxTree.ВнутренняяОбластьВидимостиТипаИзРодаЗаписей то D.Str("RecordScope: ");
				иначе D.Str("Scope: ");
				всё;
				symbol := scope.первоеОбъявление;
				нцПока(symbol # НУЛЬ) делай
					debug.Identifier(symbol.имя); D.Str(" ");
					symbol := symbol.следщОИС;
				кц;
				scope := scope.охватывающаяОбластьВидимости;
			кц;
		(*
		ELSIF a IS SyntaxTree.Identifier THEN
			debug.Identifier(a(SyntaxTree.Identifier));
		*)
		аесли a суть SyntaxTree.СоставнойИдентификаторВ_исходнике то
			debug.QualifiedIdentifier(a(SyntaxTree.СоставнойИдентификаторВ_исходнике));
		аесли a суть SyntaxTree.ДеревоМодуля то
			debug.Module(a(SyntaxTree.ДеревоМодуля))
		иначе
			debug.w.пСтроку8("unknown");
		всё;
		D.Update();
	кон Info;

	проц Init;
	нач
		нов(debug,D.Log,All,истина,истина, Scanner.ВариантыПеревода.Uppercase);
	кон Init;

нач
	Init;
кон FoxPrintout.

