модуль FoxTranspilerBackend;	(** AUTHOR "negelef"; PURPOSE "Oberon to C transpiler"; *)

использует Basic := FoxBasic, Global := FoxGlobal, Backend := FoxBackend, SyntaxTree := FoxSyntaxTree, Scanner := FoxScanner,
	Formats := FoxFormats, Files, Потоки, Strings, Options, SymbolFileFormat := FoxTextualSymbolFile, Printout := FoxPrintout;

конст

	Space = ' ';
	Tab = 9X;
	Comma = ',';
	Semicolon = ';';
	LeftBrace = '{';
	RightBrace = '}';

	StructTag = "_tag";
	BaseTag = "_base";
	TypeTag = "_type";
	LenTag = "_len";
	PointerTag = "_pointer";
	DelegateTag = "_delegate";
	BaseObjectName = "BaseObject";
	TypeDescriptorTag = "_descriptor";

	DefaultStyle = 0;
	StailaStyle = 1;

тип
	тип Style = целМЗ;
	тип Indent = целМЗ;
	Identifier = массив Scanner.MaxIdentifierLength из симв8;

	тип Transpiler* = окласс (SyntaxTree.Посетитель)
	перем
		indent: Indent;
		writer: Потоки.Писарь;
		backend: TranspilerBackend;
		currentProcedureScope: SyntaxTree.ВнутренняяОбластьВидимостиПроцедуры;
		initializeLocalData: булево;

		проц &InitTranspiler (l0writer: Потоки.Писарь; l1backend: TranspilerBackend; initLocalData: булево);
		нач indent := 0; сам.writer := l0writer; сам.backend := l1backend; currentProcedureScope := НУЛЬ; initializeLocalData:= initLocalData;
		кон InitTranspiler;

		проц DeclareModule (module: SyntaxTree.ДеревоМодуля);
		нач
			DeclareImports (module.внутренняяОбластьВидимостиМодуля);
			DefineConstants (module.внутренняяОбластьВидимостиМодуля);
			DefineTypes (module.внутренняяОбластьВидимостиМодуля);
			DeclareVariables (module.внутренняяОбластьВидимостиМодуля);
			DeclareProcedures (module.внутренняяОбластьВидимостиМодуля);
			DeclareObjects (module.внутренняяОбластьВидимостиМодуля);
		кон DeclareModule;

		проц DeclareImports (scope: SyntaxTree.ВнутренняяОбластьВидимостиМодуля);
		перем filename: Files.FileName; import: SyntaxTree.ОбъявлениеИмпортаМодуля;
		нач
			writer.пВК_ПС; PrintInclude ("oberon.h");
			import := scope.первыйИмпорт;
			нцПока import # НУЛЬ делай
				если ~Global.IsSystemModule (import.деревоМодуля) и import.непосредственноИмпортируетсяЛи¿ то
					GetHeaderName (import.деревоМодуля, filename, backend.style);
					PrintInclude (filename);
				всё;
				import := import.следщОИМ;
			кц;
		кон DeclareImports;

		проц DeclareVariables (scope: SyntaxTree.ВнутренняяОбластьВидимости);
		перем variable: SyntaxTree.ОбъявлениеПеременной; name: Identifier;
		нач
			variable := scope.первоеОбъявлениеПеременной;
			если scope суть SyntaxTree.ВнутренняяОбластьВидимостиМодуля то
				GetScopeName (scope, name, backend.style); writer.пВК_ПС;
				PrintIndent; writer.пСтроку8 ("extern "); writer.пСтроку8 (BaseObjectName);
				writer.пСимв8 (Space); writer.пСтроку8 (name); writer.пСтроку8 (StructTag); writer.пСимв8 (Semicolon); writer.пВК_ПС;
			аесли variable # НУЛЬ то writer.пВК_ПС всё;
			нцПока variable # НУЛЬ делай
				GetSymbolName (variable, name, backend.style);
				PrintComments (variable.комментарий, variable);
				PrintIndent; writer.пСтроку8 ("extern ");
				PrintVariable (ложь, name, variable.Тип); writer.пСимв8 (Semicolon);
				writer.пВК_ПС;
				если IsDelegate (variable.Тип.резОсмысления) то
					PrintIndent; writer.пСтроку8 ("extern "); writer.пСтроку8 (BaseObjectName); writer.пСимв8 ('*');
					writer.пСимв8 (' '); writer.пСтроку8 (name); writer.пСтроку8 (DelegateTag); writer.пСимв8 (Semicolon); writer.пВК_ПС;
				всё;
				variable := variable.следщОП;
			кц;
		кон DeclareVariables;

		проц DeclareProcedures (scope: SyntaxTree.ВнутренняяОбластьВидимости);
		перем procedure: SyntaxTree.ОбъявлениеПроцедуры; name: Identifier;
		нач
			procedure := scope.первоеОбъявлениеПроцедуры;
			если procedure # НУЛЬ то writer.пВК_ПС; всё;
			нцПока procedure # НУЛЬ делай
				если IsInlineAssemblyCode (procedure) то
					GetSymbolName (procedure, name, backend.style); writer.пВК_ПС; writer.пСтроку8 ("#define "); writer.пСтроку8 (name);
					writer.пСтроку8 ("() "); PrintCode (procedure.внутренняяОбластьВидимости.Тело.МашКод); writer.пВК_ПС;
				иначе
					PrintIndent; PrintProcedure (procedure); writer.пСимв8 (Semicolon); writer.пВК_ПС;
				всё;
				procedure := procedure.следщПроц;
			кц;
		кон DeclareProcedures;

		проц DeclareObjects (scope: SyntaxTree.ВнутренняяОбластьВидимости);
		перем typeDeclaration: SyntaxTree.ОбъявлениеТипаˉнаименования; record: SyntaxTree.ВыражˉтипИзРодаЗаписей;
		нач
			typeDeclaration := scope.первоеОбъявлениеТипаˉнаименования;
			нцПока typeDeclaration # НУЛЬ делай
				record := GetRecord (typeDeclaration.выражениеˉтип);
				если record # НУЛЬ то DeclareProcedures (record.внутренняяОбластьВидимости); DeclareDescriptor (record) всё;
				typeDeclaration := typeDeclaration.следщОТН;
			кц;
		кон DeclareObjects;

		проц DeclareDescriptor (record: SyntaxTree.ВыражˉтипИзРодаЗаписей);
		перем name: Identifier; method: размерМЗ; procedure: SyntaxTree.ОбъявлениеПроцедуры; procedureType: SyntaxTree.ВыражˉтипИзРодаПроцедур;
		нач
			GetSymbolName (record.объявлениеТипа, name, backend.style);
			writer.пВК_ПС; writer.пСтроку8 ("typedef struct "); writer.пСтроку8 (name); writer.пСтроку8 (TypeTag); writer.пСтроку8 (StructTag);
			writer.пСимв8 (Space); writer.пСтроку8 (name); writer.пСтроку8 (TypeTag); writer.пСимв8 (Semicolon); writer.пВК_ПС;
			writer.пВК_ПС; writer.пСтроку8 ("extern "); writer.пСтроку8 (name); writer.пСтроку8 (TypeTag); увел (indent);
			writer.пСимв8 (Space); writer.пСтроку8 (name); writer.пСтроку8 (TypeDescriptorTag); writer.пСимв8 (Semicolon); writer.пВК_ПС;
			writer.пВК_ПС; writer.пСтроку8 ("struct "); writer.пСтроку8 (name); writer.пСтроку8 (TypeTag); writer.пСтроку8 (StructTag); writer.пСимв8 (Space); writer.пСимв8 ('{'); writer.пВК_ПС;
			PrintIndent; writer.пСтроку8 ("void* "); writer.пСтроку8 (BaseTag); writer.пСимв8 (Semicolon); writer.пВК_ПС;
			нцДля method := 0 до record.внутренняяОбластьВидимости.квоМетодов - 1 делай
				procedure := GetRecordMethod (record, method);
				procedure.ДайИмяВВидеСтроки(name); FixIdentifier (name, backend.style);
				procedureType := procedure.Тип(SyntaxTree.ВыражˉтипИзРодаПроцедур);
				PrintIndent; PrintType (истина, procedureType.типВозврата, name);
				PrintParameters (procedureType, procedure.областьВидимостиГдеОбъявлено);
				writer.пСимв8 (Semicolon); writer.пВК_ПС;
			кц;
			умень (indent); writer.пСимв8 ('}'); writer.пСимв8 (Semicolon); writer.пВК_ПС;
		кон DeclareDescriptor;

		проц DefineModule (module: SyntaxTree.ДеревоМодуля);
		нач
			DefineImports (module.внутренняяОбластьВидимостиМодуля);
			DefineVariables (module.внутренняяОбластьВидимостиМодуля);
			DefineProcedures (module.внутренняяОбластьВидимостиМодуля);
			DefineObjects (module.внутренняяОбластьВидимостиМодуля);
		кон DefineModule;

		проц DefineMain (module: SyntaxTree.ДеревоМодуля);
		перем name: Identifier;
		нач
			writer.пВК_ПС; PrintIndent; writer.пСтроку8 ("int main ()"); writer.пВК_ПС; BeginBlock;
			если module.внутренняяОбластьВидимостиМодуля.процедураˉтело # НУЛЬ то
				GetSymbolName (module.внутренняяОбластьВидимостиМодуля.процедураˉтело, name, backend.style);
				PrintIndent; writer.пСтроку8 (name); writer.пСтроку8 (" ();"); writer.пВК_ПС;
			всё;
			EndBlock;
		кон DefineMain;

		проц DefineImports (scope: SyntaxTree.ВнутренняяОбластьВидимостиМодуля);
		перем filename: Files.FileName; import: SyntaxTree.ОбъявлениеИмпортаМодуля;
		нач
			writer.пВК_ПС; PrintInclude ("oberon.h");
			GetHeaderName (scope.модульˉвладелец, filename, backend.style); PrintInclude (filename);
			import := scope.первыйИмпорт;
			нцПока import # НУЛЬ делай
				PrintComments (import.комментарий, import);
				import := import.следщОИМ;
			кц;
		кон DefineImports;

		проц DefineConstants (scope: SyntaxTree.ВнутренняяОбластьВидимости);
		перем constant: SyntaxTree.ОбъявлениеКонстанты; name: Identifier;
		нач
			constant := scope.первоеОбъявлениеКонстанты;
			если constant # НУЛЬ то writer.пВК_ПС; всё;
			нцПока constant # НУЛЬ делай
				GetSymbolName (constant, name, backend.style);
				PrintComments (constant.комментарий, constant);
				writer.пСтроку8 ("#define "); writer.пСтроку8 (name);
				writer.пСимв8 (Space); PrintExpression (constant.выражениеˉзначение);
				writer.пВК_ПС;
				constant := constant.следщОК;
			кц;
		кон DefineConstants;

		проц DefineTypes (scope: SyntaxTree.ВнутренняяОбластьВидимости);
		тип Types = укль на массив из SyntaxTree.Выражениеˉтип;
		перем typeDeclaration: SyntaxTree.ОбъявлениеТипаˉнаименования; types: Types; count: размерМЗ;

			проц DeclareType (type: SyntaxTree.Выражениеˉтип);
			перем name: Identifier;
			нач
				если type суть SyntaxTree.ВыражˉтипИзРодаЗаписей то
					GetSymbolName (type.объявлениеТипа, name, backend.style);
					writer.пСтроку8 ("typedef struct "); writer.пСтроку8 (name); writer.пСтроку8 (StructTag);
					writer.пСимв8 (Space); writer.пСтроку8 (name); writer.пСимв8 (Semicolon); writer.пВК_ПС;
				аесли (type суть SyntaxTree.ВыражˉтипИзРодаУклей) то
					writer.пСтроку8 ("typedef struct ");
					если type(SyntaxTree.ВыражˉтипИзРодаУклей).типУказуемого.резОсмысления суть SyntaxTree.ВыражˉтипИзРодаЗаписей то
						GetSymbolName (type(SyntaxTree.ВыражˉтипИзРодаУклей).типУказуемого.резОсмысления(SyntaxTree.ВыражˉтипИзРодаЗаписей).объявлениеТипа, name, backend.style);
						writer.пСтроку8 (name);
					иначе
						writer.пСтроку8 ("Array");
					всё;
					writer.пСтроку8 (PointerTag); GetSymbolName (type.объявлениеТипа, name, backend.style);
					writer.пСимв8 (Space); writer.пСимв8 ('*'); writer.пСтроку8 (name); writer.пСимв8 (Semicolon); writer.пВК_ПС;
				всё;
			кон DeclareType;

			проц DefineType (type: SyntaxTree.Выражениеˉтип; reference: булево);
			перем i: размерМЗ; variable: SyntaxTree.ОбъявлениеПеременной; new: Types; name: Identifier;
			нач
				если (type суть SyntaxTree.ВыражˉтипИзРодаУклей) и ~reference то возврат всё;
				нцДля i := 0 до count - 1 делай если types[i] = type то возврат всё кц;
				если длинаМассива (types) = count то нов (new, count * 2); нцДля i := 0 до count - 1 делай new[i] := types[i] кц; types := new; всё;
				types[count] := type; увел (count);
				если type.объявлениеТипа # НУЛЬ то GetSymbolName (type.объявлениеТипа, name, backend.style) всё;
				если type суть SyntaxTree.ВыражˉтипИзРодаМассивов то
					DefineType (type(SyntaxTree.ВыражˉтипИзРодаМассивов).типЭлементов.резОсмысления, ложь);
				аесли type суть SyntaxTree.ВыражˉтипИзРодаУклей то
					DefineType (type(SyntaxTree.ВыражˉтипИзРодаУклей).типУказуемого.резОсмысления, истина);
				аесли type суть SyntaxTree.ВыражˉтипИзРодаЗаписей то
					если type(SyntaxTree.ВыражˉтипИзРодаЗаписей).типˉородитель # НУЛЬ то DefineType (type(SyntaxTree.ВыражˉтипИзРодаЗаписей).ДайТипЗаписьТипаˉродителя (), ложь) всё;
					DefineTypes (type(SyntaxTree.ВыражˉтипИзРодаЗаписей).внутренняяОбластьВидимости);
					variable := type(SyntaxTree.ВыражˉтипИзРодаЗаписей).внутренняяОбластьВидимости.первоеОбъявлениеПеременной;
					нцПока variable # НУЛЬ делай
						DefineType (variable.Тип.резОсмысления, ложь);
						variable := variable.следщОП;
					кц;
				всё;
				если (type.объявлениеТипа = НУЛЬ) или (type.объявлениеТипа.областьВидимостиГдеОбъявлено # scope) то возврат всё;
				если type суть SyntaxTree.ВыражˉтипИзРодаЗаписей то
					writer.пВК_ПС; writer.пСтроку8 ("struct "); writer.пСтроку8 (name); writer.пСтроку8 (StructTag);
					writer.пСимв8 (Space); writer.пСимв8 (LeftBrace); writer.пВК_ПС; увел (indent); PrintIndent;
					если type(SyntaxTree.ВыражˉтипИзРодаЗаписей).типˉородитель # НУЛЬ то
						если type(SyntaxTree.ВыражˉтипИзРодаЗаписей).ообъектЛи¿ или ~IsEmptyRecord (type(SyntaxTree.ВыражˉтипИзРодаЗаписей).ДайТипЗаписьТипаˉродителя ()) то
							writer.пСтроку8 ("struct "); PrintType (ложь, type(SyntaxTree.ВыражˉтипИзРодаЗаписей).ДайТипЗаписьТипаˉродителя (), ""); writer.пСтроку8 (StructTag);
							writer.пСимв8 (Space); writer.пСтроку8 (BaseTag); writer.пСимв8 (Semicolon); writer.пВК_ПС;
						всё;
					аесли type(SyntaxTree.ВыражˉтипИзРодаЗаписей).ообъектЛи¿ то
						writer.пСтроку8 (BaseObjectName); writer.пСимв8 (Space); writer.пСтроку8 (BaseTag); writer.пСимв8 (Semicolon); writer.пВК_ПС;
					аесли type(SyntaxTree.ВыражˉтипИзРодаЗаписей).внутренняяОбластьВидимости.квоОбъявленийПеременных = 0 то
						writer.пСтроку8 ("char dummy;"); writer.пВК_ПС;
					всё;
					DefineVariables (type(SyntaxTree.ВыражˉтипИзРодаЗаписей).внутренняяОбластьВидимости);
					умень (indent); writer.пСимв8 (RightBrace); writer.пСимв8 (Semicolon); writer.пВК_ПС;
					writer.пВК_ПС; writer.пСтроку8 ("struct "); writer.пСтроку8 (name); writer.пСтроку8 (PointerTag);
					writer.пСимв8 (Space); writer.пСимв8 (LeftBrace); writer.пВК_ПС; увел (indent);
					PrintIndent; writer.пСтроку8 ("void* "); writer.пСтроку8 (TypeDescriptorTag); writer.пСимв8 (Semicolon); writer.пВК_ПС;
					PrintIndent; writer.пСтроку8 ("struct "); PrintType (ложь, type(SyntaxTree.ВыражˉтипИзРодаЗаписей), ""); writer.пСтроку8 (StructTag); writer.пСимв8 (Space); writer.пСтроку8 ("record"); writer.пСимв8 (Semicolon); writer.пВК_ПС;
					умень (indent); writer.пСимв8 (RightBrace); writer.пСимв8 (Semicolon); writer.пВК_ПС;
				аесли type суть SyntaxTree.ВыражˉтипИзРодаПеречислений то
					writer.пСтроку8 ("typedef int "); PrintType (ложь, type, ""); writer.пСимв8 (Semicolon); writer.пВК_ПС;
				аесли ~(type суть SyntaxTree.ВыражˉтипИзРодаУклей) или IsStaticArray (type(SyntaxTree.ВыражˉтипИзРодаУклей).типУказуемого.резОсмысления) то
					writer.пСтроку8 ("typedef "); PrintType (ложь, type, name); writer.пСимв8 (Semicolon); writer.пВК_ПС;
				всё;
			кон DefineType;

		нач
			typeDeclaration := scope.первоеОбъявлениеТипаˉнаименования;
			если typeDeclaration # НУЛЬ то writer.пВК_ПС всё;
			нцПока typeDeclaration # НУЛЬ делай
				DeclareType (typeDeclaration.выражениеˉтип);
				typeDeclaration := typeDeclaration.следщОТН;
			кц;
			нов (types, 100); count := 0;
			typeDeclaration := scope.первоеОбъявлениеТипаˉнаименования;
			нцПока typeDeclaration # НУЛЬ делай
				DefineType (typeDeclaration.выражениеˉтип, истина);
				typeDeclaration := typeDeclaration.следщОТН;
			кц;
		кон DefineTypes;

		проц DefineVariables (scope: SyntaxTree.ВнутренняяОбластьВидимости);
		перем variable: SyntaxTree.ОбъявлениеПеременной; name: Identifier;
		нач
			variable := scope.первоеОбъявлениеПеременной;
			если scope суть SyntaxTree.ВнутренняяОбластьВидимостиМодуля то
				GetScopeName (scope, name, backend.style); writer.пВК_ПС; PrintIndent; writer.пСтроку8 (BaseObjectName);
				writer.пСимв8 (Space); writer.пСтроку8 (name); writer.пСтроку8 (StructTag); writer.пСимв8 (Semicolon); writer.пВК_ПС;
			аесли variable # НУЛЬ то writer.пВК_ПС всё;
			нцПока variable # НУЛЬ делай
				GetSymbolName (variable, name, backend.style); PrintIndent;
				PrintVariable (ложь, name, variable.Тип); writer.пСимв8 (Semicolon); writer.пВК_ПС;
				если IsDelegate (variable.Тип.резОсмысления) то
					PrintIndent; writer.пСтроку8 (BaseObjectName); writer.пСимв8 ('*'); writer.пСимв8 (' ');
					writer.пСтроку8 (name); writer.пСтроку8 (DelegateTag); writer.пСимв8 (Semicolon); writer.пВК_ПС;
				всё;
				variable := variable.следщОП;
			кц;
		кон DefineVariables;

		проц DefineProcedures (scope: SyntaxTree.ВнутренняяОбластьВидимости);
		перем procedure: SyntaxTree.ОбъявлениеПроцедуры;
		нач
			procedure := scope.первоеОбъявлениеПроцедуры;
			нцПока procedure # НУЛЬ делай
				если ~IsInlineAssemblyCode (procedure) то
					DefineConstants (procedure.внутренняяОбластьВидимости);
					DefineTypes (procedure.внутренняяОбластьВидимости);
					DeclareProcedures (procedure.внутренняяОбластьВидимости);
					writer.пВК_ПС; PrintComments (procedure.комментарий, procedure);
					PrintProcedure (procedure); writer.пВК_ПС;
					PrintBody (procedure, procedure.внутренняяОбластьВидимости.Тело, procedure.внутренняяОбластьВидимости.первоеОбъявлениеПеременной);
					DefineProcedures (procedure.внутренняяОбластьВидимости);
				всё;
				procedure := procedure.следщПроц;
			кц;
		кон DefineProcedures;

		проц DefineObjects (scope: SyntaxTree.ВнутренняяОбластьВидимости);
		перем typeDeclaration: SyntaxTree.ОбъявлениеТипаˉнаименования; record: SyntaxTree.ВыражˉтипИзРодаЗаписей;
		нач
			typeDeclaration := scope.первоеОбъявлениеТипаˉнаименования;
			нцПока typeDeclaration # НУЛЬ делай
				record := GetRecord (typeDeclaration.выражениеˉтип);
				если record # НУЛЬ то DefineDescriptor (record); DefineProcedures (record.внутренняяОбластьВидимости) всё;
				typeDeclaration := typeDeclaration.следщОТН;
			кц;
		кон DefineObjects;

		проц DefineDescriptor (record: SyntaxTree.ВыражˉтипИзРодаЗаписей);
		перем name: Identifier; method: размерМЗ; procedure: SyntaxTree.ОбъявлениеПроцедуры;
		нач
			GetSymbolName (record.объявлениеТипа, name, backend.style);
			writer.пВК_ПС; writer.пСтроку8 (name); writer.пСтроку8 (TypeTag); writer.пСимв8 (Space); writer.пСтроку8 (name);
			writer.пСтроку8 (TypeDescriptorTag); увел (indent); writer.пСтроку8 (" = {"); writer.пВК_ПС; PrintIndent;
			если record.типˉородитель # НУЛЬ то writer.пСимв8 ('&'); PrintType (ложь, record.типˉородитель, ""); writer.пСтроку8 (TypeDescriptorTag);
			аесли record.ообъектЛи¿ то writer.пСимв8 ('&'); writer.пСтроку8 (BaseObjectName); writer.пСтроку8 (TypeDescriptorTag);
			иначе writer.пСимв8 ('0'); всё; writer.пСимв8 (Comma); writer.пВК_ПС;
			нцДля method := 0 до record.внутренняяОбластьВидимости.квоМетодов - 1 делай
				procedure := GetRecordMethod (record, method);
				GetSymbolName (procedure, name, backend.style); PrintIndent; writer.пСтроку8 (name); writer.пСимв8 (Comma); writer.пВК_ПС;
			кц;
			умень (indent); writer.пСимв8 ('}'); writer.пСимв8 (Semicolon); writer.пВК_ПС;
		кон DefineDescriptor;

		проц BeginBlock;
		нач PrintIndent; writer.пСимв8 (LeftBrace); writer.пВК_ПС; увел (indent);
		кон BeginBlock;

		проц EndBlock;
		нач умень (indent); PrintIndent; writer.пСимв8 (RightBrace); writer.пВК_ПС;
		кон EndBlock;

		проц AccessBase (record, base: SyntaxTree.ВыражˉтипИзРодаЗаписей);
		нач
			нцПока (record # base) и (record # НУЛЬ) делай
				если (record.типˉородитель # НУЛЬ) или record.ообъектЛи¿ то
					writer.пСимв8 ('.'); writer.пСтроку8 (BaseTag);
				всё;
				record := record.ДайТипЗаписьТипаˉродителя ();
			кц;
		кон AccessBase;

		проц BeginRuntimeCall (конст module, procedure: массив из симв8);
		перем identifier: Identifier;
		нач
			копируйСтрокуДо0 (module, identifier); FixIdentifier (identifier, backend.style); writer.пСтроку8 (identifier); writer.пСимв8 ('_');
			копируйСтрокуДо0 (procedure, identifier); FixIdentifier (identifier, backend.style); writer.пСтроку8 (identifier);
			writer.пСимв8 (' '); writer.пСимв8 ('(');
		кон BeginRuntimeCall;

		проц EndRuntimeCall;
		нач
			writer.пСимв8 (')'); writer.пСимв8 (';');
		кон EndRuntimeCall;

		проц Trace (expression: SyntaxTree.Выражениеˉзначение);
		перем name: Identifier; printer: Printout.Printer; pos: Потоки.ТипМестоВПотоке;
		нач
			BeginRuntimeCall (backend.traceModule, "String"); writer.пСимв8 ('"'); pos := writer.МестоВПотоке ();
			currentProcedureScope.модульˉвладелец.ДайИмяВВидеСтроки (name); writer.пСтроку8 (name); writer.пСимв8 ('@');
			writer.пЦел64 (expression.начВ_тексте.start, 0); writer.пСимв8 (':'); writer.пСимв8 (' ');
			printer := Printout.NewPrinter (writer, Printout.SourceCode, ложь, ложь, Scanner.ВариантыПеревода.Uppercase);
			printer.Expression (expression); writer.пСимв8 (' '); writer.пСимв8 ('=');
			writer.пСимв8 (' '); writer.пСимв8 ('"'); writer.пСимв8 (','); writer.пСимв8 (' ');
			writer.пЦел64 (writer.МестоВПотоке () - pos - 3, 0); EndRuntimeCall;

			если (expression.типОсмысленный.резОсмысления суть SyntaxTree.ВыражˉтипИзРодаЧиселЦел) или (expression.типОсмысленный.резОсмысления суть SyntaxTree.ВыражˉтипSIZE) то
				BeginRuntimeCall (backend.traceModule, "Int");
				PrintExpression (expression); writer.пСтроку8 (", 0"); EndRuntimeCall;
			аесли expression.типОсмысленный.резОсмысления суть SyntaxTree.ВыражˉтипБулево то
				BeginRuntimeCall (backend.traceModule, "Boolean");
				PrintExpression (expression); EndRuntimeCall;
			аесли expression.типОсмысленный.резОсмысления суть SyntaxTree.МнвоType то
				BeginRuntimeCall (backend.traceModule, "Bits");
				PrintExpression (expression); writer.пСтроку8 (", 0, ");
				writer.пЦел64 (expression.типОсмысленный.резОсмысления.размер˛бит, 0); EndRuntimeCall;
			аесли expression.типОсмысленный.резОсмысления суть SyntaxTree.ВыражˉтипИзРодаЛитер то
				BeginRuntimeCall (backend.traceModule, "Char");
				PrintExpression (expression); EndRuntimeCall;
			аесли (expression.типОсмысленный.резОсмысления суть SyntaxTree.ВыражˉтипАДРЕС) или (expression.типОсмысленный.резОсмысления суть SyntaxTree.ВыражˉтипИзРодаУклей) то
				BeginRuntimeCall (backend.traceModule, "Address");
				PrintExpression (expression); EndRuntimeCall;
			иначе
				СТОП (200);
			всё;

			BeginRuntimeCall (backend.traceModule, "Ln"); EndRuntimeCall;
		кон Trace;

		проц Convert (expression: SyntaxTree.Выражениеˉзначение; type: SyntaxTree.Выражениеˉтип);
		нач
				если (expression.типОсмысленный.резОсмысления # type.резОсмысления) и (type.резОсмысления суть SyntaxTree.ВыражˉтипИзРодаУклей) и (type.резОсмысления(SyntaxTree.ВыражˉтипИзРодаУклей).типУказуемого.резОсмысления суть SyntaxTree.ВыражˉтипИзРодаЗаписей) и (expression.типОсмысленный.резОсмысления суть SyntaxTree.ВыражˉтипИзРодаУклей) то
					writer.пСимв8 ('('); PrintType (ложь, expression.типОсмысленный.резОсмысления, ""); writer.пСимв8 (')'); writer.пСимв8 (Space);
				всё;
				PrintExpression (expression);
		кон Convert;

		проц LockScope (scope: SyntaxTree.ВнутренняяОбластьВидимости);
		перем name: Identifier;
		нач
			PrintIndent; writer.пСтроку8 ("LockObject (&");
			если scope суть SyntaxTree.ВнутренняяОбластьВидимостиТипаИзРодаЗаписей то
				PrintSelf; writer.пСтроку8 ("->record");
				AccessBase (scope(SyntaxTree.ВнутренняяОбластьВидимостиТипаИзРодаЗаписей).типИзРодаЗаписейˉвладелец, НУЛЬ);
			аесли scope суть SyntaxTree.ВнутренняяОбластьВидимостиМодуля то
				GetScopeName (scope, name, backend.style);
				writer.пСтроку8 (name); writer.пСтроку8 (StructTag);
			всё;
			writer.пСимв8 (')'); writer.пСимв8 (Semicolon); writer.пВК_ПС;
		кон LockScope;

		проц UnlockScope (scope: SyntaxTree.ВнутренняяОбластьВидимости);
		перем name: Identifier;
		нач
			если scope суть SyntaxTree.ВнутренняяОбластьВидимостиТипаИзРодаЗаписей то
				PrintIndent; writer.пСтроку8 ("UnlockObject (&"); PrintSelf; writer.пСтроку8 ("->record");
				AccessBase (scope(SyntaxTree.ВнутренняяОбластьВидимостиТипаИзРодаЗаписей).типИзРодаЗаписейˉвладелец, НУЛЬ);
				writer.пСимв8 (')'); writer.пСимв8 (Semicolon); writer.пВК_ПС;
			аесли scope суть SyntaxTree.ВнутренняяОбластьВидимостиМодуля то
				GetScopeName (scope, name, backend.style); PrintIndent; writer.пСтроку8 ("UnlockObject (&"); writer.пСтроку8 (name); writer.пСтроку8 (StructTag); writer.пСимв8 (')'); writer.пСимв8 (Semicolon); writer.пВК_ПС;
			всё;
		кон UnlockScope;

		проц CompareTypeDescriptor (expression: SyntaxTree.Выражениеˉзначение; type: SyntaxTree.Выражениеˉтип);
		перем name: Identifier;
		нач
			writer.пСтроку8 ("IsBase (");
			если expression.типОсмысленный.резОсмысления суть SyntaxTree.ВыражˉтипИзРодаУклей то
				PrintExpression (expression); writer.пСтроку8 ("->"); writer.пСтроку8 (TypeDescriptorTag);
				если ~type.резОсмысления(SyntaxTree.ВыражˉтипИзРодаУклей).типУказуемого.резОсмысления(SyntaxTree.ВыражˉтипИзРодаЗаписей).ообъектЛи¿ то
					type := type.резОсмысления(SyntaxTree.ВыражˉтипИзРодаУклей).типУказуемого.резОсмысления;
				всё;
			аесли (expression.типОсмысленный.резОсмысления суть SyntaxTree.ВыражˉтипДинамическиТипизированныйУкль) то
				writer.пСтроку8 ("(*(void**) "); PrintExpression (expression); writer.пСимв8 (')');
			аесли expression.типОсмысленный.резОсмысления суть SyntaxTree.ВыражˉтипИзРодаЗаписей то
				если (expression суть SyntaxTree.Обращение˛осмысленноеКакОбрК_именованнойСущности) и (expression(SyntaxTree.Обращение˛осмысленноеКакОбрК_именованнойСущности).Объявление суть SyntaxTree.ОбъявлениеПараметра) то
					GetSymbolName (expression(SyntaxTree.Обращение˛осмысленноеКакОбрК_именованнойСущности).Объявление, name, backend.style); writer.пСтроку8 (name);
				иначе
					PrintType (ложь, expression.типОсмысленный, "");
				всё;
				writer.пСтроку8 (TypeDescriptorTag);
			аесли expression.типОсмысленный.резОсмысления суть SyntaxTree.ВыражˉтипБазовыйОобъект то
				PrintExpression (expression); writer.пСтроку8 ("->"); writer.пСтроку8 (TypeDescriptorTag);
			всё;
			writer.пСтроку8 (", &"); GetSymbolName (type.резОсмысления.объявлениеТипа, name, backend.style);
			writer.пСтроку8 (name); writer.пСтроку8 (TypeDescriptorTag); writer.пСтроку8 (')');
		кон CompareTypeDescriptor;

		проц PrintIndent;
		перем l2indent: Indent;
		нач l2indent := сам.indent; нцПока l2indent > 0 делай writer.пСимв8 (Tab); умень (l2indent); кц;
		кон PrintIndent;

		проц PrintInclude (конст filename: массив из симв8);
		нач writer.пСтроку8 ('#include "'); writer.пСтроку8 (filename); writer.пСтроку8 ('"'); writer.пВК_ПС;
		кон PrintInclude;

		проц PrintComment (конст comment: массив из симв8);
		перем i, len: размерМЗ; ch: симв8; pragma: булево;
		нач
			если Strings.StartsWith2("#pragma", comment) то
				pragma := истина
			иначе pragma := ложь
			всё;

			PrintIndent;
			если ~pragma то writer.пСтроку8("/*") всё;
			i := 0; len := длинаМассива (comment);
			нц
				ch := comment[i]; увел (i);
				если (i = len) или (ch = 0X) то прервиЦикл всё;
				если ch = 0AX то writer.пВК_ПС; PrintIndent;
				аесли ch # 0DX то writer.пСимв8(ch) всё;
			кц;
			если ~pragma то writer.пСтроку8("*/") всё;
			writer.пВК_ПС;
		кон PrintComment;

		проц PrintComments (comment: SyntaxTree.Комментарий; item: окласс);
		нач
			нцПока (comment # НУЛЬ) и (comment.К_чемуОтносится = item) делай
				PrintComment (comment.строкаИсходногоТекста^);
				comment := comment.следщКомментарий;
			кц;
		кон PrintComments;

		проц PrintProcedure (procedure: SyntaxTree.ОбъявлениеПроцедуры);
		перем name: Identifier; procedureType: SyntaxTree.ВыражˉтипИзРодаПроцедур;
		нач
			GetSymbolName (procedure, name, backend.style); procedureType := procedure.Тип(SyntaxTree.ВыражˉтипИзРодаПроцедур);
			PrintType (ложь, procedureType.типВозврата, name);
			PrintParameters (procedureType, procedure.областьВидимостиГдеОбъявлено);
			утв ((procedureType.типВозврата = НУЛЬ) или (~IsDelegate (procedureType.типВозврата.резОсмысления)));
		кон PrintProcedure;

		проц PrintParameter (symbol: SyntaxTree.ОбъявлениеИменованнойСущности; nested: булево);
		перем name: Identifier; type: SyntaxTree.Выражениеˉтип; index: размерМЗ;
		нач
			GetSymbolName (symbol, name, backend.style); type := symbol.Тип;
			PrintVariable (IsVarParameter (symbol) и ~IsOpenArray (type) или nested, name, type);
			если type.резОсмысления суть SyntaxTree.ВыражˉтипИзРодаЗаписей то
				writer.пСтроку8 (", void* "); writer.пСтроку8 (name); writer.пСтроку8 (TypeDescriptorTag);
			всё;
			index := 0;
			нцПока IsOpenArray (type) делай
				writer.пСтроку8 (", int "); writer.пСтроку8 (name); writer.пСтроку8 (LenTag);
				writer.пЦел64 (index, 0); type := type(SyntaxTree.ВыражˉтипИзРодаМассивов).типЭлементов; увел (index);
			кц;
			если IsDelegate (type.резОсмысления) то
				writer.пСимв8 (Comma); writer.пСимв8 (Space); writer.пСтроку8 (BaseObjectName); writer.пСимв8 ('*');
				writer.пСимв8 (' '); writer.пСтроку8 (name); writer.пСтроку8 (DelegateTag);
			всё;
		кон PrintParameter;

		проц PrintParameters (procedureType: SyntaxTree.ВыражˉтипИзРодаПроцедур; scope: SyntaxTree.ВнутренняяОбластьВидимости);
		перем first: булево; name: Identifier; outerScope: SyntaxTree.ВнутренняяОбластьВидимости;
		перем parameter: SyntaxTree.ОбъявлениеПараметра; variable: SyntaxTree.ОбъявлениеПеременной;
		нач
			writer.пСимв8 (Space); writer.пСимв8 ('('); first := истина;
			parameter := procedureType.первыйПараметр;
			нцПока parameter # НУЛЬ делай
				если first то first := ложь иначе writer.пСимв8 (Comma); writer.пСимв8 (Space); всё;
				PrintParameter (parameter, ложь);
				parameter := parameter.следщОП;
			кц;
			outerScope := scope;
			нцПока (outerScope # НУЛЬ) и (outerScope суть SyntaxTree.ВнутренняяОбластьВидимостиПроцедуры) делай
				parameter := outerScope(SyntaxTree.ВнутренняяОбластьВидимостиПроцедуры).процедураˉвладелец.Тип(SyntaxTree.ВыражˉтипИзРодаПроцедур).первыйПараметр;
				нцПока parameter # НУЛЬ делай
					если first то first := ложь иначе writer.пСимв8 (Comma); writer.пСимв8 (Space); всё;
					PrintParameter (parameter, истина);
					parameter := parameter.следщОП;
				кц;
				variable := outerScope.первоеОбъявлениеПеременной;
				нцПока variable # НУЛЬ делай
					если first то first := ложь иначе writer.пСимв8 (Comma); writer.пСимв8 (Space); всё;
					PrintParameter (variable, истина);
					variable := variable.следщОП;
				кц;
				outerScope := outerScope.охватывающаяОбластьВидимости;
			кц;
			если IsDelegate (procedureType.резОсмысления) и (scope = НУЛЬ) то
					если first то first := ложь иначе writer.пСимв8 (Comma); writer.пСимв8 (Space); всё;
					writer.пСтроку8 (BaseObjectName); writer.пСимв8 ('*'); writer.пСимв8 (' ');
					writer.пСтроку8 (name); writer.пСтроку8 (DelegateTag);
			всё;
			нцПока scope # НУЛЬ делай
				если scope суть SyntaxTree.ВнутренняяОбластьВидимостиТипаИзРодаЗаписей то
					если first то first := ложь иначе writer.пСимв8 (Comma); writer.пСимв8 (Space); всё;
					PrintType (ложь, scope(SyntaxTree.ВнутренняяОбластьВидимостиТипаИзРодаЗаписей).типИзРодаЗаписейˉвладелец, ""); writer.пСимв8 (Space); PrintSelf; scope := НУЛЬ;
				иначе
					scope := scope.охватывающаяОбластьВидимости;
				всё;
			кц;
			writer.пСимв8 (')');
		кон PrintParameters;

		проц PrintArgument (argument: SyntaxTree.Выражениеˉзначение; parameter: SyntaxTree.ОбъявлениеИменованнойСущности; nested: булево);
		перем argumentType, parameterType: SyntaxTree.Выражениеˉтип; index: размерМЗ; name: Identifier; isEmptyRecord: булево;
		нач
			parameterType := parameter.Тип; index := 0;
			если argument = НУЛЬ то argumentType := parameterType.резОсмысления иначе argumentType := argument.типОсмысленный.резОсмысления всё;
			isEmptyRecord := (parameterType.резОсмысления суть SyntaxTree.ВыражˉтипИзРодаЗаписей) и IsEmptyRecord (parameterType.резОсмысления(SyntaxTree.ВыражˉтипИзРодаЗаписей));
			если IsVarParameter (parameter) и ~IsOpenArray(parameterType) и ~(argumentType.резОсмысления суть SyntaxTree.ВыражˉтипИзРодаСтрок) или nested то
				если isEmptyRecord то writer.пСимв8 ('0'); иначе writer.пСимв8 ('&');
				всё;
			аесли IsOpenArray (parameterType) и (parameterType(SyntaxTree.ВыражˉтипИзРодаМассивов).типЭлементов.резОсмысления суть SyntaxTree.ВыражˉтипНизкоурБайт) то
				writer.пСтроку8 ("*("); PrintType (истина, argumentType, ""); writer.пСтроку8 (") &");
			всё;
			если ~isEmptyRecord то
				если argument = НУЛЬ то GetSymbolName (parameter, name, backend.style); writer.пСтроку8 (name) иначе PrintExpression (argument) всё;
			всё;
			если parameterType.резОсмысления суть SyntaxTree.ВыражˉтипИзРодаЗаписей то
				если ~isEmptyRecord то
					AccessBase (argumentType(SyntaxTree.ВыражˉтипИзРодаЗаписей), parameterType.резОсмысления(SyntaxTree.ВыражˉтипИзРодаЗаписей));
				всё;
				writer.пСимв8 (Comma); writer.пСимв8 (Space);
				если (argument # НУЛЬ) и (argument суть SyntaxTree.Обращение˛осмысленноеКакОбрК_именованнойСущности) и (argument(SyntaxTree.Обращение˛осмысленноеКакОбрК_именованнойСущности).Объявление суть SyntaxTree.ОбъявлениеПараметра) то
					GetSymbolName (argument(SyntaxTree.Обращение˛осмысленноеКакОбрК_именованнойСущности).Объявление, name, backend.style);
					writer.пСтроку8(name); writer.пСтроку8 (TypeDescriptorTag);
				иначе
					writer.пСимв8 ('&'); PrintType (ложь, argumentType, ""); writer.пСтроку8 (TypeDescriptorTag);
				всё;
			всё;
			нцПока IsOpenArray (parameterType) делай
				writer.пСимв8 (Comma); writer.пСимв8 (Space);
				если argument = НУЛЬ то
					GetSymbolName (parameter, name, backend.style); writer.пСтроку8 (name);
					writer.пСтроку8 (LenTag); writer.пЦел64 (index, 0);
				аесли argumentType суть SyntaxTree.ВыражˉтипИзРодаСтрок то
					writer.пЦел64 (argumentType(SyntaxTree.ВыражˉтипИзРодаСтрок).длина, 0);
				аесли parameterType(SyntaxTree.ВыражˉтипИзРодаМассивов).типЭлементов.резОсмысления суть SyntaxTree.ВыражˉтипНизкоурБайт то
					writer.пСтроку8 ("sizeof ("); PrintType (ложь, argumentType, ""); writer.пСимв8 (')');
				аесли ~IsOpenArray (argumentType) то
					writer.пЦел64 (argumentType(SyntaxTree.ВыражˉтипИзРодаМассивов).статическаяДлина, 0);
					утв (argumentType суть SyntaxTree.ВыражˉтипИзРодаМассивов);
					утв (argumentType(SyntaxTree.ВыражˉтипИзРодаМассивов).типЭлементов # НУЛЬ);
					argumentType := argumentType(SyntaxTree.ВыражˉтипИзРодаМассивов).типЭлементов.резОсмысления;
				аесли (argument суть SyntaxTree.Обращение˛осмысленноеКакОбрК_именованнойСущности) и (argument(SyntaxTree.Обращение˛осмысленноеКакОбрК_именованнойСущности).Объявление суть SyntaxTree.ОбъявлениеПараметра) то
					PrintExpression (argument); writer.пСтроку8 (LenTag); writer.пЦел64 (index, 0);
				аесли argument суть SyntaxTree.Обращение˛осмысленноеКакРазыменованиеУкля то
					PrintExpression (argument(SyntaxTree.Обращение˛осмысленноеКакРазыменованиеУкля).лев);
					writer.пСтроку8 ("->length["); writer.пЦел64 (index, 0); writer.пСимв8 (']');
				всё;
				parameterType := parameterType(SyntaxTree.ВыражˉтипИзРодаМассивов).типЭлементов; увел (index);
			кц;
			если IsDelegate (parameterType.резОсмысления) то
				writer.пСимв8 (Comma); writer.пСимв8 (Space); PrintDelegate (argument);
			всё;
		кон PrintArgument;

		проц PrintArguments (arguments: SyntaxTree.СписокВыражˉзначенийЧерезЗапятую; index, count: размерМЗ; parameter: SyntaxTree.ОбъявлениеПараметра; outerScope: SyntaxTree.ВнутренняяОбластьВидимости): булево;
		перем first: булево; variable: SyntaxTree.ОбъявлениеПеременной;
		нач
			first := истина;
			нцПока count # 0 делай
				если first то first := ложь иначе writer.пСимв8 (Comma); writer.пСимв8 (Space); всё;
				PrintArgument (arguments.ДайВыражение (index), parameter, ложь);
				увел (index); умень (count); parameter := parameter.следщОП;
			кц;
			нцПока (outerScope # НУЛЬ) и (outerScope суть SyntaxTree.ВнутренняяОбластьВидимостиПроцедуры) делай
				parameter := outerScope(SyntaxTree.ВнутренняяОбластьВидимостиПроцедуры).процедураˉвладелец.Тип(SyntaxTree.ВыражˉтипИзРодаПроцедур).первыйПараметр;
				нцПока parameter # НУЛЬ делай
					если first то first := ложь иначе writer.пСимв8 (Comma); writer.пСимв8 (Space); всё;
					PrintArgument (НУЛЬ, parameter, outerScope = currentProcedureScope);
					parameter := parameter.следщОП;
				кц;
				variable := outerScope.первоеОбъявлениеПеременной;
				нцПока variable # НУЛЬ делай
					если first то first := ложь иначе writer.пСимв8 (Comma); writer.пСимв8 (Space); всё;
					PrintArgument (НУЛЬ, variable, outerScope = currentProcedureScope);
					variable := variable.следщОП;
				кц;
				outerScope := outerScope.охватывающаяОбластьВидимости;
			кц;
			возврат first;
		кон PrintArguments;

		проц PrintSelf;
		перем self: Identifier;
		нач
			если backend.style = StailaStyle то writer.пСтроку8 ("_this");
			иначе Basic.GetString(Global.SelfParameterName,self); FixIdentifier (self, backend.style); writer.пСтроку8 (self); всё;
		кон PrintSelf;

		проц PrintDelegate (expression: SyntaxTree.Выражениеˉзначение);
		перем designator: SyntaxTree.Обращение˛осмысленноеКакОбрК_именованнойСущности;
		нач
			если IsDelegate (expression.типОсмысленный.резОсмысления) и (expression суть SyntaxTree.Обращение˛осмысленноеКакОбрК_именованнойСущности) то
				designator := expression(SyntaxTree.Обращение˛осмысленноеКакОбрК_именованнойСущности);
				если (designator.лев # НУЛЬ) и (designator.Объявление суть SyntaxTree.ОбъявлениеПроцедуры) то
					PrintExpression (designator.лев(SyntaxTree.Обращение˛осмысленноеКакРазыменованиеУкля).лев);
				иначе
					PrintExpression (designator); writer.пСтроку8 (DelegateTag);
				всё;
			иначе
				writer.пСимв8 ('0');
			всё;
		кон PrintDelegate;

		проц PrintBody (procedure: SyntaxTree.ОбъявлениеПроцедуры; body: SyntaxTree.Предписание«тело»; variable: SyntaxTree.ОбъявлениеПеременной);
		перем name: Identifier;
		нач
			BeginBlock;
			нцПока variable # НУЛЬ делай
				GetSymbolName (variable, name, backend.style);
				PrintIndent; PrintVariable (ложь, name, variable.Тип);
				если initializeLocalData то
					если variable.Тип.резОсмысления суть SyntaxTree.ВыражˉтипИзРодаМассивов то
						writer.пСтроку8 (" = {0}");
					аесли variable.Тип.резОсмысления суть SyntaxTree.ВыражˉтипИзРодаЗаписей то
						если ~IsEmptyRecord (variable.Тип.резОсмысления(SyntaxTree.ВыражˉтипИзРодаЗаписей)) то writer.пСтроку8 (" = {0}") всё;
					иначе
						writer.пСтроку8 (" = 0");
					всё;
				всё;
				writer.пСимв8 (Semicolon); writer.пВК_ПС;
				если IsDelegate (variable.Тип.резОсмысления) то
					PrintIndent; writer.пСтроку8 (BaseObjectName); writer.пСимв8 ('*'); writer.пСимв8 (' ');
					writer.пСтроку8 (name); writer.пСтроку8 (DelegateTag);
					если initializeLocalData то writer.пСтроку8 (" = 0") всё;
					writer.пСимв8 (Semicolon); writer.пВК_ПС;
				всё;
				variable := variable.следщОП;
			кц;
			если body # НУЛЬ то
				если body.МашКод # НУЛЬ то
					PrintCode (body.МашКод);
				иначе
					currentProcedureScope := body.областьВидимости;
					если procedure = procedure.внутренняяОбластьВидимости.модульˉвладелец.внутренняяОбластьВидимостиМодуля.процедураˉтело то
						GetScopeName (procedure.внутренняяОбластьВидимости.модульˉвладелец.внутренняяОбластьВидимостиМодуля, name, backend.style); PrintIndent; writer.пСтроку8 ("InitObject (&");
						writer.пСтроку8 (name); writer.пСтроку8 (StructTag); writer.пСимв8 (')'); writer.пСимв8 (Semicolon); writer.пВК_ПС;
					всё;
					PrintStatement (body);
					если body.АктивноеЛи¿ то
						PrintIndent; writer.пСтроку8 ("Objects_Terminate ();"); writer.пВК_ПС;
					всё;
				всё;
			всё;
			EndBlock;
		кон PrintBody;

		проц PrintType (pointer: булево; type: SyntaxTree.Выражениеˉтип; конст name: массив из симв8);

			проц Prefix (l3type: SyntaxTree.Выражениеˉтип);
			перем temp: Identifier;
			нач
				если l3type = НУЛЬ то writer.пСтроку8 ("void");
				аесли l3type суть SyntaxTree.ВыражˉтипИзРодаМассивов то Prefix (l3type(SyntaxTree.ВыражˉтипИзРодаМассивов).типЭлементов);
				аесли l3type суть SyntaxTree.ВыражˉтипИзРодаУклей то
					writer.пСтроку8 ("struct ");
					если l3type(SyntaxTree.ВыражˉтипИзРодаУклей).типУказуемого.резОсмысления суть SyntaxTree.ВыражˉтипИзРодаМассивов то
						writer.пСтроку8 ("Array");
					иначе
						GetSymbolName (l3type(SyntaxTree.ВыражˉтипИзРодаУклей).типУказуемого.резОсмысления.объявлениеТипа, temp, backend.style);
						writer.пСтроку8 (temp);
					всё;
					writer.пСтроку8 (PointerTag); writer.пСтроку8 (" (*");
				аесли l3type суть SyntaxTree.ВыражˉтипИзРодаПроцедур то Prefix (l3type(SyntaxTree.ВыражˉтипИзРодаПроцедур).типВозврата);
				аесли l3type.резОсмысления.объявлениеТипа # НУЛЬ то GetSymbolName (l3type.резОсмысления.объявлениеТипа, temp, backend.style); writer.пСтроку8 (temp);
				аесли l3type.резОсмысления суть SyntaxTree.ВыражˉтипБазовыйОобъект то writer.пСтроку8 ("ObjectType");
				иначе PrintBasicType (l3type.резОсмысления(SyntaxTree.ВыражˉтипИзРодаПримитивных)); всё;
				если name # "" то writer.пСимв8 (Space) всё;
			кон Prefix;

			проц Infix (l4type: SyntaxTree.Выражениеˉтип);
			нач
				если l4type = НУЛЬ то если pointer то writer.пСимв8 ('('); writer.пСимв8 ('*'); writer.пСтроку8 (name); writer.пСимв8 (')') иначе writer.пСтроку8 (name) всё
				аесли l4type суть SyntaxTree.ВыражˉтипИзРодаМассивов то Infix (l4type(SyntaxTree.ВыражˉтипИзРодаМассивов).типЭлементов);
				аесли l4type суть SyntaxTree.ВыражˉтипИзРодаУклей то Infix (l4type(SyntaxTree.ВыражˉтипИзРодаУклей).типУказуемого);
				аесли l4type суть SyntaxTree.ВыражˉтипИзРодаПроцедур то writer.пСимв8 ('('); writer.пСимв8 ('*'); если pointer то writer.пСимв8 ('*') всё; writer.пСтроку8 (name);
				иначе если pointer то writer.пСимв8 ('('); writer.пСимв8 ('*'); writer.пСтроку8 (name); writer.пСимв8 (')') иначе writer.пСтроку8 (name) всё
				всё;
			кон Infix;

			проц Postfix (l5type: SyntaxTree.Выражениеˉтип);
			нач
				если l5type = НУЛЬ то
				аесли l5type суть SyntaxTree.ВыражˉтипИзРодаМассивов то
					утв (~IsDelegate (l5type(SyntaxTree.ВыражˉтипИзРодаМассивов).типЭлементов.резОсмысления));
					writer.пСимв8 ('['); если l5type(SyntaxTree.ВыражˉтипИзРодаМассивов).статическаяДлина # 0 то writer.пЦел64 (l5type(SyntaxTree.ВыражˉтипИзРодаМассивов).статическаяДлина, 0); всё; writer.пСимв8 (']');
					Postfix (l5type(SyntaxTree.ВыражˉтипИзРодаМассивов).типЭлементов);
				аесли l5type суть SyntaxTree.ВыражˉтипИзРодаУклей то writer.пСимв8 (')');
				аесли l5type суть SyntaxTree.ВыражˉтипИзРодаПроцедур то writer.пСимв8 (')'); PrintParameters (l5type(SyntaxTree.ВыражˉтипИзРодаПроцедур), НУЛЬ);
				всё;
			кон Postfix;

		нач
			Prefix (type); Infix (type); Postfix (type);
		кон PrintType;

		проц PrintBasicType (type: SyntaxTree.ВыражˉтипИзРодаПримитивных);
		нач
			если type суть SyntaxTree.ВыражˉтипАДРЕС то
				writer.пСтроку8 ("size_t");
			аесли type суть SyntaxTree.ВыражˉтипSIZE то
				writer.пСтроку8 ("size_t");
			аесли type суть SyntaxTree.ВыражˉтипНизкоурБайт то
				если type.размер˛бит = 8 то
					если backend.style = StailaStyle то writer.пСтроку8 ("int8_t") иначе writer.пСтроку8 ("Byte") всё;
				иначе
					СТОП (1234);
				всё;
			аесли type суть SyntaxTree.ВыражˉтипИзРодаЛитер то
				если type.размер˛бит = 8 то
					если backend.style = StailaStyle то writer.пСтроку8 ("char") иначе writer.пСтроку8 ("Char") всё;
				иначе
					СТОП (1234);
				всё;
			аесли type суть SyntaxTree.ВыражˉтипБулево то
					если backend.style = StailaStyle то writer.пСтроку8 ("bool") иначе writer.пСтроку8 ("Boolean") всё;
			аесли type суть SyntaxTree.ВыражˉтипИзРодаЧиселЦел то
				если type.размер˛бит = 8 то
					если backend.style = StailaStyle то writer.пСтроку8 ("int8_t") иначе writer.пСтроку8 ("ShortInt") всё;
				аесли type.размер˛бит = 16 то
					если backend.style = StailaStyle то writer.пСтроку8 ("int16_t") иначе writer.пСтроку8 ("Integer") всё;
				аесли type.размер˛бит = 32 то
					если backend.style = StailaStyle то writer.пСтроку8 ("int32_t") иначе writer.пСтроку8 ("LongInt") всё;
				аесли type.размер˛бит = 64 то
					если backend.style = StailaStyle то writer.пСтроку8 ("int64_t") иначе writer.пСтроку8 ("HugeInt") всё;
				иначе
					СТОП (1234);
				всё;
			аесли type суть SyntaxTree.ВыражˉтипИзРодаЧиселВещ то
				если type.размер˛бит = 32 то
					если backend.style = StailaStyle то writer.пСтроку8 ("float") иначе writer.пСтроку8 ("Real") всё;
				аесли type.размер˛бит = 64 то
					если backend.style = StailaStyle то writer.пСтроку8 ("double") иначе writer.пСтроку8 ("LongReal") всё;
				иначе
					СТОП (1234);
				всё;
			аесли type суть SyntaxTree.МнвоType то
				если type.размер˛бит = backend.addressSize то
					если backend.style = StailaStyle то writer.пСтроку8 ("size_t") иначе writer.пСтроку8 ("Set") всё;
				иначе
					СТОП (1234);
				всё;
			аесли type суть SyntaxTree.ВыражˉтипНУЛЬ то
				writer.пСтроку8 ("void*");
			аесли type суть SyntaxTree.ВыражˉтипДинамическиТипизированныйУкль то
				writer.пСтроку8 ("void*");
			иначе
				СТОП (1234);
			всё;
		кон PrintBasicType;

		проц PrintVariable (variable: булево; конст name: массив из симв8; type: SyntaxTree.Выражениеˉтип);
		нач PrintType (variable, type, name);
		кон PrintVariable;

		проц PrintCharacter (value: симв8);
		нач
			writer.пСимв8 ("'");
			если value = "'" то
				writer.пСтроку8 ("\'");
			аесли (кодСимв8 (value) >= 32) и (кодСимв8 (value) < 127) то
				writer.пСимв8 (value);
			иначе
				writer.пСтроку8 ("\x"); writer.п16ричное (кодСимв8 (value), 0);
			всё;
			writer.пСимв8 ("'");
		кон PrintCharacter;

		проц PrintNew (arguments: SyntaxTree.СписокВыражˉзначенийЧерезЗапятую);
		перем designator: SyntaxTree.Выражениеˉзначение; type: SyntaxTree.Выражениеˉтип; name: Identifier;
		перем procedure: SyntaxTree.ОбъявлениеПроцедуры; recordType: SyntaxTree.ВыражˉтипИзРодаЗаписей; first: булево;
		нач
			designator := arguments.ДайВыражение (0);
			type := designator.типОсмысленный.резОсмысления(SyntaxTree.ВыражˉтипИзРодаУклей).типУказуемого.резОсмысления;
			если (type суть SyntaxTree.ВыражˉтипИзРодаМассивов) и (arguments.Длина () > 1) то
				утв (arguments.Длина () = 2);
				утв (type(SyntaxTree.ВыражˉтипИзРодаМассивов).статическаяДлина = 0);
				PrintExpression (designator); writer.пСтроку8 (" = ("); PrintType (ложь, designator.типОсмысленный, "");
				writer.пСтроку8 (") calloc (1, "); PrintExpression (arguments.ДайВыражение (1)); writer.пСтроку8 (" * sizeof (");
				PrintType (ложь, type(SyntaxTree.ВыражˉтипИзРодаМассивов).типЭлементов, ""); writer.пСтроку8 (") + sizeof (struct Array_pointer))");
				writer.пСимв8 (Semicolon); writer.пВК_ПС; PrintIndent; PrintExpression (designator);
				writer.пСтроку8 ("->length[0] = "); PrintExpression (arguments.ДайВыражение (1)); writer.пСимв8 (Semicolon);
			иначе
				PrintExpression (designator); writer.пСтроку8 (" = ("); PrintType (ложь, designator.типОсмысленный, "");
				writer.пСтроку8 (") calloc (1, sizeof (struct "); PrintType (ложь, type, ""); writer.пСтроку8 (PointerTag); writer.пСтроку8 ("))");
			всё;
			если type суть SyntaxTree.ВыражˉтипИзРодаЗаписей то
				recordType := type(SyntaxTree.ВыражˉтипИзРодаЗаписей);
				GetSymbolName (recordType.объявлениеТипа, name, backend.style);
				writer.пСимв8 (Semicolon); writer.пВК_ПС; PrintIndent; PrintExpression (designator); writer.пСтроку8 ("->"); writer.пСтроку8 (TypeDescriptorTag); writer.пСтроку8 (" = &"); writer.пСтроку8 (name); writer.пСтроку8 (TypeDescriptorTag);
				если recordType.ообъектЛи¿ то
					writer.пСимв8 (Semicolon); writer.пВК_ПС; PrintIndent; writer.пСтроку8 ("InitObject (&"); PrintExpression (designator);
					writer.пСтроку8 ("->record"); AccessBase (recordType, НУЛЬ); writer.пСимв8 (')');
				всё;
				procedure := GetConstructor (recordType);
				если procedure # НУЛЬ то
					GetSymbolName (procedure, name, backend.style);
					writer.пСимв8 (Semicolon); writer.пВК_ПС; PrintIndent; writer.пСтроку8 (name); writer.пСтроку8 (" (");
					first := PrintArguments (arguments, 1, arguments.Длина () - 1, procedure.Тип(SyntaxTree.ВыражˉтипИзРодаПроцедур).первыйПараметр, procedure.областьВидимостиГдеОбъявлено.охватывающаяОбластьВидимости);
					если first то first := ложь иначе writer.пСтроку8 (", ") всё; PrintExpression (designator); writer.пСимв8 (')');
				всё;
				нцДо
					procedure := recordType.внутренняяОбластьВидимости.процедураˉтело;
					если procedure # НУЛЬ то
						GetSymbolName (procedure, name, backend.style); writer.пСимв8 (Semicolon); writer.пВК_ПС; PrintIndent;
						если procedure.внутренняяОбластьВидимости.Тело.АктивноеЛи¿ то
							writer.пСтроку8 ("Activate ((ObjectType) "); PrintExpression (designator);
							writer.пСтроку8 (", "); если procedure.внутренняяОбластьВидимости.Тело.приоритет # НУЛЬ то PrintExpression (procedure.внутренняяОбластьВидимости.Тело.приоритет) иначе writer.пСимв8 ('2') всё;
							writer.пСтроку8 (", (void (*) (ObjectType)) "); writer.пСтроку8 (name); writer.пСимв8 (')');
						иначе
							writer.пСтроку8 (name); writer.пСтроку8 (" ("); PrintExpression (designator); writer.пСимв8 (')');
						всё;
					всё;
					recordType := recordType.ДайТипЗаписьТипаˉродителя ();
				кцПри recordType = НУЛЬ;
			всё;
		кон PrintNew;

		проц PrintStatements (statements: SyntaxTree.ПоследовательностьПредписаний);
		перем i: размерМЗ;
		нач
			утв (statements # НУЛЬ);
			нцДля i := 0 до statements.Длина () - 1 делай PrintStatement (statements.ДайПредписание (i)); кц;
		кон PrintStatements;

		проц PrintCode (code: SyntaxTree.Предписание«машКод»);
		перем text: Scanner.уСтрокаU8; i: размерМЗ;
		нач
			PrintIndent; writer.пСтроку8 ("__asm ("); writer.пСимв8 ('"');
			text := code.строкаИсходногоТекста; i := 0;
			нцПока (text[i] # 0X) и (text[i] # 0AX) делай увел (i); кц;
			если text[i] # 0X то увел (i); всё;
			нцПока text[i] # 0X делай
				если text[i] = 0AX то
					writer.пСимв8 ('\'); writer.пСимв8 ('n'); writer.пСимв8 ('"'); writer.пСимв8 (Space);
					writer.пСимв8 ('\'); writer.пВК_ПС; увел (indent); PrintIndent; умень (indent); writer.пСимв8 ('"');
				иначе writer.пСимв8 (text[i]); всё;
				увел (i);
			кц;
			writer.пСимв8 ('"'); writer.пСимв8 (')'); writer.пСимв8 (Semicolon); writer.пВК_ПС;
		кон PrintCode;

		проц PrintIfPart (ifPart: SyntaxTree.ВеткаПредписания«если»);
		нач
			утв (ifPart # НУЛЬ);
			PrintComments (ifPart.комментарий, ifPart);
			writer.пСтроку8 ("if ("); PrintExpression (ifPart.условие); writer.пСимв8 (')'); writer.пВК_ПС;
			BeginBlock; PrintStatements (ifPart.действия); EndBlock;
		кон PrintIfPart;

		проц PrintStatement (statement: SyntaxTree.Предписание);
		нач
			утв (statement # НУЛЬ);
			PrintComments (statement.комментарий, statement);
			ПосетиУзелИзСемьиПредписания(statement);
		кон PrintStatement;

		проц PrintExpression (expression: SyntaxTree.Выражениеˉзначение);
		нач утв (expression # НУЛЬ);
			ПосетиУзелИзСемьиВыраженияˉзначения(expression);
		кон PrintExpression;

		проц PrintNegatedExpression (expression: SyntaxTree.Выражениеˉзначение);
		нач
			если (expression суть SyntaxTree.ВыражˉзначениеУнарнаяОперация) и (expression(SyntaxTree.ВыражˉзначениеУнарнаяОперация).Операция = Scanner.Не) то
				PrintExpression (expression(SyntaxTree.ВыражˉзначениеУнарнаяОперация).операнд);
			иначе
				writer.пСимв8 ('!'); writer.пСимв8 ('('); PrintExpression (expression); writer.пСимв8 (')');
			всё;
		кон PrintNegatedExpression;

		проц {перекрыта}ПосетиПредписаниеПрисвоитьЗначение* (statement: SyntaxTree.ПредписаниеПрисвоитьЗначение);
		нач
			PrintIndent;
			если IsEmptyString (statement.что.типОсмысленный) то
				PrintExpression (statement.куда); writer.пСтроку8 ("[0] = 0");
			аесли IsStructuredType (statement.куда.типОсмысленный) то
				утв (~IsOpenArray (statement.куда.типОсмысленный.резОсмысления));
				writer.пСтроку8 ("memcpy (");
				если ~(statement.куда.типОсмысленный.резОсмысления суть SyntaxTree.ВыражˉтипИзРодаМассивов) то writer.пСимв8 ('&'); всё;
				PrintExpression (statement.куда); writer.пСтроку8 (", ");
				если ~(statement.что.типОсмысленный.резОсмысления суть SyntaxTree.ВыражˉтипИзРодаСтрок) и ~(statement.что.типОсмысленный.резОсмысления суть SyntaxTree.ВыражˉтипИзРодаМассивов) то writer.пСимв8 ('&'); всё;
				PrintExpression (statement.что); writer.пСтроку8 (", sizeof ("); PrintType (ложь, statement.куда.типОсмысленный, ""); writer.пСтроку8 ("))");
			иначе
				PrintExpression (statement.куда); writer.пСимв8 (Space); writer.пСимв8 ('='); writer.пСимв8 (Space); Convert (statement.что, statement.куда.типОсмысленный);
			всё;
			writer.пСимв8 (Semicolon); writer.пВК_ПС;
			если IsDelegate (statement.куда.типОсмысленный.резОсмысления) то
				PrintIndent; PrintExpression (statement.куда); writer.пСтроку8 (DelegateTag);
				writer.пСтроку8 (" = "); PrintDelegate (statement.что); writer.пСимв8 (Semicolon); writer.пВК_ПС;
			всё;
		кон ПосетиПредписаниеПрисвоитьЗначение;

		проц {перекрыта}ПосетиПредписание«если»* (statement: SyntaxTree.Предписание«если»);
		перем i: размерМЗ;
		нач
			PrintIndent; PrintIfPart (statement.веткаЕсли);
			нцДля i := 0 до statement.ElsifParts () - 1 делай
				PrintIndent; writer.пСтроку8 ("else "); PrintIfPart (statement.ДайВеткуАесли (i));
			кц;
			если statement.веткаИначе # НУЛЬ то
				PrintIndent; writer.пСтроку8 ("else"); writer.пВК_ПС;
				BeginBlock; PrintStatements (statement.веткаИначе); EndBlock;
			всё;
		кон ПосетиПредписание«если»;

		проц {перекрыта}ПосетиВеткуПредписания«просейТип»* (statement: SyntaxTree.Предписание«просейТип»);
		перем withPart: SyntaxTree.ВеткаПредписания«просейТип»; i: размерМЗ;
		нач
			нцДля i := 0 до statement.ДайВеткиДляТипов () - 1 делай
				withPart := statement.ДайВетку (i); PrintIndent;
				если i > 0 то writer.пСтроку8 ("else ") всё;
				writer.пСтроку8 ("if ("); CompareTypeDescriptor (statement.чтоПросеиваем, withPart.условие); writer.пСтроку8 (")"); writer.пВК_ПС;
				BeginBlock; PrintStatements (withPart.statements); EndBlock;
			кц;
			PrintIndent;
			если statement.веткаИначе = НУЛЬ то
				writer.пСтроку8 ("else ASSERT (false);"); writer.пВК_ПС;
			иначе
				writer.пСтроку8 ("else"); writer.пВК_ПС;
				BeginBlock; PrintStatements (statement.веткаИначе); EndBlock;
			всё;
		кон ПосетиВеткуПредписания«просейТип»;

		проц {перекрыта}ПосетиПредписание«циклПока»* (statement: SyntaxTree.Предписание«циклПока»);
		нач
			PrintIndent; writer.пСтроку8 ("while ("); PrintExpression (statement.условие); writer.пСимв8 (')'); writer.пВК_ПС;
			BeginBlock; PrintStatements (statement.действия); EndBlock;
		кон ПосетиПредписание«циклПока»;

		проц {перекрыта}ПосетиПредписание«циклДо»* (statement: SyntaxTree.Предписание«циклДо»);
		нач
			PrintIndent; writer.пСтроку8 ("do"); writer.пВК_ПС;
			BeginBlock; PrintStatements (statement.действия); EndBlock;
			PrintIndent; writer.пСтроку8 ("while ("); PrintNegatedExpression (statement.условие); writer.пСтроку8 (");"); writer.пВК_ПС;
		кон ПосетиПредписание«циклДо»;

		проц {перекрыта}ПосетиПредписание«цикл»* (statement: SyntaxTree.Предписание«цикл»);
		нач
			PrintIndent; writer.пСтроку8 ("for (;;)"); writer.пВК_ПС;
			BeginBlock; PrintStatements (statement.Действия); EndBlock;
		кон ПосетиПредписание«цикл»;

		проц {перекрыта}ПосетиПредписание«прервиЦикл»* (statement: SyntaxTree.Предписание«прервиЦикл»);
		нач PrintIndent; writer.пСтроку8 ("break;"); writer.пВК_ПС;
		кон ПосетиПредписание«прервиЦикл»;

		проц {перекрыта}ПосетиПредписание«возврат»* (statement: SyntaxTree.Предписание«возврат»);
		конст ResultVariable = "_result";
		перем scope: SyntaxTree.ВнутренняяОбластьВидимостиПроцедуры; locked: булево;
		нач
			scope := GetStatementProcedure (statement);
			locked := IsInExclusiveBlock (statement);
			если statement.возвращаемоеЗначение # НУЛЬ то
				если locked то
					BeginBlock; PrintIndent; PrintVariable (ложь, ResultVariable, statement.возвращаемоеЗначение.типОсмысленный.резОсмысления); writer.пСимв8 (Semicolon); writer.пВК_ПС;
					PrintIndent; writer.пСтроку8 (ResultVariable); writer.пСтроку8 (" = "); PrintExpression (statement.возвращаемоеЗначение);
					writer.пСимв8 (Semicolon); writer.пВК_ПС; UnlockScope (scope.охватывающаяОбластьВидимости);
					PrintIndent; writer.пСтроку8 ("return "); writer.пСтроку8 (ResultVariable); writer.пСимв8 (Semicolon); writer.пВК_ПС; EndBlock;
				иначе
					PrintIndent; writer.пСтроку8 ("return "); PrintExpression (statement.возвращаемоеЗначение); writer.пСимв8 (Semicolon); writer.пВК_ПС;
				всё
			иначе
				если locked то UnlockScope (scope.охватывающаяОбластьВидимости); всё;
				PrintIndent; writer.пСтроку8 ("return"); writer.пСимв8 (Semicolon); writer.пВК_ПС;
			всё;
		кон ПосетиПредписание«возврат»;

		проц {перекрыта}ПосетиПредписание«тело»без«выходя»* (statement: SyntaxTree.Предписание«тело»без«выходя»);
		перем procedureScope: SyntaxTree.ВнутренняяОбластьВидимостиПроцедуры;
		нач
			procedureScope := GetStatementProcedure (statement);
			если statement.охватывающееПредписание # НУЛЬ то BeginBlock всё;
			если statement.единоличноЛи¿ то LockScope (procedureScope.охватывающаяОбластьВидимости) всё;
			PrintStatements (statement.действия);
			если statement.единоличноЛи¿ то UnlockScope (procedureScope.охватывающаяОбластьВидимости) всё;
			если statement.охватывающееПредписание # НУЛЬ то EndBlock всё;
		кон ПосетиПредписание«тело»без«выходя»;

		проц {перекрыта}ПосетиПредписание«дождись»* (statement: SyntaxTree.Предписание«дождись»);
		перем procedureScope: SyntaxTree.ВнутренняяОбластьВидимостиПроцедуры; name: Identifier;
		нач
			procedureScope := GetStatementProcedure (statement);
			PrintIndent; writer.пСтроку8 ("while ("); PrintNegatedExpression (statement.условие);
			writer.пСтроку8 (") "); writer.пСтроку8 ("AwaitCondition (&");
			если procedureScope.охватывающаяОбластьВидимости суть SyntaxTree.ВнутренняяОбластьВидимостиТипаИзРодаЗаписей то
				PrintSelf; writer.пСтроку8 ("->record");
				AccessBase (procedureScope.охватывающаяОбластьВидимости(SyntaxTree.ВнутренняяОбластьВидимостиТипаИзРодаЗаписей).типИзРодаЗаписейˉвладелец, НУЛЬ);
			аесли procedureScope.охватывающаяОбластьВидимости суть SyntaxTree.ВнутренняяОбластьВидимостиМодуля то
				GetScopeName (procedureScope.охватывающаяОбластьВидимости, name, backend.style);
				writer.пСтроку8 (name); writer.пСтроку8 (StructTag);
			всё;
			writer.пСимв8 (')'); writer.пСимв8 (Semicolon); writer.пВК_ПС;
		кон ПосетиПредписание«дождись»;

		проц {перекрыта}ПосетиПредписание«просей»* (statement: SyntaxTree.Предписание«просей»);
		перем i: размерМЗ; value: Basic.Integer; casePart: SyntaxTree.ВеткаПредписания«просей»; caseConstant: SyntaxTree.ДиапазонДляУсловияСитаПредписания«просей»;
		нач
			PrintIndent; writer.пСтроку8 ("switch ("); PrintExpression (statement.чтоПросеиваем); writer.пСимв8 (')'); writer.пВК_ПС;
			BeginBlock;
			нцДля i := 0 до statement.ДайВеткиУсловий () - 1 делай
				casePart := statement.ДайВетку (i);
				PrintComments (casePart.комментарий, casePart);
				caseConstant := casePart.диапазоныУсловия;
				нцПока caseConstant # НУЛЬ делай
					нцДля value := caseConstant.мин до caseConstant.макс делай
						если (caseConstant = casePart.диапазоныУсловия) и (value = caseConstant.мин) то умень (indent); PrintIndent; увел (indent); иначе writer.пСимв8 (Space); всё;
						writer.пСтроку8 ("case "); writer.пЦел64 (value, 0); writer.пСимв8 (':');
					кц;
					caseConstant := caseConstant.следщ;
				кц;
				writer.пВК_ПС; PrintStatements (casePart.действия);
				PrintIndent; writer.пСтроку8 ("break;"); writer.пВК_ПС;
			кц;
			умень (indent); PrintIndent; увел (indent); writer.пСтроку8 ("default:"); writer.пВК_ПС;
			если statement.ветка«Иначе» = НУЛЬ то
				PrintIndent; writer.пСтроку8 ("ASSERT (false);"); writer.пВК_ПС;
			иначе
				PrintStatements (statement.ветка«Иначе»);
				PrintIndent; writer.пСтроку8 ("break;"); writer.пВК_ПС;
			всё;
			EndBlock;
		кон ПосетиПредписание«просей»;

		проц {перекрыта}ПосетиПредписание«циклДля»* (statement: SyntaxTree.Предписание«циклДля»);
		нач
			PrintIndent; writer.пСтроку8 ("for (");
			PrintExpression (statement.Счётчик); writer.пСтроку8 (" = "); PrintExpression (statement.От); writer.пСтроку8 ("; "); PrintExpression (statement.Счётчик);
			если (statement.Шаг # НУЛЬ) и (statement.Шаг.резОсмысления(SyntaxTree.Значение˛известноеВоВремяКомпиляции˛целое).значение < 0) то writer.пСтроку8 (" >= "); иначе writer.пСтроку8 (" <= "); всё;
			PrintExpression (statement.До); writer.пСтроку8 ("; "); PrintExpression (statement.Счётчик); writer.пСтроку8 (" += ");
			если statement.Шаг = НУЛЬ то writer.пСимв8 ('1'); иначе PrintExpression (statement.Шаг); всё;
			writer.пСимв8 (')'); writer.пВК_ПС; BeginBlock; PrintStatements (statement.Действия); EndBlock;
		кон ПосетиПредписание«циклДля»;

		проц {перекрыта}ПосетиПредписаниеВызватьПроцедуру* (statement: SyntaxTree.ПредписаниеВызватьПроцедуру);
		нач PrintIndent; PrintExpression (statement.узелВызова); writer.пСимв8 (Semicolon); writer.пВК_ПС;
		кон ПосетиПредписаниеВызватьПроцедуру;

		проц {перекрыта}ПосетиОбращение˛осмысленноеКакОбрК_именованнойСущности* (expression: SyntaxTree.Обращение˛осмысленноеКакОбрК_именованнойСущности);
		перем name: Identifier; recordType: SyntaxTree.ВыражˉтипИзРодаЗаписей;
		нач
			recordType := НУЛЬ;
			если (expression.лев # НУЛЬ) и (expression.лев.типОсмысленный.резОсмысления # SyntaxTree.выражениеˉтипОбъявленияИмпортаМодуля) то
				если expression.лев.типОсмысленный.резОсмысления суть SyntaxTree.ВыражˉтипИзРодаЗаписей то
					recordType := expression.лев.типОсмысленный.резОсмысления(SyntaxTree.ВыражˉтипИзРодаЗаписей);
					если expression.Объявление суть SyntaxTree.ОбъявлениеПроцедуры то
						writer.пСтроку8 ("(("); GetSymbolName (recordType.объявлениеТипа, name, backend.style); writer.пСтроку8 (name);  writer.пСтроку8 (TypeTag); writer.пСтроку8 ("*) ");
						PrintExpression (expression.лев(SyntaxTree.Обращение˛осмысленноеКакРазыменованиеУкля).лев); writer.пСтроку8 ("->"); writer.пСтроку8 (TypeDescriptorTag); writer.пСтроку8 (")->");
						expression.Объявление.ДайИмяВВидеСтроки(name); FixIdentifier (name, backend.style); writer.пСтроку8 (name); возврат;
					иначе
						PrintExpression (expression.лев);
						AccessBase (recordType, expression.Объявление.областьВидимостиГдеОбъявлено(SyntaxTree.ВнутренняяОбластьВидимостиТипаИзРодаЗаписей).типИзРодаЗаписейˉвладелец);
					всё;
				иначе
					PrintExpression (expression.лев);
				всё;
				writer.пСимв8 ('.');
			всё;

			GetSymbolName (expression.Объявление, name, backend.style);

			если IsVarParameter (expression.Объявление) и ~IsOpenArray (expression.типОсмысленный) или
				((expression.Объявление суть SyntaxTree.ОбъявлениеПараметра) или (expression.Объявление суть SyntaxTree.ОбъявлениеПеременной)) и
				(expression.Объявление.областьВидимостиГдеОбъявлено суть SyntaxTree.ВнутренняяОбластьВидимостиПроцедуры) и (expression.Объявление.областьВидимостиГдеОбъявлено # currentProcedureScope) то
				writer.пСимв8 ('('); writer.пСимв8 ('*'); writer.пСтроку8 (name); writer.пСимв8 (')');
			иначе
				writer.пСтроку8 (name);
			всё;
		кон ПосетиОбращение˛осмысленноеКакОбрК_именованнойСущности;

		проц {перекрыта}ПосетиОбращение˛осмысленноеКакВызовВстроеннойПроцедуры* (expression: SyntaxTree.Обращение˛осмысленноеКакВызовВстроеннойПроцедуры);
		перем argument: массив 3 из SyntaxTree.Выражениеˉзначение; i: размерМЗ; name: Identifier;
			position: Потоки.ТипМестоВПотоке; typeDeclaration: SyntaxTree.ОбъявлениеТипаˉнаименования;
		нач
			нцДля i := 0 до длинаМассива (argument) - 1 делай
				если i < expression.параметры.Длина () то argument[i] := expression.параметры.ДайВыражение (i); иначе argument[i] := НУЛЬ; всё;
			кц;
			position := expression.начВ_тексте.start;
			просей expression.номерВстроеннойПроцедуры из
			| Global.Incl: PrintExpression (argument[0]); writer.пСтроку8 (" |= 1 << ("); PrintExpression (argument[1]); writer.пСимв8 (')');
			| Global.Excl: PrintExpression (argument[0]); writer.пСтроку8 (" &= ~(1 << ("); PrintExpression (argument[1]); writer.пСимв8 (')'); writer.пСимв8 (')');
			| Global.Inc: PrintExpression (argument[0]); writer.пСтроку8 (" += "); PrintExpression (argument[1]);
			| Global.Dec: PrintExpression (argument[0]); writer.пСтроку8 (" -= "); PrintExpression (argument[1]);
			| Global.Assert: если argument[0].резОсмысления = НУЛЬ то writer.пСтроку8 ("ASSERT ("); PrintExpression (argument[0]); writer.пСимв8 (')') всё;
			| Global.Halt, Global.systemHalt: writer.пСтроку8 ("ASSERT (false)");
			| Global.Ord: PrintExpression (argument[0]);
			| Global.Chr: PrintExpression (argument[0]);
			| Global.Short, Global.Long: writer.пСимв8 ('('); PrintType (ложь, expression.типОсмысленный, ""); writer.пСимв8 (')'); writer.пСимв8 (Space); PrintExpression (argument[0]);
			| Global.Entier, Global.EntierH: writer.пСтроку8 ("floor ("); PrintExpression (argument[0]); writer.пСимв8 (')');
			| Global.Cap: writer.пСтроку8 ("Capitalize ("); PrintExpression (argument[0]); writer.пСимв8 (')');
			| Global.Odd: writer.пСимв8 ('('); PrintExpression (argument[0]); writer.пСтроку8 (" & 1)");
			| Global.Ash: writer.пСимв8 ('('); PrintExpression (argument[0]); если IsNegative (argument[1]) то writer.пСтроку8 (" >> - ") иначе writer.пСтроку8 (" << ") всё; PrintExpression (argument[1]); writer.пСимв8 (')');
			| Global.Abs: если (expression.типОсмысленный.резОсмысления суть SyntaxTree.ВыражˉтипИзРодаЧиселВещ) то writer.пСимв8 ('f') всё;
				writer.пСтроку8 ("abs ("); PrintExpression (argument[0]); writer.пСимв8 (')');
			| Global.Min, Global.Max: PrintExpression (expression.резОсмысления);
			| Global.New: PrintNew (expression.параметры);
			| Global.Dispose: writer.пСтроку8 ("Dispose (&"); PrintExpression (argument[0]); writer.пСимв8 (')');
			| Global.Len:
				если argument[0] суть SyntaxTree.Обращение˛осмысленноеКакРазыменованиеУкля то PrintExpression (argument[0](SyntaxTree.Обращение˛осмысленноеКакРазыменованиеУкля).лев); writer.пСтроку8 ("->length[0]");
				иначе PrintExpression (argument[0]); writer.пСтроку8 (LenTag); writer.пСимв8 ('0') всё;
			| Global.Copy: writer.пСтроку8 ("strcpy ("); PrintExpression (argument[1]); writer.пСтроку8 (", "); PrintExpression (argument[0]); writer.пСимв8 (')');
			| Global.systemAdr: writer.пСтроку8 ("(("); PrintType (ложь, backend.system.addressType, ""); writer.пСтроку8 (") &"); PrintExpression (argument[0]); writer.пСимв8 (')');
			| Global.systemGet: PrintExpression (argument[1]); writer.пСтроку8 (" = *(("); PrintType (истина, argument[1].типОсмысленный, ""); writer.пСтроку8 (") "); PrintExpression (argument[0]); writer.пСимв8 (')');
			| Global.systemGet8, Global.systemGet16, Global.systemGet32, Global.systemGet64:
				writer.пСтроку8 ("*(("); PrintType (истина, expression.типОсмысленный, ""); writer.пСтроку8 (") "); PrintExpression (argument[0]); writer.пСимв8 (')');
			| Global.systemPut, Global.systemPut8, Global.systemPut16, Global.systemPut32, Global.systemPut64:
				writer.пСтроку8 ("*(("); PrintType (истина, argument[1].типОсмысленный, ""); writer.пСтроку8 (") "); PrintExpression (argument[0]); writer.пСтроку8 (") = "); PrintExpression (argument[1]);
			| Global.systemMove: writer.пСтроку8 ("memcpy ("); PrintExpression (argument[1]); writer.пСтроку8 (", "); PrintExpression (argument[0]); writer.пСтроку8 (", "); PrintExpression (argument[2]); writer.пСимв8 (')');
			| Global.systemVal:
				если (argument[1] суть SyntaxTree.Обращение˛осмысленноеКакОбрК_именованнойСущности) и (argument[1].резОсмысления = НУЛЬ) то
					writer.пСтроку8 ("*(("); PrintType (истина, GetDeclaredType (argument[0]), ""); writer.пСтроку8 (") &"); PrintExpression (argument[1]); writer.пСимв8 (')');
				иначе
					writer.пСтроку8 ("("); PrintType (ложь, GetDeclaredType (argument[0]), ""); writer.пСтроку8 (") "); PrintExpression (argument[1]);
				всё;
			| Global.Lsh: writer.пСимв8 ('('); PrintExpression (argument[0]); если IsNegative (argument[1]) то writer.пСтроку8 (" >> - ") иначе writer.пСтроку8 (" << ") всё; PrintExpression (argument[1]); writer.пСимв8 (')');
			| Global.Rot: writer.пСтроку8 ("(("); PrintExpression (argument[0]); writer.пСтроку8 (" << "); PrintExpression (argument[1]); writer.пСтроку8 (") | (");
				PrintExpression (argument[0]); writer.пСтроку8 (" >> (sizeof ("); PrintType (ложь, expression.типОсмысленный, ""); writer.пСтроку8 (") * 8 - "); PrintExpression (argument[1]); writer.пСтроку8 (")))");
			| Global.systemSize: writer.пСтроку8 ("sizeof ("); PrintType (ложь, GetDeclaredType (argument[0]), ""); writer.пСимв8 (')');
			| Global.systemTypeCode: typeDeclaration := argument[0](SyntaxTree.Обращение˛осмысленноеКакОбрК_именованнойСущности).Объявление(SyntaxTree.ОбъявлениеТипаˉнаименования);
				если typeDeclaration.выражениеˉтип.резОсмысления суть SyntaxTree.ВыражˉтипИзРодаУклей то
					typeDeclaration := typeDeclaration.выражениеˉтип.резОсмысления(SyntaxTree.ВыражˉтипИзРодаУклей).типУказуемого.резОсмысления.объявлениеТипа;
				всё;
				GetSymbolName (typeDeclaration, name, backend.style); writer.пСимв8 ('&'); writer.пСтроку8 (name); writer.пСтроку8 (TypeDescriptorTag);
			| Global.GetProcedure: PrintExpression (argument[2]); writer.пСтроку8 (" = 0");
			|Global.systemTrace: нцДля i := 0 до expression.параметры.Длина () - 1 делай Trace (expression.параметры.ДайВыражение (i)) кц;
			всё;
		кон ПосетиОбращение˛осмысленноеКакВызовВстроеннойПроцедуры;

		проц {перекрыта}ПосетиОбращение˛осмысленноеКакВызовПроцедуры* (expression: SyntaxTree.Обращение˛осмысленноеКакВызовПроцедуры);
		перем procedureType: SyntaxTree.ВыражˉтипИзРодаПроцедур; first: булево;
		перем symbolDesignator: SyntaxTree.Обращение˛осмысленноеКакОбрК_именованнойСущности; scope: SyntaxTree.ВнутренняяОбластьВидимости;
		нач
			если expression.лев суть SyntaxTree.Обращение˛осмысленноеКакОбрК_именованнойСущности то
				symbolDesignator := expression.лев(SyntaxTree.Обращение˛осмысленноеКакОбрК_именованнойСущности);
				если symbolDesignator.Объявление суть SyntaxTree.ОбъявлениеПроцедуры то
					scope := symbolDesignator.Объявление.областьВидимостиГдеОбъявлено;
				всё;
			иначе
				symbolDesignator := НУЛЬ; scope := НУЛЬ;
			всё;
			procedureType := expression.лев.типОсмысленный.резОсмысления(SyntaxTree.ВыражˉтипИзРодаПроцедур);
			PrintExpression (expression.лев); writer.пСимв8 (Space); writer.пСимв8 ('(');
			first := PrintArguments (expression.параметры, 0, expression.параметры.Длина (), procedureType.первыйПараметр, scope);
			если (symbolDesignator # НУЛЬ) и IsMethod (symbolDesignator) то
				если first то first := ложь иначе writer.пСтроку8 (", ") всё;
				если symbolDesignator.лев # НУЛЬ то
					PrintExpression (symbolDesignator.лев(SyntaxTree.Обращение˛осмысленноеКакРазыменованиеУкля).лев);
				иначе
					PrintSelf;
				всё;
			аесли expression.лев суть SyntaxTree.Обращение˛осмысленноеКакВызовМетодаПредка то
				если expression.параметры.Длина () > 0 то writer.пСтроку8 (", ") всё; PrintSelf;
			аесли IsDelegate (procedureType) то
				если expression.параметры.Длина () > 0 то writer.пСтроку8 (", ") всё;
				PrintExpression (expression.лев); writer.пСтроку8 (DelegateTag);
			всё;
			writer.пСимв8 (')');
		кон ПосетиОбращение˛осмысленноеКакВызовПроцедуры;

		проц {перекрыта}ПосетиЗначение˛известноеВоВремяКомпиляции˛булево* (expression: SyntaxTree.Значение˛известноеВоВремяКомпиляции˛булево);
		нач если expression.значение то writer.пСимв8 ('1'); иначе writer.пСимв8 ('0'); всё;
		кон ПосетиЗначение˛известноеВоВремяКомпиляции˛булево;

		проц {перекрыта}ПосетиЗначение˛известноеВоВремяКомпиляции˛целое* (expression: SyntaxTree.Значение˛известноеВоВремяКомпиляции˛целое);
		нач writer.пЦел64 (expression.значение, 0);
		кон ПосетиЗначение˛известноеВоВремяКомпиляции˛целое;

		проц {перекрыта}ПосетиЗначение˛известноеВоВремяКомпиляции˛символ* (expression: SyntaxTree.Значение˛известноеВоВремяКомпиляции˛символ);
		нач PrintCharacter (expression.значение);
		кон ПосетиЗначение˛известноеВоВремяКомпиляции˛символ;

		проц {перекрыта}ПосетиЗначение˛известноеВоВремяКомпиляции˛байт* (expression: SyntaxTree.Значение˛известноеВоВремяКомпиляции˛байт);
		перем i: цел16; mask, value: цел64;
		нач
			mask := 1; value := 0;
			нцДля i := матМинимум (мнвоНаБитахМЗ) до матМаксимум (мнвоНаБитахМЗ) делай если i в expression.значение то увел (value, mask); всё; увел (mask, mask); кц;
			writer.пСтроку8 ("0x"); writer.п16ричное (value, 0);
		кон ПосетиЗначение˛известноеВоВремяКомпиляции˛байт;

		проц {перекрыта}ПосетиЗначение˛известноеВоВремяКомпиляции˛вещ* (expression: SyntaxTree.Значение˛известноеВоВремяКомпиляции˛вещ);
		нач writer.пВещ64_ФФТ (expression.значение, 0, 5, 0);
		кон ПосетиЗначение˛известноеВоВремяКомпиляции˛вещ;

		проц {перекрыта}ПосетиЗначение˛известноеВоВремяКомпиляции˛строковое* (expression: SyntaxTree.Значение˛известноеВоВремяКомпиляции˛строковое);
		перем char: симв8; i: размерМЗ;
		нач
			writer.пСимв8 ('"'); i := 0;
			нц
				char := expression.значение[i];
				если char = 0X то прервиЦикл всё;
				если char = '"' то writer.пСимв8 ('\') всё;
				writer.пСимв8 (char); увел (i);
			кц;
			writer.пСимв8 ('"');
		кон ПосетиЗначение˛известноеВоВремяКомпиляции˛строковое;

		проц {перекрыта}ПосетиЗначение˛известноеВоВремяКомпиляции˛НУЛЬ* (expression: SyntaxTree.Значение˛известноеВоВремяКомпиляции˛НУЛЬ);
		нач writer.пСимв8 ('0');
		кон ПосетиЗначение˛известноеВоВремяКомпиляции˛НУЛЬ;

		проц {перекрыта}ПосетиЗначение˛известноеВоВремяКомпиляции˛перечисления* (expression: SyntaxTree.Значение˛известноеВоВремяКомпиляции˛перечисления);
		нач writer.пЦел64 (expression.значение, 0);
		кон ПосетиЗначение˛известноеВоВремяКомпиляции˛перечисления;

		проц {перекрыта}ПосетиВыражˉзначениеУнарнаяОперация* (expression: SyntaxTree.ВыражˉзначениеУнарнаяОперация);
		нач
			просей expression.Операция из
			| Scanner.ЗнакПлюс:
			| Scanner.ЗнакМинус: если expression.типОсмысленный.резОсмысления суть SyntaxTree.МнвоType то writer.пСимв8 ('~') иначе writer.пСимв8 ('-') всё;
			| Scanner.Не: writer.пСимв8 ('!');
			всё;
			PrintExpression (expression.операнд);
		кон ПосетиВыражˉзначениеУнарнаяОперация;

		проц {перекрыта}ПосетиОбращение˛осмысленноеКакОхранаТипа* (expression: SyntaxTree.Обращение˛осмысленноеКакОхранаТипа);
		перем isRecord: булево;
		нач
			isRecord := expression.типОсмысленный.резОсмысления суть SyntaxTree.ВыражˉтипИзРодаЗаписей;
			если isRecord то writer.пСтроку8 ("(*") всё;
			writer.пСтроку8 ("(ASSERT ("); CompareTypeDescriptor (expression.лев, expression.типОсмысленный); writer.пСтроку8 ("), (");
			PrintType (isRecord, expression.типОсмысленный, ""); writer.пСтроку8 (") ");
			если isRecord то writer.пСимв8 ('&') всё;
			PrintExpression (expression.лев); writer.пСимв8 (')');
			если isRecord то writer.пСимв8 (')') всё;
		кон ПосетиОбращение˛осмысленноеКакОхранаТипа;

		проц {перекрыта}ПосетиОбращение˛осмысленноеКакВызовМетодаПредка*(expression: SyntaxTree.Обращение˛осмысленноеКакВызовМетодаПредка);
		перем name: Identifier; procedure: SyntaxTree.ОбъявлениеПроцедуры;
		нач
			procedure := expression.лев(SyntaxTree.Обращение˛осмысленноеКакОбрК_именованнойСущности).Объявление(SyntaxTree.ОбъявлениеПроцедуры);
			GetSymbolName (procedure.перекрытаяПроцедураОпредка, name, backend.style); writer.пСтроку8 (name);
		кон ПосетиОбращение˛осмысленноеКакВызовМетодаПредка;

		проц {перекрыта}ПосетиВыражˉзначениеБинарнаяОперация* (expression: SyntaxTree.ВыражˉзначениеБинарнаяОперация);
		нач
			если expression.Операция = Scanner.В то
				writer.пСтроку8 ("(("); PrintExpression (expression.прав); writer.пСтроку8 (" >> ");
				PrintExpression (expression.лев); writer.пСтроку8 (") & 1)"); возврат;
			аесли expression.Операция = Scanner.Суть то
				CompareTypeDescriptor (expression.лев, GetDeclaredType (expression.прав));
				возврат;
			всё;
			writer.пСимв8 ('(');
			если IsString (expression.лев.типОсмысленный) то
				writer.пСтроку8 ("strcmp ("); PrintExpression (expression.лев); writer.пСимв8 (Comma); writer.пСимв8 (Space); PrintExpression (expression.прав); writer.пСимв8 (')');
			иначе
				PrintExpression (expression.лев);
			всё;
			writer.пСимв8 (Space);
			просей expression.Операция из
			| Scanner.Equal: writer.пСтроку8 ("==");
			| Scanner.Unequal: writer.пСтроку8 ("!=");
			| Scanner.Less: writer.пСтроку8 ("<");
			| Scanner.LessEqual: writer.пСтроку8 ("<=");
			| Scanner.Greater: writer.пСтроку8 (">");
			| Scanner.GreaterEqual: writer.пСтроку8 (">=");
			| Scanner.И: writer.пСтроку8 ("&&");
			| Scanner.Или: writer.пСтроку8 ("||");
			| Scanner.ЗнакПлюс: если expression.типОсмысленный.резОсмысления суть SyntaxTree.МнвоType то writer.пСимв8 ('|') иначе writer.пСимв8 ('+') всё;
			| Scanner.ЗнакМинус: если expression.типОсмысленный.резОсмысления суть SyntaxTree.МнвоType то writer.пСимв8 ('&'); writer.пСимв8 ('~') иначе writer.пСимв8 ('-') всё;
			| Scanner.ЗнакУмножить: если expression.типОсмысленный.резОсмысления суть SyntaxTree.МнвоType то writer.пСимв8 ('&') иначе writer.пСимв8 ('*') всё;
			| Scanner.Косая, Scanner.Div:  если expression.типОсмысленный.резОсмысления суть SyntaxTree.МнвоType то writer.пСимв8 ('^') иначе writer.пСимв8 ('/') всё;
			| Scanner.Mod: writer.пСимв8 ('%');
			всё;
			writer.пСимв8 (Space);
			если IsString (expression.лев.типОсмысленный) то writer.пСимв8 ('0'); иначе PrintExpression (expression.прав); всё; writer.пСимв8 (')');
		кон ПосетиВыражˉзначениеБинарнаяОперация;

		проц {перекрыта}ПосетиОбращение˛осмысленноеКакОбрК_себе* (expression: SyntaxTree.Обращение˛осмысленноеКакОбрК_себе);
		нач PrintSelf;
		кон ПосетиОбращение˛осмысленноеКакОбрК_себе;

		проц {перекрыта}ПосетиОбращение˛осмысленноеКакОбрПоИндексу* (expression: SyntaxTree.Обращение˛осмысленноеКакОбрПоИндексу);
		перем i: размерМЗ;
		нач
			PrintExpression (expression.лев);
			нцДля i := 0 до expression.параметры.Длина () - 1 делай
				writer.пСимв8 ('[');
				PrintExpression (expression.параметры.ДайВыражение (i));
				writer.пСимв8 (']');
			кц;
		кон ПосетиОбращение˛осмысленноеКакОбрПоИндексу;

		проц {перекрыта}ПосетиВыражˉзначениеПреобразованиеТипа* (expression: SyntaxTree.ВыражˉзначениеПреобразованиеТипа);
		перем e: SyntaxTree.Выражениеˉзначение;
		нач
			если (expression.типОсмысленный суть SyntaxTree.ВыражˉтипИзРодаЛитер) и (expression.аргумент.типОсмысленный суть SyntaxTree.ВыражˉтипИзРодаСтрок) то
				PrintCharacter (expression.аргумент.резОсмысления(SyntaxTree.Значение˛известноеВоВремяКомпиляции˛строковое).значение[0]);
			иначе
				PrintExpression (expression.аргумент);
			всё;
		кон ПосетиВыражˉзначениеПреобразованиеТипа;

		проц {перекрыта}ПосетиОбращение˛осмысленноеКакРазыменованиеУкля* (expression: SyntaxTree.Обращение˛осмысленноеКакРазыменованиеУкля);
		нач
			если expression.типОсмысленный суть SyntaxTree.ВыражˉтипИзРодаМассивов то
				writer.пСтроку8 ("(*("); PrintType (истина, expression.типОсмысленный, ""); writer.пСтроку8 (") &");
				PrintExpression (expression.лев); writer.пСтроку8 ("->array)");
			иначе
				PrintExpression (expression.лев); writer.пСтроку8 ("->record");
			всё;
		кон ПосетиОбращение˛осмысленноеКакРазыменованиеУкля;

		проц {перекрыта}ПосетиВыражˉзначениеКонструкторБайта* (expression: SyntaxTree.ВыражˉзначениеКонструкторБайта);
		перем i: размерМЗ; element: SyntaxTree.Выражениеˉзначение;
		нач
			если expression.состав.Длина () = 0 то
				writer.пСимв8 ('0');
			иначе
				writer.пСимв8 ('(');
				нцДля i := 0 до expression.состав.Длина () - 1 делай
					если i # 0 то writer.пСтроку8 (" | "); всё;
					element := expression.состав.ДайВыражение (i);
					если element суть SyntaxTree.ВыражˉзначениеКонструкторДиапазона то
						writer.пСтроку8 ("(("); PrintType (ложь, backend.system.setType64, ""); writer.пСтроку8 (") - 1 << "); PrintExpression (element(SyntaxTree.ВыражˉзначениеКонструкторДиапазона).первое);
						writer.пСтроку8 (" & ~(("); PrintType (ложь, backend.system.setType64, ""); writer.пСтроку8 (") - 2 << "); PrintExpression (element(SyntaxTree.ВыражˉзначениеКонструкторДиапазона).последнее); writer.пСтроку8 ("))");
					иначе
						writer.пСтроку8 ("1 << "); PrintExpression (element);
					всё;
				кц;
				writer.пСимв8 (')');
			всё;
		кон ПосетиВыражˉзначениеКонструкторБайта;

	кон Transpiler;

	тип TranspilerBackend*= окласс (Backend.Backend)
	перем
		defineMain, declarations, initLocalData: булево;
		addressSize: цел32; style: Style;
		traceModule: Identifier;

		проц &InitTranspilerBackend;
		нач InitBackend;
		кон InitTranspilerBackend;

		проц {перекрыта}ProcessSyntaxTreeModule* (module: SyntaxTree.ДеревоМодуля): Formats.GeneratedModule;
		перем filename, pathname, fullname: Files.FileName; file: Files.File; writer: Files.Writer; transpiler: Transpiler;
		нач
			Files.SplitPath (module.имяФайлаИсходника, pathname, filename); GetHeaderName (module, filename, style);
			если pathname = "" то fullname := filename иначе Files.JoinPath (pathname, filename, fullname) всё;
			file := Files.New (fullname); Files.OpenWriter (writer, file, 0);
			Replace (filename, '.', '_'); Strings.UpperCase (filename); Strings.Append (filename, "_INCLUDED");
			writer.пСтроку8 ("#ifndef "); writer.пСтроку8 (filename); writer.пВК_ПС; writer.пСтроку8 ("#define "); writer.пСтроку8 (filename); writer.пВК_ПС; writer.пВК_ПС;
			writer.пСтроку8 ("/* C header file generated from '"); writer.пСтроку8 (module.имяФайлаИсходника); writer.пСтроку8 ("' */"); writer.пВК_ПС;
			нов (transpiler, writer, сам, initLocalData); transpiler.DeclareModule (module);
			writer.пВК_ПС; writer.пСтроку8 ("#endif /* "); writer.пСтроку8 (filename); writer.пСтроку8 (" */"); writer.пВК_ПС; writer.ПротолкниБуферВПоток; Files.Register (file);
			если declarations то возврат НУЛЬ всё; GetSourceName (module, filename, style);
			если pathname = "" то fullname := filename иначе Files.JoinPath (pathname, filename, fullname) всё;
			file := Files.New (fullname); Files.OpenWriter (writer, file, 0);
			writer.пСтроку8 ("/* C source file generated from '"); writer.пСтроку8 (module.имяФайлаИсходника); writer.пСтроку8 ("' */"); writer.пВК_ПС;
			нов (transpiler, writer, сам, initLocalData); transpiler.DefineModule (module);
			если defineMain то transpiler.DefineMain (module); всё; writer.ПротолкниБуферВПоток; Files.Register (file);
			возврат НУЛЬ;
		кон ProcessSyntaxTreeModule;

		проц {перекрыта}DefineOptions* (options: Options.Options);
		нач DefineOptions^(options);
			options.Add(0X,"defineMain", Options.Flag);
			options.Add(0X,"declarations", Options.Flag);
			options.Add(0X,"addressSize", Options.Integer);
			options.Add(0X,"style", Options.String);
			options.Add(0X,"traceModule", Options.String);
			options.Add(0X,"noLocalInit", Options.Flag);
		кон DefineOptions;

		проц {перекрыта}GetOptions* (options: Options.Options);
		перем styleName: массив 32 из симв8;
		нач GetOptions^(options);
			defineMain := options.GetFlag ("defineMain");
			declarations := options.GetFlag ("declarations");
			если ~options.GetInteger ("addressSize", addressSize) то addressSize := 32 всё;
			если ~options.GetString ("style", styleName) или (styleName # "staila") то style := DefaultStyle иначе style := StailaStyle всё;
			если ~options.GetString ("traceModule", traceModule) то traceModule := "KernelLog" всё;
			initLocalData := ~options.GetFlag("noLocalInit");
		кон GetOptions;

		проц {перекрыта}DefaultSymbolFileFormat* (): Formats.SymbolFileFormat;
		нач возврат SymbolFileFormat.Get ();
		кон DefaultSymbolFileFormat;

		проц {перекрыта}GetSystem*(): Global.System;
		перем l6system: Global.System;
		нач
			нов(l6system, 8, 8, addressSize, 8, 32, 32, 32, 64, 0, ложь);
			Global.SetDefaultDeclarations(l6system,8);
			Global.SetDefaultOperators(l6system);
			возврат l6system;
		кон GetSystem;

	кон TranspilerBackend;

	проц AppendName (identifier: SyntaxTree.ИдентификаторВ_исходнике; перем name: массив из симв8; style: Style);
	перем temp: Identifier;
	нач Strings.Append (name, "_"); Basic.GetString(identifier,temp); Strings.Append (name, temp);
	кон AppendName;

	проц IsEmptyRecord (record: SyntaxTree.ВыражˉтипИзРодаЗаписей): булево;
	нач
		если record.ообъектЛи¿ или (record.типˉородитель # НУЛЬ) и ~IsEmptyRecord (record.ДайТипЗаписьТипаˉродителя ()) то возврат ложь всё;
		возврат record.внутренняяОбластьВидимости.первоеОбъявлениеПеременной = НУЛЬ;
	кон IsEmptyRecord;

	проц GetSymbolName (symbol: SyntaxTree.ОбъявлениеИменованнойСущности; перем name: массив из симв8; style: Style);
	нач
		если symbol суть SyntaxTree.ДеревоМодуля то
			если (symbol(SyntaxTree.ДеревоМодуля).контекстA2 # SyntaxTree.образцовыйНеверныйИдентификатор) и (symbol(SyntaxTree.ДеревоМодуля).контекстA2 # Global.A2Name) то
				Basic.GetString(symbol(SyntaxTree.ДеревоМодуля).контекстA2,name); Strings.Append (name, "_"); AppendName (symbol.имя, name, style);
			иначе
				symbol.ДайИмяВВидеСтроки(name);
			всё;
		аесли symbol суть SyntaxTree.ОбъявлениеПараметра то
			symbol.ДайИмяВВидеСтроки(name);
		аесли (symbol суть SyntaxTree.ОбъявлениеПеременной) и ~(symbol.областьВидимостиГдеОбъявлено суть SyntaxTree.ВнутренняяОбластьВидимостиМодуля) то
			symbol.ДайИмяВВидеСтроки(name);
		иначе
			GetScopeName (symbol.областьВидимостиГдеОбъявлено, name, style); AppendName (symbol.имя, name, style);
		всё;
		FixIdentifier (name, style);
	кон GetSymbolName;

	проц GetScopeName (scope: SyntaxTree.ВнутренняяОбластьВидимости; перем name: массив из симв8; style: Style);
	нач
		если scope суть SyntaxTree.ВнутренняяОбластьВидимостиПроцедуры то
			GetScopeName (scope.охватывающаяОбластьВидимости, name, style); AppendName (scope(SyntaxTree.ВнутренняяОбластьВидимостиПроцедуры).процедураˉвладелец.имя, name, style);
		аесли scope суть SyntaxTree.ВнутренняяОбластьВидимостиТипаИзРодаЗаписей то
			GetSymbolName (scope(SyntaxTree.ВнутренняяОбластьВидимостиТипаИзРодаЗаписей).типИзРодаЗаписейˉвладелец.объявлениеТипа, name, style);
		аесли scope суть SyntaxTree.ВнутренняяОбластьВидимостиМодуля то
			GetSymbolName (scope(SyntaxTree.ВнутренняяОбластьВидимостиМодуля).модульˉвладелец, name, style);
		всё;
	кон GetScopeName;

	проц GetSourceName (module: SyntaxTree.ДеревоМодуля; перем filename: Files.FileName; style: Style);
	нач GetSymbolName (module, filename, style); Strings.Append (filename, ".c");
	кон GetSourceName;

	проц GetHeaderName (module: SyntaxTree.ДеревоМодуля; перем filename: Files.FileName; style: Style);
	нач GetSymbolName (module, filename, style); Strings.Append (filename, ".h");
	кон GetHeaderName;

	проц GetConstructor (recordType: SyntaxTree.ВыражˉтипИзРодаЗаписей): SyntaxTree.ОбъявлениеПроцедуры;
	перем constructor: SyntaxTree.ОбъявлениеПроцедуры; base: SyntaxTree.Выражениеˉтип;
	нач
		нц
			constructor := recordType.внутренняяОбластьВидимости.процедураˉконструктор;
			если constructor # НУЛЬ то возврат constructor всё;
			base := recordType.типˉородитель;
			если base = НУЛЬ то возврат НУЛЬ всё;
			если base.резОсмысления суть SyntaxTree.ВыражˉтипИзРодаУклей то
				base := base.резОсмысления(SyntaxTree.ВыражˉтипИзРодаУклей).типУказуемого;
			всё;
			если ~(base.резОсмысления суть SyntaxTree.ВыражˉтипИзРодаЗаписей) то возврат НУЛЬ всё;
			recordType := base.резОсмысления(SyntaxTree.ВыражˉтипИзРодаЗаписей);
		кц;
	кон GetConstructor;

	проц GetStatementProcedure (statement: SyntaxTree.Предписание): SyntaxTree.ВнутренняяОбластьВидимостиПроцедуры;
	нач нцПока statement.охватывающееПредписание # НУЛЬ делай statement := statement.охватывающееПредписание кц; возврат statement(SyntaxTree.Предписание«тело»).областьВидимости;
	кон GetStatementProcedure;

	проц GetDeclaredType (expression: SyntaxTree.Выражениеˉзначение): SyntaxTree.Выражениеˉтип;
	нач возврат expression(SyntaxTree.Обращение˛осмысленноеКакОбрК_именованнойСущности).Объявление(SyntaxTree.ОбъявлениеТипаˉнаименования).выражениеˉтип;
	кон GetDeclaredType;

	проц IsMethod (expression: SyntaxTree.Обращение˛осмысленноеКакОбрК_именованнойСущности): булево;
	перем scope: SyntaxTree.ВнутренняяОбластьВидимости;
	нач
		если ~(expression.Объявление суть SyntaxTree.ОбъявлениеПроцедуры) то возврат ложь всё;
		scope := expression.Объявление.областьВидимостиГдеОбъявлено;
		нцПока scope суть SyntaxTree.ВнутренняяОбластьВидимостиПроцедуры делай scope := scope.охватывающаяОбластьВидимости кц;
		возврат scope суть SyntaxTree.ВнутренняяОбластьВидимостиТипаИзРодаЗаписей;
	кон IsMethod;

	проц IsVarParameter (symbol: SyntaxTree.ОбъявлениеИменованнойСущности): булево;
	нач возврат (symbol суть SyntaxTree.ОбъявлениеПараметра) и ((symbol(SyntaxTree.ОбъявлениеПараметра).видПараметра = SyntaxTree.ВидПараметраПерем) или (symbol(SyntaxTree.ОбъявлениеПараметра).видПараметра = SyntaxTree.ВидПараметраКонст) и ~(symbol.Тип.резОсмысления суть SyntaxTree.ВыражˉтипИзРодаПримитивных));
	кон IsVarParameter;

	проц IsInExclusiveBlock (statement: SyntaxTree.Предписание): булево;
	нач
		нцПока statement # НУЛЬ делай
			если (statement суть SyntaxTree.Предписание«тело»без«выходя») и statement(SyntaxTree.Предписание«тело»без«выходя»).единоличноЛи¿ то возврат истина всё;
			statement := statement.охватывающееПредписание;
		кц;
		возврат ложь;
	кон IsInExclusiveBlock;

	проц IsOpenArray (type: SyntaxTree.Выражениеˉтип): булево;
	нач возврат (type суть SyntaxTree.ВыражˉтипИзРодаМассивов) и (type(SyntaxTree.ВыражˉтипИзРодаМассивов).статическаяДлина = 0);
	кон IsOpenArray;

	проц IsStaticArray (type: SyntaxTree.Выражениеˉтип): булево;
	нач возврат (type суть SyntaxTree.ВыражˉтипИзРодаМассивов) и (type(SyntaxTree.ВыражˉтипИзРодаМассивов).статическаяДлина # 0);
	кон IsStaticArray;

	проц IsDelegate (type: SyntaxTree.Выражениеˉтип): булево;
	нач возврат (type суть SyntaxTree.ВыражˉтипИзРодаПроцедур) и type(SyntaxTree.ВыражˉтипИзРодаПроцедур).делегатЛи¿;
	кон IsDelegate;

	проц IsStructuredType (type: SyntaxTree.Выражениеˉтип): булево;
	нач возврат (type.резОсмысления суть SyntaxTree.ВыражˉтипИзРодаМассивов) или (type.резОсмысления суть SyntaxTree.ВыражˉтипИзРодаЗаписей);
	кон IsStructuredType;

	проц IsString (type: SyntaxTree.Выражениеˉтип): булево;
	нач возврат (type.резОсмысления суть SyntaxTree.ВыражˉтипИзРодаСтрок) или (type.резОсмысления суть SyntaxTree.ВыражˉтипИзРодаМассивов) и (type.резОсмысления(SyntaxTree.ВыражˉтипИзРодаМассивов).типЭлементов.резОсмысления суть SyntaxTree.ВыражˉтипИзРодаЛитер);
	кон IsString;

	проц IsEmptyString (type: SyntaxTree.Выражениеˉтип): булево;
	нач возврат (type.резОсмысления суть SyntaxTree.ВыражˉтипИзРодаСтрок) и (type.резОсмысления(SyntaxTree.ВыражˉтипИзРодаСтрок).длина = 1);
	кон IsEmptyString;

	проц IsNegative (expression: SyntaxTree.Выражениеˉзначение): булево;
	нач возврат (expression.резОсмысления # НУЛЬ) и (expression.резОсмысления суть SyntaxTree.Значение˛известноеВоВремяКомпиляции˛целое) и (expression.резОсмысления(SyntaxTree.Значение˛известноеВоВремяКомпиляции˛целое).значение < 0);
	кон IsNegative;

	проц IsInlineAssemblyCode (procedure: SyntaxTree.ОбъявлениеПроцедуры): булево;
	перем type: SyntaxTree.ВыражˉтипИзРодаПроцедур; body: SyntaxTree.Предписание«тело»;
	нач
		type := procedure.Тип(SyntaxTree.ВыражˉтипИзРодаПроцедур); body := procedure.внутренняяОбластьВидимости.Тело;
		возврат (procedure.встраиваемаяЛи¿) и (type.первыйПараметр = НУЛЬ) и (type.типВозврата = НУЛЬ) и (body # НУЛЬ) и (body.МашКод # НУЛЬ);
	кон IsInlineAssemblyCode;

	проц GetRecordMethod (record: SyntaxTree.ВыражˉтипИзРодаЗаписей; method: размерМЗ): SyntaxTree.ОбъявлениеПроцедуры;
	перем base: SyntaxTree.ВыражˉтипИзРодаЗаписей; scope: SyntaxTree.ВнутренняяОбластьВидимостиТипаИзРодаЗаписей; procedure: SyntaxTree.ОбъявлениеПроцедуры;
	нач
		scope := record.внутренняяОбластьВидимости;
		нц
			procedure := scope.первоеОбъявлениеПроцедуры;
			нцПока (procedure # НУЛЬ) и (procedure.номерМетода #method) делай procedure := procedure.следщПроц кц;
			если procedure # НУЛЬ то возврат procedure всё;
			base := scope.типИзРодаЗаписейˉвладелец.ДайТипЗаписьТипаˉродителя ();
			scope := base.внутренняяОбластьВидимости;
		кц;
	кон GetRecordMethod;

	проц GetRecord (type: SyntaxTree.Выражениеˉтип): SyntaxTree.ВыражˉтипИзРодаЗаписей;
	нач
		если type суть SyntaxTree.ВыражˉтипИзРодаЗаписей то возврат type(SyntaxTree.ВыражˉтипИзРодаЗаписей)
		аесли type суть SyntaxTree.ВыражˉтипИзРодаУклей то
			type := type(SyntaxTree.ВыражˉтипИзРодаУклей).типУказуемого.резОсмысления;
			если (type суть SyntaxTree.ВыражˉтипИзРодаЗаписей) и (type(SyntaxTree.ВыражˉтипИзРодаЗаписей).выражˉтипУкляВКоторомОпределёнДанныйТип # НУЛЬ) то возврат type(SyntaxTree.ВыражˉтипИзРодаЗаписей) всё;
		всё;
		возврат НУЛЬ;
	кон GetRecord;

	проц Replace (перем string: массив из симв8; replace, by: симв8);
	перем i: размерМЗ; char: симв8;
	нач
		i := 0; char := string[0];
		нцПока char # 0X делай если char = replace то string[i] := by; всё; увел (i); char := string[i]; кц;
	кон Replace;

	проц FixStailaIdentifier (перем identifier: массив из симв8);
	перем i: размерМЗ; previousLower: булево;
	нач
		i := 0; previousLower := ложь;
		нцПока identifier[i] # 0X делай
			если (кодСимв8 (identifier[i]) >= кодСимв8 ('A')) и (кодСимв8 (identifier[i]) <= кодСимв8 ('Z')) то
				если previousLower то Strings.Insert ("_", identifier, i); увел (i) всё;
				identifier[i] := Strings.LOW (identifier[i]); previousLower := ложь;
			иначе
				previousLower := (кодСимв8 (identifier[i]) >= кодСимв8 ('a')) и (кодСимв8 (identifier[i]) <= кодСимв8 ('z'));
			всё;
			увел (i);
		кц;
	кон FixStailaIdentifier;

	проц FixIdentifier (перем identifier: массив из симв8; style: Style);
	конст Tag = '_';
	нач
		Replace (identifier, '$', Tag); Replace (identifier, '@', Tag);
		(* IF style = StailaStyle THEN FixStailaIdentifier (identifier) END; *)
		если (identifier = "int") или (identifier = "return") или (identifier = "enum") или
			(identifier = "char") или (identifier = "register") или (identifier = "continue") то
				Strings.Append (identifier, Tag);
		всё;
	кон FixIdentifier;

	проц Get* (): Backend.Backend;
	перем backend: TranspilerBackend;
	нач нов(backend); возврат backend;
	кон Get;

кон FoxTranspilerBackend.

System.Free FoxTranspilerBackend ~
Compiler.Compile -b=Transpiler Test.Mod ~
TextCompiler.CompileSelection -b=Transpiler  ~
TextCompiler.CompileSelection -b=Transpiler --defineMain  ~

	MODULE Test;
	VAR a: SIGNED16;
	END Test.

FoxTest.Compile --options="-PC -G=Transpiler" --command="WinApplications.Run --hide cl /c Test.c" Oberon.Temp.Test Oberon.Temp.TranspilerTestDiff ~
FoxTest.Compile --options="--defineMain -PC -G=Transpiler" --command="WinApplications.Run --hide cl Test.c;WinApplications.Run --hide Test.exe" Oberon.Temp.Test Oberon.Temp.TranspilerTestDiff ~
