модуль Heaps;	(** AUTHOR "pjm/Luc Bläser/U. Glavitsch (ug)"; PURPOSE "Heap management and garbage collector"; *)

(*
	This module contains lots of low-level memory manipulations, which are best
	read together with the memory management data structure documentation.

	Garbage collector using a marking stack with overflow handling,
	References:
		Jones, Lins, Garbage Collection, Section 4.2, Algorithm 4.1
		Knuth, The Art of Computer Programming, Volume 1, Section 2.3.5, Algorithm C
*)

использует Builtins (* enforce import order *), НИЗКОУР, Трассировка, Machine;

конст
	Paranoid = истина; (* if paranoid =true, then during mark phase the GC can accept spurious pointers but reports them
									paranoid = false expects correct metadata and correct settings of untraced variables
									moreover, it should improve GC mark speed *)

	DebugValue = цел32(0DEADDEADH);	(* set non-0 to clear free storage to this value *)

	Stats* = истина;					(* maintain statistical counters *)

	AddressSize = размер16_от(адресВПамяти);

	MaxTries = 16;				(* max number of times to try and allocate memory, before trapping *)
	Unmarked = 0;				(* mark value of free blocks *)
	BlockSize* = 8*размер16_от(адресВПамяти);			(* power of two, <= 32 for RegisterCandidates. Must be large enough to accomodate any basic block *)

	ArrayAlignment* = 8;			(* first array element of ArrayBlock and first data element of SystemBlock must be aligned to 0 MOD ArrayAlignment *)
	BlockHeaderSize* = 2 * AddressSize;
	HeapBlockOffset* = - 2 * AddressSize;
	TypeDescOffset* = - AddressSize;

	MaxCandidates = 1024;

	ProtTypeBit* = 31;			(** flags in TypeDesc, RoundUp(log2(MaxTags)) low bits reserved for extLevel *)

	ModNameOfs = AddressSize * 2;		(* module name offset in ModuleDesc *)

	MinPtrOfs = -40000000H;	(* sentinel offset for ptrOfs *)
	MethodEndMarker* = MinPtrOfs;   (* marks the end of the method addresses, used in Info.ModuleDetails *)

	NilVal* = 0;

	NumPriorities* = 6;

	HeuristicStackInspectionGC* = 0;
	MetaDataForStackGC* = 1;
	
	ширинаИмениВключаяСимвол0* = 128;
тип
	RootObject* = окласс	(* ref. Linker0 *)
		перем nextRoot: RootObject;	(* for linking root objects during GC *)
		проц FindRoots*;	(** abstract *)
		нач СТОП(301) кон FindRoots;
	кон RootObject;

	ProcessLink* = окласс (RootObject)
		перем next*, prev*: ProcessLink
	кон ProcessLink;

	ProcessQueue* = запись
		head*, tail*: ProcessLink
	кон;

	Finalizer* = проц {делегат} (obj: динамическиТипизированныйУкль);

	FinalizerNode* = укль на запись
		objWeak* {неОтслСборщиком}: динамическиТипизированныйУкль;	(* weak reference to checked object *)
		nextFin: FinalizerNode;			(* in finalization list *)
		objStrong*: динамическиТипизированныйУкль;				(* strong reference to object to be finalized *)
		finalizer* {неОтслСборщиком} : Finalizer;(* finalizer, if any. Untraced for the case that a finalizer points to objWeak *)
		finalizerStrong: Finalizer; 		(* strong reference to the object that is referenced by the finalizer, if any *)
		collection*: FinalizedCollection;	(* collection containing object *)
	кон;

	FinalizedCollection* = окласс (* base type for collection, extended in Kernel.Mod *)
		проц RemoveAll*(obj: динамическиТипизированныйУкль); (** abstract *)
		нач СТОП(301) кон RemoveAll;
	кон FinalizedCollection;

	HeapBlock* = укль на HeapBlockDesc;	(* base object of all heap blocks *)
	HeapBlockU = укль {опасныйДоступКПамяти,неОтслСборщиком} на HeapBlockDesc;	(* base object of all heap blocks *)
	HeapBlockDesc* = запись
		heapBlock {поСмещению =HeapBlockOffset}: адресВПамяти;
		typeDesc- {поСмещению =TypeDescOffset}: укль {опасныйДоступКПамяти,неОтслСборщиком} на StaticTypeDesc;
		(* when this is changed --> change constant in Machine too and provide changes in FoxIntermediateBackend where noted *)
		mark: размерМЗ;
		dataAdr-: адресВПамяти;
		size-: размерМЗ;
		nextMark {неОтслСборщиком}: HeapBlock;
	кон;

	FreeBlock* = укль на FreeBlockDesc;
	FreeBlockU = укль {опасныйДоступКПамяти,неОтслСборщиком} на FreeBlockDesc;
	FreeBlockDesc* = запись (HeapBlockDesc)
		next{неОтслСборщиком}: FreeBlock;
	кон;

	SystemBlock* = укль на SystemBlockDesc;
	SystemBlockDesc* = запись  (HeapBlockDesc)
	кон;

	RecordBlock* = укль на RecordBlockDesc;
	RecordBlockU = укль {опасныйДоступКПамяти,неОтслСборщиком} на RecordBlockDesc;
	RecordBlockDesc* = запись  (HeapBlockDesc)
	кон;

	ProtRecBlock* = укль на ProtRecBlockDesc;
	ProtRecBlockU = укль {опасныйДоступКПамяти,неОтслСборщиком} на ProtRecBlockDesc;
	ProtRecBlockDesc* = запись  (RecordBlockDesc)
		count*: цел32;
		locked*: булево;
		awaitingLock*, awaitingCond*: ProcessQueue;
		lockedBy*: динамическиТипизированныйУкль;
		waitingPriorities*: массив NumPriorities из цел32;
		lock*: динамическиТипизированныйУкль; (* generic implementation slot -- used by LinuxAos *)
	кон;

	ArrayBlock* = укль на ArrayBlockDesc;
	ArrayBlockU = укль {опасныйДоступКПамяти,неОтслСборщиком} на ArrayBlockDesc;
	ArrayBlockDesc* = запись  (HeapBlockDesc)
	кон;

	TypeInfo*= укль{опасныйДоступКПамяти,неОтслСборщиком} на TypeInfoDesc;
	TypeInfoDesc = запись
		descSize-: размерМЗ;
		tag-: адресВПамяти; (* pointer to static type descriptor, only used by linker and loader *)
		flags-: мнвоНаБитахМЗ;
		mod-: адресВПамяти; (* module *)
		name*: массив ширинаИмениВключаяСимвол0 из симв8;
	кон;

	StaticTypeBlock*= укль на StaticTypeDesc;
	StaticTypeBlockU= укль {опасныйДоступКПамяти,неОтслСборщиком} на StaticTypeDesc;
	StaticTypeDesc* = запись
		info- {поСмещению =TypeDescOffset}: TypeInfo;
		recSize-: размерМЗ;
		pointerOffsets* {неОтслСборщиком}: PointerOffsets;
	кон;

	PointerOffsets = укль на массив из размерМЗ;

	Block*= укль	{опасныйДоступКПамяти,неОтслСборщиком} на запись
		heapBlock {поСмещению =HeapBlockOffset}: HeapBlock;
		typeBlock {поСмещению =TypeDescOffset}: StaticTypeBlock;
	кон;

	DataBlockU = укль {опасныйДоступКПамяти,неОтслСборщиком} на DataBlockDesc;
	DataBlockDesc*= запись
		heapBlock {поСмещению =HeapBlockOffset}: укль {опасныйДоступКПамяти,неОтслСборщиком} на HeapBlockDesc;
		typeDesc {поСмещению =TypeDescOffset}: укль {опасныйДоступКПамяти,неОтслСборщиком} на StaticTypeDesc;
	кон;

	ArrayDataBlockU = укль {опасныйДоступКПамяти,неОтслСборщиком} на ArrayDataBlockDesc;
	ArrayDataBlockDesc*= запись (DataBlockDesc)
		numElems: размерМЗ;
		first: адресВПамяти;
		(* len info *)
		(* data *)
	кон;

	(* a single pointer -- required as base type TD for array of pointer
		Don't rename this. Compiler refers to this TD by name
	*)
	AnyPtr = запись a: динамическиТипизированныйУкль кон;

тип
	GCStatus* = окласс
		(* the following procedures are overridden in Objects.GCStatusExt. The reason is that shared objects can only be implemented in modules Objects or higher *)

		проц SetgcOngoing*(value: булево);
		нач
			СТОП(2000);
		кон SetgcOngoing;

		проц  GetgcOngoing*(): булево;
		нач
			СТОП(2001); возврат ложь
		кон GetgcOngoing;

		проц WaitForGCEnd*;
		нач
			СТОП(2002)
		кон WaitForGCEnd;

	кон GCStatus;

	MarkStack = запись first{неОтслСборщиком}: HeapBlock кон;

перем
	marking-: булево; (* do not rename: used by compiler for the write barriers *)
	markStack: MarkStack;
	GC*: проц;	(** activate the garbage collector *)
	initBlock {неОтслСборщиком}: динамическиТипизированныйУкль;	(* anchor for init calls *)
	currentMarkValue: размерМЗ; (* all objects that have this value in their mark field are still used - initial value filled in by linker *)
	sweepMarkValue: размерМЗ; (* most recent mark value *)
	sweepBlockAdr: адресВПамяти;	(* where to resume sweeping *)
	sweepMemBlock {неОтслСборщиком}: Machine.MemoryBlock; (* where to resume sweeping *)
	candidates: массив MaxCandidates из адресВПамяти; (* procedure stack pointer candidates *)
	numCandidates: размерМЗ;
	newSum: размерМЗ;
	checkRoot: FinalizerNode;	(* list of checked objects (contains weak references to the checked objects) *)
	finalizeRoot: FinalizerNode;	(* objects scheduled for finalization (contains references to scheduled objects) *)

	freeBlockTag, systemBlockTag, recordBlockTag, protRecBlockTag, arrayBlockTag: адресВПамяти;  (* same values of type ADDRESS *)

	(** Statistics. Will only be maintained if Stats = TRUE *)

	(** Memory allocation statistics *)
	Nnew- : размерМЗ;			(** Number of times NewBlock has been called since system startup *)
	NnewBytes- : цел64;		(** Number of bytes allocated by NewBlock since system startup *)

	(** Garbage collection statistics *)
	Ngc- : размерМЗ; 			(** Number of GC cycles since system startup *)

	(** Statistics considering the last GC cyle *)
	Nmark-, Nmarked-, NfinalizeAlive-, NfinalizeDead-: размерМЗ;
	NgcCyclesMark-, NgcCyclesLastRun-, NgcCyclesMax-, NgcCyclesAllRuns- : цел64;
	NgcSweeps-, NgcSweepTime-, NgcSweepMax-: цел64;

	gcStatus*: GCStatus;

	GCType*: целМЗ;
	trace-: булево;

	allocationLogger-: проц(p: динамическиТипизированныйУкль);

(* for low level debugging of allocation -- beware: errors or traps in allocation logger can produce catastrophy - loggers may not allocate memory  *)
проц SetAllocationLogger*(a: проц (p:динамическиТипизированныйУкль));
нач
	allocationLogger := a
кон SetAllocationLogger;

(* check validity of p *)
проц CheckPointer*(p: адресВПамяти): булево;
перем
	tdAdr: адресВПамяти;
	block: Block;
нач
	block := p;
	если (block # НУЛЬ) и Machine.ValidHeapAddress(операцияАдресОт block.heapBlock)то
		block := block.heapBlock;
		если (block = НУЛЬ) то возврат истина (* block without heap header -- considered untraced *)
		аесли Machine.ValidHeapAddress(операцияАдресОт block.typeBlock) то
			tdAdr := block.typeBlock;
			если (tdAdr = systemBlockTag) или (tdAdr = recordBlockTag) или (tdAdr = protRecBlockTag) или (tdAdr = arrayBlockTag) то
				возврат истина;
			иначе
				Трассировка.пБлокПамяти16рично(p-64, 128);
				СТОП(103);
			всё
		иначе СТОП(102);
		всё
	иначе СТОП(101);
	всё;
	Трассировка.пСтроку8("Heaps: invalid pointer encountered: "); Трассировка.пАдресВПамяти(p); Трассировка.пСтроку8(","); Трассировка.пАдресВПамяти(block); Трассировка.пВК_ПС;
	СТОП(100);
	возврат ложь
кон CheckPointer;

проц AppendToMarkStackC(heapBlock: HeapBlockU);
перем first, temp: HeapBlockU;
нач
	first := сравнениеСОбменом(markStack.first,НУЛЬ,НУЛЬ);
	если сравнениеСОбменом(heapBlock.nextMark, НУЛЬ, first) # НУЛЬ то возврат всё;
	нц
		temp := сравнениеСОбменом(markStack.first, first, heapBlock);
		если temp = first то возврат всё;
		утв(сравнениеСОбменом(heapBlock.nextMark, first, temp) = first);
		first := temp;
	кц;
кон AppendToMarkStackC;

проц ExtractMarkStack(): HeapBlockU;
перем head: HeapBlockU;
нач
	нц
		head := сравнениеСОбменом(markStack.first, НУЛЬ, НУЛЬ);
		если head = endMark то
			возврат head;
		всё;
		если сравнениеСОбменом(markStack.first, head, endMark) = head то
			возврат head;
		всё;
	кц;
кон ExtractMarkStack;

перем
	endMark: HeapBlockU;

проц Mark*(block {неОтслСборщиком}: динамическиТипизированныйУкль);
перем
	heapBlock {неОтслСборщиком}: HeapBlock;
	blockMeta : Block;
нач
	(* ug: check for validity of block is necessary since users may assign values to pointer variables that are not real heap blocks, e.g. by using SYSTEM.VAL or ADDRESSOF *)
	если (block = НУЛЬ) или Paranoid и ~CheckPointer(block) то возврат всё;
	blockMeta := block;
	heapBlock := blockMeta.heapBlock;
	если (heapBlock = НУЛЬ) или (heapBlock.mark >= currentMarkValue) то возврат всё;
	heapBlock.mark := currentMarkValue;
	если Stats то увел(Nmarked) всё;
	если (heapBlock суть RecordBlock) или (heapBlock суть ProtRecBlock) или (heapBlock суть ArrayBlock) то
		если (длинаМассива(blockMeta.typeBlock.pointerOffsets) > 0) или (heapBlock суть ProtRecBlock) или (block суть RootObject)  то (* not atomic or heapBlock is ProtRecBlock containing awaiting queues *)
			AppendToMarkStackC(heapBlock);
		всё
	всё
кон Mark;

(** Mark - Mark an object and its decendents. Used by findRoots. *)
проц TraverseMarkStack();
перем orgBlock: адресВПамяти;(*: ADDRESS*); staticTypeBlock {неОтслСборщиком}: StaticTypeBlock;
	orgHeapBlock {неОтслСборщиком}, next{неОтслСборщиком}: HeapBlock;
	currentArrayElemAdr, lastArrayElemAdr: адресВПамяти; i: размерМЗ;
	protected {неОтслСборщиком}: ProtRecBlock;
	b {неОтслСборщиком}: укль {опасныйДоступКПамяти} на запись p: динамическиТипизированныйУкль кон;
	meta {неОтслСборщиком }: укль {опасныйДоступКПамяти} на запись staticTypeBlock {поСмещению=TypeDescOffset}: StaticTypeBlock; numElems: размерМЗ; first: адресВПамяти кон;
	block {неОтслСборщиком}: динамическиТипизированныйУкль;
нач{безОбычныхДинПроверок} (* omit any range checks etc.*)
	если Stats то увел(Nmark) всё;
	нц
		orgHeapBlock := ExtractMarkStack();
		если orgHeapBlock = endMark то прервиЦикл всё;
		нцДо
			orgBlock := orgHeapBlock.dataAdr;
			block := НИЗКОУР.подмениТипЗначения(динамическиТипизированныйУкль,orgBlock);
			meta := orgBlock;
			staticTypeBlock := meta.staticTypeBlock;

			если ~(orgHeapBlock суть ArrayBlock) то
				нцДля i := 0 до длинаМассива(staticTypeBlock.pointerOffsets) - 1 делай
					b := orgBlock + staticTypeBlock.pointerOffsets[i];
					Mark(b.p)
				кц
			иначе
				currentArrayElemAdr := meta.first;

				lastArrayElemAdr := meta.first + meta.numElems * staticTypeBlock.recSize;
				нцПока currentArrayElemAdr < lastArrayElemAdr делай
					нцДля i := 0 до длинаМассива(staticTypeBlock.pointerOffsets) - 1 делай
						b := currentArrayElemAdr + staticTypeBlock.pointerOffsets[i];
						Mark(b.p)
					кц;
					увел(currentArrayElemAdr, staticTypeBlock.recSize);
				кц
			всё;
			если orgHeapBlock суть ProtRecBlock то
				protected := orgHeapBlock(ProtRecBlock);
				Mark(protected.awaitingLock.head);
				Mark(protected.awaitingCond.head);
				Mark(protected.lockedBy);
				Mark(protected.lock);
			всё;
			если block суть RootObject то
				block(RootObject).FindRoots;
			всё;
			next := orgHeapBlock.nextMark;
			утв(сравнениеСОбменом(orgHeapBlock.nextMark, next, НУЛЬ) = next);
			orgHeapBlock := next;
		кцПри orgHeapBlock = endMark;
	кц;
кон TraverseMarkStack;

(** WriteType - Write a type name (for tracing only). *)
проц WriteType*(t: адресВПамяти);	(* t is static type descriptor *)
перем m: адресВПамяти; i: размерМЗ; ch: симв8;
	typeDesc: StaticTypeBlockU;
нач
	typeDesc := t;
	m := typeDesc.info.mod;
	если m # NilVal то	(* could be a type without module, e.g. a Java class *)
		i := 0; НИЗКОУР.прочтиОбъектПоАдресу (m + ModNameOfs + i, ch);
		нцПока (* (ch >= "0") и (ch <= "z") и  *) (ch # 0X) и (i # ширинаИмениВключаяСимвол0) делай
			Трассировка.пСимв8(ch);
			увел(i); НИЗКОУР.прочтиОбъектПоАдресу (m + ModNameOfs + i, ch)
		кц
	иначе
		Трассировка.пСтроку8("NIL")
	всё;
	Трассировка.пСимв8(".");
	если typeDesc.info.name = "" то
		Трассировка.пСтроку8("-")
	иначе
		Трассировка.пСтроку8(typeDesc.info.name);
	всё;
кон WriteType;

(** free list handling **)

проц GetFreeBlock(size: размерМЗ; перем p: FreeBlock);
нач
	LazySweep(size, p);
	если size # матМаксимум(размерМЗ) то
	увел(throughput, size);
	всё;
кон GetFreeBlock;

(* Sweep phase *)
проц LazySweep(size: адресВПамяти; перем p {неОтслСборщиком}: FreeBlock);
перем
	lastFreeBlockAdr: адресВПамяти;
	lastFreeBlockSize: адресВПамяти;
	block : HeapBlockU ; freeBlock, lastFreeBlock: FreeBlockU;
	blockMark: размерМЗ; blockSize: размерМЗ;
	time1, time2: цел64;
конст FreeBlockHeaderSize = размер16_от(FreeBlockDesc) + BlockHeaderSize;
конст StrongChecks = ложь;
нач{безОбычныхДинПроверок}
	увел(NgcSweeps);
	time1 := Machine.GetTimer();
	lastFreeBlockAdr := NilVal;
	lastFreeBlock := НУЛЬ;
	если (sweepMemBlock = НУЛЬ) (* OR (sweepMarkValue < currentMarkValue)*) то (* restart lazy sweep including clearance of lists *)
		(* note that the order of the blocks does not necessarily represent the historical order of insertion
			as they are potentially provided by the underlying host system in with non-increasing address ranges
			blocks are sorted by Machine.Mod in an increased address range order
		*)
		sweepMemBlock := Machine.memBlockHead;
		sweepBlockAdr := Machine.memBlockHead.beginBlockAdr;
		sweepMarkValue := currentMarkValue;
	всё;
	нцПока  (sweepMemBlock # НУЛЬ) делай
		нцПока  (sweepBlockAdr < sweepMemBlock.endBlockAdr) делай
			block := sweepBlockAdr + BlockHeaderSize;
			blockMark := block.mark; (* cache these values since they may be overwritten during concatenation *)
			blockSize := block.size;
			если (blockMark < currentMarkValue) то
				если (block.typeDesc # freeBlockTag) то
					Machine.Fill32(sweepBlockAdr + FreeBlockHeaderSize, blockSize - FreeBlockHeaderSize, DebugValue);
				всё;
				freeBlock := block;

				если lastFreeBlockAdr = NilVal то
					lastFreeBlockAdr := sweepBlockAdr;
					lastFreeBlock := freeBlock;
					lastFreeBlockSize := blockSize;
				иначе
					если StrongChecks то утв(lastFreeBlockAdr + lastFreeBlockSize = sweepBlockAdr) всё;
					(* there are at least two contiguous free blocks - merge them *)
					увел(lastFreeBlockSize, blockSize);
					Machine.Fill32(sweepBlockAdr, FreeBlockHeaderSize, DebugValue); (* rest was already cleared before *)
				всё
			аесли StrongChecks то
				утв(block.typeDesc = freeBlockTag);
			всё;

			если (lastFreeBlockAdr # НУЛЬ) и ((blockMark >= currentMarkValue) или (lastFreeBlockSize >= size) или (sweepBlockAdr + blockSize = sweepMemBlock.endBlockAdr) )
			то (* no further merging is possible *)
				если StrongChecks то утв(sweepBlockAdr + blockSize <= sweepMemBlock.endBlockAdr) всё;
				если lastFreeBlockSize >= size то (* block found - may be too big *)
					p := lastFreeBlock;
					InitFreeBlock(lastFreeBlock, Unmarked, NilVal, size); (* convert this block into a free heap block and clear its data *)
					если lastFreeBlockSize > size то (* block too big - divide block into two parts: block with required size and remaining free block *)
						если StrongChecks то утв(lastFreeBlockSize - size >= FreeBlockHeaderSize) всё;
						freeBlock := p + size;
						InitFreeBlock(freeBlock, Unmarked, NilVal, lastFreeBlockSize - size);
					всё;
					sweepBlockAdr := lastFreeBlockAdr + size; (* make sure next lazy sweep continues after block p *)
					time2 := Machine.GetTimer()-time1;
					увел(NgcSweepTime, time2);
					если time2 > NgcSweepMax то NgcSweepMax := time2 всё;
					возврат;
				иначе
					InitFreeBlock(lastFreeBlock, Unmarked, NilVal, lastFreeBlockSize); (* convert this block into a free heap block and clear its data *)
				всё;
				lastFreeBlockAdr := NilVal;
				lastFreeBlock := НУЛЬ;
			всё;
			sweepBlockAdr := sweepBlockAdr + blockSize
		кц;
		sweepMemBlock := sweepMemBlock.next;
		если sweepMemBlock # НУЛЬ то
			sweepBlockAdr := sweepMemBlock.beginBlockAdr
		иначе
			sweepBlockAdr := NilVal
		всё
	кц;
	time2 := Machine.GetTimer()-time1;
	увел(NgcSweepTime, time2);
	если time2 > NgcSweepMax то NgcSweepMax := time2 всё;
кон LazySweep;

(* -- useful for debugging --
PROCEDURE CheckHeap;
VAR memBlock {UNTRACED}: Machine.MemoryBlock; p, refBlock, currentArrayElemAdr, lastArrayElemAdr: ADDRESS;
	heapBlock {UNTRACED}: HeapBlock; staticTypeBlock {UNTRACED}: StaticTypeBlock; i: SIZE;

	PROCEDURE CheckBlock(block: ADDRESS): BOOLEAN;
	VAR heapBlockAdr: ADDRESS;
	BEGIN
		IF block = NilVal THEN
			RETURN TRUE
		ELSE
			IF (block >= Machine.memBlockHead.beginBlockAdr) & (block < Machine.memBlockTail.endBlockAdr) THEN
				SYSTEM.GET(block + HeapBlockOffset, heapBlockAdr);
				IF (heapBlockAdr >= Machine.memBlockHead.beginBlockAdr) & (heapBlockAdr < Machine.memBlockTail.endBlockAdr) THEN
					RETURN TRUE
				ELSE
					RETURN FALSE
				END
			ELSE
				RETURN FALSE
			END
		END
	END CheckBlock;

BEGIN
	memBlock := Machine.memBlockHead;
	WHILE memBlock # NIL DO
		p := memBlock.beginBlockAdr;
		WHILE p < memBlock.endBlockAdr DO
			heapBlock := SYSTEM.VAL(HeapBlock, p + BlockHeaderSize);
			IF heapBlock IS SystemBlock THEN
			ELSIF heapBlock IS RecordBlock THEN
				IF heapBlock.dataAdr # NilVal THEN
					SYSTEM.GET(heapBlock.dataAdr + TypeDescOffset, staticTypeBlock); ASSERT(staticTypeBlock # NIL);
					FOR i := 0 TO LEN(staticTypeBlock.pointerOffsets) - 1 DO
						SYSTEM.GET(heapBlock.dataAdr + staticTypeBlock.pointerOffsets[i], refBlock);
						IF ~CheckBlock(refBlock) THEN
							Trace.String("SEVERE ERROR: RecordBlock = "); Trace.Hex(heapBlock.dataAdr, 8);
							Trace.String(" invalid reference at pointer offset = "); Trace.Hex(staticTypeBlock.pointerOffsets[i], 0); Trace.Ln
						END
					END;
					IF heapBlock IS ProtRecBlock THEN
						IF CheckBlock(heapBlock(ProtRecBlock).awaitingLock.head) &
							CheckBlock(heapBlock(ProtRecBlock).awaitingLock.tail) &
							CheckBlock(heapBlock(ProtRecBlock).awaitingCond.head) &
							CheckBlock(heapBlock(ProtRecBlock).awaitingCond.tail) &
							CheckBlock(heapBlock(ProtRecBlock).lockedBy) THEN
						ELSE
							Trace.String("SEVERE ERROR in awaiting queues of block = "); Trace.Hex(heapBlock.dataAdr, 8); Trace.Ln
						END
					END
				ELSE
					Trace.StringLn("SEVERE ERROR: heapBlock.dataAdr = NilVal for RecordBlock or ProtRecBlock")
				END;
			ELSIF heapBlock IS ArrayBlock THEN
				IF heapBlock.dataAdr # NilVal THEN
					SYSTEM.GET(heapBlock.dataAdr + TypeDescOffset, staticTypeBlock); ASSERT(staticTypeBlock # NIL);
					SYSTEM.GET(heapBlock.dataAdr + 2 * AddressSize, currentArrayElemAdr);
					SYSTEM.GET(heapBlock.dataAdr, lastArrayElemAdr);
					WHILE currentArrayElemAdr <= lastArrayElemAdr DO
						FOR i := 0 TO LEN(staticTypeBlock.pointerOffsets) - 1 DO
							SYSTEM.GET(currentArrayElemAdr + staticTypeBlock.pointerOffsets[i], refBlock);
							IF ~CheckBlock(refBlock) THEN
								Trace.String("SEVERE ERROR in ArrayBlock = "); Trace.Hex(currentArrayElemAdr, 8);
								Trace.String(" invalid reference at pointer offset = "); Trace.Hex(staticTypeBlock.pointerOffsets[i], 0); Trace.Ln
							END
						END;
					 	INC(currentArrayElemAdr, staticTypeBlock.recSize)
					 END
				ELSE
					Trace.StringLn("SEVERE ERROR: heapBlock.dataAdr = NilVal for ArrayBlock")
				END
			ELSIF heapBlock IS FreeBlock THEN
			ELSE
				Trace.StringLn("Invalid heap block type")
			END;
			p := p + heapBlock.size;
		END;
		memBlock := memBlock.next
	END
END CheckHeap;
*)

(* CheckCandidates - Check which candidates could be pointers, and mark them. (exported for debugging only) *)
проц CheckCandidates*;
конст MinDataOffset = BlockHeaderSize + размер16_от(HeapBlockDesc) + BlockHeaderSize; (* minimal offset of data address with respect to block start address *)
перем i, j, h: размерМЗ; p, blockStart: адресВПамяти; memBlock {неОтслСборщиком}: Machine.MemoryBlock;
	heapBlock {неОтслСборщиком}: HeapBlock;
нач
	(* {numCandidates > 0} *)
	(* first sort them in increasing order using shellsort *)
	h := 1;  нцДо h := h*3 + 1 кцПри h > numCandidates;
	нцДо
		h := h DIV 3;  i := h;
		нцПока i < numCandidates делай
			p := candidates[i];  j := i;
			нцПока (j >= h) и (candidates[j-h] > p) делай
				candidates[j] := candidates[j-h];  j := j-h;
			кц;
			candidates[j] := p;  увел(i)
		кц
	кцПри h = 1;

	(* sweep phase *)
	i := 0;
	p := candidates[i];
	memBlock := Machine.memBlockHead;
	нцПока memBlock # НУЛЬ делай
		blockStart := memBlock.beginBlockAdr;
		нцПока (i < numCandidates) и (blockStart < memBlock.endBlockAdr) делай
			если p < blockStart + MinDataOffset то (* candidate missed *)
				увел(i);
				если i < numCandidates то
					p := candidates[i]
				всё
			иначе
				heapBlock := НИЗКОУР.подмениТипЗначения(HeapBlock, blockStart + BlockHeaderSize);
				если (p = heapBlock.dataAdr) и ~(heapBlock суть FreeBlock) то (* heap block must not be a free block but any other heap block type *)
					Mark(НИЗКОУР.подмениТипЗначения(динамическиТипизированныйУкль,p));
				всё;
				blockStart := blockStart + heapBlock.size;
			всё
		кц;
		memBlock := memBlock.next
	кц;
	numCandidates := 0
кон CheckCandidates;

(* Check validity of single pointer candidate and enter it into the list of candidates *)
проц Candidate*(p: адресВПамяти);
перем memBlock{неОтслСборщиком}, memBlockX {неОтслСборщиком}: Machine.MemoryBlock;
	tdAdr, heapBlockAdr: адресВПамяти;
	tdPtr{неОтслСборщиком}: укль {опасныйДоступКПамяти} на запись typeAdr: адресВПамяти кон;
	hbPtr{неОтслСборщиком}: укль {опасныйДоступКПамяти} на запись heapBlock: HeapBlock кон;
	heapBlock {неОтслСборщиком}: HeapBlock;
нач
	если p остОтДеленияНа размер16_от(адресВПамяти) # 0 то возврат всё;
	если (p >= Machine.memBlockHead.beginBlockAdr) и (p < Machine.memBlockTail.endBlockAdr) то
		memBlock := Machine.memBlockHead;
		нцПока memBlock # НУЛЬ делай
			если (p + HeapBlockOffset >= memBlock.beginBlockAdr) и (p + HeapBlockOffset < memBlock.endBlockAdr) то
				hbPtr := p + HeapBlockOffset;
				heapBlock := hbPtr.heapBlock;
				heapBlockAdr := heapBlock ;
				если heapBlockAdr остОтДеленияНа размер16_от(адресВПамяти) # 0 то возврат всё;
				tdAdr :=heapBlockAdr + TypeDescOffset;
				(* check if tdAdr is a valid pointer in the heap *)
				memBlockX := Machine.memBlockHead;
				нцПока memBlockX # НУЛЬ делай
					если (tdAdr >= memBlockX.beginBlockAdr) и (tdAdr < memBlockX.endBlockAdr) то
						(* IF (heapBlock.mark >= currentMarkValue) THEN RETURN END;*)
						tdPtr := tdAdr;
						tdAdr := tdPtr.typeAdr;
						(* check whether tdAdr is a valid type descriptor address *)
						если (tdAdr = systemBlockTag) или (tdAdr = recordBlockTag) или (tdAdr = protRecBlockTag) или (tdAdr = arrayBlockTag) то
							candidates[numCandidates] := p;
							увел(numCandidates);
							если numCandidates = длинаМассива(candidates) то CheckCandidates всё
						всё;
						возврат; (* found *)
					всё;
					memBlockX := memBlockX.next
				кц;
				возврат; (* not found *)
			всё;
			memBlock := memBlock.next
		кц
	всё
кон Candidate;

(** RegisterCandidates - Register a block of pointer candidates *)
проц RegisterCandidates*(adr: адресВПамяти; size: размерМЗ);
перем end, p: адресВПамяти;
нач
	утв (adr остОтДеленияНа AddressSize = 0);
	утв (size остОтДеленияНа AddressSize = 0);
	(* current processor must hold Heaps lock *)
	end := adr + size;
	нцПока adr # end делай
		НИЗКОУР.прочтиОбъектПоАдресу(adr, p);
		Candidate(p);
		увел(adr, AddressSize)
	кц
кон RegisterCandidates;

(* Check reachability of finalized objects. *)
проц CheckFinalizedObjects;
перем n {неОтслСборщиком}, p{неОтслСборщиком}, t{неОтслСборщиком}: FinalizerNode; heapBlock {неОтслСборщиком}: HeapBlock;

	проц MarkDelegate(p: Finalizer);
	перем pointer {неОтслСборщиком}: динамическиТипизированныйУкль;
	нач
		НИЗКОУР.прочтиОбъектПоАдресу(адресОт(p)+размер16_от(адресВПамяти),pointer);
		если pointer # НУЛЬ то Mark(pointer) всё;
	кон MarkDelegate;

нач
	n := checkRoot;
	нцПока n # НУЛЬ делай	(* move unmarked checked objects to finalize list *)
		НИЗКОУР.прочтиОбъектПоАдресу(НИЗКОУР.подмениТипЗначения(адресВПамяти, n.objWeak) + HeapBlockOffset, heapBlock);
		если (heapBlock.mark < currentMarkValue) то
			если n = checkRoot то checkRoot := n.nextFin иначе p.nextFin := n.nextFin всё;
			n.objStrong := n.objWeak;	(* anchor the object for finalization *)
			n.finalizerStrong := n.finalizer; (* anchor the finalizer for finalization *)
			t := n.nextFin; n.nextFin := finalizeRoot; finalizeRoot := n; n := t;
			если Stats то умень(NfinalizeAlive); увел(NfinalizeDead) всё
		иначе
			p := n; n := n.nextFin
		всё
	кц;
	(* now trace the weak references to keep finalized objects alive during this collection *)
	n := finalizeRoot;
	нцПока n # НУЛЬ делай
		MarkDelegate(n.finalizerStrong);
		Mark(n.objStrong); n := n.nextFin
	кц;

	n := checkRoot;
	нцПока n # НУЛЬ делай (* list of objects that had been marked before entering CheckFinalizedObjects *)
		(* we still have to mark the weak finalizers, as they might have not been marked before  *)
		MarkDelegate(n.finalizer); n := n.nextFin
	кц;
кон CheckFinalizedObjects;

(** Return the next scheduled finalizer or NIL if none available. Called by finalizer object in Kernel. *)
проц GetFinalizer* (): FinalizerNode;
перем n: FinalizerNode;
нач
	n := НУЛЬ;
	если finalizeRoot # НУЛЬ то
		Machine.Acquire(Machine.Heaps);
		n := finalizeRoot;	(* take one finalizer *)
		если n # НУЛЬ то
			finalizeRoot := n.nextFin; n.nextFin := НУЛЬ;
			если Stats то умень(NfinalizeDead) всё;
		всё;
		Machine.Release(Machine.Heaps);
	всё;
	возврат n
кон GetFinalizer;

(** Check finalizers registered in the specified module, which is about to be freed or shut down. Remove all finalizer procedures in this module from the finalizer lists so they won't be called any more. *)
проц CleanupModuleFinalizers*(codeAdr: адресВПамяти; codeLen: размерМЗ; конст name: массив из симв8);
перем n, p, t: FinalizerNode; codeEnd: адресВПамяти; N1, N2: размерМЗ;
нач
	codeEnd := codeAdr + codeLen; N1 := 0; N2 := 0;
	Machine.Acquire(Machine.Heaps);
	n := checkRoot;
	нцПока n # НУЛЬ делай	(* iterate over checked list *)
		t := n; n := n.nextFin;
		если (codeAdr <= адресВПамяти(t.finalizer)) и (адресВПамяти(t.finalizer) <= codeEnd) то
			если t = checkRoot то checkRoot := t.nextFin иначе p.nextFin := t.nextFin всё;	(* remove from list *)
			если Stats то умень(NfinalizeAlive) всё;
			увел(N1)
		иначе
			p := t
		всё
	кц;
	(* also remove finalizers from list, so they won't be called *)
	n := finalizeRoot;
	нцПока n # НУЛЬ делай	(* iterate over finalized list *)
		t := n; n := n.nextFin;
		если (codeAdr <= адресВПамяти(t.finalizer)) и (адресВПамяти(t.finalizer) <= codeEnd) то
			если t = finalizeRoot то finalizeRoot := t.nextFin иначе p.nextFin := t.nextFin всё;	(* remove from list *)
			если Stats то умень(NfinalizeDead) всё;
			увел(N2)
		иначе
			p := t
		всё
	кц;
	Machine.Release(Machine.Heaps);
	если (N1 # 0) или (N2 # 0) то
		Machine.Acquire (Machine.TraceOutput);
		Трассировка.пСтроку8(name); Трассировка.пСимв8(" ");
		Трассировка.пЦел64(N1, 1); Трассировка.пСтроку8(" discarded finalizers, ");
		Трассировка.пЦел64(N2, 1); Трассировка.StringLn (" pending finalizers");
		Machine.Release (Machine.TraceOutput);
	всё
кон CleanupModuleFinalizers;

(* interruptible garbage collector for native A2 *)
проц CollectGarbage*(root : RootObject);
перем
	time1, time2: цел64;
нач
	(* do never use any low level locks as the garbage collector process has a very high priority and may thus be blocked by lower level processes -> potential deadlock *)
	(*! Do not use windows functionality such as  trace here in general -- can lead to deadlock when stopped processes are in writing to a file *)
	(* GC may run only if and only if sweep phase has been completed *)
	утв(сравнениеСОбменом(marking, ложь, истина) = ложь);
	если Stats то
		Nmark := 0; Nmarked := 0;
		увел(Ngc);
		time1 := Machine.GetTimer ();
	всё;
	увел(currentMarkValue);

	Mark(root);
	нцДо
		если numCandidates # 0 то CheckCandidates; всё; (* check for heuristics GC *)
		TraverseMarkStack; (* required because candidates are put into mark stack, potentially not marked yet *)
	кцПри (numCandidates = 0); (* check for heuristics GC *)
	CheckFinalizedObjects;
	TraverseMarkStack; (* required because candidates are put into mark stack, potentially not marked yet *)

	если Stats то
		time2 := Machine.GetTimer ();
		NgcCyclesLastRun := time2 - time1;
		если NgcCyclesLastRun > NgcCyclesMax то NgcCyclesMax := NgcCyclesLastRun; всё;
		увел(NgcCyclesAllRuns, NgcCyclesLastRun);
		NgcCyclesMark := NgcCyclesLastRun
	всё;
	утв(сравнениеСОбменом(marking, истина, ложь) = истина);
кон CollectGarbage;

проц InvokeGC*;
нач
	утв(gcStatus # НУЛЬ);
	gcStatus.SetgcOngoing(истина);
кон InvokeGC;

(*
	caller must hold the Heaps lock
	required for low level tracing
*)
проц FullSweep*;
перем p {неОтслСборщиком}: FreeBlock;
нач
	GetFreeBlock(матМаксимум(размерМЗ), p);
кон FullSweep;

проц LazySweepGC*;
перем p {неОтслСборщиком}: FreeBlock;
нач
	(* invoke mark phase, mark phase starts at next scheduler interrupt *)
	GC;
	(* return blocks now *)
	Machine.Acquire(Machine.Heaps);
	(* trying to satisfy a request of MAX(SIZE) bytes will never succeed - lazy sweep runs until end of heap *)
	GetFreeBlock(матМаксимум(размерМЗ), p);
	Machine.Release(Machine.Heaps);
кон LazySweepGC;

(* initialize a free heap block *)
проц InitFreeBlock(freeBlock: FreeBlockU; mark: размерМЗ; dataAdr: адресВПамяти; size: размерМЗ);
нач
	(* initialize heap block header *)
	freeBlock.typeDesc := freeBlockTag;
	freeBlock.heapBlock := НУЛЬ;
	(* initialize heap block fields *)
	freeBlock.mark := mark;
	freeBlock.dataAdr := dataAdr;
	freeBlock.size := size;
	(* initialize free block fields *)
	freeBlock.next := НУЛЬ;
кон InitFreeBlock;

перем throughput* := 0 : размерМЗ;

(* NewBlock - Allocate a heap block. {(size MOD BlockSize = 0)}. Caller must hold Heap lock. *)
проц NewBlock(size: размерМЗ): адресВПамяти;
перем try: целМЗ; p: FreeBlock; freeBlock : FreeBlockU; memBlock {неОтслСборщиком}: Machine.MemoryBlock;
	beginHeapBlockAdr, endHeapBlockAdr: адресВПамяти;
нач
	try := 1;
	p := НУЛЬ;
	если  (GC = NilGC) или (throughput < 128*1024*1024) или истина то
		GetFreeBlock(size, p);
		если  (p=НУЛЬ) то (* try restart sweep for once *)
			GetFreeBlock(size, p);
		всё;
	иначе
		throughput := 0;
	всё;

	нцПока (p = НУЛЬ) и (try <= MaxTries) делай
		Machine.Release(Machine.Heaps);	(* give up control *)
		GC;	(* try to free memory (other processes may also steal memory now) *)
		Machine.Acquire(Machine.Heaps);
		sweepMemBlock := НУЛЬ;
		GetFreeBlock(size, p);
		если p = НУЛЬ то
			Machine.ExpandHeap(try, size, memBlock, beginHeapBlockAdr, endHeapBlockAdr);	(* try to extend the heap *)
			если endHeapBlockAdr > beginHeapBlockAdr то
				freeBlock := beginHeapBlockAdr + BlockHeaderSize;
				InitFreeBlock(freeBlock, Unmarked, NilVal, endHeapBlockAdr - beginHeapBlockAdr);
				Machine.SetMemoryBlockEndAddress(memBlock, endHeapBlockAdr); (* end address of expanded block must set after free block is fit in memory block *)
				sweepMemBlock := memBlock;
				sweepBlockAdr := beginHeapBlockAdr;
				GetFreeBlock(size, p);
				sweepMemBlock := НУЛЬ; (* restart sweep from beginning after having taken big block in order to avoid fragmentation *)
			всё;
			увел(try)
		всё;
	кц;
	если p # НУЛЬ то
		если Stats то увел(Nnew); увел(NnewBytes, size) всё;
		утв(p.size >= size);
		возврат p;
	иначе 	(* try = MaxTries *)
		НИЗКОУР.СТОП(14) 	(* out of memory *)
	всё;
кон NewBlock;

проц SetPC*(p: DataBlockU);
перем bp: адресВПамяти;
нач
	если p # НУЛЬ то
		bp := НИЗКОУР.GetFramePointer();
		НИЗКОУР.прочтиОбъектПоАдресу(bp, bp);
		НИЗКОУР.прочтиОбъектПоАдресу(bp+размер16_от(адресВПамяти), p.heapBlock.heapBlock);
	всё;
кон SetPC;

(** NewSys - Implementation of SYSTEM.NEW. *)
проц NewSys*(перем p: динамическиТипизированныйУкль; size: размерМЗ; isRealtime: булево);
перем
	blockSize, systemBlockSize: размерМЗ; systemBlockAdr, dataBlockAdr: адресВПамяти;
	systemBlock: HeapBlockU;
	dataBlock: DataBlockU;
нач
	systemBlockSize := BlockHeaderSize + размер16_от(SystemBlockDesc);
	увел(systemBlockSize, (-systemBlockSize) остОтДеленияНа ArrayAlignment); (* round up to multiple of ArrayAlignment to ensure alignment of first data element to 0 MOD ArrayAlignment *)
	blockSize := systemBlockSize + BlockHeaderSize + size;
	увел(blockSize, (-blockSize) остОтДеленияНа BlockSize);  (* round up to multiple of BlockSize *)

	Machine.Acquire(Machine.Heaps);
	systemBlockAdr:= NewBlock(blockSize);
	если systemBlockAdr # 0 то
		systemBlock := systemBlockAdr;
		dataBlockAdr := systemBlockAdr + systemBlockSize;
		dataBlock := dataBlockAdr;
		systemBlock.typeDesc := systemBlockTag;
		dataBlock.typeDesc := NilVal;
		dataBlock.heapBlock := systemBlock;
		systemBlock.mark := currentMarkValue;
		systemBlock.dataAdr := dataBlockAdr;
		systemBlock.size := blockSize;
		systemBlock.nextMark := НУЛЬ;

		SetPC(dataBlock);
		(*CheckAssignment(ADDRESS OF p, dataBlock);*)
		p := dataBlock;

		(* clear could be done outside lock because SysBlks are not traced, but for conformity it is done inside the lock *)
		Machine.Fill32(dataBlockAdr, blockSize - systemBlockSize - BlockHeaderSize, 0);	(* clear everything from dataBlockAdr until end of block *)
	иначе
		p := НУЛЬ
	всё;
	если allocationLogger # НУЛЬ то allocationLogger(p) всё;
	Machine.Release(Machine.Heaps)
кон NewSys;

(** NewRec - Implementation of NEW with a record. *)
проц NewRec*(перем p: динамическиТипизированныйУкль; tag: адресВПамяти; isRealtime: булево);
перем
	size, blockSize: размерМЗ; recordBlockAdr, dataBlockAdr : адресВПамяти;
	recordBlock: RecordBlockU;
	dataBlock: DataBlockU;
	typeDesc: StaticTypeBlockU;
нач
	typeDesc := tag;
	если ProtTypeBit в typeDesc.info.flags то
		NewProtRec(p, tag, isRealtime);
		SetPC(p);
	иначе
		size := typeDesc.recSize;
		(* the block size is the sum of the size of the RecordBlock and the DataBlock.
		    Two extra fields per subblock contain the tag and the reference to the heap block *)
		blockSize := BlockHeaderSize + размер16_от(RecordBlockDesc) + BlockHeaderSize + size;
		увел(blockSize, (-blockSize) остОтДеленияНа BlockSize); 	(* round up to multiple of BlockSize *)

		Machine.Acquire(Machine.Heaps);
		recordBlockAdr := NewBlock(blockSize);
		если recordBlockAdr # 0 то
			recordBlock := recordBlockAdr;
			dataBlockAdr := recordBlockAdr + размер16_от(RecordBlockDesc) + BlockHeaderSize;
			dataBlock := dataBlockAdr;
			recordBlock.typeDesc := recordBlockTag;
			dataBlock.typeDesc := tag;
			dataBlock.heapBlock := recordBlockAdr;
			recordBlock.mark := currentMarkValue;
			recordBlock.dataAdr := dataBlockAdr;
			recordBlock.size := blockSize;
			recordBlock.nextMark := НУЛЬ;

			SetPC(dataBlock);
			p := dataBlock;

			(* clear must be done inside lock to ensure all traced pointer fields are initialized to NIL *)
			Machine.Fill32(dataBlockAdr, blockSize - размер16_от(RecordBlockDesc) - 2 * BlockHeaderSize, 0);	(* clear everything from dataBlockAdr until end of block *)
		иначе
			p := НУЛЬ
		всё;
		если allocationLogger # НУЛЬ то allocationLogger(p) всё;
		Machine.Release(Machine.Heaps)
	всё;
кон NewRec;

(** NewProtRec - Implementation of NEW with a protected record. *)
проц NewProtRec*(перем p: динамическиТипизированныйУкль; tag: адресВПамяти; isRealtime: булево);
перем size, blockSize: размерМЗ; protRecBlockAdr, dataBlockAdr: адресВПамяти;
	protRecBlock: ProtRecBlockU;
	dataBlock: DataBlockU;
	i: размерМЗ;
	typeDesc: StaticTypeBlockU;
нач
	typeDesc := tag;
	size := typeDesc.recSize;
	blockSize := BlockHeaderSize + размер16_от(ProtRecBlockDesc) + BlockHeaderSize + size;
	увел(blockSize, (-blockSize) остОтДеленияНа BlockSize); (* round up to multiple of BlockSize *)

	Machine.Acquire(Machine.Heaps);
	protRecBlockAdr := NewBlock(blockSize);

	если protRecBlockAdr # 0 то
		(* fill muste be done first in order to remove DEAD from pointers (referecne counting!) *)
		Machine.Fill32(protRecBlockAdr, blockSize-BlockHeaderSize, 0);	(* clear everything from dataBlockAdr to end of block *)
		protRecBlock := protRecBlockAdr;
		dataBlockAdr := protRecBlockAdr + размер16_от(ProtRecBlockDesc) + BlockHeaderSize;
		dataBlock := dataBlockAdr;
		protRecBlock.typeDesc := protRecBlockTag;
		dataBlock.typeDesc := tag;
		dataBlock.heapBlock := protRecBlockAdr;
		protRecBlock.mark := currentMarkValue;
		protRecBlock.dataAdr := dataBlockAdr;
		protRecBlock.size := blockSize;
		protRecBlock.count := 0;
		protRecBlock.awaitingLock.head := НУЛЬ;
		protRecBlock.awaitingLock.tail := НУЛЬ;
		protRecBlock.awaitingCond.head := НУЛЬ;
		protRecBlock.awaitingCond.tail := НУЛЬ;
		protRecBlock.lockedBy := НУЛЬ;
		protRecBlock.locked := ложь;
		protRecBlock.lock := НУЛЬ;
		нцДля i := 0 до NumPriorities - 1 делай
			protRecBlock.waitingPriorities[i] := 0
		кц;
		увел(protRecBlock.waitingPriorities[0]);	(* set sentinel value: assume that idle process with priority 0 waits on this resource *)
		protRecBlock.nextMark := НУЛЬ;

		SetPC(dataBlock);
		p := dataBlock;
		(* clear must be done inside lock to ensure all traced pointer fields are initialized to NIL *)
	иначе
		p := НУЛЬ
	всё;
	если allocationLogger # НУЛЬ то allocationLogger(p) всё;
	Machine.Release(Machine.Heaps)
кон NewProtRec;


(** NewArr - Implementation of NEW with an array containing pointers. *)
проц NewArr*(перем p: динамическиТипизированныйУкль; elemTag: адресВПамяти;  numElems, numDims: размерМЗ; isRealtime: булево);
перем arrayBlockAdr, dataBlockAdr: адресВПамяти;
	elemSize, arrSize, blockSize, arrayBlockSize, fillSize, size, arrayDataOffset: размерМЗ;
	firstElem: адресВПамяти;
	ptrOfs: адресВПамяти;
	elemType: StaticTypeBlockU;
	arrayBlock: ArrayBlockU;
	dataBlock: ArrayDataBlockU;
нач
	elemType := elemTag;
	elemSize := elemType.recSize;
	arrSize := numElems * elemSize;

	если arrSize = 0 то
		NewSys(p, numDims * AddressSize + 2 * AddressSize, isRealtime); (* no data, thus no specific alignment *)
		SetPC(p);
	иначе
		утв(BlockHeaderSize остОтДеленияНа ArrayAlignment = 0);
		arrayDataOffset := numDims * AddressSize + 2 * AddressSize;
		увел(arrayDataOffset, (-arrayDataOffset) остОтДеленияНа ArrayAlignment);  (* round up to multiple of ArrayAlignment to ensure that first array element is aligned at 0 MOD ArrayAlignment *)
		ptrOfs := elemType.pointerOffsets;
		если ptrOfs = MinPtrOfs - AddressSize то (* no pointers in element type *)
			size := arrayDataOffset + arrSize;
			NewSys(p, size, isRealtime);
			SetPC(p);
		иначе
			arrayBlockSize := BlockHeaderSize + размер16_от(ArrayBlockDesc);
			увел(arrayBlockSize, (-arrayBlockSize) остОтДеленияНа ArrayAlignment); (* do. *)
			blockSize := arrayBlockSize + BlockHeaderSize + (arrayDataOffset + arrSize);
			увел(blockSize, (-blockSize) остОтДеленияНа BlockSize); (* round up to multiple of BlockSize *)
			Machine.Acquire(Machine.Heaps);
			arrayBlockAdr := NewBlock(blockSize);
			если arrayBlockAdr # 0 то
				arrayBlock := arrayBlockAdr; (* contains the Block Header offset *)
				dataBlockAdr := arrayBlockAdr + arrayBlockSize (* - BlockHeaderSize + BlockHeaderSize *);
				dataBlock := dataBlockAdr;
				arrayBlock.typeDesc := arrayBlockTag;
				dataBlock.typeDesc := elemType;
				dataBlock.heapBlock := arrayBlock;
				arrayBlock.mark := currentMarkValue;
				arrayBlock.dataAdr := dataBlockAdr;
				arrayBlock.size := blockSize;
				arrayBlock.nextMark := НУЛЬ;

				(* clear data part of array here, since size parameter of Machine.Fill32 must be a multiple of 4. Some fields of the data part are filled below for GC. , *)
				fillSize := blockSize - arrayBlockSize - BlockHeaderSize;
				Machine.Fill32(dataBlockAdr, fillSize, 0); 	(* clear everything from dataBlockAdr until end of block *)

				firstElem := dataBlockAdr + arrayDataOffset;
				dataBlock.numElems := numElems;
				dataBlock.first := firstElem;

				SetPC(dataBlock);
				p := dataBlock;
			иначе
				p := НУЛЬ
			всё;
			если allocationLogger # НУЛЬ то allocationLogger(p) всё;
			Machine.Release(Machine.Heaps)
		всё
	всё
кон NewArr;

тип
UnsafeArray= укль {опасныйДоступКПамяти,неОтслСборщиком} на UnsafeArrayDesc;
UnsafeArrayDesc = запись (ArrayDataBlockDesc)
	len: массив 8 из размерМЗ;
кон;

(* replacement for overcomplicated code emission -- at the cost of a slightly increased runtime cost *)
проц NewArray*(конст a: массив из размерМЗ;  tag: адресВПамяти; staticElements, elementSize: размерМЗ; перем dest: динамическиТипизированныйУкль);
перем p: динамическиТипизированныйУкль; dim: размерМЗ;

		проц GetSize(): размерМЗ;
		перем i: размерМЗ; size: размерМЗ;
		нач
			size := 1;
			нцДля i := 0 до dim-1 делай
				size := size * a[i];
			кц;
			возврат size*staticElements;
		кон GetSize;

		проц SetSizes(dest: UnsafeArray);
		перем i: размерМЗ;
		нач
			нцДля i := 0 до dim-1 делай
				dest.len[i] := a[dim-1-i];
			кц;
		кон SetSizes;

	нач
		(* static elements is requred for this case : POINTER TO ARRAY OF ARRAY X OF RecordWithPointer *)
		dim := длинаМассива( a,0 );
		если tag = НУЛЬ то
			NewSys(p, GetSize() * elementSize + dim * размер16_от(адресВПамяти) + 2 *размер16_от(адресВПамяти) + (-(dim * размер16_от(адресВПамяти) + 2 *размер16_от(адресВПамяти))) остОтДеленияНа ArrayAlignment, ложь);
		иначе
			NewArr(p, tag, GetSize(), dim, ложь);
		всё;
		SetSizes(p);
		SetPC(p);
		dest := p;
кон NewArray;


(* obsolete for generic object file / required only for old loader *)
проц FillStaticType*(перем staticTypeAddr: адресВПамяти; startAddr, typeInfoAdr: адресВПамяти; size, recSize: размерМЗ;
							numPtrs, numSlots: размерМЗ);
перем p, offset: адресВПамяти; staticTypeBlock {неОтслСборщиком}: StaticTypeBlock;
нач
	Machine.Acquire(Machine.Heaps);

	Machine.Fill32(startAddr, size, 0);	(* clear whole static type, size MOD AddressSize = 0 implicitly, see WriteType in PCOF.Mod *)
	НИЗКОУР.запишиОбъектПоАдресу(startAddr, MethodEndMarker);	(* sentinel *)

	(* methods and tags filled in later *)

	offset := AddressSize * (numSlots + 1 + 1);  (* #methods, max. no. of tags, method end marker (sentinel), pointer to type information*)
	p := startAddr + offset;
	НИЗКОУР.запишиОбъектПоАдресу(p + TypeDescOffset, typeInfoAdr); 	(* pointer to typeInfo *)
	staticTypeBlock := НИЗКОУР.подмениТипЗначения(StaticTypeBlock, p);
	staticTypeBlock.recSize := recSize;
	staticTypeAddr := p;

	(* create the pointer for the dynamic array of pointer offsets, the dynamic array of pointer offsets is stored in the static type
	    descriptor, it has no header part *)
	увел(p, размер16_от(StaticTypeDesc));
	если p остОтДеленияНа (2 * AddressSize) # 0 то увел(p, AddressSize) всё;
	НИЗКОУР.запишиОбъектПоАдресу(p + 3 * AddressSize, numPtrs); (* internal structure of dynamic array without pointers: the first 3 fields are unused *)
	staticTypeBlock.pointerOffsets := НИЗКОУР.подмениТипЗначения(PointerOffsets, p); (* the fourth field contains the dimension of the array *)

	(* pointer offsets  filled in later *)

	Machine.Release(Machine.Heaps)
кон FillStaticType;

проц AddFinalizer*(obj: динамическиТипизированныйУкль; n: FinalizerNode);
нач
	n.objWeak := obj; n.objStrong := НУЛЬ; n.finalizerStrong := НУЛЬ;
	Machine.Acquire(Machine.Heaps);
	n.nextFin := checkRoot; checkRoot := n;
	если Stats то увел(NfinalizeAlive) всё;
	Machine.Release(Machine.Heaps)
кон AddFinalizer;

(** Compute total heap size, free space and largest free block size in bytes. This is a slow operation. *)
проц GetHeapInfo*(перем total, free, largest: размерМЗ);
перем memBlock {неОтслСборщиком}: Machine.MemoryBlock; blockAdr: адресВПамяти;
	block {неОтслСборщиком}: HeapBlock;
нач
	Machine.Acquire(Machine.Heaps);
	memBlock := Machine.memBlockHead;
	total := 0; free := 0; largest := 0;
	нцПока memBlock # НУЛЬ делай
		total := total + memBlock.endBlockAdr - memBlock.beginBlockAdr;
		blockAdr := memBlock.beginBlockAdr;
		нцПока blockAdr < memBlock.endBlockAdr делай
			block := НИЗКОУР.подмениТипЗначения(HeapBlock, blockAdr + BlockHeaderSize); (* get heap block *)
			если (block.mark < currentMarkValue) то (* free/unused block encountered *)
				free := free + block.size;
				если адресВПамяти(block.size) > адресВПамяти(largest) то largest := block.size всё
			всё;
			blockAdr := blockAdr + block.size;
		кц;
		memBlock := memBlock.next
	кц;
	Machine.Release(Machine.Heaps)
кон GetHeapInfo;

(* write barriers -- used by compile *)
проц MarkPointer*(adr: адресВПамяти);
перем any: Block;
нач
	если (adr # НУЛЬ) и сравнениеСОбменом(marking, ложь, ложь) то
		any := adr;
		Mark(any);
	всё;
кон MarkPointer;

проц MarkRecord*(adr: адресВПамяти; tag: StaticTypeBlockU);
перем i: размерМЗ; sval {неОтслСборщиком}: динамическиТипизированныйУкль;
нач
	если сравнениеСОбменом(marking,ложь,ложь) то
		нцДля i := 0 до длинаМассива(tag.pointerOffsets)-1 делай
			НИЗКОУР.прочтиОбъектПоАдресу(adr+tag.pointerOffsets[i], sval);
			Mark(sval);
		кц;
	всё;
кон MarkRecord;

проц MarkArray*(adr: адресВПамяти; tag: StaticTypeBlockU; numElems: размерМЗ);
перем i, j: размерМЗ; offset: адресВПамяти; sval {неОтслСборщиком}: динамическиТипизированныйУкль;
нач
	если сравнениеСОбменом(marking,ложь,ложь) то
		нцДля j := 0 до длинаМассива(tag.pointerOffsets)-1 делай
			нцДля i := 0 до numElems-1 делай
				offset := i * tag.recSize + tag.pointerOffsets[j];
				НИЗКОУР.прочтиОбъектПоАдресу(adr+offset, sval);
				Mark(sval);
			кц;
		кц;
	всё;
кон MarkArray;

(* NilGC - Default garbage collector. *)
проц NilGC;
нач
	СТОП(301)	(* garbage collector not available yet *)
кон NilGC;

(* Init - Initialize the heap. *)
проц Init;
перем beginBlockAdr, endBlockAdr, freeBlockAdr, p: адресВПамяти;
	heapBlock: HeapBlockU; freeBlock: FreeBlockU; memBlock {неОтслСборщиком}: Machine.MemoryBlock;
	s: массив 32 из симв8;
нач
	Machine.GetConfig("TraceHeaps",s);
	trace := (s[0] = "1");

	GC := NilGC;
	newSum := 0;
	checkRoot := НУЛЬ; finalizeRoot := НУЛЬ;
	gcStatus := НУЛЬ;

	Machine.SetGCParams;
	Machine.GetStaticHeap(beginBlockAdr, endBlockAdr, freeBlockAdr);

	(* the Type desciptor is generated by the compiler, therefore the linker does not have to patch anything any more *)

	freeBlockTag := НИЗКОУР.дайМетаданныеВремениВыполненияДляТипа (FreeBlockDesc);
	systemBlockTag := НИЗКОУР.дайМетаданныеВремениВыполненияДляТипа (SystemBlockDesc);
	recordBlockTag := НИЗКОУР.дайМетаданныеВремениВыполненияДляТипа (RecordBlockDesc);
	protRecBlockTag := НИЗКОУР.дайМетаданныеВремениВыполненияДляТипа (ProtRecBlockDesc);
	arrayBlockTag := НИЗКОУР.дайМетаданныеВремениВыполненияДляТипа (ArrayBlockDesc);

	(* find last block in static heap *)
	p := beginBlockAdr;
	heapBlock := НИЗКОУР.подмениТипЗначения(HeapBlock, p + BlockHeaderSize);
	нцПока p < freeBlockAdr делай
		initBlock := НИЗКОУР.подмениТипЗначения(динамическиТипизированныйУкль, heapBlock.dataAdr);
		p := p + heapBlock.size;
		heapBlock := НИЗКОУР.подмениТипЗначения(HeapBlock, p + BlockHeaderSize)
	кц;

	утв(p = freeBlockAdr);
	если endBlockAdr - freeBlockAdr > 0 то
		(* initialization of free heap block done here since boot file is only written up to freeBlockAdr *)
		freeBlock := freeBlockAdr + BlockHeaderSize;
		InitFreeBlock(freeBlock, Unmarked, NilVal, endBlockAdr - freeBlockAdr);
		утв(freeBlock.size остОтДеленияНа BlockSize  =  0)
	всё;

	currentMarkValue := 1;

	(* extend the heap for one block such that module initialization can continue as long as Heaps.GC is not set validly *)
	Machine.ExpandHeap(1, 1, memBlock, beginBlockAdr, endBlockAdr);	(* try = 1, size = 1 -> the minimal heap block expansion is performed *)
	если endBlockAdr > beginBlockAdr то
		freeBlock := beginBlockAdr + BlockHeaderSize;
		InitFreeBlock(freeBlock, Unmarked, NilVal, endBlockAdr - beginBlockAdr);
		Machine.SetMemoryBlockEndAddress(memBlock, endBlockAdr);
		sweepMarkValue := currentMarkValue;
		sweepMemBlock := memBlock;
		sweepBlockAdr := beginBlockAdr
	всё;

кон Init;

проц SetHeuristic*;
нач
	GCType := HeuristicStackInspectionGC;
	Трассировка.пСтроку8("GC mode : heuristic"); Трассировка.пВК_ПС;
кон SetHeuristic;

проц SetMetaData*;
нач
	GCType := MetaDataForStackGC;
	Трассировка.пСтроку8("GC mode : metadata"); Трассировка.пВК_ПС;
кон SetMetaData;


проц StopMarking-;
(* helper function when GC traps --> switch off write barriers *)
нач
	marking := ложь;
кон StopMarking;


нач
	(* The meta data stack inspection is more efficient than the heuristics *)
	GCType := HeuristicStackInspectionGC;
	endMark := 1;
	markStack.first := endMark;
	Init;
кон Heaps.

Heaps.SetMetaData ~
Heaps.SetHeuristics ~

Linker.Link -p=Linux64
	Builtins Trace Glue Unix Machine Heaps Modules Objects Kernel KernelLog Streams Commands Pipes StdIO
	TrapWriters Reflection Traps Files UnixFiles Clock Dates Reals Strings Diagnostics BitSets StringPool ObjectFile GenericLinker Loader System StdIOShell
	Shell ~
