(* OpendivX Decoder based on the VideoDecoder Interface of Codecs, cleaned by PL *)
модуль DivXDecoder;

использует
	НИЗКОУР, Files,Потоки, Raster, ЛогЯдра,
	Math, Reals, DivXHelper, DT := DivXTypes, Codecs, AVI;

тип MacroBlock *= окласс
	перем
		mp4State: DT.MP4State;
		mv: MotionCompensation;

		(* Macroblock ModeMap *)
		mbWidth*, mbHeight*: цел32;

		DQTab: массив 4 из цел32;
		MCBPCTabIntra: массив 32 из DT.TabType;
		MCBPCTabInter: массив 256 из DT.TabType;
		CBPYTab: массив 48 из DT.TabType;

		log:Потоки.Писарь;
		texture: DivXHelper.TextureDecoding;

		проц &init*( state: DT.MP4State; перем reader: DT.VideoBuffer; logWriter: Потоки.Писарь );
		перем
		i: цел32;
		нач
			log := logWriter;
			mp4State := state;
			нов( mv, state, log);
			нов( texture, mp4State, log);

			mbWidth := mp4State.horizontalSize DIV 16;
			mbHeight := mp4State.verticalSize DIV 16;

			DQTab[0] := -1; DQTab[1] := -2; DQTab[2] := 1; DQTab[3] := 2;

			MCBPCTabIntra[0].val := -1; MCBPCTabIntra[0].len := 0; 	MCBPCTabIntra[1].val := 20; MCBPCTabIntra[1].len := 6;
			MCBPCTabIntra[2].val := 36; MCBPCTabIntra[2].len := 6; 	MCBPCTabIntra[3].val := 52; MCBPCTabIntra[3].len := 6;
			MCBPCTabIntra[4].val := 4; MCBPCTabIntra[4].len := 4; 	MCBPCTabIntra[5].val := 4; MCBPCTabIntra[5].len := 4;
			MCBPCTabIntra[6].val := 4; MCBPCTabIntra[6].len := 4; 	MCBPCTabIntra[7].val := 4; MCBPCTabIntra[7].len := 4;
			MCBPCTabIntra[8].val := 19; MCBPCTabIntra[8].len := 3; 	MCBPCTabIntra[9].val := 19; MCBPCTabIntra[9].len := 3;
			MCBPCTabIntra[10].val := 19; MCBPCTabIntra[10].len := 3; 	MCBPCTabIntra[11].val := 19; MCBPCTabIntra[11].len := 3;
			MCBPCTabIntra[12].val := 19; MCBPCTabIntra[12].len := 3; 	MCBPCTabIntra[13].val := 19; MCBPCTabIntra[13].len := 3;
			MCBPCTabIntra[14].val := 19; MCBPCTabIntra[14].len := 3; 	MCBPCTabIntra[15].val := 19; MCBPCTabIntra[15].len := 3;
			MCBPCTabIntra[16].val := 35; MCBPCTabIntra[16].len := 3; 	MCBPCTabIntra[17].val := 35; MCBPCTabIntra[17].len := 3;
			MCBPCTabIntra[18].val := 35; MCBPCTabIntra[18].len := 3; 	MCBPCTabIntra[19].val := 35; MCBPCTabIntra[19].len := 3;
			MCBPCTabIntra[20].val := 35; MCBPCTabIntra[20].len := 3; 	MCBPCTabIntra[21].val := 35; MCBPCTabIntra[21].len := 3;
			MCBPCTabIntra[22].val := 35; MCBPCTabIntra[22].len := 3; 	MCBPCTabIntra[23].val := 35; MCBPCTabIntra[23].len := 3;
			MCBPCTabIntra[24].val := 51; MCBPCTabIntra[24].len := 3; 	MCBPCTabIntra[25].val := 51; MCBPCTabIntra[25].len := 3;
			MCBPCTabIntra[26].val := 51; MCBPCTabIntra[26].len := 3; 	MCBPCTabIntra[27].val := 51; MCBPCTabIntra[27].len := 3;
			MCBPCTabIntra[28].val := 51; MCBPCTabIntra[28].len := 3; 	MCBPCTabIntra[29].val := 51; MCBPCTabIntra[29].len := 3;
			MCBPCTabIntra[30].val := 51; MCBPCTabIntra[30].len := 3; 	MCBPCTabIntra[31].val := 51; MCBPCTabIntra[31].len := 3;

			MCBPCTabInter[0].val := -1; MCBPCTabInter[0].len := 0;

			MCBPCTabInter[1].val := 255; MCBPCTabInter[1].len := 9;
			MCBPCTabInter[2].val := 52; MCBPCTabInter[2].len := 9;
			MCBPCTabInter[3].val := 36; MCBPCTabInter[3].len := 9;
			MCBPCTabInter[4].val := 20; MCBPCTabInter[4].len := 9;
			MCBPCTabInter[5].val := 49; MCBPCTabInter[5].len := 9;
			MCBPCTabInter[6].val := 35; MCBPCTabInter[6].len := 8;
			MCBPCTabInter[7].val := 35; MCBPCTabInter[7].len := 8;
			MCBPCTabInter[8].val := 19; MCBPCTabInter[8].len := 8;
			MCBPCTabInter[9].val := 19; MCBPCTabInter[9].len := 8;

			MCBPCTabInter[10].val := 50; MCBPCTabInter[10].len := 8;
			MCBPCTabInter[11].val := 50; MCBPCTabInter[11].len := 8;
			MCBPCTabInter[12].val := 51; MCBPCTabInter[12].len := 7;
			MCBPCTabInter[13].val := 51; MCBPCTabInter[13].len := 7;
			MCBPCTabInter[14].val := 51; MCBPCTabInter[14].len := 7;
			MCBPCTabInter[15].val := 51; MCBPCTabInter[15].len := 7;
			MCBPCTabInter[16].val := 34; MCBPCTabInter[16].len := 7;
			MCBPCTabInter[17].val := 34; MCBPCTabInter[17].len := 7;
			MCBPCTabInter[18].val := 34; MCBPCTabInter[18].len := 7;

			MCBPCTabInter[19].val := 34; MCBPCTabInter[19].len := 7;
			MCBPCTabInter[20].val := 18; MCBPCTabInter[20].len := 7;
			MCBPCTabInter[21].val := 18; MCBPCTabInter[21].len := 7;
			MCBPCTabInter[22].val := 18; MCBPCTabInter[22].len := 7;
			MCBPCTabInter[23].val := 18; MCBPCTabInter[23].len := 7;
			MCBPCTabInter[24].val := 33; MCBPCTabInter[24].len := 7;
			MCBPCTabInter[25].val := 33; MCBPCTabInter[25].len := 7;
			MCBPCTabInter[26].val := 33; MCBPCTabInter[26].len := 7;
			MCBPCTabInter[27].val := 33; MCBPCTabInter[27].len := 7;

			MCBPCTabInter[28].val := 17; MCBPCTabInter[28].len := 7;
			MCBPCTabInter[29].val := 17; MCBPCTabInter[29].len := 7;
			MCBPCTabInter[30].val := 17; MCBPCTabInter[30].len := 7;
			MCBPCTabInter[31].val := 17; MCBPCTabInter[31].len := 7;
			MCBPCTabInter[32].val := 4; MCBPCTabInter[32].len := 6;
			MCBPCTabInter[33].val := 4; MCBPCTabInter[33].len := 6;
			MCBPCTabInter[34].val := 4; MCBPCTabInter[34].len := 6;
			MCBPCTabInter[35].val := 4; MCBPCTabInter[35].len := 6;
			MCBPCTabInter[36].val := 4; MCBPCTabInter[36].len := 6;

			MCBPCTabInter[37].val := 4; MCBPCTabInter[37].len := 6;
			MCBPCTabInter[38].val := 4; MCBPCTabInter[38].len := 6;
			MCBPCTabInter[39].val := 4; MCBPCTabInter[39].len := 6;
			MCBPCTabInter[40].val := 48; MCBPCTabInter[40].len := 6;
			MCBPCTabInter[41].val := 48; MCBPCTabInter[41].len := 6;
			MCBPCTabInter[42].val := 48; MCBPCTabInter[42].len := 6;
			MCBPCTabInter[43].val := 48; MCBPCTabInter[43].len := 6;
			MCBPCTabInter[44].val := 48; MCBPCTabInter[44].len := 6;
			MCBPCTabInter[45].val := 48; MCBPCTabInter[45].len := 6;

			MCBPCTabInter[46].val := 48; MCBPCTabInter[46].len := 6;
			MCBPCTabInter[47].val := 48; MCBPCTabInter[47].len := 6;

			нцДля i := 48 до 63 делай MCBPCTabInter[i].val := 3; MCBPCTabInter[i].len := 5 кц;
			нцДля i := 64 до 95 делай MCBPCTabInter[i].val := 32; MCBPCTabInter[i].len := 4 кц;
			нцДля i := 96 до 127 делай MCBPCTabInter[i].val := 16; MCBPCTabInter[i].len := 4 кц;
			нцДля i := 128 до 191 делай MCBPCTabInter[i].val := 2; MCBPCTabInter[i].len := 3 кц;
			нцДля i := 192 до 255 делай MCBPCTabInter[i].val := 1; MCBPCTabInter[i].len := 3 кц;

			CBPYTab[0].val := -1; CBPYTab[0].len := 0;
			CBPYTab[1].val := -1; CBPYTab[1].len := 0;
			CBPYTab[2].val := 6; CBPYTab[2].len := 6;
			CBPYTab[3].val := 9; CBPYTab[3].len := 6;
			CBPYTab[4].val := 8; CBPYTab[4].len := 5;
			CBPYTab[5].val := 8; CBPYTab[5].len := 5;
			CBPYTab[6].val := 4; CBPYTab[6].len := 5;
			CBPYTab[7].val := 4; CBPYTab[7].len := 5;

			CBPYTab[8].val := 2; CBPYTab[8].len := 5;
			CBPYTab[9].val := 2; CBPYTab[9].len := 5;
			CBPYTab[10].val := 1; CBPYTab[10].len := 5;
			CBPYTab[11].val := 1; CBPYTab[11].len := 5;
			CBPYTab[12].val := 0; CBPYTab[12].len := 4;
			CBPYTab[13].val := 0; CBPYTab[13].len := 4;
			CBPYTab[14].val := 0; CBPYTab[14].len := 4;
			CBPYTab[15].val := 0; CBPYTab[15].len := 4;

			CBPYTab[16].val := 12; CBPYTab[16].len := 4;
			CBPYTab[17].val := 12; CBPYTab[17].len := 4;
			CBPYTab[18].val := 12; CBPYTab[18].len := 4;
			CBPYTab[19].val := 12; CBPYTab[19].len := 4;
			CBPYTab[20].val := 10; CBPYTab[20].len := 4;
			CBPYTab[21].val := 10; CBPYTab[21].len := 4;
			CBPYTab[22].val := 10; CBPYTab[22].len := 4;
			CBPYTab[23].val := 10; CBPYTab[23].len := 4;

			CBPYTab[24].val := 14; CBPYTab[24].len := 4;
			CBPYTab[25].val := 14; CBPYTab[25].len := 4;
			CBPYTab[26].val := 14; CBPYTab[26].len := 4;
			CBPYTab[27].val := 14; CBPYTab[27].len := 4;
			CBPYTab[28].val := 5; CBPYTab[28].len := 4;
			CBPYTab[29].val := 5; CBPYTab[29].len := 4;
			CBPYTab[30].val := 5; CBPYTab[30].len := 4;
			CBPYTab[31].val := 5; CBPYTab[31].len := 4;

			CBPYTab[32].val := 13; CBPYTab[32].len := 4;
			CBPYTab[33].val := 13; CBPYTab[33].len := 4;
			CBPYTab[34].val := 13; CBPYTab[34].len := 4;
			CBPYTab[35].val := 13; CBPYTab[35].len := 4;
			CBPYTab[36].val := 3; CBPYTab[36].len := 4;
			CBPYTab[37].val := 3; CBPYTab[37].len := 4;
			CBPYTab[38].val := 3; CBPYTab[38].len := 4;
			CBPYTab[39].val := 3; CBPYTab[39].len := 4;

			CBPYTab[40].val := 11; CBPYTab[40].len := 4;
			CBPYTab[41].val := 11; CBPYTab[41].len := 4;
			CBPYTab[42].val := 11; CBPYTab[42].len := 4;
			CBPYTab[43].val := 11; CBPYTab[43].len := 4;
			CBPYTab[44].val := 7; CBPYTab[44].len := 4;
			CBPYTab[45].val := 7; CBPYTab[45].len := 4;
			CBPYTab[46].val := 7; CBPYTab[46].len := 4;
			CBPYTab[47].val := 7; CBPYTab[47].len := 4
		кон init;

		(* Decode next macroblock *)
		проц Decode(перем s: DT.VideoBuffer ): булево;
		перем
			j, temp: цел32;
			intraFlag,interFlag, res, coded: булево;
		нач
			если mp4State.hdr.predictionType # DT.IVOP то
				mp4State.hdr.notCoded := AVI.GetBits(1, s.data^, s.index)
			всё;

			(* coded macroblock or I-VOP *)
			если ( mp4State.hdr.notCoded = 0 ) или ( mp4State.hdr.predictionType = DT.IVOP ) то
				mp4State.hdr.mcbpc := GetMCBPC(s); 	(* mcbpc *)
				mp4State.hdr.derivedMbType := mp4State.hdr.mcbpc остОтДеленияНа 8;
				mp4State.hdr.cbpc := ( mp4State.hdr.mcbpc DIV 16 ) остОтДеленияНа 4;

				(* Used only in P-VOP *)
				mp4State.modeMap[mp4State.hdr.mbYPos + 1][mp4State.hdr.mbXPos + 1] := mp4State.hdr.derivedMbType;
				если ( mp4State.hdr.derivedMbType = DT.Intra ) или ( mp4State.hdr.derivedMbType = DT.IntraQ ) то
					intraFlag := истина
				иначе
					intraFlag := ложь
				всё;

				interFlag := ~intraFlag;

				если intraFlag то
					mp4State.hdr.acPredFlag := AVI.GetBits(1, s.data^, s.index)
				всё;

				 если mp4State.hdr.derivedMbType # DT.Stuffing то
					mp4State.hdr.cbpy := GetCBPY(s); (* cbpy *)
					mp4State.hdr.cbp := НИЗКОУР.подмениТипЗначения( цел32, НИЗКОУР.подмениТипЗначения( мнвоНаБитахМЗ, ( mp4State.hdr.cbpy * 4 ) ) +
						НИЗКОУР.подмениТипЗначения( мнвоНаБитахМЗ, mp4State.hdr.cbpc ) );
				иначе
					возврат ложь
				всё;

				если ( mp4State.hdr.derivedMbType = DT.InterQ ) или ( mp4State.hdr.derivedMbType = DT.IntraQ ) то
					mp4State.hdr.dQuant := AVI.GetBits(2, s.data^, s.index);
					mp4State.hdr.quantizer := mp4State.hdr.quantizer + DQTab[mp4State.hdr.dQuant];
					если ( mp4State.hdr.quantizer > 31 ) то
						mp4State.hdr.quantizer := 31
					аесли mp4State.hdr.quantizer < 1 то
						mp4State.hdr.quantizer := 1
					всё;
				всё;

				(* Set MotionVector *)
				если ( mp4State.hdr.derivedMbType = DT.Inter ) или ( mp4State.hdr.derivedMbType = DT.InterQ ) то
					res := mv.SetMV( -1, s )
				аесли mp4State.hdr.derivedMbType = DT.Inter4V то
					нцДля j := 0 до 3 делай
						res := mv.SetMV( j, s )
					кц;
				иначе	(* Intra *)
					если mp4State.hdr.predictionType = DT.PVOP то
						mv.ResetIntraMV(mp4State.hdr.mbYPos + 1, mp4State.hdr.mbXPos + 1 )
					всё;
				всё;

				(* motion compensation *)
				если interFlag то
					mv.Reconstruct(mp4State.hdr.mbXPos, mp4State.hdr.mbYPos, mp4State.hdr.derivedMbType);

					(* texture decoding add *)
					нцДля j := 0 до 5 делай
						coded := 5 - j в НИЗКОУР.подмениТипЗначения(мнвоНаБитахМЗ, mp4State.hdr.cbp );
						если coded то
							temp := texture.BlockInter( j, coded, s );
							AddBlockInter(j, mp4State.hdr.mbXPos, mp4State.hdr.mbYPos)
						всё;
					кц;
				иначе
					(* texture decoding add *)
					нцДля j := 0 до 5 делай
						coded := 5 - j в НИЗКОУР.подмениТипЗначения(мнвоНаБитахМЗ, mp4State.hdr.cbp );
						temp := texture.BlockIntra( j, coded, s );
						AddBlockIntra(j, mp4State.hdr.mbXPos, mp4State.hdr.mbYPos)
					кц;
				всё;
			иначе (* not coded macroblock *)
				mv.ResetNotCodedMV( mp4State.hdr.mbYPos + 1, mp4State.hdr.mbXPos + 1);
				mp4State.modeMap[mp4State.hdr.mbYPos + 1][mp4State.hdr.mbXPos + 1] := DT.NotCoded;

				mv.Reconstruct(mp4State.hdr.mbXPos, mp4State.hdr.mbYPos, mp4State.hdr.derivedMbType)
			всё;

			mp4State.quantStore[mp4State.hdr.mbYPos + 1][mp4State.hdr.mbXPos + 1] := mp4State.hdr.quantizer;

			если mp4State.hdr.mbXPos < ( mbWidth - 1 ) то
				увел( mp4State.hdr.mbXPos );
			иначе
				увел( mp4State.hdr.mbYPos );
				mp4State.hdr.mbXPos := 0
			всё;

			возврат истина;
		кон Decode;

		(* Add an IntraBlock to the Picture *)
		проц AddBlockIntra( comp, bx, by: цел32 );
		перем
			cc, iincr, offset: цел32;
		нач
			(* color component index *)
			если comp < 4 то cc := 0
			иначе cc := ( comp остОтДеленияНа 2 ) + 1
			всё;

			если ( cc = 0 ) то (* luminance *)
				bx := bx * 16;										(* pixel coordinates *)
				by := by * 16;

		    	(* frame DCT coding; *)
				offset := mp4State.frameRefBaseOffset[cc] +
					( mp4State.codedPictureWidth * ( by + ( ( ( comp остОтДеленияНа 4 ) DIV 2 ) * 8 ) ) + bx + ( ( comp остОтДеленияНа 2 ) * 8 ) );
			    iincr := mp4State.codedPictureWidth
			иначе	(* chrominance *)
				bx := bx * 8;										(* pixel coordinates *)
				by := by * 8;

				(* frame DCT coding *)
				offset :=  mp4State.frameRefBaseOffset[cc] + mp4State.chromWidth * by + bx;
				iincr := mp4State.chromWidth
			всё;

		 	если DT.Debug то
				log.пСтроку8( "TransferIDCTCopy: "); log.пЦел64( offset - mp4State.frameRefBaseOffset[cc], 0 ); log.пСимв8( ' ' );
				log.пЦел64( iincr, 0 ); log.пВК_ПС()
		 	всё;

			TransferIDCTCopy( адресОт(texture.dstBlock[4]), mp4State.frameRef, offset, iincr );
		кон AddBlockIntra;

		(* Add an interblock to the current picture *)
		проц AddBlockInter( comp, bx, by: цел32 );
		перем
			cc, iincr, offset: цел32;
		нач
			если comp < 4 то cc := 0
			иначе cc := ( comp остОтДеленияНа 2 ) + 1
			всё;

			если cc = 0 то (* luminance *)
				bx := bx * 16;							      (* pixel coordinates *)
				by := by * 16;

				(* frame DCT coding *)
				offset := mp4State.frameRefBaseOffset[cc]
					+ mp4State.codedPictureWidth * ( by + ( ( ( comp остОтДеленияНа 4 ) DIV 2 ) * 8 ) ) + bx + ( ( comp остОтДеленияНа 2 ) * 8 );
				iincr := mp4State.codedPictureWidth
			иначе	(* chrominance *)
				bx := bx * 8;							 (* pixel coordinates *)
				by := by * 8;

				(* frame DCT coding *)
				offset := mp4State.frameRefBaseOffset[cc] + mp4State.chromWidth * by + bx;
	   		iincr := mp4State.chromWidth
			всё;

		 	если DT.Debug то
		 		log.пСтроку8( "TransferIDCTAdd: "); log.пЦел64( offset - mp4State.frameRefBaseOffset[cc], 0 ); log.пСимв8( ' ' );
		 		log.пЦел64( iincr, 0 ); log.пВК_ПС()
		 	всё;
			TransferIDCTAdd( адресОт(texture.dstBlock[4]), mp4State.frameRef, offset, iincr );
		кон AddBlockInter;

		проц TransferIDCTAdd( source: цел32; dest: DT.PointerToArrayOfCHAR; destOffset, stride: цел32 );
		нач
			если DT.EnableMMX то
				TransferIDCTAddMMX( source, адресОт( dest[destOffset] ), stride );
			иначе
				TransferIDCTAddGeneric( source, dest, destOffset, stride );
			всё;
		кон TransferIDCTAdd;

		проц TransferIDCTCopy( source: цел32; dest: DT.PointerToArrayOfCHAR;
			destOffset, stride: цел32 );
		нач
			если DT.EnableMMX то
				TransferIDCTCopyMMX( source, адресОт( dest[destOffset] ), stride );
			иначе
				TransferIDCTCopyGeneric( source, dest, destOffset, stride );
			всё;
		кон TransferIDCTCopy;

		(* Add macroblock to a block in the actual picture *)
		проц TransferIDCTAddGeneric( source: цел32; dest: DT.PointerToArrayOfCHAR;
			destOffset, stride: цел32 );
		перем
			x, y, s, d, sum: цел32;
		нач
			stride := stride -  8;
			s := source;
			d := адресОт( dest[destOffset] );

			если DT.Debug то
				log.пСтроку8( "TransferIDCTAdd: " )
			всё;

			нцДля y := 0 до 7 делай
				нцДля x := 0 до 7 делай

					sum := кодСимв8( НИЗКОУР.подмениТипЗначения(симв8, НИЗКОУР.прочти8битПоАдресу( d ) ) ) + НИЗКОУР.прочти16битПоАдресу( s );
					если sum > 255 то
					НИЗКОУР.запиши8битПоАдресу( d, 255 )
					аесли sum < 0 то
						НИЗКОУР.запиши8битПоАдресу( d, 0 )
					иначе
						НИЗКОУР.запиши8битПоАдресу( d, sum )
					всё;
					s := s + размер16_от( цел16);
					d := d + размер16_от( симв8 );

					если DT.Debug то
						log.пЦел64( кодСимв8( НИЗКОУР.подмениТипЗначения(симв8, НИЗКОУР.прочти8битПоАдресу( d-1 ) ) ), 0 ); log.пСимв8( ' ' )
					всё;

				кц;
				d := d + stride
			кц;

			если DT.Debug то
				log.пВК_ПС()
			всё;
		кон TransferIDCTAddGeneric;

		проц TransferIDCTAddMMX( source, dest, stride: цел32 );
		машКод{ SYSTEM.MMX, SYSTEM.PentiumPro }
			MOV EAX, [EBP+source]		    		 ;  PARAMETER 1, *SOURCES32
			MOV EBX, [EBP+dest]	      			 ;  PARAMETER 2, *DESTU8
			MOV EDI, [EBP+stride]				 ;  PARAMETER 3, STRIDE
			MOV EDX, -8						; loop counter
			PXOR MMX7, MMX7					;  SET MMX7 = 0

		loop:
			MOVQ MMX0,  [EBX]					;  eight bytes of destination into mm0
			MOVQ MMX1,  MMX0					;  eight bytes of destination into mm1
			PUNPCKLBW MMX0, MMX7				;  unpack first 4 bytes from dest into mm0, no saturation
			PUNPCKHBW MMX1, MMX7			;  unpack next 4 bytes from dest into mm1, no saturation
			MOVQ MMX2, [EAX]					; four source words into mm2
;			PACKSSDW MMX2, [EAX+8]			; pack mm2 with next two source double words into mm2
			MOVQ MMX3, [EAX+8]
; 			PACKSSDW MMX3, [EAX+24]
			PADDSW MMX0, MMX2				; add source and destination
			PADDSW MMX1, MMX3				; add source and destination
			PACKUSWB MMX0, MMX1   		         ; pack mm0 and mm1 into mm0
			MOVQ [EBX], MMX0					; copy output to destination
			ADD EBX, EDI						; add +stride to dest ptr
			ADD EAX, 16
			INC EDX
			JNZ loop
			EMMS
		кон TransferIDCTAddMMX;

		(* Copy a macroblock to the actual picture *)
		проц TransferIDCTCopyGeneric( source: цел32; dest: DT.PointerToArrayOfCHAR; destOffset, stride: цел32 );
		перем
			x, y, s, d, val: цел32;
		нач
			stride := stride - 8;
			s := source;
			d := адресОт( dest[destOffset] );

			если DT.Debug то
				log.пСтроку8( "Transferp: " )
			всё;

			нцДля y := 0 до 7 делай
				нцДля x:= 0 до 7 делай
					val := устарПреобразуйКБолееШирокомуЦел(НИЗКОУР.прочти16битПоАдресу( s ));
					если val  > 255 то НИЗКОУР.запиши8битПоАдресу( d, 255 )
					аесли val <  0 то НИЗКОУР.запиши8битПоАдресу( d, 0 )
					иначе НИЗКОУР.запиши8битПоАдресу( d, val )
					всё;
					s := s + размер16_от(цел16);
					d := d + размер16_от( симв8 );

					если DT.Debug то
						log.пЦел64( кодСимв8( НИЗКОУР.подмениТипЗначения(симв8, НИЗКОУР.прочти8битПоАдресу( d -1) ) ), 0 ); log.пСимв8( ' ' )
					всё;

				кц;
				d := d + stride
			кц;

			если DT.Debug то
				log.пВК_ПС()
			всё;
		кон TransferIDCTCopyGeneric;

		проц TransferIDCTCopyMMX( source, dest, stride: цел32 );
		машКод{ SYSTEM.MMX, SYSTEM.PentiumPro }
			MOV EAX, [EBP+source]          		; PARAMETER 1, *SOURCES32
			MOV EBX, [EBP+dest]           			; PARAMETER 2, *DESTU8
			MOV EDI, [EBP+stride]           			; PARAMETER 3, STRIDE
			MOV EDX, -8

		loop:
			MOVQ MMX0,  [EAX]					; eight bytes (four SIGNED16) of source into mm0
; 			PACKSSDW MMX0, 8[EAX]			; Pack next 8 bytes (two SIGNED32) together with mm0
			MOVQ MMX1, [EAX+8]
;			PACKSSDW MMX1, 24[EAX]
			PACKUSWB MMX0, MMX1				; Pack 4 SIGNED16 with another 4 SIGNED16 into mm0
			MOVQ [EBX], MMX0					; Write mm0 to dest
			ADD EBX, EDI						; Add stride to dest
			ADD EAX, 16						; next source
			INC EDX
			JNZ loop
			EMMS
		кон TransferIDCTCopyMMX;


		(* Used to derive macroblock type and pattern for luminance  *)
		проц GetCBPY(перем s: DT.VideoBuffer): цел32;
		перем
			cbpy: цел32;
			code: цел32;
		нач
			code := AVI.ShowBits( 6, s.data^, s.index );

			если  code < 2 то
				возврат -1
			всё;

			если code >= 48 то
				AVI.SkipBits( 2, s.index );
				cbpy := 15
			иначе
				AVI.SkipBits( CBPYTab[code].len, s.index );
				cbpy := CBPYTab[code].val
			всё;

			если ( ~( (mp4State.hdr.derivedMbType = 3 ) или ( mp4State.hdr.derivedMbType = 4 ) ) ) то
				  cbpy := 15 - cbpy
			всё;

		  	возврат cbpy;
		кон GetCBPY;

		(* Used to derive macroblock type and pattern for chrominance *)
		проц GetMCBPC(перем s: DT.VideoBuffer): цел32;
		перем
			code: цел32;
		нач
			если mp4State.hdr.predictionType = DT.IVOP то
				code := AVI.ShowBits( 9, s.data^, s.index );

				если code = 1 то
					AVI.SkipBits( 9, s.index );  (* stuffing *)
					возврат 0
				аесли code < 8 то
					возврат -1
				всё;

				code := code DIV 8;
				если code >= 32 то
					AVI.SkipBits( 1, s.index );
					возврат 3
				всё;

				AVI.SkipBits( MCBPCTabIntra[code].len, s.index );
				возврат MCBPCTabIntra[code].val
			иначе
				code := AVI.ShowBits( 9, s.data^, s.index );

				если code = 1 то
					AVI.SkipBits( 9, s.index ); (* stuffing *)
					возврат 0
				аесли code = 0 то
					возврат -1
				всё;

				если code >= 256 то
					AVI.SkipBits( 1, s.index );
					возврат 0;
				всё;

				AVI.SkipBits( MCBPCTabInter[code].len, s.index );
				возврат MCBPCTabInter[code].val
			всё;
		кон GetMCBPC;

	кон MacroBlock;


тип MotionCompensation = окласс
	перем
		MVTab0: массив 14 из DT.TabType;
		MVTab1: массив 96 из DT.TabType;
		MVTab2: массив 124 из DT.TabType;
		MV: массив 2 из массив 6 из массив ( DT.DecMbr+1 ) из массив ( DT.DecMbc+2 ) из цел32;
		RoundTab: массив 16 из цел32;
		mp4State: DT.MP4State;
		log: Потоки.Писарь;

		проц &init*( state: DT.MP4State; logWriter: Потоки.Писарь);
		перем
			i, j, index: цел32;
		нач
			log := logWriter;
			mp4State := state;

			RoundTab[0] := 0; RoundTab[1] := 0; RoundTab[2] := 0; RoundTab[3] := 1;  RoundTab[4] := 1; RoundTab[5] := 1;
			RoundTab[6] := 1; RoundTab[7] := 1; RoundTab[8] := 1; RoundTab[9] := 1; RoundTab[10] := 1; RoundTab[11] := 1;
			RoundTab[12] := 1; RoundTab[13] := 1; RoundTab[14] := 2; RoundTab[15] :=  2;

			MVTab0[0].val := 3; MVTab0[0].len := 4;
			MVTab0[1].val := -3; MVTab0[1].len := 4;
			MVTab0[2].val := 2; MVTab0[2].len := 3;
			MVTab0[3].val := 2; MVTab0[3].len := 3;
			MVTab0[4].val := -2; MVTab0[4].len := 3;
			MVTab0[5].val := -2; MVTab0[5].len := 3;
			MVTab0[6].val := 1; MVTab0[6].len := 2;
			MVTab0[7].val := 1; MVTab0[7].len := 2;
			MVTab0[8].val := 1; MVTab0[8].len := 2;
			MVTab0[9].val := 1; MVTab0[9].len := 2;
			MVTab0[10].val := -1; MVTab0[10].len := 2;
			MVTab0[11].val := -1; MVTab0[11].len := 2;
			MVTab0[12].val := -1; MVTab0[12].len := 2;
			MVTab0[13].val := -1; MVTab0[13].len := 2;

			MVTab1[0].val := 12; MVTab1[0].len := 10;
			MVTab1[1].val := -12; MVTab1[1].len := 10;
			MVTab1[2].val := 11; MVTab1[2].len := 10;
			MVTab1[3].val := -11; MVTab1[3].len := 10;
			MVTab1[4].val := 10; MVTab1[4].len := 9;
			MVTab1[5].val := 10; MVTab1[5].len := 9;
			MVTab1[6].val := -10; MVTab1[6].len := 9;
			MVTab1[7].val := -10; MVTab1[7].len := 9;
			MVTab1[8].val := 9; MVTab1[8].len := 9;
			MVTab1[9].val := 9; MVTab1[9].len := 9;
			MVTab1[10].val := -9; MVTab1[10].len := 9;
			MVTab1[11].val := -9; MVTab1[11].len := 9;
			MVTab1[12].val := 8; MVTab1[12].len := 9;
			MVTab1[13].val := 8; MVTab1[13].len := 9;
			MVTab1[14].val := -8; MVTab1[14].len := 9;
			MVTab1[15].val := -8; MVTab1[15].len := 9;
			нцДля i := 16 до 23 делай MVTab1[i].val := 7; MVTab1[i].len := 7 кц;
			нцДля i := 24 до 31 делай MVTab1[i].val := -7; MVTab1[i].len := 7 кц;
			нцДля i := 32 до 39 делай MVTab1[i].val := 6; MVTab1[i].len := 7 кц;
			нцДля i := 40 до 47 делай MVTab1[i].val := -6; MVTab1[i].len := 7 кц;
			нцДля i := 48 до 56 делай MVTab1[i].val := 5; MVTab1[i].len := 7 кц;
			нцДля i := 56 до 63 делай MVTab1[i].val := -5; MVTab1[i].len := 7 кц;
			нцДля i := 64 до 79 делай MVTab1[i].val := 4; MVTab1[i].len := 6 кц;
			нцДля i := 80 до 95 делай MVTab1[i].val := -4; MVTab1[i].len := 6 кц;

			MVTab2[0].val := 32; MVTab2[0].len := 12;
			MVTab2[1].val := -32; MVTab2[1].len := 12;
			MVTab2[2].val := 31; MVTab2[2].len := 12;
			MVTab2[3].val := -31; MVTab2[3].len := 12;
			MVTab2[4].val := 30; MVTab2[4].len := 11;
			MVTab2[5].val := 30; MVTab2[5].len := 11;
			MVTab2[6].val := -30; MVTab2[6].len := 11;
			MVTab2[7].val := -30; MVTab2[7].len := 11;
			MVTab2[8].val := 29; MVTab2[8].len := 11;
			MVTab2[9].val := 29; MVTab2[9].len := 11;
			MVTab2[10].val := -29; MVTab2[10].len := 11;
			MVTab2[11].val := -29; MVTab2[11].len := 11;
			MVTab2[12].val := 28; MVTab2[12].len := 11;
			MVTab2[13].val := 28; MVTab2[13].len := 11;
			MVTab2[14].val := -28; MVTab2[14].len := 11;
			MVTab2[15].val := -28; MVTab2[15].len := 11;
			MVTab2[16].val := 27; MVTab2[16].len := 11;
			MVTab2[17].val := 27; MVTab2[17].len := 11;
			MVTab2[18].val := -27; MVTab2[18].len := 11;
			MVTab2[19].val := -27; MVTab2[19].len := 11;
			MVTab2[20].val := 26; MVTab2[20].len := 11;
			MVTab2[21].val := 26; MVTab2[21].len := 11;
			MVTab2[22].val := -26; MVTab2[22].len := 11;
			MVTab2[23].val := -26; MVTab2[23].len := 11;
			MVTab2[24].val := 25; MVTab2[24].len := 11;
			MVTab2[25].val := 25; MVTab2[25].len := 11;
			MVTab2[26].val := -25; MVTab2[26].len := 11;
			MVTab2[27].val := -25; MVTab2[27].len := 11;

			index := 28;
			нцДля i:= 24 до 13 шаг -1 делай
				нцДля j := 0 до 3 делай
					MVTab2[index].val := i; MVTab2[index].len := 10;
					увел( index )
				кц;
				нцДля j := 0 до 3 делай
					MVTab2[index].val := -i; MVTab2[index].len := 10;
					увел( index )
				кц;
			кц;
		кон init;

		(* compute motion vector prediction *)
		проц FindPMV ( block, comp: цел32 ): цел32;
		перем
			p1, p2, p3, xin1, xin2, xin3, yin1, yin2, yin3, vec1, vec2, vec3, x, y: цел32;
		нач
			x := mp4State.hdr.mbXPos;
			y := mp4State.hdr.mbYPos;

			если ( y = 0 ) и ( ( block = 0 ) или ( block = 1 ) ) то
				если (x = 0 ) и (block = 0 ) то
					возврат 0;
				аесли ( block = 1 ) то
					возврат MV[comp][0][y + 1][x + 1]
				иначе (* block == 0 *)
					возврат MV[comp][1][y + 1][x]
				всё;
			иначе
				(* considerate border (avoid increment inside each single array index) *)
				увел( x );
				увел( y );

				просей block из
					0:
					vec1 := 1;	yin1 := y;		xin1 := x - 1;
					vec2 := 2;	yin2 := y - 1;  xin2 := x;
					vec3 := 2;	yin3 := y - 1;  xin3 := x + 1;
				| 1:
					vec1 := 0;	yin1 := y;		xin1 := x;
					vec2 := 3;	yin2 := y - 1;  xin2 := x;
					vec3 := 2;	yin3 := y - 1;  xin3 := x + 1;
				| 2:
					vec1 := 3;	yin1 := y;		xin1 := x - 1;
					vec2 := 0;	yin2 := y;	    xin2 := x;
					vec3 := 1;	yin3 := y;		xin3 := x;
				иначе
					vec1 := 2;	yin1 := y;		xin1 := x;
					vec2 := 0;	yin2 := y;		xin2 := x;
					vec3 := 1;	yin3 := y;		xin3 := x;
				всё;

				p1 := MV[comp][vec1][yin1][xin1];
				p2 := MV[comp][vec2][yin2][xin2];
				p3 := MV[comp][vec3][yin3][xin3];

				возврат Mmin( Mmax( p1, p2 ), Mmin( Mmax( p2, p3 ),Mmax( p1, p3 ) ) )
			всё;
		кон FindPMV;

		проц Mmin( a, b: цел32 ): цел32;
		нач
			если a < b то возврат a иначе возврат b всё;
		кон Mmin;

		проц Mmax( a, b: цел32 ): цел32;
		нач
			если a > b то возврат a иначе возврат b всё;
		кон Mmax;

		(* Set current motion vector *)
		проц SetMV( blockNum: цел32; перем s: DT.VideoBuffer ): булево;
		перем
			tempSet: мнвоНаБитахМЗ;
			horMvData, verMvData, horMvRes, verMvRes, i: цел32;
			scaleFac, high, low, range: цел32;
			mvdx, mvdy, pmvx, pmvy, mvx, mvy: цел32;

		нач
			tempSet := мнвоНаБитахМЗ({ mp4State.hdr.fCodeFor - 1 });
			scaleFac := НИЗКОУР.подмениТипЗначения( цел32, tempSet );
			high := ( 32 * scaleFac ) - 1;
			low := ( ( -32 ) * scaleFac );
			range := ( 64 * scaleFac );

			horMvData := GetMVData(s); (* mv data *)

			если ( scaleFac = 1 ) или ( horMvData = 0 ) то
				mvdx := horMvData
			иначе
				horMvRes := AVI.GetBits( mp4State.hdr.fCodeFor - 1, s.data^, s.index ); (* mv residual *)
				mvdx := ( ( матМодуль( horMvData ) - 1 ) * scaleFac ) + horMvRes + 1;
				если ( horMvData < 0 ) то
					mvdx := -mvdx
				всё;
			всё;

		 	verMvData := GetMVData(s);

			если ( scaleFac = 1 ) или ( verMvData = 0 ) то
				mvdy := verMvData
			иначе
				verMvRes := AVI.GetBits( mp4State.hdr.fCodeFor - 1, s.data^, s.index );
				mvdy := ( ( матМодуль( verMvData) - 1 ) * scaleFac ) + verMvRes + 1;
				если ( verMvData < 0 ) то
					mvdy := -mvdy
				всё;
			всё;

			если blockNum = -1 то
				pmvx := FindPMV( 0, 0 );
				pmvy := FindPMV( 0, 1 );
			иначе
				pmvx := FindPMV( blockNum, 0 );
				pmvy := FindPMV( blockNum, 1 );
			всё;

			если DT.Debug то
				log.пСтроку8("Hor MotV Pred: "); log.пЦел64( pmvx, 0 ); log.пВК_ПС();
				log.пСтроку8("Ver MotV Pred: "); log.пЦел64( pmvy, 0 ); log.пВК_ПС();
				log.пСтроку8("MVD Hor: "); log.пЦел64( mvdx, 0 ); log.пВК_ПС();
				log.пСтроку8("MVD Ver: "); log.пЦел64( mvdy, 0 ); log.пВК_ПС()
			всё;

			mvx := pmvx + mvdx;

			если mvx < low то
				mvx := mvx + range
			всё;
			если  mvx > high то
				mvx := mvx - range
			всё;

			mvy := pmvy + mvdy;

			если mvy < low то
				mvy := mvy + range
			всё;
			если mvy > high то
				mvy := mvy - range
			всё;

			(* put [mv_x, mv_y] in MV struct *)
			если blockNum = -1 то
				нцДля i := 0 до 3 делай
					MV[0][i][mp4State.hdr.mbYPos + 1][mp4State.hdr.mbXPos + 1] := mvx;
					MV[1][i][mp4State.hdr.mbYPos + 1][mp4State.hdr.mbXPos + 1] := mvy
				кц;
			иначе
				MV[0][blockNum][mp4State.hdr.mbYPos + 1][mp4State.hdr.mbXPos + 1] := mvx;
				MV[1][blockNum][mp4State.hdr.mbYPos + 1][mp4State.hdr.mbXPos + 1] := mvy
			всё;

			если DT.Debug то
				log.пСтроку8("Hor MotV: "); log.пЦел64( mvx, 0 ); log.пВК_ПС();
				log.пСтроку8("Ver MotV: "); log.пЦел64( mvy, 0 ); log.пВК_ПС()
			всё;

		  	возврат истина;
		кон SetMV;

		проц GetMVData(перем s: DT.VideoBuffer ): цел32;
		перем
			code: цел32;
		нач
			если AVI.GetBits( 1, s.data^, s.index ) > 0 то
				возврат 0; 	(*  hor_mv_data = 0 *)
			всё;

			code := AVI.ShowBits( 12, s.data^, s.index );

			если code >= 512 то
				code := ( code DIV 256 ) - 2;
				AVI.SkipBits( MVTab0[code].len, s.index );
				возврат MVTab0[code].val;
			всё;

			если  code >= 128 то
				code := ( code DIV 4 ) - 32;
				AVI.SkipBits( MVTab1[code].len, s.index );
				возврат MVTab1[code].val;
			всё;

			code := code - 4;
			утв( code >= 0 );

			AVI.SkipBits( MVTab2[code].len, s.index);
			возврат MVTab2[code].val;
		кон GetMVData;

		(* Reset Intra motion vectors *)
		проц ResetIntraMV( yPos, xPos: цел32 );
		перем
			j: цел32;
		нач
			нцДля j := 0 до 3 делай
				MV[0][j][yPos][xPos] := 0;
				MV[1][j][yPos][xPos] := 0
			кц;
		кон ResetIntraMV;

		(* Reset single MV *)
		проц ResetNotCodedMV( yPos, xPos: цел32 );
		нач
				MV[0][0][yPos][xPos] := 0;
				MV[0][1][yPos][xPos] := 0;
				MV[0][2][yPos][xPos] := 0;
				MV[0][3][yPos][xPos] := 0;

				MV[1][0][yPos][xPos] := 0;
				MV[1][1][yPos][xPos] := 0;
				MV[1][2][yPos][xPos] := 0;
				MV[1][3][yPos][xPos] := 0
		кон ResetNotCodedMV;

		(* Reconstruct the current picture ( apply prediction ) *)
		проц Reconstruct( bx, by, mode: цел32 );
		перем
			w, h, lx, dx, dy, xp, yp, comp, sum, x, y, px, py: цел32;
			src: DT.PointerToArrayOfCHAR;
			srcBaseOffset: массив 3 из цел32;
		нач
			x := bx + 1;
			y := by + 1;

			lx := mp4State.codedPictureWidth;

			src := mp4State.frameFor;
			srcBaseOffset[0] := mp4State.frameForBaseOffset[0];
			srcBaseOffset[1] := mp4State.frameForBaseOffset[1];
			srcBaseOffset[2] := mp4State.frameForBaseOffset[2];

			w := 8;
			h := 8;

			(* Luma *)
			px :=  bx * 16;
			py := by * 16;
			если mode = DT.Inter4V то
				нцДля comp := 0 до 3 делай
					dx := MV[0][comp][y][x];
					dy := MV[1][comp][y][x];

					xp := px + ( comp остОтДеленияНа 2 ) * 8;
					yp := py + ( ( comp остОтДеленияНа 4 ) DIV 2 ) * 8;

					если DT.Debug то
						log.пСтроку8( "reconComp: src[0] "); log.пЦел64( lx, 0 ); log.пСимв8( ' ' ); log.пЦел64( w, 0 ); log.пСимв8( ' ' ); log.пЦел64( h, 0 );
						log.пСимв8( ' ' ); log.пЦел64( xp, 0 ); log.пСимв8( ' ' ); log.пЦел64( yp, 0 ); log.пСимв8( ' ' ); log.пЦел64( dx, 0 ); log.пСимв8( ' ' ); log.пЦел64( dy, 0 );
						log.пСимв8( ' ' ); log.пЦел64( 0, 0 ); log.пВК_ПС()
					всё;

					ReconComp (src, srcBaseOffset[0],  mp4State.frameRef, mp4State.frameRefBaseOffset[0], lx, w, h, xp, yp, dx, dy, 0);
				кц;
			иначе
				dx := MV[0][0][y][x];
				dy := MV[1][0][y][x];

				если DT.Debug то
					log.пСтроку8( "reconComp: src[0] "); log.пЦел64( lx, 0 ); log.пСимв8( ' ' ); log.пЦел64( w, 0 ); log.пСимв8( ' ' ); log.пЦел64( h, 0 );
					log.пСимв8( ' ' ); log.пЦел64( px, 0 ); log.пСимв8( ' ' ); log.пЦел64( py, 0 ); log.пСимв8( ' ' ); log.пЦел64( dx, 0 ); log.пСимв8( ' ' ); log.пЦел64( dy, 0 );
					log.пСимв8( ' ' ); log.пЦел64( 0, 0 ); log.пВК_ПС()
				всё;

				ReconComp (src, srcBaseOffset[0], mp4State.frameRef, mp4State.frameRefBaseOffset[0], lx, w*2, h*2, px, py, dx, dy, 0);
			всё;

			(* Chr *)
			px := bx*8;
			py := by*8;
			если mode = DT.Inter4V то
				sum := MV[0][0][y][x] + MV[0][1][y][x] + MV[0][2][y][x] + MV[0][3][y][x];
				если sum = 0 то
					dx := 0
				иначе
					если sum >= 0 то
						dx := RoundTab[матМодуль( sum ) остОтДеленияНа 16] + (матМодуль( sum ) DIV 16) * 2
					иначе
						dx :=  -(RoundTab[ матМодуль( sum ) остОтДеленияНа 16] + ( матМодуль( sum ) DIV 16 ) * 2)
					всё;
				всё;

				sum := MV[1][0][y][x] + MV[1][1][y][x] +  MV[1][2][y][x] + MV[1][3][y][x];
				если sum = 0 то
					dy := 0
				иначе
					если sum >= 0 то
						dy := RoundTab[матМодуль( sum ) остОтДеленияНа 16] + (матМодуль(sum) DIV 16) * 2
					иначе
						dy := -(RoundTab[матМодуль( sum ) остОтДеленияНа 16] + (матМодуль(sum) DIV 16) * 2)
					всё;
				всё;
			иначе
				dx := MV[0][0][y][x];
				dy := MV[1][0][y][x];

				(* chroma rounding *)
				если dx остОтДеленияНа 4 = 0 то
					dx := dx DIV 2;
				иначе
					dx := НИЗКОУР.подмениТипЗначения( цел32, НИЗКОУР.подмениТипЗначения( мнвоНаБитахМЗ, dx DIV 2 ) + {0} )
				всё;
				если dy остОтДеленияНа 4 = 0 то
					dy := dy DIV 2;
				иначе
					dy := НИЗКОУР.подмениТипЗначения( цел32, НИЗКОУР.подмениТипЗначения( мнвоНаБитахМЗ, dy DIV 2 ) + {0} )
				всё;
			всё;

			lx :=  lx DIV 2;

			если DT.Debug то
				log.пСтроку8( "reconComp: src[1] "); log.пЦел64( lx, 0 ); log.пСимв8( ' ' ); log.пЦел64( w, 0 ); log.пСимв8( ' ' ); log.пЦел64( h, 0 );
				log.пСимв8( ' ' ); log.пЦел64( px, 0 ); log.пСимв8( ' ' ); log.пЦел64( py, 0 ); log.пСимв8( ' ' ); log.пЦел64( dx, 0 ); log.пСимв8( ' ' ); log.пЦел64( dy, 0 );
				log.пСимв8( ' ' ); log.пЦел64( 1, 0 ); log.пВК_ПС()
			всё;

			ReconComp ( src, srcBaseOffset[1], mp4State.frameRef, mp4State.frameRefBaseOffset[1], lx, w, h, px, py, dx, dy, 1 );

			если DT.Debug то
				log.пСтроку8( "reconComp: src[2] "); log.пЦел64( lx, 0 ); log.пСимв8( ' ' ); log.пЦел64( w, 0 ); log.пСимв8( ' ' ); log.пЦел64( h, 0 );
				log.пСимв8( ' ' ); log.пЦел64( px, 0 ); log.пСимв8( ' ' ); log.пЦел64( py, 0 ); log.пСимв8( ' ' ); log.пЦел64( dx, 0 ); log.пСимв8( ' ' ); log.пЦел64( dy, 0 );
				log.пСимв8( ' ' ); log.пЦел64( 2, 0 ); log.пВК_ПС()
			всё;

			ReconComp ( src, srcBaseOffset[2], mp4State.frameRef, mp4State.frameRefBaseOffset[2], lx, w, h, px, py, dx, dy, 2 );
		кон Reconstruct;

		(* Copy block in old picture to actual picture *)
		проц ReconComp( s: DT.PointerToArrayOfCHAR; sBaseOffset: цел32; d: DT.PointerToArrayOfCHAR;
				dBaseOffset, lx, w, h, x, y, dx, dy, chroma: цел32 );
		перем
			xint, xh, yint, yh: цел32;
			sIndex, dIndex: цел32;
			mcDriver, i: цел32;
		нач
			xint := dx DIV 2;
			xh := dx остОтДеленияНа 2;
			yint := dy DIV 2;
			yh := dy остОтДеленияНа 2;

			если w # 8 то i := 8;
			иначе i := 0;
			всё;

			(* origins *)
			sIndex := sBaseOffset + lx * (y + yint) + x + xint;
			dIndex := dBaseOffset + lx * y + x;

			(* mcDriver := ( ( w != 8 ) << 3 ) | ( mp4State.hdr.roundingType <<2 ) | ( yh << 1) | ( xh ); *)
			mcDriver := НИЗКОУР.подмениТипЗначения( цел32, НИЗКОУР.подмениТипЗначения( мнвоНаБитахМЗ, i )+ НИЗКОУР.подмениТипЗначения( мнвоНаБитахМЗ, mp4State.hdr.roundingType*4 )
			+ НИЗКОУР.подмениТипЗначения( мнвоНаБитахМЗ, yh*2 ) + НИЗКОУР.подмениТипЗначения( мнвоНаБитахМЗ, xh ) );

			если DT.Debug то
				log.пСтроку8("mcDriver: "); log.пЦел64( mcDriver, 0 ); log.пВК_ПС();
			всё;

			просей mcDriver из
				(* block *)
				(* no round *)
					 0: CopyBlock(s, d, sIndex, dIndex, lx);
				|	1: CopyBlockHor(s, d, sIndex, dIndex, lx);
				|	2: CopyBlockVer(s, d, sIndex, dIndex, lx);
				|	3: CopyBlockHorVer(s, d, sIndex, dIndex, lx);
				|	4: CopyBlock(s, d, sIndex, dIndex, lx);
				(* round *)
				|	5: CopyBlockHorRound(s, d, sIndex, dIndex,  lx);
				|	6: CopyBlockVerRound(s, d, sIndex, dIndex, lx);
				|	7: CopyBlockHorVerRound(s, d, sIndex, dIndex, lx);
				(*  macroblock *)
				(* no round *)
				|	8: CopyMBlock(s, d, sIndex, dIndex, lx);
				|	9: CopyMBlockHor(s, d, sIndex, dIndex, lx);
				|	10: CopyMBlockVer(s, d, sIndex, dIndex, lx);
				|	11: CopyMBlockHorVer(s, d, sIndex, dIndex, lx);
				|	12: CopyMBlock(s, d, sIndex, dIndex, lx);
				(* round *)
				|	13: CopyMBlockHorRound(s, d, sIndex, dIndex, lx);
				|	14: CopyMBlockVerRound(s, d, sIndex, dIndex, lx);
				|	15: CopyMBlockHorVerRound(s, d, sIndex, dIndex, lx)
			всё;
		кон ReconComp;

		(* specialized basic motion compensation routines *)
		проц CopyBlock( src, dst: DT.PointerToArrayOfCHAR; sIndex, dIndex, stride: цел32 );
		перем
			dy,d,s : цел32;
		нач
			s := адресОт( src[sIndex] );
			d := адресОт( dst[dIndex] );

			нцДля dy := 0 до 7 делай
				НИЗКОУР.копируйПамять( s, d, 8 );
				s := s + stride;
				d := d + stride;
			кц;
		кон CopyBlock;

		проц CopyBlockHor( src, dst: DT.PointerToArrayOfCHAR; sIndex, dIndex, stride: цел32 );
		перем
			dx, dy, d, s, temp: цел32;
		нач
			s := адресОт( src[sIndex] );
			d := адресОт( dst[dIndex] );

			нцДля dy := 0 до 7 делай
				нцДля dx := 0 до 7 делай
					(* Dst[dx] = (Src[dx] + Src[dx+1]+1) >> 1;  hor interpolation with rounding  *)
					temp := кодСимв8( НИЗКОУР.подмениТипЗначения( симв8, НИЗКОУР.прочти8битПоАдресу( s + dx ) ) ) +
						кодСимв8( НИЗКОУР.подмениТипЗначения( симв8, НИЗКОУР.прочти8битПоАдресу( s + dx + 1 ) ) );
					НИЗКОУР.запиши8битПоАдресу( d + dx, ( temp + 1 ) DIV 2 );
				кц;
				s := s + stride;
				d := d + stride
			кц;
		кон CopyBlockHor;


		проц CopyBlockVer( src, dst: DT.PointerToArrayOfCHAR; sIndex, dIndex, stride: цел32  );
		перем
			dy, dx, d, s, temp: цел32;
		нач
			s := адресОт( src[sIndex] );
			d := адресОт( dst[dIndex] );

			нцДля dy := 0 до 7 делай
				нцДля dx := 0 до 7 делай
					(*	Dst[dx] = (Src[dx] + Src[dx+Stride] +1) >> 1; // ver interpolation with rounding *)
					temp := кодСимв8( НИЗКОУР.подмениТипЗначения( симв8, НИЗКОУР.прочти8битПоАдресу( s + dx ) ) ) +
						кодСимв8( НИЗКОУР.подмениТипЗначения( симв8, НИЗКОУР.прочти8битПоАдресу( s + dx + stride ) ) );
					НИЗКОУР.запиши8битПоАдресу( d + dx, ( temp + 1 ) DIV 2 )
				кц;
				s := s + stride;
				d := d + stride
			кц;
		кон CopyBlockVer;

		проц CopyBlockHorVer( src, dst: DT.PointerToArrayOfCHAR; sIndex, dIndex, stride: цел32 );
		перем
			dy, dx, d, s, temp: цел32;
		нач
			s := адресОт( src[sIndex] );
			d := адресОт( dst[dIndex] );

			нцДля dy := 0 до 7 делай
				нцДля dx := 0 до 7 делай
					(* Dst[dx] = (Src[dx] + Src[dx+1] + Src[dx+Stride] + Src[dx+Stride+1] +2) >> 2; // horver interpolation with rounding *)
					temp := кодСимв8( НИЗКОУР.подмениТипЗначения( симв8, НИЗКОУР.прочти8битПоАдресу( s + dx ) ) ) +
						кодСимв8( НИЗКОУР.подмениТипЗначения( симв8, НИЗКОУР.прочти8битПоАдресу( s + dx + 1) ) );
					temp := temp + кодСимв8( НИЗКОУР.подмениТипЗначения( симв8, НИЗКОУР.прочти8битПоАдресу( s + dx + stride ) ) ) +
						кодСимв8( НИЗКОУР.подмениТипЗначения( симв8, НИЗКОУР.прочти8битПоАдресу( s + dx + stride + 1 ) ) );
					НИЗКОУР.запиши8битПоАдресу( d + dx, ( temp + 2 ) DIV 4 )
				кц;
				s := s + stride;
				d := d + stride;
			кц;
		кон CopyBlockHorVer;

		проц CopyBlockHorRound( src, dst: DT.PointerToArrayOfCHAR; sIndex, dIndex, stride: цел32 );
		перем
			dy, dx, d, s, temp: цел32;
		нач
			s := адресОт( src[sIndex] );
			d := адресОт( dst[dIndex] );

			нцДля dy := 0 до 7 делай
				нцДля dx := 0 до 7 делай
				(*	Dst[dx] = (Src[dx] + Src[dx+1]) >> 1; // hor interpolation with rounding *)
					temp := кодСимв8( НИЗКОУР.подмениТипЗначения( симв8, НИЗКОУР.прочти8битПоАдресу( s + dx ) ) ) +
						кодСимв8( НИЗКОУР.подмениТипЗначения( симв8, НИЗКОУР.прочти8битПоАдресу( s + dx + 1 ) ) );
					НИЗКОУР.запиши8битПоАдресу( d + dx, temp DIV 2 )
				кц;
				s := s + stride;
				d := d + stride
			кц;
		кон CopyBlockHorRound;

		проц CopyBlockVerRound( src, dst: DT.PointerToArrayOfCHAR; sIndex, dIndex, stride: цел32 );
		перем
			dy, dx, d, s, temp: цел32;
		нач
			s := адресОт( src[sIndex] );
			d := адресОт( dst[dIndex] );

			нцДля dy := 0 до 7 делай
				нцДля dx := 0 до 7 делай
				(*	Dst[dx] = (Src[dx] + Src[dx+Stride]) >> 1; // ver interpolation with rounding *)
					temp := кодСимв8( НИЗКОУР.подмениТипЗначения( симв8, НИЗКОУР.прочти8битПоАдресу( s + dx ) ) ) +
						кодСимв8( НИЗКОУР.подмениТипЗначения( симв8, НИЗКОУР.прочти8битПоАдресу( s + dx + stride ) ) );
					НИЗКОУР.запиши8битПоАдресу( d+ dx, temp DIV 2 );
				кц;
				s := s + stride;
				d := d + stride
			кц;
		кон CopyBlockVerRound;

		проц CopyBlockHorVerRound( src, dst: DT.PointerToArrayOfCHAR; sIndex, dIndex, stride: цел32 );
		перем
			dy, dx, d, s, temp: цел32;
		нач
			s := адресОт( src[sIndex] );
			d := адресОт( dst[dIndex] );

			нцДля dy := 0 до 7 делай
				нцДля dx := 0 до 7 делай
				(* Dst[dx] = (Src[dx] + Src[dx+1] + Src[dx+Stride] + Src[dx+Stride+1] +1) >> 2; // horver interpolation with rounding *)
					temp := кодСимв8( НИЗКОУР.подмениТипЗначения( симв8, НИЗКОУР.прочти8битПоАдресу( s + dx ) ) ) + кодСимв8( НИЗКОУР.подмениТипЗначения( симв8, НИЗКОУР.прочти8битПоАдресу( s + dx + 1 ) ) ) ;
					temp := temp + кодСимв8( НИЗКОУР.подмениТипЗначения( симв8, НИЗКОУР.прочти8битПоАдресу( s + dx + stride ) ) ) +
						кодСимв8( НИЗКОУР.подмениТипЗначения( симв8, НИЗКОУР.прочти8битПоАдресу( s + dx + stride + 1 ) ) );
					НИЗКОУР.запиши8битПоАдресу( d + dx, ( temp + 1 ) DIV 4 );
				кц;
				s := s + stride;
				d := d + stride
			кц;
		кон CopyBlockHorVerRound;

		проц CopyMBlock( src, dst: DT.PointerToArrayOfCHAR; sIndex, dIndex, stride: цел32 );
		перем
			dy, s, d: цел32;
		нач
			s := адресОт( src[sIndex] );
			d := адресОт( dst[dIndex] );

			нцДля dy := 0 до 15 делай
				НИЗКОУР.копируйПамять( s, d, 16 );
				s := s + stride;
				d := d + stride;
			кц;
		кон CopyMBlock;

		проц CopyMBlockHor(src, dst: DT.PointerToArrayOfCHAR; sIndex, dIndex, stride: цел32);
		перем
			dy, dx, s, d, temp: цел32;
		нач
			s := адресОт( src[sIndex] );
			d := адресОт( dst[dIndex] );

			нцДля dy := 0 до 15 делай
				нцДля dx := 0 до 15 делай
					(* Dst[dx] = (Src[dx] + Src[dx+1]+1) >> 1; // hor interpolation with rounding *)
					temp := кодСимв8( НИЗКОУР.подмениТипЗначения( симв8, НИЗКОУР.прочти8битПоАдресу( s + dx ) ) );
					temp := temp + кодСимв8( НИЗКОУР.подмениТипЗначения( симв8, НИЗКОУР.прочти8битПоАдресу( s + dx + 1) ) );
					НИЗКОУР.запиши8битПоАдресу( d + dx, ( temp + 1 ) DIV 2 )
				кц;
				s := s + stride;
				d := d + stride
			кц;
		кон CopyMBlockHor;

		проц CopyMBlockVer(src, dst: DT.PointerToArrayOfCHAR; sIndex, dIndex, stride: цел32);
		перем
			dy, dx, s, d, temp: цел32;
		нач
			s := адресОт( src[sIndex] );
			d := адресОт( dst[dIndex] );

			нцДля dy := 0 до 15 делай
				нцДля dx := 0 до 15 делай
					(* Dst[dx] = (Src[dx] + Src[dx+Stride] +1) >> 1; // ver interpolation with rounding *)
					temp := кодСимв8( НИЗКОУР.подмениТипЗначения( симв8, НИЗКОУР.прочти8битПоАдресу( s + dx ) ) );
					temp := temp + кодСимв8( НИЗКОУР.подмениТипЗначения( симв8, НИЗКОУР.прочти8битПоАдресу( s + dx + stride ) ) );
					НИЗКОУР.запиши8битПоАдресу( d + dx, ( temp  + 1 ) DIV 2 );
				кц;
				s := s + stride;
				d := d + stride;
			кц;
		кон CopyMBlockVer;

		проц CopyMBlockHorVer(src, dst: DT.PointerToArrayOfCHAR; sIndex, dIndex, stride: цел32);
		перем
			dy, dx, s, d, temp: цел32;
		нач
			s := адресОт( src[sIndex] );
			d := адресОт( dst[dIndex] );
				нцДля dy := 0 до 15 делай
				нцДля dx := 0 до 15 делай
				(* Dst[dx] = (Src[dx] + Src[dx+1] + Src[dx+Stride] + Src[dx+Stride+1] +2) >> 2; // horver interpolation with rounding *)
					temp := кодСимв8( НИЗКОУР.подмениТипЗначения( симв8, НИЗКОУР.прочти8битПоАдресу( s + dx ) ) ) + кодСимв8( НИЗКОУР.подмениТипЗначения( симв8, НИЗКОУР.прочти8битПоАдресу( s + dx +1 ) ) );
					temp := temp + кодСимв8( НИЗКОУР.подмениТипЗначения( симв8, НИЗКОУР.прочти8битПоАдресу( s + dx + stride ) ) ) +
						кодСимв8( НИЗКОУР.подмениТипЗначения( симв8, НИЗКОУР.прочти8битПоАдресу( s + dx + stride + 1 ) ) );
					НИЗКОУР.запиши8битПоАдресу( d + dx, ( temp  + 2 ) DIV 4 );
				кц;
				s := s + stride;
				d := d + stride;
			кц;
		кон CopyMBlockHorVer;

		проц CopyMBlockHorRound( src, dst: DT.PointerToArrayOfCHAR; sIndex, dIndex, stride: цел32 );
		перем
			dy, dx, d, s, temp: цел32;
		нач
			s := адресОт( src[sIndex] );
			d := адресОт( dst[dIndex] );

			нцДля dy := 0 до 15 делай
				нцДля dx := 0 до 15 делай
				(*	Dst[dx] = (Src[dx] + Src[dx+1]) >> 1; // hor interpolation with rounding *)
					temp := кодСимв8( НИЗКОУР.подмениТипЗначения( симв8, НИЗКОУР.прочти8битПоАдресу( s + dx ) ) ) +
						кодСимв8( НИЗКОУР.подмениТипЗначения( симв8, НИЗКОУР.прочти8битПоАдресу( s + dx + 1 ) ) );
					НИЗКОУР.запиши8битПоАдресу( d + dx, temp DIV 2 )
				кц;
				s := s + stride;
				d := d + stride
			кц;
		кон CopyMBlockHorRound;

		проц CopyMBlockVerRound( src, dst: DT.PointerToArrayOfCHAR; sIndex, dIndex, stride: цел32 );
		перем
			dy, dx, d, s, temp: цел32;
		нач
			s := адресОт( src[sIndex] );
			d := адресОт( dst[dIndex] );

			нцДля dy := 0 до 15 делай
				нцДля dx := 0 до 15 делай
				(*	Dst[dx] = (Src[dx] + Src[dx+Stride]) >> 1; // ver interpolation with rounding *)
					temp := кодСимв8( НИЗКОУР.подмениТипЗначения( симв8, НИЗКОУР.прочти8битПоАдресу( s + dx ) ) );
					temp := temp + кодСимв8( НИЗКОУР.подмениТипЗначения( симв8, НИЗКОУР.прочти8битПоАдресу( s + dx + stride ) ) );
					НИЗКОУР.запиши8битПоАдресу( d+ dx, temp DIV 2 );
				кц;
				s := s + stride;
				d := d + stride
			кц;
		кон CopyMBlockVerRound;

		проц CopyMBlockHorVerRound( src, dst: DT.PointerToArrayOfCHAR; sIndex, dIndex, stride: цел32 );
		перем
			dy, dx, d, s, temp: цел32;
		нач
			s := адресОт( src[0] ) + sIndex;
			d := адресОт( dst[0] ) + dIndex;

			нцДля dy := 0 до 15 делай
				нцДля dx := 0 до 15 делай
				(* Dst[dx] = (Src[dx] + Src[dx+1] + Src[dx+Stride] + Src[dx+Stride+1] +1) >> 2; // horver interpolation with rounding *)
					temp := кодСимв8( НИЗКОУР.подмениТипЗначения( симв8, НИЗКОУР.прочти8битПоАдресу( s + dx ) ) ) +
						кодСимв8( НИЗКОУР.подмениТипЗначения( симв8, НИЗКОУР.прочти8битПоАдресу( s + dx + 1) ) );
					temp := temp + кодСимв8( НИЗКОУР.подмениТипЗначения( симв8, НИЗКОУР.прочти8битПоАдресу( s + dx + stride ) ) ) +
						кодСимв8( НИЗКОУР.подмениТипЗначения( симв8, НИЗКОУР.прочти8битПоАдресу( s + dx + stride + 1 ) ) );
					НИЗКОУР.запиши8битПоАдресу( d + dx, ( temp + 1 ) DIV 4 );
				кц;
				s := s + stride;
				d := d + stride
			кц;
		кон CopyMBlockHorVerRound;
	кон MotionCompensation;

	тип MMXConsts = укль на MMXConstsDesc;
	тип MMXConstsDesc = запись
		mmwMultY, mmwMultUG, mmwMultUB, mmwMultVR, mmwMultVG: цел64;

		(* various masks and other constants *)
		mmb10, mmw0080, mmw00ff, mmwCutRed, mmwCutGreen, mmwCutBlue: цел64;

		mask5, mask6, maskBlue: цел64;
	кон;

		(* Convert colorspace *)
тип ColorSpace = окласс
	перем
		mmxConsts: MMXConsts;

		(* initialize rgb lookup tables *)
		проц &Init*;
		нач
			нов( mmxConsts );
			mmxConsts.mmwMultY := 2568256825682568H;
			mmxConsts.mmwMultUG := 0F36EF36EF36EF36EH;
			mmxConsts.mmwMultUB := 40CF40CF40CF40CFH;
			mmxConsts.mmwMultVR := 3343334333433343H;
			mmxConsts.mmwMultVG := 0E5E2E5E2E5E2E5E2H;
			(* various masks and other constants *)
			mmxConsts.mmb10 := 1010101010101010H;
			mmxConsts.mmw0080 := 0080008000800080H;
			mmxConsts.mmw00ff := 00FF00FF00FF00FFH;
			mmxConsts.mmwCutRed := 7C007C007C007C00H;
			mmxConsts.mmwCutGreen := 03E003E003E003E0H;
			mmxConsts.mmwCutBlue := 001F001F001F001FH;

			mmxConsts.mask5 := 0F8F8F8F8F8F8F8F8H;
			mmxConsts.mask6 := 0FCFCFCFCFCFCFCFCH;
			mmxConsts.maskBlue :=  1F1F1F1F1F1F1F1FH;
		кон Init;

		(* Convert picture from one colorspace to an another *)
		проц Convert(src: DT.PointerToArrayOfCHAR; srcYBaseOffset: цел32; yStride: цел32;
					srcUBaseOffset, srcVBaseOffset,uvStride: цел32; img: Raster.Image; width, height, dstStride: цел32 );
		нач
			если img.fmt.code = Raster.BGR888.code то
				ConvertYUVToRGB888( src, srcYBaseOffset,  yStride, srcUBaseOffset, srcVBaseOffset, uvStride, img, width, height,
					dstStride );
			аесли img.fmt.code = Raster.BGR565.code то
				если DT.EnableMMX то
					ConvertYUVToRGB565MMX( src, srcYBaseOffset,  yStride, srcUBaseOffset, srcVBaseOffset, uvStride, img, width, height,
						dstStride );
				иначе
					ConvertYUVToRGB565( src, srcYBaseOffset,  yStride, srcUBaseOffset, srcVBaseOffset, uvStride, img, width, height,
						dstStride );
				всё;
			всё;
		кон Convert;

		(* Convert picture from YUV -> RGB 565, mmx version *)
		проц ConvertYUVToRGB565MMX(puc: DT.PointerToArrayOfCHAR; pucYBaseOffset: цел32; strideY: цел32;
			pucUBaseOffset, pucVBaseOffset, strideUV: цел32; pucOut: Raster.Image;
			widthY, heightY, strideOut: цел32 );
		перем
			y, horizCount: цел32;
			pusOut: цел32;
		нач
			 strideOut := widthY*2;

			 если heightY < 0 то
				(* we are flipping our output upside-down *)
				heightY  := -heightY;
				pucYBaseOffset := pucYBaseOffset + ( heightY - 1 ) * strideY ;
				pucUBaseOffset := pucUBaseOffset + ( heightY DIV 2 - 1 ) * strideUV;
				pucVBaseOffset := pucVBaseOffset + ( heightY DIV 2 - 1 ) * strideUV;
				strideY  := -strideY;
				strideUV := -strideUV;
			всё;

			pusOut := pucOut.adr;
			pucYBaseOffset := адресОт( puc[0] )+ pucYBaseOffset;
			pucUBaseOffset := адресОт ( puc[0] ) + pucUBaseOffset;
			pucVBaseOffset := адресОт( puc[0] ) + pucVBaseOffset;

			horizCount := -(widthY DIV 8);

			нцДля y := 0 до heightY-1 делай
				ScanLine565MMX(horizCount, pucVBaseOffset, pucUBaseOffset, pucYBaseOffset, pusOut,
					адресОт( mmxConsts.mmwMultY ) );

					pucYBaseOffset := pucYBaseOffset + strideY;
					если ( y остОтДеленияНа 2 ) > 0 то
						pucUBaseOffset := pucUBaseOffset + strideUV;
						pucVBaseOffset := pucVBaseOffset + strideUV
				всё;
					pusOut := pusOut + strideOut;
			кц;
		кон ConvertYUVToRGB565MMX;

		проц ScanLine565MMX( horizCount, pucV, pucU, pucY, pucOut: цел32; mmxConsts: цел32);
		машКод { SYSTEM.MMX, SYSTEM.PentiumPro }

			PUSH ECX
			MOV EAX, [EBP+pucOut]
			MOV EBX, [EBP+pucY]
			MOV ECX, [EBP+pucU]
			MOV EDX, [EBP+pucV]
			MOV EDI, [EBP+horizCount]
			MOV ESI, [EBP+mmxConsts]

			horizLoop:
				; load data
			MOVD MMX2, [ECX]						; mm2 = ________u3u2u1u0
			MOVD MMX3, [EDX]						; mm3 = ________v3v2v1v0
			MOVQ MMX0, [EBX]						; mm0 = y7y6y5y4y3y2y1y0

			PXOR MMX7, MMX7						; zero mm7

			; convert chroma part
			PUNPCKLBW MMX2, MMX7       				; MMX2 = __U3__U2__U1__U0
			PUNPCKLBW MMX3, MMX7       				; MMX3 = __V3__V2__V1__V0
;			PSUBW MMX2, mmw0080				; MMX2 -= 128
			PSUBW MMX2, [ESI+48]					; MMX2 -= 128
;			PSUBW MMX3, mmw0080				; MMX3 -= 128
			PSUBW MMX3, [ESI+48]					; MMX3 -= 128
			PSLLW MMX2, 3							; MMX2 *= 8
			PSLLW MMX3, 3							; MMX3 *= 8
			MOVQ MMX4, MMX2						; MMX4 = MMX2 = U
			MOVQ MMX5, MMX3						; MMX5 = MMX3 = V
;			PMULHW MMX2, mmwMultUG			; MMX2 *= U GREEN COEFF
;			PMULHW MMX3, mmwMultVG				; MMX3 *= V GREEN COEFF
;			PMULHW MMX4, mmwMultUB			; MMX4 = BLUE CHROMA
;			PMULHW MMX5, mmwMultVR				; MMX5 = RED CHROMA
			PMULHW MMX2, [ESI+8] 					; MMX2 *= U GREEN COEFF
			PMULHW MMX3, [ESI+32] 					; MMX3 *= V GREEN COEFF
			PMULHW MMX4, [ESI+16] 					; MMX4 = BLUE CHROMA
			PMULHW MMX5, [ESI+24]					; MMX5 = RED CHROMA

			PADDSW MMX2, MMX3					 ; MMX2 = GREEN CHROMA

			; convert luma part
;			PSUBUSB MMX0, mmb10					; MMX0 -= 16
;			MOVQ MMX1, mmw00ff
			PSUBUSB MMX0, [ESI+40]					; MMX0 -= 16
			MOVQ MMX6, [ESI+56]
			MOVQ MMX1, MMX0
			PSRLW MMX0, 8							; MMX0 = __Y7__Y5__Y3__Y1 LUMA ODD
			PAND MMX1, MMX6						; MMX1 = __Y6__Y4__Y2__Y0 LUMA EVEN
			PSLLW MMX0, 3							; MMX0 *= 8
			PSLLW MMX1, 3							; MMX1 *= 8
;			PMULHW MMX0, mmwMultY				; MMX0 LUMA ODD *= LUMA COEFF
;			PMULHW MMX1, mmwMultY				; MMX1 LUMA EVEN *= LUMA COEFF
			PMULHW MMX0, [ESI]					; MMX0 LUMA ODD *= LUMA COEFF
			PMULHW MMX1, [ESI]					; MMX1 LUMA EVEN *= LUMA COEFF
			; complete the matrix calc with the additions
			MOVQ MMX3, MMX4						 ; COPY BLUE CHROMA
			MOVQ MMX6, MMX5						 ; COPY RED CHROMA
			MOVQ MMX7, MMX2						 ; COPY GREEN CHROMA
			PADDSW MMX3, MMX0					 ; MMX3 = LUMA ODD + BLUE CHROMA
			PADDSW MMX4, MMX1					 ; MMX4 = LUMA EVEN + BLUE CHROMA
			PADDSW MMX6, MMX0					 ; MMX6 = LUMA ODD + RED CHROMA
			PADDSW MMX5, MMX1					 ; MMX5 = LUMA EVEN + RED CHROMA
			PADDSW MMX7, MMX0					 ; MMX7 = LUMA ODD + GREEN CHROMA
			PADDSW MMX2, MMX1					 ; MMX2 = LUMA EVEN + GREEN CHROMA
			; clipping
			PACKUSWB MMX3, MMX3
			PACKUSWB MMX4, MMX4
			PACKUSWB MMX6, MMX6
			PACKUSWB MMX5, MMX5
			PACKUSWB MMX7, MMX7
			PACKUSWB MMX2, MMX2
			; interleave odd and even parts
			PUNPCKLBW MMX4, MMX3					 ; MMX4 = B7B6B5B4B3B2B1B0 BLUE
			PUNPCKLBW MMX5, MMX6					 ; MMX5 = R7R6R5R4R3R2R1R0 RED
			PUNPCKLBW MMX2, MMX7					 ; MMX2 = G7G6G5G4G3G2G1G0 GREEN

			; mask not needed bits (using 555)
;			PAND MMX4, mask5
;			PAND MMX5, mask5
;			PAND MMX2, mask5
			PAND MMX4, [ESI+88]
			PAND MMX5, [ESI+88]
			PAND MMX2, [ESI+96]

			; mix colors and write

			PSRLW MMX4, 3						 	; MMX4 = RED SHIFTED
;			PAND MMX4, maskBlue			 		; MASK THE BLUE AGAIN
			PAND MMX4, [ESI+104]			 		; MASK THE BLUE AGAIN
			PXOR MMX7, MMX7						 ; ZERO MMX7
			MOVQ MMX1, MMX5						 ; MMX1 = COPY BLUE
			MOVQ MMX3, MMX4						 ; MMX3 = COPY RED
			MOVQ MMX6, MMX2						 ; MMX6 = COPY GREEN

			PUNPCKHBW MMX1, MMX7
			PUNPCKHBW MMX3, MMX7
			PUNPCKHBW MMX6, MMX7
			PSLLW MMX6, 3						 	; SHIFT GREEN
			PSLLW MMX1, 8						 	; SHIFT BLUE
			POR MMX6, MMX3
			POR MMX6, MMX1
			MOVQ [EAX+8], MMX6

			PUNPCKLBW MMX2, MMX7					 ; MMX2 = __G3__G2__G1__G0 ALREADY MASKED
			PUNPCKLBW MMX4, MMX7
			PUNPCKLBW MMX5, MMX7
			PSLLW MMX2, 3						 	; SHIFT GREEN
			PSLLW MMX5, 8						 	; SHIFT BLUE
			POR MMX2, MMX4
			POR MMX2, MMX5
			MOVQ [EAX], MMX2
			ADD EBX, 8               					; PUCY   += 8;
			ADD ECX, 4               					; PUCU   += 4;
			ADD EDX, 4               					; PUCV   += 4;
			ADD EAX, 16              					; PUCOUT += 16 // WROTE 16 BYTES

			INC EDI
			JNE horizLoop

			EMMS
			POP ECX
		кон ScanLine565MMX;

		(* Convert picture from YUV -> RGB 565 *)
		проц ConvertYUVToRGB565(puc: DT.PointerToArrayOfCHAR; pucYBaseOffset: цел32; strideY: цел32;
			pucUBaseOffset, pucVBaseOffset, strideUV: цел32; pucOut: Raster.Image;
			widthY, heightY, strideOut: цел32 );
		перем
			xCount, yCount, strideDiff: цел32;
			pusOut: цел32;
			r, g, b: цел32;
			y, u, v: цел32;
		нач
			strideDiff := (strideOut - widthY)*размер16_от(цел16); (* expressed in bytes *)

			если heightY < 0 то
				(* we are flipping our output upside-down *)
				heightY  := -heightY;
				pucYBaseOffset := pucYBaseOffset + ( heightY - 1 ) * strideY ;
				pucUBaseOffset := pucUBaseOffset + ( heightY DIV 2 - 1 ) * strideUV;
				pucVBaseOffset := pucVBaseOffset + ( heightY DIV 2 - 1 ) * strideUV;
				strideY  := -strideY;
				strideUV := -strideUV;
			всё;

			pusOut := pucOut.adr;
			pucYBaseOffset := адресОт( puc[0] )+ pucYBaseOffset;
			pucUBaseOffset := адресОт ( puc[0] ) + pucUBaseOffset;
			pucVBaseOffset := адресОт( puc[0] ) + pucVBaseOffset;


			нцДля yCount := 0 до heightY - 1 делай
				нцДля xCount := 0 до  widthY - 1 делай

					y := кодСимв8( НИЗКОУР.подмениТипЗначения( симв8, НИЗКОУР.прочти8битПоАдресу( pucYBaseOffset + xCount ) ) ) - 16;
					u := кодСимв8( НИЗКОУР.подмениТипЗначения( симв8, НИЗКОУР.прочти8битПоАдресу( pucUBaseOffset + ( xCount DIV 2 ) ) ) ) - 128;
					v := кодСимв8( НИЗКОУР.подмениТипЗначения( симв8, НИЗКОУР.прочти8битПоАдресу( pucVBaseOffset + ( xCount DIV 2 ) ) ) ) - 128;

					r := ( 2568H*y + 3343H*u ) DIV 2000H;
					g := ( 2568H*y - 0C92H*v - 1A1EH*u ) DIV 2000H;
					b := ( 2568H*y + 40CFH*v ) DIV 2000H;

					если r > 255 то r := 255; аесли r < 0 то r := 0 всё;
					если g > 255 то g := 255; аесли g < 0 то g := 0 всё;
					если b > 255 то b := 255; аесли b < 0 то b := 0 всё;

(*					SYSTEM.PUT16( pusOut, SYSTEM.VAL( SIGNED16,
						( SYSTEM.VAL( SET, LSH( b, 8 ) ) * SYSTEM.VAL( SET, 0F800H ) ) +
						( SYSTEM.VAL( SET, LSH( g, 3 ) ) * SYSTEM.VAL( SET, 07E0H ) ) +
						( SYSTEM.VAL( SET, LSH( r, -3 ) ) * SYSTEM.VAL( SET, 001FH ) ) ) );
*)

					НИЗКОУР.запиши16битПоАдресу( pusOut,  цел16(мнвоНаБитахМЗ(r DIV 8 ) + мнвоНаБитахМЗ( ( g DIV 4 ) * 32 ) +
																мнвоНаБитахМЗ( (b DIV 8 ) * 2048 ) ));

					pusOut := pusOut + размер16_от( цел16 );
				кц;

				pucYBaseOffset := pucYBaseOffset + strideY;
				если yCount остОтДеленияНа 2 > 0 то
					pucUBaseOffset := pucUBaseOffset + strideUV;
					pucVBaseOffset := pucVBaseOffset + strideUV
				всё;
				pusOut := pusOut + strideDiff;
			кц;
	кон ConvertYUVToRGB565;

	(* Convert YUV -> RGB 888 *)
		проц ConvertYUVToRGB888(puc: DT.PointerToArrayOfCHAR; pucYBaseOffset: цел32; strideY: цел32;
			pucUBaseOffset, pucVBaseOffset, strideUV: цел32; pucOut: Raster.Image;
			widthY, heightY, strideOut: цел32 );
		перем
			xCount, yCount, strideDiff: цел32;
			pusOut: цел32;
			r, g, b: цел32;
			y, u, v: цел32;
		нач
			strideDiff := (strideOut - widthY)*3; (* expressed in bytes *)

			если heightY < 0 то
				(* we are flipping our output upside-down *)
				heightY  := -heightY;
				pucYBaseOffset := pucYBaseOffset + ( heightY - 1 ) * strideY ;
				pucUBaseOffset := pucUBaseOffset + ( heightY DIV 2 - 1 ) * strideUV;
				pucVBaseOffset := pucVBaseOffset + ( heightY DIV 2 - 1 ) * strideUV;
				strideY  := -strideY;
				strideUV := -strideUV;
			всё;

			pusOut := pucOut.adr;
			pucYBaseOffset := адресОт( puc[0] )+ pucYBaseOffset;
			pucUBaseOffset := адресОт ( puc[0] ) + pucUBaseOffset;
			pucVBaseOffset := адресОт( puc[0] ) + pucVBaseOffset;

			нцДля yCount := 0 до heightY - 1 делай
				нцДля xCount := 0 до  widthY - 1 делай

					y := кодСимв8( НИЗКОУР.подмениТипЗначения( симв8, НИЗКОУР.прочти8битПоАдресу( pucYBaseOffset + xCount ) ) ) - 16;
					u := кодСимв8( НИЗКОУР.подмениТипЗначения( симв8, НИЗКОУР.прочти8битПоАдресу( pucUBaseOffset + ( xCount DIV 2 ) ) ) ) - 128;
					v := кодСимв8( НИЗКОУР.подмениТипЗначения( симв8, НИЗКОУР.прочти8битПоАдресу( pucVBaseOffset + ( xCount DIV 2 ) ) ) ) - 128;

					r := ( 2568H*y + 3343H*u ) DIV 2000H;
					g := ( 2568H*y - 0C92H*v - 1A1EH*u ) DIV 2000H;
					b := ( 2568H*y + 40CFH*v ) DIV 2000H;

					если r > 255 то r := 255; аесли r < 0 то r := 0 всё;
					если g > 255 то g := 255; аесли g < 0 то g := 0 всё;
					если b > 255 то b := 255; аесли b < 0 то b := 0 всё;

					НИЗКОУР.запиши8битПоАдресу( pusOut, r );
					увел( pusOut );
					НИЗКОУР.запиши8битПоАдресу( pusOut, g );
					увел( pusOut );
					НИЗКОУР.запиши8битПоАдресу( pusOut, b );
					увел( pusOut );
				кц;

				pucYBaseOffset := pucYBaseOffset + strideY;
				если yCount остОтДеленияНа 2 > 0 то
					pucUBaseOffset := pucUBaseOffset + strideUV;
					pucVBaseOffset := pucVBaseOffset + strideUV;
				всё;
				pusOut := pusOut + strideDiff;
			кц;
		кон ConvertYUVToRGB888;
	кон ColorSpace;


	(* The OpenDivXDecoder *)
тип DivXDecoder* = окласс(Codecs.VideoDecoder)
	перем
		s: Потоки.Чтец;
		mp4State: DT.MP4State;
		mp4StateBefore: DT.MP4State;
		mp4Buffers: DT.MP4Buffers;
		macroBlock: MacroBlock;
		col: ColorSpace;
		opt: DT.DecoderOptions;	(* Between 0 and 10 *)
		stride: цел32;
		util: DT.MyUtils;
		log: Files.Writer;
		debugFile: Files.File;
		img: Raster.Image;
		frameCounter: цел32;	(* The absolut position in the file *)
		buffer: DT.VideoBuffer;

		videoWidth: цел32;
		videoHeight: цел32;
		frameRate* : цел32;

		init: булево;
		firstFrame: булево;
		hasMoreBytes : булево;

		(* Read Headers of the next frame and decode it *)
		проц {перекрыта}Next*;
		перем
			ret: булево;
			done: булево;
			temp: цел32;
			ofs, size: цел32;
			len: размерМЗ;
			i: цел32;
			tmp: цел32;
			tmpPtr: DT.PointerToArrayOfCHAR;

		нач
			если firstFrame = ложь то
			если DT.Debug то
				log.пСтроку8( "Decoding picture number: "); log.пЦел64( mp4State.hdr.picNum, 0 ); log.пВК_ПС()
			всё;

			если buffer.data = НУЛЬ то
				нов(buffer.data, 10240);
				buffer.size := 10240;
			всё;
			buffer.index := 0;
			s.чБайты(buffer.data^, ofs, buffer.size, len);
			если len > buffer.size то
				buffer.size := len;
				нов(buffer.data, buffer.size);
				s.чБайты(buffer.data^, ofs, buffer.size, len);
			иначе
				buffer.size := len;
			всё;

			если s.кодВозвратаПоследнейОперации = Потоки.КонецФайла то
				hasMoreBytes := ложь;
				возврат;
			всё;

			нцДо
				NextStartCode();
				если AVI.ShowBitsSlow(27, buffer.data^, buffer.index) = DT.VideoObjectStartCode то
					ret := GetVisualObjectHeader();
				аесли AVI.ShowBitsSlow(32, buffer.data^, buffer.index) = DT.GroupOfVopStartCode то
					ret := GetGOPHeader();
				аесли AVI.ShowBitsSlow(32, buffer.data^, buffer.index) = DT.VideoObjectPlaneStartCode то
					если GetVideoObjectPlaneHeader() = ложь то
						ЛогЯдра.пСтроку8( "DivXPlayer: Reading VideoObjectPlane Header failed, Pos in Stream: ");
						ЛогЯдра.пЦел64( s.МестоВПотоке(), 0 ); ЛогЯдра.пСтроку8(" Next 32 Bits: "); (* KernelLog.Hex( s.ShowBits(32), 0 ); *) ЛогЯдра.пВК_ПС();
					всё;

					DecodeVOP();
					done := истина;
				аесли AVI.ShowBits(32, buffer.data^, buffer.index ) = DT.UserDataStartCode то
					temp := AVI.GetBits(32, buffer.data^, buffer.index);
					нцПока AVI.ShowBits(24, buffer.data^, buffer.index) # 1 делай
						AVI.SkipBits(8, buffer.index);
					кц;
				иначе
					AVI.SkipBits(8, buffer.index);
				всё;

			кцПри ( done или ( ( buffer.index DIV 32 ) >= buffer.size - 4 ) или (s.кодВозвратаПоследнейОперации = Потоки.КонецФайла) );

			увел(frameCounter);

			если ~done то
				всё;

				увел( mp4State.hdr.picNum );

				если DT.Debug то
					debugFile.Update()
				всё;
			всё;

			mp4StateBefore := mp4State;

			(* Adjust mp4 state *)
			нцДля i := 0 до 2 делай
				tmp := mp4State.frameRefBaseOffset[i];
				mp4State.frameRefBaseOffset[i] := mp4State.frameForBaseOffset[i];
				mp4State.frameForBaseOffset[i] := tmp
			кц;

			tmpPtr := mp4State.frameRef;
			mp4State.frameRef := mp4State.frameFor;
			mp4State.frameFor := tmpPtr;

			если firstFrame то
				mp4StateBefore := mp4State;
				firstFrame := ложь;
			всё;
		кон Next;

		проц {перекрыта}Render*(img : Raster.Image);
		нач
			сам.img := img;

			если ( img # НУЛЬ ) то
				(* Postprocessing could be added here *)
				col.Convert( mp4StateBefore.frameRef, mp4StateBefore.frameRefBaseOffset[0], mp4StateBefore.codedPictureWidth,
					mp4StateBefore.frameRefBaseOffset[1], mp4StateBefore.frameRefBaseOffset[2], ( mp4StateBefore.codedPictureWidth DIV 2 ),
					img, mp4StateBefore.hdr.width, mp4StateBefore.hdr.height, stride );
			всё;
		кон Render;

		(* returns false if the stream has ended *)
		проц {перекрыта}HasMoreData*(): булево;
		нач
			возврат hasMoreBytes
		кон HasMoreData;

		(* Decodes a Frame *)
		проц DecodeVOP;
		перем
			res: булево;
		нач
			mp4State.hdr.mba := 0;
			mp4State.hdr.mbXPos := 0;
			mp4State.hdr.mbYPos := 0;

			нцДо
				res := macroBlock.Decode(buffer);
				увел( mp4State.hdr.mba  )
			кцПри ( mp4State.hdr.mba >= mp4State.hdr.mbASize ) или ( AVI.ShowBitsByteAligned(23, buffer.data^, buffer.index ) =  0 );

			(* add edge to decoded frame *)
			MakeEdge( mp4State.frameRef, mp4State.frameRefBaseOffset[0],
				mp4State.codedPictureWidth, mp4State.codedPictureHeight, 32 );
			MakeEdge( mp4State.frameRef, mp4State.frameRefBaseOffset[1], mp4State.chromWidth, mp4State.chromHeight, 16 );
			MakeEdge( mp4State.frameRef, mp4State.frameRefBaseOffset[2], mp4State.chromWidth, mp4State.chromHeight, 16 );
		кон DecodeVOP;


		(* Sets the the stream on which to read *)
		проц {перекрыта}Open*(in: Потоки.Чтец; перем res: целМЗ );
		нач
			сам.s := in;
			нов( mp4State);
			нов( mp4StateBefore );
			frameCounter := 0;
			нов( util );
			нов( col );

			firstFrame := ложь;
			frameRate := -1;
			init := истина;
			hasMoreBytes := истина;
			Next();
		кон Open;

		(* Sets the necessary videoInfo, which is needed to decode frames *)
		проц  {перекрыта}GetVideoInfo*(перем width, height, milliSecondsPerFrame: цел32);
		перем si : Codecs.AVStreamInfo;
		нач
			height := сам.videoHeight;
			width := сам.videoWidth;
			если (frameRate = -1) то
				si := s(Codecs.DemuxStream).streamInfo;
				если si.rate # 0 то milliSecondsPerFrame := 1000 DIV si.rate
				иначе milliSecondsPerFrame := 40 всё
			иначе
				milliSecondsPerFrame := 1000 DIV frameRate
			всё
		кон GetVideoInfo;

		проц {перекрыта}CanSeek*(): булево;
		нач
			возврат истина;
		кон CanSeek;

		проц {перекрыта}GetCurrentFrame*() : цел32;
		нач
			возврат frameCounter;
		кон GetCurrentFrame;

		проц {перекрыта}SeekFrame*(frame : цел32; goKeyFrame : булево; перем res : целМЗ);
		перем
			seekType: цел32;
			dummy: целМЗ;
		нач
			если goKeyFrame то
				seekType := Codecs.SeekKeyFrame;
			иначе
				seekType := Codecs.SeekFrame;
			всё;
			frameCounter := res;
			(* is it always a demuxStream?? *)
			s(Codecs.DemuxStream).SetPosX(seekType, frame, frameCounter, dummy);
			res := frameCounter;
			если (s # НУЛЬ) и (s.ЗапасиБайтыИзПотокаВБуфереИДайИхКоличество() > 0) то hasMoreBytes := истина; иначе hasMoreBytes := ложь; всё;
		кон SeekFrame;

		(* Seeks a position based on timevalue. If gokeyframe is set, the next following keyframe is searched *)
		проц {перекрыта}SeekMillisecond*(millisecond: цел32; goKeyFrame : булево; перем res : целМЗ);
		перем
			frame: цел32;
			dummy: целМЗ;
			seekType: цел32;
		нач
			(* Now, this is wrong: we cannot assume, that microsecsperframe is always 40000 *)
			frame := millisecond DIV 40;
			если goKeyFrame то
				seekType := Codecs.SeekKeyFrame;
			иначе
				seekType := Codecs.SeekFrame;
			всё;
			s(Codecs.DemuxStream).SetPosX(seekType, frame, frameCounter, dummy);
			res := frameCounter;
			если (s # НУЛЬ) и (s.ЗапасиБайтыИзПотокаВБуфереИДайИхКоличество() > 0) то hasMoreBytes := истина; иначе hasMoreBytes := ложь; всё;
		кон SeekMillisecond;


		(* Add edges to the picture *)
		проц MakeEdge( framePic: DT.PointerToArrayOfCHAR; framePicBaseOffset, edgedWidth, edgedHeight, edge: цел32 );
		перем
			j, width, height: цел32;
			pBorder, pBorderTop, pBorderBottom, pBorderTopRef, pBorderBottomRef: цел32;
			borderLeft, borderRight: симв8;
			pLeftCornerTop, pRightCornerTop, pLeftCornerBottom, pRightCornerBottom: цел32;
			leftCornerTop, rightCornerTop, leftCornerBottom, rightCornerBottom: симв8;
		нач
			width := edgedWidth - ( 2*edge );
			height := edgedHeight - ( 2*edge );

			(* left and right edges *)
			pBorder := framePicBaseOffset;

			нцДля j := 1 до height делай
				borderLeft := framePic[pBorder];
				borderRight := framePic[pBorder + (width-1)];

				util.MemSet( framePic, pBorder - edge, borderLeft, edge );
				util.MemSet( framePic, pBorder + width, borderRight, edge );

				pBorder := pBorder + edgedWidth
			кц;

			(* top and bottom edges *)
			pBorderTopRef := framePicBaseOffset;
			pBorderBottomRef := framePicBaseOffset + ( edgedWidth*( height -1 ) );
			pBorderTop := pBorderTopRef - ( edge*edgedWidth );
			pBorderBottom := pBorderBottomRef + edgedWidth;

			нцДля j := 1 до edge делай
				НИЗКОУР.копируйПамять( адресОт( framePic[pBorderTopRef] ), адресОт( framePic[pBorderTop] ), width );
				НИЗКОУР.копируйПамять( адресОт( framePic[pBorderBottomRef] ), адресОт( framePic[pBorderBottom] ), width );

				pBorderTop := pBorderTop + edgedWidth;
				pBorderBottom := pBorderBottom + edgedWidth
			кц;

			(* corners *)
			pLeftCornerTop := framePicBaseOffset - edge - ( edge * edgedWidth );
			pRightCornerTop := pLeftCornerTop + edge + width;
			pLeftCornerBottom := framePicBaseOffset + (edgedWidth * height) - edge;
			pRightCornerBottom := pLeftCornerBottom + edge + width;

			leftCornerTop := framePic[framePicBaseOffset];
			rightCornerTop := framePic[ framePicBaseOffset + width - 1];
			leftCornerBottom := framePic[framePicBaseOffset + ( edgedWidth * ( height - 1 ) )];
			rightCornerBottom := framePic[ framePicBaseOffset + (edgedWidth * ( height - 1 ) ) + ( width - 1 )];

			нцДля j := 1 до edge делай
				util.MemSet( framePic, pLeftCornerTop, leftCornerTop, edge );
				util.MemSet( framePic, pRightCornerTop, rightCornerTop, edge );
				util.MemSet( framePic, pLeftCornerBottom, leftCornerBottom, edge );
				util.MemSet( framePic, pRightCornerBottom, rightCornerBottom, edge );

				pLeftCornerTop := pLeftCornerTop + edgedWidth;
				pRightCornerTop := pRightCornerTop + edgedWidth;
				pLeftCornerBottom := pLeftCornerBottom + edgedWidth;
				pRightCornerBottom := pRightCornerBottom + edgedWidth
			кц;
		кон MakeEdge;

		(* Read Headers *)
		проц GetVisualObjectHeader(): булево;
		перем
				temp, i, k: цел32;
				tempReal: вещ32;
		нач

			если AVI.ShowBits(27, buffer.data^, buffer.index ) = DT.VideoObjectStartCode то
				temp := AVI.GetBits(27, buffer.data^, buffer.index);
				temp := AVI.GetBits(5, buffer.data^, buffer.index);	(* VideoObject ID *)

				temp := AVI.GetBits(28, buffer.data^, buffer.index);
				если temp # DT.VisualObjectLayerStartCode то
					если DT.Debug то
						log.пСтроку8( "VideoObjectLayerStartCode expected but found: " ); log.пЦел64( temp, 0 ); log.пВК_ПС()
					всё;
					возврат ложь
				всё;

				mp4State.hdr.ident := AVI.GetBits(4, buffer.data^, buffer.index); (* vol_id *)
				mp4State.hdr.randomAccessibleVol := AVI.GetBits(1, buffer.data^, buffer.index);
				mp4State.hdr.typeIndication := AVI.GetBits(8, buffer.data^, buffer.index);
				mp4State.hdr.isObjectLayerIdentifier := AVI.GetBits(1, buffer.data^, buffer.index);

				если mp4State.hdr.isObjectLayerIdentifier > 0 то
					mp4State.hdr.visualObjectLayerVerId := AVI.GetBits(4, buffer.data^, buffer.index);
					mp4State.hdr.visualObjectLayerPriority := AVI.GetBits(3, buffer.data^, buffer.index)
				иначе
					mp4State.hdr.visualObjectLayerVerId := 1;
					mp4State.hdr.visualObjectLayerPriority := 1
				всё;

				mp4State.hdr.aspectRatioInfo := AVI.GetBits(4, buffer.data^, buffer.index);
					утв( mp4State.hdr.aspectRatioInfo # 0FH );
			(*	IF mp4State.hdr.aspectRatioInfo = 0FH THEN
					mp4State.hdr.parWidth := AVI.GetBits(8, buffer.data^, buffer.index);
					mp4State.hdr.parHeight := AVI.GetBits(8, buffer.data^, buffer.index)
				END; *)

				mp4State.hdr.volControlParameters := AVI.GetBits(1, buffer.data^, buffer.index);
				если mp4State.hdr.volControlParameters > 0 то
					mp4State.hdr.chromaFormat := AVI.GetBits(2, buffer.data^, buffer.index);
					mp4State.hdr.lowDelay := AVI.GetBits(1, buffer.data^, buffer.index);

					mp4State.hdr.vbvParameters := AVI.GetBits(1, buffer.data^, buffer.index);
					если mp4State.hdr.vbvParameters > 0 то
						mp4State.hdr.firstHalfBitRate := AVI.GetBits(15, buffer.data^, buffer.index);
						temp := AVI.GetBits(1, buffer.data^, buffer.index); 	(* marker *)
						mp4State.hdr.latterHalfBitRate := AVI.GetBits(15, buffer.data^, buffer.index);
						temp :=AVI.GetBits(1, buffer.data^, buffer.index); 	(* marker *)
						mp4State.hdr.firstHalfvbvBufferSize := AVI.GetBits(15, buffer.data^, buffer.index);
						temp :=AVI.GetBits(1, buffer.data^, buffer.index); 	(* marker *)
						mp4State.hdr.latterHalfvbvBufferSize := AVI.GetBits(3, buffer.data^, buffer.index);
						mp4State.hdr.firstHalfvbvOccupancy := AVI.GetBits(11, buffer.data^, buffer.index);
						temp := AVI.GetBits(1, buffer.data^, buffer.index); 	(* marker *)
						mp4State.hdr.latterHalfvbvOccupancy := AVI.GetBits(15, buffer.data^, buffer.index);
						temp := AVI.GetBits(1, buffer.data^, buffer.index) 	(* marker *)
					всё;
				всё;

				mp4State.hdr.shape := AVI.GetBits(2, buffer.data^, buffer.index);
				temp := AVI.GetBits(1, buffer.data^, buffer.index); (* Marker *)
				mp4State.hdr.timeIncrementResolution := AVI.GetBits(16, buffer.data^, buffer.index);
				temp := AVI.GetBits(1, buffer.data^, buffer.index); (* Marker *)
				mp4State.hdr.fixedVopRate := AVI.GetBits(1, buffer.data^, buffer.index);

				если mp4State.hdr.fixedVopRate > 0 то
					tempReal := Math.ln( mp4State.hdr.timeIncrementResolution) / Math.ln( 2.0 );
					temp :=  округлиВниз( tempReal );
					если  tempReal / Reals.Real( temp ) > 1.0 то
						увел( temp )
					всё;
					если temp < 1 то
						temp := 1
					всё;
					mp4State.hdr.fixedVopTimeIncrement := AVI.GetBits(temp, buffer.data^, buffer.index)
				всё;

				если mp4State.hdr.shape # DT.BinaryShapeOnly то
					если mp4State.hdr.shape = 0 то
						temp := AVI.GetBits(1, buffer.data^, buffer.index);	(* Marker *)
						mp4State.hdr.width := AVI.GetBits(13, buffer.data^, buffer.index);
						temp := AVI.GetBits(1, buffer.data^, buffer.index);	(* Marker *)
						mp4State.hdr.height := AVI.GetBits(13, buffer.data^, buffer.index);
						temp := AVI.GetBits(1, buffer.data^, buffer.index)	(* Marker *)
					всё;

					если init то
						videoWidth := mp4State.hdr.width;
						videoHeight := mp4State.hdr.height;
					всё;

					mp4State.hdr.interlaced := AVI.GetBits(1, buffer.data^, buffer.index);
					mp4State.hdr.obmcDisable := AVI.GetBits(1, buffer.data^, buffer.index);

					если mp4State.hdr.visualObjectLayerVerId = 1 то
						mp4State.hdr.spriteUsage := AVI.GetBits(1, buffer.data^, buffer.index)
					иначе
						mp4State.hdr.spriteUsage := AVI.GetBits(2, buffer.data^, buffer.index)
					всё;

					mp4State.hdr.not8Bit := AVI.GetBits(1, buffer.data^, buffer.index);
					если mp4State.hdr.not8Bit > 0то
						mp4State.hdr.quantPrecision := AVI.GetBits(4, buffer.data^, buffer.index);
						mp4State.hdr.bitsPerPixel := AVI.GetBits(4, buffer.data^, buffer.index)
					иначе
						mp4State.hdr.quantPrecision := 5;
						mp4State.hdr.bitsPerPixel := 8
					всё;

					если mp4State.hdr.shape = DT.GrayScaleOnly то
						ЛогЯдра.пСтроку8("GreyScale not supported"); log.пВК_ПС();
						возврат ложь
					всё;

					mp4State.hdr.quantType := AVI.GetBits(1, buffer.data^, buffer.index);
					если mp4State.hdr.quantType > 0 то

						mp4State.hdr.loadIntraQuantMatrix := AVI.GetBits(1, buffer.data^, buffer.index);
						если mp4State.hdr.loadIntraQuantMatrix > 0 то
							(* load intra quant matrix *)
							k := 0;
							нцДо
								увел( k );
								temp := AVI.GetBits(8, buffer.data^, buffer.index);
								mp4State.mp4Tables.intraQuantMatrix[mp4State.mp4Tables.zigZagScan[k]] := temp
							кцПри ( ( k >=  64 ) или ( temp = 0 ) );

							нцДля i := k до 63 делай
								mp4State.mp4Tables.intraQuantMatrix[mp4State.mp4Tables.zigZagScan[i]] :=
									mp4State.mp4Tables.intraQuantMatrix[mp4State.mp4Tables.zigZagScan[k-1]]
							кц;
						всё;

						mp4State.hdr.loadNonIntraQuantMatrix := AVI.GetBits(1, buffer.data^, buffer.index);
						если mp4State.hdr.loadNonIntraQuantMatrix > 0 то
							(* load nonintra quant matrix *)
							k := 0;
							нцДо
								увел(k);
								temp := AVI.GetBits(8, buffer.data^, buffer.index);
								mp4State.mp4Tables.nonIntraQuantMatrix[mp4State.mp4Tables.zigZagScan[k]] := temp
							кцПри ( ( k >= 64 ) или ( temp = 0 ) );

							нцДля i := k до 63 делай
								mp4State.mp4Tables.nonIntraQuantMatrix[mp4State.mp4Tables.zigZagScan[i]] :=
									mp4State.mp4Tables.nonIntraQuantMatrix[mp4State.mp4Tables.zigZagScan[k-1]]
							кц;
						всё;
					всё;

					если mp4State.hdr.visualObjectLayerVerId # 1 то (* ident *)
						mp4State.hdr.quarterPixel := AVI.GetBits(1, buffer.data^, buffer.index)
					иначе
						mp4State.hdr.quarterPixel := 0
					всё;

					mp4State.hdr.complexityEstimationDisable := AVI.GetBits(1, buffer.data^, buffer.index);
					mp4State.hdr.errorResDisable := AVI.GetBits(1, buffer.data^, buffer.index);
					mp4State.hdr.dataPartitioning := AVI.GetBits(1, buffer.data^, buffer.index);
					если mp4State.hdr.dataPartitioning > 0 то
						ЛогЯдра.пСтроку8( "Data partitioning not supported" ); ЛогЯдра.пВК_ПС();
						возврат ложь
					иначе
						mp4State.hdr.errorResDisable := 1
					всё;

					mp4State.hdr.intraacdcPredDisable := 0;
					mp4State.hdr.scalability := AVI.GetBits(1, buffer.data^, buffer.index);

					если mp4State.hdr.scalability > 0 то
						ЛогЯдра.пСтроку8( "Scalability not supported" ); ЛогЯдра.пВК_ПС();
						возврат ложь
					всё;

					если  AVI.ShowBits( 32, buffer.data^, buffer.index ) = DT.UserDataStartCode то
						ЛогЯдра.пСтроку8("No user data in video object Layer supported")
					всё;
    			всё;
				если init то
					mp4State.hdr.FinishHeader();
					нов( opt, mp4State.hdr.width, mp4State.hdr.height);
					нов( mp4Buffers, opt );
					mp4State.SetUpState(mp4Buffers);
					нов( macroBlock, mp4State, buffer, log);

					firstFrame := истина;

					(* Perhaps someone finds out the correct way with mpeg4, so assume 40 *)
					stride := opt.xDim;
					init := ложь;
				всё;
				возврат истина
			иначе
			всё;
			возврат ложь
		кон GetVisualObjectHeader;

		проц GetGOPHeader(): булево;
		перем
			temp: цел32;
		нач
			если AVI.ShowBits(32, buffer.data^, buffer.index) = DT.GroupOfVopStartCode то
				temp := AVI.GetBits(32, buffer.data^, buffer.index);

				mp4State.hdr.timeCode := AVI.GetBits(18, buffer.data^, buffer.index);
				mp4State.hdr.closedGov := AVI.GetBits(1, buffer.data^, buffer.index);
				mp4State.hdr.brokenLink := AVI.GetBits(1, buffer.data^, buffer.index);
			иначе
			всё;
			возврат истина
		кон GetGOPHeader;

		проц NextStartCode;
		перем
			temp: цел32;
		нач
			если AVI.IsAligned(buffer.index) = ложь то
				temp := AVI.GetBits( 1, buffer.data^, buffer.index );
				нцПока AVI.IsAligned(buffer.index) = ложь делай
					AVI.SkipBits(1, buffer.index);
				кц;
			всё;
		кон NextStartCode;

		проц GetVideoObjectPlaneHeader(): булево;
		перем
			temp: цел32;
			tempReal: вещ32;
		нач

			если AVI.GetBits(32, buffer.data^, buffer.index) # DT.VideoObjectPlaneStartCode то
				возврат ложь
			всё;

			mp4State.hdr.predictionType := AVI.GetBits(2, buffer.data^, buffer.index);

			mp4State.hdr.timeBase := 0;
			нцПока AVI.GetBits(1, buffer.data^, buffer.index) # 0 делай (* temporal time base *)
				увел( mp4State.hdr.timeBase )
			кц;

			temp := AVI.GetBits(1, buffer.data^, buffer.index);	(* marker bit *)

			tempReal := Math.ln( mp4State.hdr.timeIncrementResolution )/Math.ln( 2.0 );
			temp := округлиВниз( tempReal );
			если ( tempReal / Reals.Real( temp ) ) > 1.0 то
				увел( temp )
			всё;
			если temp < 1 то
				temp := 1
			всё;
			mp4State.hdr.timeInc := AVI.GetBits(temp, buffer.data^, buffer.index);  (* vop_time_increment (1-16 bits) *)
			temp := AVI.GetBits(1, buffer.data^, buffer.index);	(* marker bit *)
			mp4State.hdr.vopCoded := AVI.GetBits(1, buffer.data^, buffer.index);
			если mp4State.hdr.vopCoded = 0 то
				NextStartCode();
				возврат истина
			всё;

			если ( mp4State.hdr.shape # DT.BinaryShapeOnly ) и ( mp4State.hdr.predictionType = DT.PVOP ) то
				mp4State.hdr.roundingType := AVI.GetBits(1, buffer.data^, buffer.index)
			иначе
				mp4State.hdr.roundingType := 0
			всё;

			если mp4State.hdr.shape # DT.Rectangular то
				если ~( (mp4State.hdr.spriteUsage = DT.StaticSprite) и (mp4State.hdr.predictionType = DT.IVOP) ) то
					mp4State.hdr.width := AVI.GetBits(13, buffer.data^, buffer.index);
					temp := AVI.GetBits(1, buffer.data^, buffer.index); (* Marker *)
					mp4State.hdr.height := AVI.GetBits(13, buffer.data^, buffer.index);
					temp := AVI.GetBits(1, buffer.data^, buffer.index); (* Marker *)
					mp4State.hdr.horSpatRef := AVI.GetBits(13, buffer.data^, buffer.index);
					temp := AVI.GetBits(1, buffer.data^, buffer.index); (* Marker *)
					mp4State.hdr.verSpatRef := AVI.GetBits(13, buffer.data^, buffer.index);
					temp := AVI.GetBits(1, buffer.data^, buffer.index) (* Marker *)
				всё;

				mp4State.hdr.changeCRDisable := AVI.GetBits(1, buffer.data^, buffer.index);
				mp4State.hdr.constantAlpha := AVI.GetBits(1, buffer.data^, buffer.index);
				если mp4State.hdr.constantAlpha > 0то
					mp4State.hdr.constantAlphaValue := AVI.GetBits(8, buffer.data^, buffer.index)
				всё;
			всё;

			если  mp4State.hdr.complexityEstimationDisable = 0 то
				ЛогЯдра.пСтроку8("ComplexityEstimationDisable must be enabled"); ЛогЯдра.пВК_ПС();
				возврат ложь
			всё;

			если mp4State.hdr.shape # DT.BinaryShapeOnly то
				mp4State.hdr.intradcvlcthr := AVI.GetBits(3, buffer.data^, buffer.index );
				если mp4State.hdr.interlaced > 0 то
					ЛогЯдра.пСтроку8("Interlaced movies not supported"); ЛогЯдра.пВК_ПС();
					возврат ложь
				всё;
			всё;

			если mp4State.hdr.shape # DT.BinaryShapeOnly то
				mp4State.hdr.quantizer := AVI.GetBits( mp4State.hdr.quantPrecision, buffer.data^, buffer.index );
				если mp4State.hdr.predictionType # DT.IVOP то
					mp4State.hdr.fCodeFor := AVI.GetBits(3, buffer.data^, buffer.index)
				всё;

				если mp4State.hdr.scalability = 0 то
					если ( mp4State.hdr.shape > 0 ) и ( mp4State.hdr.predictionType # DT.IVOP ) то
						mp4State.hdr.shapeCodingType := AVI.GetBits(1, buffer.data^, buffer.index)
					всё;
				всё;
			всё;

			возврат истина
		кон GetVideoObjectPlaneHeader;

	кон DivXDecoder;

проц Factory*() : Codecs.VideoDecoder;
перем p: DivXDecoder;
нач
	нов(p);
	возврат p
кон Factory;

кон DivXDecoder.

System.Free DivXDecoder ~
