(** AUTHOR "Michael Szediwy";
	PURPOSE "Inverse Discrete CosineTransformation for Aos based on
		- Intel's AP-945: Using Streaming SMID Extensions 2(SSE2) to Implement an Inverse Discrete Cosine Transform";
*)
модуль IDCT;

использует
	НИЗКОУР, Commands, Machine, ЛогЯдра;

конст
	NrBlocks=4;
	BITSINVACC = 4;
	SHIFTINVROW = 16 - BITSINVACC;
	SHIFTINVCOL = 1 + BITSINVACC;

	(* Const for idct *)
	W1 = 2841;                (* 2048*sqrt(2)*cos(1*pi/16) *)
	W2 = 2676;                (* 2048*sqrt(2)*cos(2*pi/16) *)
	W3 = 2408;                 (* 2048*sqrt(2)*cos(3*pi/16) *)
	W5 = 1609;                 (* 2048*sqrt(2)*cos(5*pi/16) *)
	W6 = 1108;                 (* 2048*sqrt(2)*cos(6*pi/16) *)
	W7 = 565;                  (* 2048*sqrt(2)*cos(7*pi/16) *)

	INT* = 0;
	SSE* = 1;
	SSE2* = 2;

перем
	RNDINVROW, RNDINVCOL, RNDINVCORR: цел16;
	M128onecorr, M128roundinvrow, M128roundinvcol, M128roundinvcorr, M128tg116, M128tg216, M128tg316, M128cos416: укль на массив из цел16;
	M128tabi04, M128tabi17, M128tabi26, M128tabi35: укль на массив из цел16;
	tabi04adr, tabi17adr, tabi26adr, tabi35adr, onecorradr, roundinvrowadr, roundinvcoladr, roundinvcorradr, tg116adr, tg216adr, tg316adr, cos416adr: адресВПамяти;
	Transform*: проц (src, dst: адресВПамяти);
	intTab: укль на массив из цел16;
	status*: целМЗ;


проц -MOVDQA1;
машКод{SYSTEM.i386, SYSTEM.SSE, SYSTEM.MMX, SYSTEM.SSE2}
	MOVDQA	XMM0, [EAX]
	MOVDQA	XMM4, [EAX+32]
кон MOVDQA1;

проц -MOVDQA2;
машКод{SYSTEM.i386, SYSTEM.SSE, SYSTEM.MMX, SYSTEM.SSE2}
	MOVDQA	[EDX], XMM0
	MOVDQA	[EDX+32], XMM4
	MOVDQA	XMM0, [EAX+64]
	MOVDQA	XMM4, [EAX+96]
кон MOVDQA2;

проц -MOVDQA3;
машКод{SYSTEM.i386, SYSTEM.SSE, SYSTEM.MMX, SYSTEM.SSE2}
	MOVDQA	[EDX+64], XMM0
	MOVDQA	[EDX+96], XMM4
	MOVDQA	XMM0, [EAX+48]
	MOVDQA	XMM4, [EAX+16]
кон MOVDQA3;

проц -MOVDQA4;
машКод{SYSTEM.i386, SYSTEM.SSE, SYSTEM.MMX, SYSTEM.SSE2}
	MOVDQA	[EDX+48], XMM0
	MOVDQA	[EDX+16], XMM4
	MOVDQA	XMM0, [EAX+80]
	MOVDQA	XMM4, [EAX+112]
кон MOVDQA4;

проц -MOVDQA5;
машКод{SYSTEM.i386, SYSTEM.SSE, SYSTEM.MMX, SYSTEM.SSE2}
	MOVDQA	[EDX+80], XMM0
	MOVDQA	XMM0, [EDX+80] ; necessary ?
	MOVDQA	[EDX+112], XMM4
	MOVDQA	XMM4, [EDX+112] ; necessary ?
кон MOVDQA5;

	проц -GetRA(): размерМЗ;
	машКод
	кон GetRA;

	проц -GetRC(): размерМЗ;
	машКод MOV EAX,ECX
	кон GetRC;

	проц -SetRA(n: размерМЗ);
	машКод POP EAX
	кон SetRA;

	проц -SetRB(n: размерМЗ);
	машКод POP EBX
	кон SetRB;

	проц -SetRC(n: размерМЗ);
	машКод POP ECX
	кон SetRC;

	проц -SetRD(n: размерМЗ);
	машКод POP EDX
	кон SetRD;

	проц -SetRSI(n: размерМЗ);
	машКод POP ESI
	кон SetRSI;

	проц -SetRDI(n: размерМЗ);
	машКод POP EDI
	кон SetRDI;

(* Pay attention if you change local varss. In the inline procedures there are direct address variable *)
проц TransformSSE2*(src, dst: адресВПамяти);
перем tg116, tg216, tg316, cos416, onecorr, roundinvcol, roundinvcorr: адресВПамяти; ecx: размерМЗ;
нач {безКооперации}

	tg116 := tg116adr;
	tg216 := tg216adr;
	tg316 := tg316adr;
	cos416 := cos416adr;
	onecorr := onecorradr;
	roundinvcol := roundinvcoladr;
	roundinvcorr := roundinvcorradr;
	ecx := GetRC();
	SetRA(src);
	SetRD(dst);
	SetRC(roundinvrowadr);
	MOVDQA1;

	SetRSI(tabi04adr );
	SetRC(tabi26adr );
	DCT8INVROWSSE2;
	MOVDQA2;
(*	SetRSI(tabi04adr );
	SetRC(tabi26adr );*)
	DCT8INVROWSSE2;
	MOVDQA3;
	SetRSI(tabi35adr );
	SetRC(tabi17adr );
	DCT8INVROWSSE2;
	MOVDQA4;
(*	SetRSI(tabi35adr );
	SetRC(tabi17adr ); *)
	DCT8INVROWSSE2;
	MOVDQA5;
	DCT8INVCOLSSE2;
	SetRC (ecx);
кон TransformSSE2;



проц -DCT8INVROWSSE2;
машКод{SYSTEM.i386, SYSTEM.SSE, SYSTEM.MMX, SYSTEM.SSE2}
	PSHUFLW	XMM0, XMM0, 0D8H
	PSHUFD		XMM1, XMM0, 0
	PMADDWD	XMM1, [ESI]
	PSHUFD		XMM3, XMM0, 055H
	PSHUFHW	XMM0, XMM0, 0D8H
	PMADDWD	XMM3, [ESI+32]
	PSHUFD		XMM2, XMM0, 0AAH
	PSHUFD		XMM0, XMM0, 0FFH
	PMADDWD	XMM2, [ESI+16]
	PSHUFHW	XMM4, XMM4, 0D8H
	PADDD		XMM1, [EBX]
	PSHUFLW	XMM4, XMM4, 0D8H
	PMADDWD	XMM0, [ESI+48]
	PSHUFD		XMM5, XMM4, 0
	PSHUFD		XMM6, XMM4, 0AAH
	PMADDWD	XMM5, [ECX]
	PADDD		XMM1, XMM2
	MOVDQA	XMM2, XMM1
	PSHUFD		XMM7, XMM4, 055H
	PMADDWD	XMM6, [ECX+16]
	PADDD		XMM0, XMM3
	PSHUFD		XMM4, XMM4, 0FFH
	PSUBD		XMM2, XMM0
	PMADDWD	XMM7, [ECX+32]
	PADDD		XMM0, XMM1
	PSRAD		XMM2, 12
	PADDD		XMM5, [EBX]
	PMADDWD	XMM4, [ECX+48]
	PADDD		XMM5, XMM6
	MOVDQA	XMM6, XMM5
	PSRAD		XMM0, 12
	PSHUFD		XMM2, XMM2, 01BH
	PACKSSDW	XMM0, XMM2
	PADDD		XMM4, XMM7
	PSUBD		XMM6, XMM4
	PADDD		XMM4, XMM5
	PSRAD		XMM6, 12
	PSRAD		XMM4, 12
	PSHUFD		XMM6, XMM6, 01BH
	PACKSSDW	XMM4, XMM6
кон DCT8INVROWSSE2;



проц -DCT8INVCOLSSE2;
машКод{SYSTEM.i386, SYSTEM.SSE, SYSTEM.MMX, SYSTEM.SSE2}
	MOV		EDI, [EBP-12]
	MOVDQA	XMM1, [EDI]
	MOVDQA	XMM2, XMM0
	MOVDQA	XMM3, [EDX+48]
	PMULHW	XMM0, XMM1
	PMULHW	XMM1, XMM3
	MOV		EDI, [EBP-4]
	MOVDQA	XMM5, [EDI]
	MOVDQA	XMM6, XMM4
	PMULHW	XMM4, XMM5
	PADDSW	XMM0, XMM2
	PMULHW	XMM5, [EDX+16]
	PADDSW	XMM1, XMM3
	MOVDQA	XMM7, [EDX+96]
	PADDSW	XMM0, XMM3
	MOV		EDI, [EBP-8]
	MOVDQA	XMM3, [EDI]
	PSUBSW	XMM2, XMM1
	PMULHW	XMM7, XMM3
	MOVDQA	XMM1, XMM0
	PMULHW	XMM3, [EDX+32]
	PSUBSW	XMM5, XMM6
	PADDSW	XMM4, [EDX+16]
	PADDSW	XMM0, XMM4
	MOV		EDI, [EBP-20]
	PADDSW	XMM0, [EDI]
	PSUBSW	XMM4, XMM1
	MOVDQA	XMM6, XMM5
	PSUBSW	XMM5, XMM2
	MOV		EDI, [EBP-20]
	PADDSW	XMM5, [EDI]
	PADDSW	XMM6, XMM2
	MOVDQA	[EDX+112], XMM0
	MOVDQA	XMM1, XMM4
	MOV		EDI, [EBP-16]
	MOVDQA	XMM0, [EDI]
	PADDSW	XMM4, XMM5
	MOV		EDI, [EBP-16]
	MOVDQA	XMM2, [EDI]
	PMULHW	XMM2, XMM4
	MOVDQA	[EDX+48], XMM6
	PSUBSW	XMM1, XMM5
	PADDSW	XMM7, [EDX+32]
	PSUBSW	XMM3, [EDX+96]
	MOVDQA	XMM6, [EDX]
	PMULHW	XMM0, XMM1
	MOVDQA	XMM5, [EDX+64]
	PADDSW	XMM5, XMM6
	PSUBSW	XMM6, [EDX+64]
	PADDSW	XMM4, XMM2
	MOV		EDI, [EBP-20]
	POR		XMM4, [EDI]
	PADDSW	XMM0, XMM1
	MOV		EDI, [EBP-20]
	POR		XMM0, [EDI]
	MOVDQA	XMM2, XMM5
	PADDSW	XMM5, XMM7
	MOVDQA	XMM1, XMM6
	MOV		EDI, [EBP-24]
	PADDSW	XMM5, [EDI]
	PSUBSW	XMM2, XMM7
	MOVDQA	XMM7, [EDX+112]
	PADDSW	XMM6, XMM3
	MOV		EDI, [EBP-24]
	PADDSW	XMM6, [EDI]
	PADDSW	XMM7, XMM5
	PSRAW		XMM7, SHIFTINVCOL
	PSUBSW	XMM1, XMM3
	MOV		EDI, [EBP-28]
	PADDSW	XMM1, [EDI]
	MOVDQA	XMM3, XMM6
	MOV		EDI, [EBP-28]
	PADDSW	XMM2, [EDI]
	PADDSW	XMM6, XMM4
	MOVDQA	[EDX], XMM7
	PSRAW		XMM6, SHIFTINVCOL
	MOVDQA	XMM7, XMM1
	PADDSW	XMM1, XMM0
	MOVDQA	[EDX+16], XMM6
	PSRAW		XMM1, SHIFTINVCOL
	MOVDQA	XMM6, [EDX+48]
	PSUBSW	XMM7, XMM0
	PSRAW		XMM7, SHIFTINVCOL
	MOVDQA	[EDX+32], XMM1
	PSUBSW	XMM5, [EDX+112]
	PSRAW		XMM5, SHIFTINVCOL
	MOVDQA	[EDX+112], XMM5
	PSUBSW	XMM3, XMM4
	PADDSW	XMM6, XMM2
	PSUBSW	XMM2, [EDX+48]
	PSRAW		XMM6, SHIFTINVCOL
	PSRAW		XMM2, SHIFTINVCOL
	MOVDQA	[EDX+48], XMM6
	PSRAW		XMM3, SHIFTINVCOL
	MOVDQA	[EDX+64], XMM2
	MOVDQA	[EDX+80], XMM7
	MOVDQA	[EDX+96], XMM3
кон DCT8INVCOLSSE2;

проц -MOVQ1;
машКод{SYSTEM.i386, SYSTEM.SSE, SYSTEM.MMX}
	MOVQ		MMX0, [ECX]
	MOVQ		MMX1, [ECX+8]
кон MOVQ1;

проц -MOVQ2;
машКод{SYSTEM.i386, SYSTEM.SSE, SYSTEM.MMX}
	MOVQ		MMX0, [ECX+16]
	MOVQ		[EDX], MMX3
	MOVQ		MMX1, [ECX+24]
	MOVQ		[EDX+8], MMX7
кон MOVQ2;

проц -MOVQ3;
машКод{SYSTEM.i386, SYSTEM.SSE, SYSTEM.MMX}
	MOVQ		MMX0, [ECX+32]
	MOVQ		[EDX+16], MMX3
	MOVQ		MMX1, [ECX+40]
	MOVQ		[EDX+24], MMX7
кон MOVQ3;

проц -MOVQ4;
машКод{SYSTEM.i386, SYSTEM.SSE, SYSTEM.MMX}
	MOVQ		MMX0, [ECX+48]
	MOVQ		[EDX+32], MMX3
	MOVQ		MMX1, [ECX+56]
	MOVQ		[EDX+40], MMX7
кон MOVQ4;

проц -MOVQ5;
машКод{SYSTEM.i386, SYSTEM.SSE, SYSTEM.MMX}
	MOVQ		MMX0, [ECX+64]
	MOVQ		[EDX+48], MMX3
	MOVQ		MMX1, [ECX+72]
	MOVQ		[EDX+56], MMX7
кон MOVQ5;

проц -MOVQ6;
машКод{SYSTEM.i386, SYSTEM.SSE, SYSTEM.MMX}
	MOVQ		MMX0, [ECX+80]
	MOVQ		[EDX+64], MMX3
	MOVQ		MMX1, [ECX+88]
	MOVQ		[EDX+72], MMX7
кон MOVQ6;

проц -MOVQ7;
машКод{SYSTEM.i386, SYSTEM.SSE, SYSTEM.MMX}
	MOVQ		MMX0, [ECX+96]
	MOVQ		[EDX+80], MMX3
	MOVQ		MMX1, [ECX+104]
	MOVQ		[EDX+88], MMX7
кон MOVQ7;

проц -MOVQ8;
машКод{SYSTEM.i386, SYSTEM.SSE, SYSTEM.MMX}
	MOVQ		MMX0, [ECX+112]
	MOVQ		[EDX+96], MMX3
	MOVQ		MMX1, [ECX+120]
	MOVQ		[EDX+104], MMX7
кон MOVQ8;

проц -MOVQ9;
машКод{SYSTEM.i386, SYSTEM.SSE, SYSTEM.MMX}
	MOVQ		[EDX+112], MMX3
	MOVQ		MMX0, [EDX+80]
	MOVQ		[EDX+120], MMX7
кон MOVQ9;

проц -MOVQ10;
машКод{SYSTEM.i386, SYSTEM.SSE, SYSTEM.MMX}
	MOVQ		MMX0, [EDX+88]
	ADD		EDX, 8
кон MOVQ10;

(* Pay attention if you change local varss. In the inline procedures there are direct address variable *)
проц TransformSSE*(src, dst: адресВПамяти);
перем tg116, tg216, tg316, cos416, onecorr, roundinvcol, roundinvcorr: адресВПамяти; ecx: размерМЗ;
нач {безКооперации}

	tg116 := tg116adr;
	tg216 := tg216adr;
	tg316 := tg316adr;
	cos416 := cos416adr;
	onecorr := onecorradr;
	roundinvcol := roundinvcoladr;
	roundinvcorr := roundinvcorradr;

	ecx := GetRC ();
	SetRC(src);
	SetRD(dst);	(* MOV EDX, dst *)
	SetRB(roundinvrowadr );
	MOVQ1;
	SetRSI(tabi04adr );
	DCT8INVROWSSE;
	MOVQ2;
	SetRSI(tabi17adr );
	DCT8INVROWSSE;
	MOVQ3;
	SetRSI(tabi26adr );
	DCT8INVROWSSE;
	MOVQ4;
	SetRSI(tabi35adr );
	DCT8INVROWSSE;
	MOVQ5;
	SetRSI(tabi04adr );
	DCT8INVROWSSE;
	MOVQ6;
	SetRSI(tabi35adr );
	DCT8INVROWSSE;
	MOVQ7;
	SetRSI(tabi26adr );
	DCT8INVROWSSE;
	MOVQ8;
	SetRSI(tabi17adr );
	DCT8INVROWSSE;
	MOVQ9;
	DCT8INVCOLSSE;
	MOVQ10;
	DCT8INVCOLSSE;
	SetRC(ecx);

кон TransformSSE;

проц -DCT8INVROWSSE;
машКод{SYSTEM.i386, SYSTEM.SSE2, SYSTEM.MMX}
	MOVQ		MMX2, MMX0
	MOVQ		MMX3, [ESI]
	PSHUFW	MMX0, MMX0, 88H
	MOVQ		MMX4, [ESI+8]
	MOVQ		MMX5, MMX1
	PMADDWD	MMX3, MMX0
	MOVQ		MMX6, [ESI+32]
	PSHUFW	MMX1, MMX1,  88H
	PMADDWD	MMX4, MMX1
	MOVQ		MMX7, [ESI+40]
	PSHUFW	MMX2, MMX2,  0DDH
	PMADDWD	MMX6, MMX2
	PSHUFW	MMX5, MMX5,  0DDH
	PMADDWD	MMX7, MMX5
	PADDD		MMX3, [EBX]				; [EBX] = roundinvrowadr
	PMADDWD	MMX0, [ESI+16]
	PADDD		MMX3, MMX4
	PMADDWD	MMX1, [ESI+24]
	MOVQ		MMX4, MMX3
	PMADDWD	MMX2, [ESI+48]
	PADDD		MMX6, MMX7
	PMADDWD	MMX5, [ESI+56]
	PADDD		MMX3, MMX6
	PADDD		MMX0, [EBX]				; [EBX] = roundinvrowadr
	PSRAD		MMX3, SHIFTINVROW
	PADDD		MMX0, MMX1
	PSUBD		MMX4, MMX6
	MOVQ		MMX7, MMX0
	PADDD		MMX2, MMX5
	PADDD		MMX0, MMX2
	PSRAD		MMX4, SHIFTINVROW
	PSUBD		MMX7, MMX2
	PSRAD		MMX0, SHIFTINVROW
	PSRAD		MMX7, SHIFTINVROW
	PACKSSDW	MMX3, MMX0
	PACKSSDW	MMX7, MMX4
	PSHUFW	MMX7, MMX7,  0B1H
кон DCT8INVROWSSE;

проц -DCT8INVCOLSSE;
машКод{SYSTEM.i386, SYSTEM.SSE, SYSTEM.MMX}
	MOV		EDI, [EBP-12]
	MOVQ		MMX1, [EDI]
	MOVQ		MMX2, MMX0
	MOVQ		MMX3, [EDX+48]
	PMULHW	MMX0, MMX1
	MOVQ		MMX4, [EDX+112]
	PMULHW	MMX1, MMX3
	MOV		EDI, [EBP-4]
	MOVQ		MMX5, [EDI]
	MOVQ		MMX6, MMX4
	PMULHW	MMX4, MMX5
	PADDSW	MMX0, MMX2
	PMULHW	MMX5, [EDX+16]
	PADDSW	MMX1, MMX3
	MOVQ		MMX7, [EDX+96]
	PADDSW	MMX0, MMX3
	MOV		EDI, [EBP-8]
	MOVQ		MMX3, [EDI]
	PSUBSW	MMX2, MMX1
	PMULHW	MMX7, MMX3
	MOVQ		MMX1, MMX0
	PMULHW	MMX3, [EDX-32]
	PSUBSW	MMX5, MMX6
	PADDSW	MMX4, [EDX+16]
	PADDSW	MMX0, MMX4
	MOV		EDI, [EBP-20]
	PADDSW	MMX0, [EDI]
	PSUBSW	MMX4, MMX1
	PADDSW	MMX7, [EDX+32]
	MOVQ		MMX6, MMX5
	PSUBSW	MMX3, [EDX+96]
	PSUBSW	MMX5, MMX2
	MOV		EDI, [EBP-20]
	PADDSW	MMX5, [EDI]
	PADDSW	MMX6, MMX2
	MOVQ		[EDX+112], MMX0
	MOVQ		MMX1, MMX4
	MOV		EDI, [EBP-16]
	MOVQ		MMX2, [EDI]
	PADDSW	MMX4, MMX5
	MOV		EDI, [EBP]
	MOVQ		MMX0, [EDI-16]
	PMULHW	MMX2, MMX4
	MOVQ		[EDX+48], MMX6
	PSUBSW	MMX1, MMX5
	MOVQ		MMX6, [EDX]
	PMULHW	MMX0, MMX1
	MOVQ		MMX5, [EDX+64]
	PADDSW	MMX4, MMX2
	MOV		EDI, [EBP-20]
	POR		MMX4, [EDI]
	PADDSW	MMX5, MMX6
	PSUBSW	MMX6, [EDX+64]
	PADDSW	MMX0, MMX1
	MOV		EDI, [EBP-20]
	POR		MMX0, [EDI]
	MOVQ		MMX2, MMX5
	PADDSW	MMX5, MMX7
	MOVQ		MMX1, MMX6
	MOV		EDI, [EBP-24]
	PADDSW	MMX5, [EDI]
	PSUBSW	MMX2, MMX7
	MOVQ		MMX7, [EDX+112]
	PADDSW	MMX6, MMX3
	MOV		EDI, [EBP-24]
	PADDSW	MMX6, [EDI]
	PADDSW	MMX7, MMX5
	PSRAW		MMX7, SHIFTINVCOL
	PSUBSW	MMX1, MMX3
	MOV		EDI, [EBP-28]
	PADDSW	MMX2, [EDI]
	MOVQ		MMX3, MMX6
	MOV		EDI, [EBP-28]
	PADDSW	MMX1, [EDI]
	PADDSW	MMX6, MMX4
	MOVQ		[EDX], MMX7
	PSRAW		MMX6, SHIFTINVCOL
	MOVQ		MMX7, MMX1
	PADDSW	MMX1, MMX0
	MOVQ		[EDX+16], MMX6
	PSRAW		MMX1, SHIFTINVCOL
	MOVQ		MMX6, [EDX+48]
	PSUBSW	MMX7, MMX0
	PADDSW	MMX6, MMX2
	PSUBSW	MMX2, [EDX+48]
	PSRAW		MMX7, SHIFTINVCOL
	MOVQ		[EDX+32], MMX1
	PSRAW		MMX6, SHIFTINVCOL
	PSUBSW	MMX5, [EDX+112]
	PSRAW		MMX2, SHIFTINVCOL
	MOVQ		[EDX+48], MMX6
	PSUBSW	MMX3, MMX4
	MOVQ		[EDX+64], MMX2
	PSRAW		MMX3, SHIFTINVCOL
	MOVQ		[EDX+80], MMX7
	PSRAW		MMX5, SHIFTINVCOL
	MOVQ		[EDX+96], MMX3
	MOVQ		[EDX+112], MMX5
кон DCT8INVCOLSSE;

проц TransformINT*(src, dst: адресВПамяти);
перем i: размерМЗ;
нач

	Row(src + 0);
	Row(src + 16);
	Row(src + 32);
	Row(src + 48);
	Row(src + 64);
	Row(src + 80);
	Row(src + 96);
	Row(src + 112);

	Col( src +  0);
	Col( src +  2);
	Col( src +  4);
	Col( src +  6);
	Col( src +  8);
	Col( src +  10);
	Col( src +  12);
	Col( src +  14);

	нцДля i := 0 до 63 делай
		НИЗКОУР.запиши16битПоАдресу(dst + размер16_от(цел16) * i, НИЗКОУР.прочти16битПоАдресу(src + размер16_от(цел16) * i) )
	кц

кон TransformINT;




(* row (horizontal) IDCT

  7                       pi         1 dst[k] = sum c[l] * src[l] * cos( -- *
  	( k + - ) * l ) l=0                      8          2

  		where: c[0]    = 128 c[1..7] = 128*sqrt(2)
*)


проц Row( src: адресВПамяти);
перем
	x0, x1, x2, x3, x4, x5, x6, x7, x8: цел32;
	adr, tempAdr: адресВПамяти;
нач
	adr := src;

	(* shortcut *)
	x1 := устарПреобразуйКБолееШирокомуЦел(НИЗКОУР.прочти16битПоАдресу( adr + 4*размер16_от(цел16))) * 2048;
	x2 := устарПреобразуйКБолееШирокомуЦел(НИЗКОУР.прочти16битПоАдресу( adr + 6*размер16_от(цел16)));
	x3 := устарПреобразуйКБолееШирокомуЦел(НИЗКОУР.прочти16битПоАдресу( adr + 2*размер16_от(цел16)));
	x4 := устарПреобразуйКБолееШирокомуЦел(НИЗКОУР.прочти16битПоАдресу( adr + 1*размер16_от(цел16)));
	x5 := устарПреобразуйКБолееШирокомуЦел(НИЗКОУР.прочти16битПоАдресу( adr + 7*размер16_от(цел16)));
	x6 := устарПреобразуйКБолееШирокомуЦел(НИЗКОУР.прочти16битПоАдресу( adr + 5*размер16_от(цел16)));
	x7 := устарПреобразуйКБолееШирокомуЦел(НИЗКОУР.прочти16битПоАдресу( adr + 3*размер16_от(цел16)));

	если ( x1 = 0 ) и ( x2 = 0 ) и ( x3 = 0 ) и ( x4 = 0 ) и ( x5 = 0 ) и ( x6 = 0 ) и ( x7 = 0 )  то
		x0 := НИЗКОУР.прочти16битПоАдресу( adr ) * 8;
		НИЗКОУР.запиши16битПоАдресу( adr , x0 );
		tempAdr := adr + размер16_от( цел16 );
		НИЗКОУР.запиши16битПоАдресу( tempAdr, устарПреобразуйКБолееУзкомуЦел(x0));
		tempAdr := tempAdr + размер16_от( цел16 );
		НИЗКОУР.запиши16битПоАдресу( tempAdr, устарПреобразуйКБолееУзкомуЦел(x0));
		tempAdr := tempAdr + размер16_от( цел16 );
		НИЗКОУР.запиши16битПоАдресу( tempAdr, устарПреобразуйКБолееУзкомуЦел(x0));
		tempAdr := tempAdr + размер16_от( цел16 );
		НИЗКОУР.запиши16битПоАдресу( tempAdr, устарПреобразуйКБолееУзкомуЦел(x0));
		tempAdr := tempAdr + размер16_от( цел16 );
		НИЗКОУР.запиши16битПоАдресу( tempAdr, устарПреобразуйКБолееУзкомуЦел(x0));
		tempAdr := tempAdr + размер16_от( цел16 );
		НИЗКОУР.запиши16битПоАдресу( tempAdr, устарПреобразуйКБолееУзкомуЦел(x0));
		tempAdr := tempAdr + размер16_от( цел16 );
		НИЗКОУР.запиши16битПоАдресу( tempAdr, устарПреобразуйКБолееУзкомуЦел(x0));
		возврат
	всё;
	x0 := ( устарПреобразуйКБолееШирокомуЦел(НИЗКОУР.прочти16битПоАдресу( adr )) * 2048 ) + 128;    (* for proper rounding in the fourth stage *)

	(* first stage *)
	x8 := W7 * ( x4 + x5 );
	x4 := x8 + ( W1 - W7 ) * x4;
	x5 := x8 - ( W1 + W7 ) * x5;
	x8 := W3 * ( x6 + x7 );
	x6 := x8 - ( W3 - W5 ) * x6;
	x7 := x8 - ( W3 + W5 ) * x7;

	(* second stage *)
	x8 := x0 + x1;
	x0 := x0 - x1;
	x1 := W6 * ( x3 + x2 );
	x2 := x1 - ( W2 + W6 ) * x2;
	x3 := x1 + ( W2 - W6 ) * x3;
	x1 := x4 + x6;
	x4 := x4 - x6;
	x6 := x5 + x7;
	x5 := x5 - x7;

	(* third stage *)
	x7 := x8 + x3;
	x8 := x8 - x3;
	x3 := x0 + x2;
	x0 := x0 - x2;
	x2 := ( 181 * ( x4 + x5 ) + 128 ) DIV 256;
	x4 := ( 181 * ( x4 - x5 ) + 128 ) DIV 256;




	(* fourth stage *)
	НИЗКОУР.запиши16битПоАдресу( adr, устарПреобразуйКБолееУзкомуЦел(( x7 + x1 ) DIV 256));
	tempAdr := adr + размер16_от( цел16 );
	НИЗКОУР.запиши16битПоАдресу( tempAdr, устарПреобразуйКБолееУзкомуЦел(( x3 + x2 ) DIV 256));
	tempAdr := tempAdr + размер16_от( цел16 );
	НИЗКОУР.запиши16битПоАдресу( tempAdr, устарПреобразуйКБолееУзкомуЦел(( x0 + x4 ) DIV 256));
	tempAdr := tempAdr + размер16_от( цел16 );
	НИЗКОУР.запиши16битПоАдресу( tempAdr, устарПреобразуйКБолееУзкомуЦел(( x8 + x6 ) DIV 256));
	tempAdr := tempAdr + размер16_от( цел16 );
	НИЗКОУР.запиши16битПоАдресу( tempAdr, устарПреобразуйКБолееУзкомуЦел(( x8 - x6 ) DIV 256));
	tempAdr := tempAdr + размер16_от( цел16 );
	НИЗКОУР.запиши16битПоАдресу( tempAdr, устарПреобразуйКБолееУзкомуЦел(( x0 - x4 ) DIV 256));
	tempAdr := tempAdr + размер16_от( цел16 );
	НИЗКОУР.запиши16битПоАдресу( tempAdr, устарПреобразуйКБолееУзкомуЦел(( x3 - x2 ) DIV 256));
	tempAdr := tempAdr + размер16_от( цел16 );
	НИЗКОУР.запиши16битПоАдресу( tempAdr, устарПреобразуйКБолееУзкомуЦел(( x7 - x1 ) DIV 256))
кон Row;

(* column (vertical) IDCT

	 7                         pi         1 dst[8*k] = sum c[l] * src[8*l] *
	 cos( -- * ( k + - ) * l ) l=0                        8          2

	 where: c[0]    = 1/1024 c[1..7] = (1/1024)*sqrt(2)
*)
проц Col( src: адресВПамяти);
перем
	x0, x1, x2, x3, x4, x5, x6, x7, x8: цел32;
	adr, tempAdr, sourceAdr: адресВПамяти;
нач
	adr := src;

	(* shortcut *)
	x1 := устарПреобразуйКБолееШирокомуЦел(НИЗКОУР.прочти16битПоАдресу( adr + 32*размер16_от(цел16))) * 256;
	x2 := устарПреобразуйКБолееШирокомуЦел(НИЗКОУР.прочти16битПоАдресу( adr + 48*размер16_от(цел16)));
	x3 := устарПреобразуйКБолееШирокомуЦел(НИЗКОУР.прочти16битПоАдресу( adr + 16*размер16_от(цел16)));
	x4 := устарПреобразуйКБолееШирокомуЦел(НИЗКОУР.прочти16битПоАдресу( adr + 8*размер16_от(цел16)));
	x5 := устарПреобразуйКБолееШирокомуЦел(НИЗКОУР.прочти16битПоАдресу( adr + 56*размер16_от(цел16)));
	x6 := устарПреобразуйКБолееШирокомуЦел(НИЗКОУР.прочти16битПоАдресу( adr + 40*размер16_от(цел16)));
	x7 := устарПреобразуйКБолееШирокомуЦел(НИЗКОУР.прочти16битПоАдресу( adr + 24*размер16_от(цел16)));

	если ( x1 = 0 ) и ( x2 = 0 ) и ( x3 = 0 ) и ( x4 = 0 ) и ( x5 = 0 ) и ( x6 = 0 ) и ( x7 = 0 )  то
		x0 := устарПреобразуйКБолееШирокомуЦел(intTab[(( НИЗКОУР.прочти16битПоАдресу(adr) + 32 ) DIV 64 ) + 512]);
		НИЗКОУР.запиши16битПоАдресу( adr , устарПреобразуйКБолееУзкомуЦел(x0));
		tempAdr := adr + 8*размер16_от( цел16 );
		НИЗКОУР.запиши16битПоАдресу( tempAdr , устарПреобразуйКБолееУзкомуЦел(x0));
		tempAdr := tempAdr + 8*размер16_от( цел16 );
		НИЗКОУР.запиши16битПоАдресу( tempAdr , устарПреобразуйКБолееУзкомуЦел(x0));
		tempAdr := tempAdr + 8*размер16_от( цел16 );
		НИЗКОУР.запиши16битПоАдресу( tempAdr , устарПреобразуйКБолееУзкомуЦел(x0));
		tempAdr := tempAdr + 8*размер16_от( цел16 );
		НИЗКОУР.запиши16битПоАдресу( tempAdr , устарПреобразуйКБолееУзкомуЦел(x0));
		tempAdr := tempAdr + 8*размер16_от( цел16 );
		НИЗКОУР.запиши16битПоАдресу( tempAdr , устарПреобразуйКБолееУзкомуЦел(x0));
		tempAdr := tempAdr + 8*размер16_от( цел16 );
		НИЗКОУР.запиши16битПоАдресу( tempAdr , устарПреобразуйКБолееУзкомуЦел(x0));
		tempAdr := tempAdr + 8*размер16_от( цел16 );
		НИЗКОУР.запиши16битПоАдресу( tempAdr , устарПреобразуйКБолееУзкомуЦел(x0));
		возврат
	всё;

	 x0 := (устарПреобразуйКБолееШирокомуЦел(НИЗКОУР.прочти16битПоАдресу( adr))* 256) + 8192;

	(* first stage *)
	x8 := W7 * ( x4 + x5 ) + 4;
	x4 := ( x8 + ( W1 - W7 ) * x4 ) DIV 8;
	x5 := ( x8 - ( W1 + W7) * x5 ) DIV 8;
	x8 := W3 * ( x6 + x7 ) + 4;
	x6 := ( x8 - ( W3 - W5 ) * x6 )DIV 8;
	x7 := ( x8 - ( W3 + W5 ) * x7 ) DIV 8;

	(* second stage *)
	x8 := x0 + x1;
	x0 := x0 - x1;
	x1 := W6 * ( x3 + x2 ) + 4;
	x2 := ( x1 - ( W2 + W6 ) * x2 ) DIV 8;
	x3 := ( x1 + ( W2 - W6 ) * x3 ) DIV 8;
	x1 := x4 + x6;
	x4 := x4 - x6;
	x6 := x5 + x7;
	x5 := x5 - x7;

	(* third stage *)
	x7 := x8 + x3;
	x8 := x8 - x3;
	x3 := x0 + x2;
	x0 := x0 - x2;
	x2 := ( 181 * ( x4 + x5 ) + 128 ) DIV 256;
	x4 := ( 181 * ( x4 - x5 ) + 128 ) DIV 256;



	(* fourth stage *)
	tempAdr := adr;
	sourceAdr := адресОт( intTab[512] );
	НИЗКОУР.запиши16битПоАдресу( tempAdr, НИЗКОУР.прочти16битПоАдресу( ( ( ( x7 + x1 ) DIV 16384 )*размер16_от(цел16) ) + sourceAdr ));
	tempAdr := tempAdr + 8*размер16_от( цел16 );
	НИЗКОУР.запиши16битПоАдресу( tempAdr, НИЗКОУР.прочти16битПоАдресу( ( ( ( x3 + x2 ) DIV 16384 )*размер16_от(цел16) ) + sourceAdr ));
	tempAdr := tempAdr + 8*размер16_от( цел16 );
	НИЗКОУР.запиши16битПоАдресу( tempAdr, НИЗКОУР.прочти16битПоАдресу( ( ( ( x0 + x4 ) DIV 16384 )*размер16_от(цел16) ) + sourceAdr ));
	tempAdr := tempAdr + 8*размер16_от( цел16 );
	НИЗКОУР.запиши16битПоАдресу( tempAdr, НИЗКОУР.прочти16битПоАдресу( ( ( ( x8 + x6 ) DIV 16384 )*размер16_от(цел16) ) + sourceAdr ));
	tempAdr := tempAdr + 8*размер16_от( цел16 );
	НИЗКОУР.запиши16битПоАдресу( tempAdr, НИЗКОУР.прочти16битПоАдресу( ( ( ( x8 - x6 ) DIV 16384 )*размер16_от(цел16) ) + sourceAdr ));
	tempAdr := tempAdr + 8*размер16_от( цел16 );
	НИЗКОУР.запиши16битПоАдресу( tempAdr, НИЗКОУР.прочти16битПоАдресу( ( ( ( x0 - x4 ) DIV 16384 )*размер16_от(цел16) ) + sourceAdr ));
	tempAdr := tempAdr + 8*размер16_от( цел16 );
	НИЗКОУР.запиши16битПоАдресу( tempAdr, НИЗКОУР.прочти16битПоАдресу( ( ( ( x3 - x2 ) DIV 16384 )*размер16_от(цел16) ) + sourceAdr ));
	tempAdr := tempAdr + 8*размер16_от( цел16 );
	НИЗКОУР.запиши16битПоАдресу( tempAdr, НИЗКОУР.прочти16битПоАдресу( ( ( ( x7 - x1 ) DIV 16384 )*размер16_от(цел16) ) + sourceAdr ))
кон Col;

проц FillTablesSSE2;
перем i: размерМЗ;
нач
	нов(M128onecorr, 12);
	нцДля i := 4 до 11 делай M128onecorr[i] := 1 кц;
	onecorradr := адресОт(M128onecorr[4]);

	нов(M128roundinvrow, 12);
	M128roundinvrow[4] := RNDINVROW; M128roundinvrow[5] := 0; M128roundinvrow[6] := RNDINVROW; M128roundinvrow[7] := 0;
	M128roundinvrow[8] := RNDINVROW; M128roundinvrow[9] := 0; M128roundinvrow[10] := RNDINVROW; M128roundinvrow[11] := 0;
	roundinvrowadr := адресОт(M128roundinvrow[4]);

	нов(M128roundinvcol, 12);
	нцДля i := 4 до 11 делай M128roundinvcol[i] := RNDINVCOL кц;
	roundinvcoladr := адресОт(M128roundinvcol[4]);

	нов(M128roundinvcorr, 12);
	нцДля i := 4 до 11 делай M128roundinvcorr[i] := RNDINVCORR кц;
	roundinvcorradr := адресОт(M128roundinvcorr[4]);

	нов(M128tg116, 12);
	нцДля i := 4 до 11 делай M128tg116[i] := 13036 кц;
	tg116adr := адресОт(M128tg116[4]);

	нов(M128tg216, 12);
	нцДля i := 4 до 11 делай M128tg216[i] := 21746 кц;
	tg216adr := адресОт(M128tg216[4]);

	нов(M128tg316, 12);
	нцДля i := 4 до 11 делай M128tg316[i] := -21746 кц;
	tg316adr := адресОт(M128tg316[4]);

	нов(M128cos416, 12);
	нцДля i := 4 до 11 делай M128cos416[i] := -19195 кц;
	cos416adr := адресОт(M128cos416[4]);

	нов(M128tabi04, 36);
	M128tabi04[4] 	:= 16384; 	M128tabi04[5] 	:= 21407; 	M128tabi04[6] 	:= 16384; 	M128tabi04[7] := 8867;
	M128tabi04[8] 	:= 16384; 	M128tabi04[9] 	:= -8867; 	M128tabi04[10]	:= 16384; 	M128tabi04[11] := -21407;
	M128tabi04[12] := 16384; 	M128tabi04[13]	:= 8867; 	M128tabi04[14] := -16384; 	M128tabi04[15] := -21407;
	M128tabi04[16] := -16384; 	M128tabi04[17] := 21407; 	M128tabi04[18] := 16384; 	M128tabi04[19] := -8867;
	M128tabi04[20] := 22725; 	M128tabi04[21]	:= 19266; 	M128tabi04[22]	:= 19266; 	M128tabi04[23] := -4520;
	M128tabi04[24] := 12873; 	M128tabi04[25]	:= -22725; 	M128tabi04[26]	:= 4520; 	M128tabi04[27] := -12873;
	M128tabi04[28] := 12873; 	M128tabi04[29]	:= 4520; 	M128tabi04[30] := -22725; 	M128tabi04[31] := -12873;
	M128tabi04[32] := 4520; 	M128tabi04[33] := 19266; 	M128tabi04[34] := 19266; 	M128tabi04[35] := -22725;
	tabi04adr := адресОт(M128tabi04[4]);

	нов(M128tabi17, 36);
	M128tabi17[4] 	:= 22725; 	M128tabi17[5] 	:= 29692; 	M128tabi17[6] 	:= 22725; 	M128tabi17[7] := 12299;
	M128tabi17[8] 	:= 22725; 	M128tabi17[9] 	:= -12299; 	M128tabi17[10] := 22725; 	M128tabi17[11] := -29692;
	M128tabi17[12] := 22725; 	M128tabi17[13] := 12299; 	M128tabi17[14] := -22725; 	M128tabi17[15] := -29692;
	M128tabi17[16] := -22725; 	M128tabi17[17] := 29692; 	M128tabi17[18] := 22725; 	M128tabi17[19] := -12299;
	M128tabi17[20] := 31521; 	M128tabi17[21]	:= 26722; 	M128tabi17[22]	:= 26722; 	M128tabi17[23] := -6270;
	M128tabi17[24] := 17855; 	M128tabi17[25]	:= -31521; 	M128tabi17[26]	:= 6270; 	M128tabi17[27] := -17855;
	M128tabi17[28] := 17855; 	M128tabi17[29]	:= 6270; 	M128tabi17[30] := -31521; 	M128tabi17[31] := -17855;
	M128tabi17[32] := 6270; 	M128tabi17[33] := 26722; 	M128tabi17[34] := 26722; 	M128tabi17[35] := -31521;
	tabi17adr := адресОт(M128tabi17[4]);

	нов(M128tabi26, 36);
	M128tabi26[4] 	:= 21407; 	M128tabi26[5] 	:= 27969; 	M128tabi26[6] 	:= 21407; 	M128tabi26[7] := 11585;
	M128tabi26[8] 	:= 21407; 	M128tabi26[9] 	:= -11585; 	M128tabi26[10] := 21407; 	M128tabi26[11] := -27969;
	M128tabi26[12] := 21407; 	M128tabi26[13] := 11585; 	M128tabi26[14] := -21407; 	M128tabi26[15] := -27969;
	M128tabi26[16] := -21407; 	M128tabi26[17] := 27969; 	M128tabi26[18] := 21407; 	M128tabi26[19] := -11585;
	M128tabi26[20] := 29692; 	M128tabi26[21]	:= 25172; 	M128tabi26[22]	:= 25172; 	M128tabi26[23] := -5906;
	M128tabi26[24] := 16819; 	M128tabi26[25]	:= -29692; 	M128tabi26[26]	:= 5906; 	M128tabi26[27] := -16819;
	M128tabi26[28] := 16819; 	M128tabi26[29]	:= 5906; 	M128tabi26[30] := -29692; 	M128tabi26[31] := -16819;
	M128tabi26[32] := 5906; 	M128tabi26[33] := 25172; 	M128tabi26[34] := 25172; 	M128tabi26[35] := -29692;
	tabi26adr := адресОт(M128tabi26[4]);

	нов(M128tabi35, 36);
	M128tabi35[4] 	:= 19266; 	M128tabi35[5] 	:= 25172; 	M128tabi35[6] 	:= 19266; 	M128tabi35[7] := 10426;
	M128tabi35[8] 	:= 19266; 	M128tabi35[9] 	:= -10426; 	M128tabi35[10] := 19266; 	M128tabi35[11] := -25172;
	M128tabi35[12] := 19266; 	M128tabi35[13]	:= 10426; 	M128tabi35[14] := -19266; 	M128tabi35[15] := -25172;
	M128tabi35[16] := -19266; 	M128tabi35[17] := 25172; 	M128tabi35[18] := 19266; 	M128tabi35[19] := -10426;
	M128tabi35[20] := 26722; 	M128tabi35[21]	:= 22654; 	M128tabi35[22]	:= 22654; 	M128tabi35[23] := -5315;
	M128tabi35[24] := 15137; 	M128tabi35[25]	:= -26722; 	M128tabi35[26]	:= 5315; 	M128tabi35[27] := -15137;
	M128tabi35[28] := 15137; 	M128tabi35[29]	:= 5315; 	M128tabi35[30] := -26722; 	M128tabi35[31] := -15137;
	M128tabi35[32] := 5315; 	M128tabi35[33] := 22654; 	M128tabi35[34] := 22654; 	M128tabi35[35] := -26722;
	tabi35adr := адресОт(M128tabi35[4]);

кон FillTablesSSE2;

проц FillTablesSSE;
перем i: размерМЗ;
нач
	нов(M128onecorr, 4);
	нцДля i := 0 до 3 делай M128onecorr[i] := 1 кц;
	onecorradr := адресОт(M128onecorr[0]);

	нов(M128roundinvrow, 4);
	M128roundinvrow[0] := RNDINVROW; M128roundinvrow[1] := 0; M128roundinvrow[2] := RNDINVROW; M128roundinvrow[3] := 0;
	roundinvrowadr := адресОт(M128roundinvrow[0]);

	нов(M128roundinvcol, 4);
	нцДля i := 0 до 3 делай M128roundinvcol[i] := RNDINVCOL кц;
	roundinvcoladr := адресОт(M128roundinvcol[0]);

	нов(M128roundinvcorr, 4);
	нцДля i := 0 до 3 делай M128roundinvcorr[i] := RNDINVCORR кц;
	roundinvcorradr := адресОт(M128roundinvcorr[0]);

	нов(M128tg116, 4);
	нцДля i := 0 до 3 делай M128tg116[i] := 13036 кц;
	tg116adr := адресОт(M128tg116[0]);

	нов(M128tg216, 4);
	нцДля i := 0 до 3 делай M128tg216[i] := 21746 кц;
	tg216adr := адресОт(M128tg216[0]);

	нов(M128tg316, 4);
	нцДля i := 0 до 3 делай M128tg316[i] := -21746 кц;
	tg316adr := адресОт(M128tg316[0]);

	нов(M128cos416, 4);
	нцДля i := 0 до 3 делай M128cos416[i] := -19195 кц;
	cos416adr := адресОт(M128cos416[0]);

	нов(M128tabi04, 32);
	M128tabi04[0] 	:= 16384; 	M128tabi04[1] 	:= 21407; 	M128tabi04[2] 	:= 16384; 	M128tabi04[3] 	:= 8867;
	M128tabi04[4] 	:= 16384; 	M128tabi04[5] 	:= 8867; 	M128tabi04[6]	:= -16384; 	M128tabi04[7] 	:= -21407;
	M128tabi04[8] 	:= 16384; 	M128tabi04[9]	:= -8867; 	M128tabi04[10] := 16384; 	M128tabi04[11] := -21407;
	M128tabi04[12] := -16384; 	M128tabi04[13] := 21407; 	M128tabi04[14] := 16384; 	M128tabi04[15] := -8867;
	M128tabi04[16] := 22725; 	M128tabi04[17]	:= 19266; 	M128tabi04[18]	:= 19266; 	M128tabi04[19] := -4520;
	M128tabi04[20] := 12873; 	M128tabi04[21]	:= 4520; 	M128tabi04[22]	:= -22725; 	M128tabi04[23] := -12873;
	M128tabi04[24] := 12873; 	M128tabi04[25]	:= -22725; 	M128tabi04[26] := 4520; 	M128tabi04[27] := -12873;
	M128tabi04[28] := 4520; 	M128tabi04[29] := 19266; 	M128tabi04[30] := 19266; 	M128tabi04[31] := -22725;
	tabi04adr := адресОт(M128tabi04[0]);

	нов(M128tabi17, 32);
	M128tabi17[0] 	:= 22725; 	M128tabi17[1] 	:= 29692; 	M128tabi17[2] 	:= 22725; 	M128tabi17[3] 	:= 12299;
	M128tabi17[4] 	:= 22725; 	M128tabi17[5] 	:= 12299; 	M128tabi17[6] := -22725; 	M128tabi17[7] 	:= -29692;
	M128tabi17[8] 	:= 22725; 	M128tabi17[9] 	:= -12299; 	M128tabi17[10] := 22725; 	M128tabi17[11] := -29692;
	M128tabi17[12] := -22725; 	M128tabi17[13] := 29692; 	M128tabi17[14] := 22725; 	M128tabi17[15] := -12299;
	M128tabi17[16] := 31521; 	M128tabi17[17]	:= 26722; 	M128tabi17[18]	:= 26722; 	M128tabi17[19] := -6270;
	M128tabi17[20] := 17855; 	M128tabi17[21]	:= 6270; 	M128tabi17[22]	:= -31521; 	M128tabi17[23] := -17855;
	M128tabi17[24] := 17855; 	M128tabi17[25]	:= -31521; 	M128tabi17[26] := 6270; 	M128tabi17[27] := -17855;
	M128tabi17[28] := 6270; 	M128tabi17[29] := 26722; 	M128tabi17[30] := 26722; 	M128tabi17[31] := -31521;
	tabi17adr := адресОт(M128tabi17[0]);

	нов(M128tabi26, 32);
	M128tabi26[0] 	:= 21407; 	M128tabi26[1] 	:= 27969; 	M128tabi26[2] 	:= 21407; 	M128tabi26[3] 	:= 11585;
	M128tabi26[4] 	:= 21407; 	M128tabi26[5] 	:= 11585; 	M128tabi26[6] := -21407; 	M128tabi26[7] 	:= -27969;
	M128tabi26[8] 	:= 21407; 	M128tabi26[9] 	:= -11585; 	M128tabi26[10] := 21407; 	M128tabi26[11] := -27969;
	M128tabi26[12] := -21407; 	M128tabi26[13] := 27969; 	M128tabi26[14] := 21407; 	M128tabi26[15] := -11585;
	M128tabi26[16] := 29692; 	M128tabi26[17]	:= 25172; 	M128tabi26[18]	:= 25172; 	M128tabi26[19] := -5906;
	M128tabi26[20] := 16819; 	M128tabi26[21]	:= 5906; 	M128tabi26[22]	:= -29692; 	M128tabi26[23] := -16819;
	M128tabi26[24] := 16819; 	M128tabi26[25]	:= -29692; 	M128tabi26[26] := 5906; 	M128tabi26[27] := -16819;
	M128tabi26[28] := 5906; 	M128tabi26[29] := 25172; 	M128tabi26[30] := 25172; 	M128tabi26[31] := -29692;
	tabi26adr := адресОт(M128tabi26[0]);

	нов(M128tabi35, 32);
	M128tabi35[0] 	:= 19266; 	M128tabi35[1] 	:= 25172; 	M128tabi35[2] 	:= 19266; 	M128tabi35[3] 	:= 10426;
	M128tabi35[4] 	:= 19266; 	M128tabi35[5] 	:= 10426; 	M128tabi35[6] 	:= -19266; 	M128tabi35[7] 	:= -25172;
	M128tabi35[8] 	:= 19266; 	M128tabi35[9]	:= -10426; 	M128tabi35[10] := 19266; 	M128tabi35[11] := -25172;
	M128tabi35[12] := -19266; 	M128tabi35[13] := 25172; 	M128tabi35[14] := 19266; 	M128tabi35[15] := -10426;
	M128tabi35[16] := 26722; 	M128tabi35[17]	:= 22654; 	M128tabi35[18]	:= 22654; 	M128tabi35[19] := -5315;
	M128tabi35[20] := 15137; 	M128tabi35[21]	:= 5315; 	M128tabi35[22]	:= -26722; 	M128tabi35[23] := -15137;
	M128tabi35[24] := 15137; 	M128tabi35[25]	:= -26722; 	M128tabi35[26] := 5315; 	M128tabi35[27] := -15137;
	M128tabi35[28] := 5315; 	M128tabi35[29] := 22654; 	M128tabi35[30] := 22654; 	M128tabi35[31] := -26722;
	tabi35adr := адресОт(M128tabi35[0]);
кон FillTablesSSE;

проц FillTablesINT;
перем i: цел16;
нач
	нов(intTab, 1024);
	нцДля i := -512 до 511 делай
		если i < -256 то
			intTab[i + 512] := -256
		аесли i > 255 то
			intTab[i + 512] := 255
		иначе
			intTab[i + 512] := i
		всё;
	кц;
кон FillTablesINT;



проц CheckFeatures;
нач

	(* SSE requires special alignment of data blocks which has changed
	since new heap datastructures were introduced in revision 1620 *)

	если ложь и Machine.SSE2Support то
		FillTablesSSE2;
		Transform := TransformSSE2;
		status := SSE2;
		ЛогЯдра.пСтроку8("IDCT: SSE2 method"); ЛогЯдра.пВК_ПС;
	аесли ложь и Machine.SSESupport то
		FillTablesSSE;
		Transform := TransformSSE;
		status := SSE;
		ЛогЯдра.пСтроку8("IDCT: SSE method"); ЛогЯдра.пВК_ПС;
	иначе
		FillTablesINT;
		Transform := TransformINT;
		status := INT;
		ЛогЯдра.пСтроку8("IDCT: INT method"); ЛогЯдра.пВК_ПС;
	всё
кон CheckFeatures;

(* !!! Unsafe *)
проц Change*(context : Commands.Context);
перем name: массив 12 из симв8;
нач
	context.arg.чЦепочкуСимволов8ДоБелогоПоляИлиВКавычках(name);

	если name = "SSE2" то
		FillTablesSSE2;
		Transform := TransformSSE2;
		status := SSE2;
		context.out.пСтроку8("IDCT: SSE2 method"); context.out.пВК_ПС;
	аесли name = "SSE" то
		FillTablesSSE;
		Transform := TransformSSE;
		status := SSE;
		context.out.пСтроку8("IDCT: SSE method"); context.out.пВК_ПС;
	аесли name = "INT" то
		FillTablesINT;
		Transform := TransformINT;
		status := INT;
		context.out.пСтроку8("IDCT: INT method"); context.out.пВК_ПС;
	иначе
		CheckFeatures;
	всё;
кон Change;

нач
	RNDINVROW := 1024 * (6 - BITSINVACC);
	RNDINVCOL := 16 * (BITSINVACC - 3);
	RNDINVCORR := RNDINVCOL - 1;
	CheckFeatures;
кон IDCT.

IDCT.Change INT ~
IDCT.Change SSE ~
IDCT.Change SSE2 ~

IDCT.Obx ~
System.Free IDCT ~
