(* CAPO - Computational Analysis Platform for Oberon - by Alan Freed and Felix Friedrich. *)
(* Version 1, Update 2 *)
модуль ArrayXdBytes;   (**  AUTHOR "fof"; PURPOSE "Collection of all generic procedures on Xd arrays.";  **)

(* collection of all generic procedures on arbitrary dimenional arrays with arbitrary origin
to increase speed, this module may be compiled with the \x option (index checks disabled) <- not yet *)

(* any item containing the string "dbg" will be removed from this module, do NOT use *)

использует НИЗКОУР, Array1dBytes, dbgOut := ЛогЯдра, DataIO;

конст

	strongIndexChecking = истина;  debug = ложь;

тип
	Index* = цел32;
	IndexArray* = укль на массив из Index;
	Address* = цел32;

тип
	(** basic memory structure for arrays with arbitrary dimension  *)

	ArrayMemoryStructure* = окласс
	перем
	(* do not change the interface -> asm routines *)
		(** contiuous memory block *)
		baseadr: Index;   (* lowest byte allocated for "MemoryDesc" = included *)
		bytes-: Index;   (* size of memory used in BYTES (8bit) *)
		(** xd array description*)
		dim-: Index;   (* dimension= LEN(len)=LEN(diminc) *)
		len-: IndexArray;   (* length per dimension*)
		diminc-: IndexArray;   (* dimincrease factor per dimension, do NOT expect diminc[0] < diminc[1] < ... ! *)
		elementsize: Index;   (* length of basic element in bytes *)
		origin-: IndexArray;
		adrwoffset: Index;   (* starting adress calculated with offset *)
	кон ArrayMemoryStructure;

тип

	(** element enumerator:
		if block = FALSE then traverses memory elementwise respecting dimension orders, 	e.g. a[0,0,0],a[0,0,1], ... , a[l3,l2,l1-1],a[l3,l2,l1] ,
		if block = TRUE then traverses memory blockwise with largest continuous blocks, 	e.g. (a[0,0,0]-a[0,l2,l1]), (a[1,0,0]-a[1,l2,l1]), ... , (a[l3,0,0]-a[l3,l2,1])*)

	Enumerator* = окласс
	перем dim: цел32;
		mem: ArrayMemoryStructure;
		adr-, size-: цел32;
		lncdim: цел32;   (* lowest not continuous dimension *)
		pos-, origin, len: IndexArray;

		проц & Init*( mem: ArrayMemoryStructure;  enumorigin, enumlen: IndexArray;  block: булево );
		перем i: цел32;
		нач
			сам.mem := mem;
			если enumorigin = НУЛЬ то enumorigin := mem.origin всё;
			если enumlen = НУЛЬ то enumlen := mem.len всё;
			(* range checks must be done in higher level *)

			dim := длинаМассива( enumorigin );  lncdim := 0;  CheckIndexArray( dim, pos );  origin := enumorigin;  len := enumlen;
			size := mem.elementsize;  adr := mem.baseadr;  i := 0;
			нцПока (i < dim) делай
				pos[i] := origin[i];  увел( adr, (origin[i] - mem.origin[i]) * mem.diminc[i] );
				если block и (len[i] = mem.len[i]) и (size = mem.diminc[i]) то size := size * len[i];  увел( lncdim )
				иначе block := ложь;   (* stop at lowest continuous block *)
				всё;
				увел( i );
			кц;
			если debug то dbgOut.пСтроку8( "Enumerator.init, lncdim:" );  dbgOut.пЦел64( lncdim, 0 );  dbgOut.пВК_ПС;  всё;
			утв ( size # 0 );
		кон Init;

		проц Next*( ): булево;
		перем i, j: цел32;  org, length: цел32;
		нач
			если lncdim = dim то
				если debug то dbgOut.пСтроку8( "Enumerator.next: all continuous, dim=" );  dbgOut.пЦел64( lncdim, 0 );  dbgOut.пВК_ПС;  всё;
				возврат ложь
			всё;   (* all continuous *)
			i := lncdim;  увел( pos[i] );  увел( adr, mem.diminc[i] );  org := origin[i];  length := len[i];
			нцПока (i < dim - 1) и (pos[i] = org + length) делай  (* find next dimension to increase *)
				pos[i] := org;  умень( adr, mem.diminc[i] * length );  увел( i );  увел( pos[i] );  увел( adr, mem.diminc[i] );  org := origin[i];
				length := len[i];
			кц;
			если debug то
				j := 0;  dbgOut.пСтроку8( "Enumerator.next:" );
				нцПока (j < dim) делай dbgOut.пЦел64( pos[j], 0 );  dbgOut.пСтроку8( "|" );  увел( j );  кц;
				dbgOut.пВК_ПС;
			всё;
			возврат (pos[i] # org + length);
		кон Next;

	кон Enumerator;

тип
	Array* = окласс (ArrayMemoryStructure)
	перем  (**)
		protector: динамическиТипизированныйУкль;   (* temporary pointer to protect data from being garbage collected *)
		permutation-: IndexArray;   (* permutation used for INTERNALLY accessing the data. *)
		bc-: цел8;   (* boundary condition, abstract *)
		(** public values *)
		(* boundaryCondition-: SIGNED8;   *)
		(* used-: IndexArray;   (*  in preparation *)*)

		(** cache variables for faster access *)
		f0, f1, f2, f3: Index;   (* cache data for dimensions 1-4 *)
		o0-, o1-, o2-, o3-, l0-, l1-, l2-, l3-: Index;   (* cache data for dimensions 1-4 *)
		(* generally: range checks are done on 1d array only, not for each dimension *)

		проц dbgWriteInfo*;
		нач
			dbgWriteMemoryInfo( сам );
		кон dbgWriteInfo;


	(** get information about elementsize, must be provided by each implementation of Array *)
		проц GetInfo*( перем elementsize: цел32 );
		нач
			СТОП( 1001 );   (* abstract *)
		кон GetInfo;

		проц SetBoundaryCondition*( c: цел8 );   (* to be overridden in higher level modules to determine access methods*)
		нач
			bc := c;
		кон SetBoundaryCondition;

	(** Allocate memory, should be provided by each implementation of Arrays but can also be done here *)
		проц Allocate*( size: цел32;  перем baseadr: цел32;  перем protector: динамическиТипизированныйУкль );
		перем alloc: укль на массив из НИЗКОУР.октет;
		нач
			нов( alloc, size * elementsize );  baseadr := адресОт( alloc[0] );  protector := alloc;
		кон Allocate;

		проц ValidateCache*;
		перем i: цел32;
		нач
			если dim > 3 то f3 := diminc[3];  o3 := origin[3];  l3 := len[3];  иначе f3 := 0;  l3 := 0;  всё;
			если dim > 2 то f2 := diminc[2];  o2 := origin[2];  l2 := len[2];  иначе f2 := 0;  l2 := 0;  всё;
			если dim > 1 то f1 := diminc[1];  o1 := origin[1];  l1 := len[1];  иначе f1 := 0;  l1 := 0;  всё;
			если dim > 0 то f0 := diminc[0];  o0 := origin[0];  l0 := len[0];  иначе f0 := 0;  l0 := 0;  всё;
			i := 0;  adrwoffset := baseadr;
			нцПока (i < dim) делай adrwoffset := adrwoffset - origin[i] * diminc[i];  увел( i );  кц;
		кон ValidateCache;

		проц Init( newdim: цел32 );
		нач
			dim := newdim;  CheckIndexArray( dim, len );  CheckIndexArray( dim, origin );
			CheckIndexArray( dim, permutation );  CheckIndexArray( dim, diminc );
		кон Init;

	(** NewXdb, allocate memory for the array,  should be called by any constructors of an implementation of array *)
		проц & NewXdB*( neworigin, newlen: IndexArray);
		перем i, size: цел32;
		нач
			Init( длинаМассива( newlen ) );
			если newlen[0] = 0 то возврат всё;   (* newlen[0]=0: create empty array for load procedure *)
			GetInfo( elementsize );  size := elementsize;
			нцДля i := 0 до dim - 1 делай size := size * newlen[i];  len[i] := newlen[i];  origin[i] := neworigin[i];  permutation[i] := i кц;
			Allocate( size DIV elementsize, baseadr, protector );  ComputeIncrease( len, permutation, elementsize, diminc );
			bytes := diminc[dim - 1] * len[dim - 1];  ValidateCache;  SetBoundaryCondition( bc );
		кон NewXdB;

	(** AlikeX, return Array with same geometry, abstract, must be provided by any implementation of Array*)
		проц AlikeX*( ): Array;
		нач
			СТОП( 2002 );   (* abstract *)
		кон AlikeX;

	(** Copy: returns a deep copy of Array *)
		проц CopyX*( ): Array;
		перем copy: Array;  i: Index;
		нач
			copy := AlikeX();
			утв ( bytes = copy.bytes ) (* should never happen, for dbgging  only *) ;
			НИЗКОУР.копируйПамять( baseadr, copy.baseadr, bytes );  i := 0;  возврат copy;
		кон CopyX;

	(** resize and / or shift origin, if copydata=TRUE then all data at same positions are kept *)
		проц NewRangeX*( neworigin, newlen: IndexArray;  preservedata: булево );
		(* reduce or extend dimensions with copy *)
		перем same: булево;  i: цел32;  olddata: ArrayMemoryStructure;

		нач
			если длинаМассива( newlen ) # длинаМассива( neworigin ) то СТОП( 1001 ) всё;

			(* check if len equals old len*)
			если длинаМассива( newlen ) = dim то
				same := истина;  i := 0;
				нцПока (i < dim) и same делай
					если (newlen[i] # len[i]) или (neworigin[i] # origin[i]) то same := ложь всё;
					увел( i );
				кц;
				если same то возврат всё;
			всё;

			если preservedata то нов( olddata );  AMSCopyDescr( сам, olddata );
			всё;
			NewXdB( neworigin, newlen );
			если preservedata то CopyDataPositionPreserving( olddata, сам ) всё;
			(* now setting new values *)
		кон NewRangeX;

	(** optimize access for the dimensions ordered as given in "order". modifies the internal representation of the data *)
		проц OptimizeForAccess*( order: массив из Index;  preservedata: булево );
		перем old: ArrayMemoryStructure;
		нач
			если preservedata то нов( old );  AMSCopyDescr( сам, old ) всё;
			если CompletePermutation( order, permutation^ ) то
				ComputeIncrease( len, permutation, elementsize, diminc );  ValidateCache;
				если preservedata то
					Allocate( bytes DIV elementsize, baseadr, protector );  ValidateCache;
					CopyDataByCoordinateTraversal( old, сам );
				всё;
			всё;
		кон OptimizeForAccess;

	(** optimize access for the dimensions ordered as given in "order". modifies the internal representation of the data but does NOT affect SELF.permutation! *)
		проц PermuteDimensions*( permutation: IndexArray;  rearrangeMemory: булево );
		перем old: ArrayMemoryStructure;
		нач
			если CheckPermutation( dim, permutation ^) то
				ApplyPermutation( permutation^, origin^ );  ApplyPermutation( permutation^, len^ );
				ApplyPermutation( permutation^, diminc^ );  ApplyPermutation( permutation^, сам.permutation^ );
				ValidateCache;
				если rearrangeMemory то
					нов( old );  AMSCopyDescr( сам, old );  NewXdB( origin, len );  CopyDataByCoordinateTraversal( old, сам );
				всё;
			всё;
		кон PermuteDimensions;

		(** delete  <lenght> elements in dimension <dimension> at position <first> *)
	(** example:delete columns from matrix, remove data to vector etc. *)
		проц DeleteElements*( dimension, first, length: Index );
		перем old: ArrayMemoryStructure;  srco, desto, destlen: IndexArray;
		нач
			(** index checks: *)
			если (dimension < 0) или (dimension >= dim) то СТОП( 1001 ) всё;
			если (first < origin[dimension]) или (first + length > origin[dimension] + len[dimension]) то СТОП( 1002 ) всё;

			(** computation *)
			нов( old );  AMSCopyDescr( сам, old );  умень( len[dimension], length );  NewXdB( origin, len );

			нов( destlen, dim );  CopyIndexArray( old.len^, destlen );  нов( srco, dim );  CopyIndexArray( old.origin^, srco );
			нов( desto, dim );  CopyIndexArray( origin^, desto );

			если first > srco[dimension] то
				destlen[dimension] := first - srco[dimension];
				CopyArrayPartToArrayPart( old, сам, old.origin, destlen, origin, destlen );
			всё;
			если (first + length) < (old.origin[dimension] + old.len[dimension]) то
				desto[dimension] := first;  srco[dimension] := first + length;
				destlen[dimension] := (old.origin[dimension] + old.len[dimension]) - (first + length);
				CopyArrayPartToArrayPart( old, сам, srco, destlen, desto, destlen );
			всё;
		кон DeleteElements;

		(** insert <lenght> elements in dimension <dimension> at position <first> *)
	(** example: insert new columns in matrix, append data to vector etc. *)
		проц InsertElements*( dimension, first, length: Index );
		перем old: ArrayMemoryStructure;  srco, desto, destlen: IndexArray;
		нач
			(** index checks: *)
			если (dimension < 0) или (dimension >= dim) то СТОП( 1001 ) всё;
			если (first < origin[dimension]) или (first > origin[dimension] + len[dimension]) то СТОП( 1002 ) всё;

			нов( old );  AMSCopyDescr( сам, old );  увел( len[dimension], length );  NewXdB( origin, len );

			нов( destlen, dim );  CopyIndexArray( old.len^, destlen );  нов( srco, dim );  CopyIndexArray( old.origin^, srco );
			нов( desto, dim );  CopyIndexArray( origin^, desto );

			если first > srco[dimension] то
				destlen[dimension] := first - srco[dimension];
				CopyArrayPartToArrayPart( old, сам, old.origin, destlen, origin, destlen );
			всё;
			если (first) < (old.origin[dimension] + old.len[dimension]) то
				desto[dimension] := first + length;  srco[dimension] := first;
				destlen[dimension] := (old.origin[dimension] + old.len[dimension]) - (first);
				CopyArrayPartToArrayPart( old, сам, srco, destlen, desto, destlen );
			всё;

		кон InsertElements;

	(** exchange elements at pos1 and pos2 in dimension <dimension>. *)
		проц ToggleElements*( dimension: Index;  pos1, pos2: Index );
		перем offset1, offset2, swaplen, diminclen, srcadr, stop, dataadr: цел32;  swapcache: IndexArray;
		нач
			если (dimension < 0) или (dimension >= dim) то СТОП( 1001 );  всё;
			если (pos1 < origin[dimension]) или (pos1 >= origin[dimension] + len[dimension]) то СТОП( 1002 ) всё;
			если (pos2 < origin[dimension]) или (pos2 >= origin[dimension] + len[dimension]) то СТОП( 1002 ) всё;

			offset1 := diminc[dimension] * (pos1 - origin[dimension]);
			offset2 := diminc[dimension] * (pos2 - origin[dimension]);  swaplen := diminc[dimension];
			diminclen := diminc[dimension] * len[dimension];

			нов( swapcache, swaplen );  dataadr := адресОт( swapcache[0] );  stop := baseadr + bytes;  srcadr := baseadr;

			нцПока (srcadr < stop) делай
				Array1dBytes.MoveB( srcadr + offset2, dataadr, swaplen );
				Array1dBytes.MoveB( srcadr + offset1, srcadr + offset2, swaplen );
				Array1dBytes.MoveB( dataadr, srcadr + offset1, swaplen );  увел( srcadr, diminclen );
			кц;

		кон ToggleElements;
	(** permute elements in dimension <dimension>, permutation must have length len[dimension] *)
		проц PermuteElements*( dimension: Index;  permutation: массив из Index );
		перем i, swaplen, diminclen, stop, srcadr, dataadr: цел32;  swapcache: IndexArray;
		нач
			(** index checks: *)
			если (dimension < 0) или (dimension >= dim) то СТОП( 1001 );  всё;
			если длинаМассива( permutation ) # len[dimension] то СТОП( 1002 ) всё;
			если длинаМассива( permutation ) = 1 то возврат всё;
			нцПока (i < длинаМассива( permutation )) делай
				permutation[i] := permutation[i] - origin[dimension];
				если permutation[i] >= длинаМассива( permutation ) то СТОП( 1003 ) всё;
				увел( i );
			кц;
			(** computation *)

			swaplen := diminc[dimension];  diminclen := diminc[dimension] * len[dimension];  нов( swapcache, diminclen );
			dataadr := адресОт( swapcache[0] );  stop := baseadr + bytes;  srcadr := baseadr;

			нцПока (srcadr < stop) делай
				i := 0;
				нцПока (i < len[dimension]) делай
					Array1dBytes.MoveB( srcadr + swaplen * permutation[i], dataadr + swaplen * i, swaplen );  увел( i );
				кц;
				Array1dBytes.MoveB( dataadr, srcadr, diminclen );  увел( srcadr, diminclen );
			кц;
		кон PermuteElements;

	(** reverse order of elements in dimension <dimension> *)
		проц MirrorDimension*( dimension: Index );
		перем swaplen, diminclen, srcadr, stop, i, stop2: цел32;  dataadr: цел32;  swapcache: IndexArray;
		нач
			если (dimension < 0) или (dimension >= dim) то СТОП( 1001 );  всё;

			swaplen := diminc[dimension];
			если dimension < dim - 1 то diminclen := diminc[dimension + 1] иначе diminclen := bytes всё;
			stop := baseadr + bytes;  srcadr := baseadr;  stop2 := len[dimension] DIV 2;  нов( swapcache, swaplen );
			dataadr := адресОт( swapcache[0] );

			нцПока (srcadr < stop) делай
				i := 0;
				нцПока (i < stop2) делай
					Array1dBytes.MoveB( srcadr + diminclen - (i + 1) * swaplen, dataadr, swaplen );
					Array1dBytes.MoveB( srcadr + i * swaplen, srcadr + diminclen - (i + 1) * swaplen, swaplen );
					Array1dBytes.MoveB( dataadr, srcadr + i * swaplen, swaplen );  увел( i );
				кц;
				увел( srcadr, diminclen );
			кц;
		кон MirrorDimension;
	(** copy block of data within dimension <dimension> from <from> to <to> *)
		проц BlockCopy*( dimension, from, to, length: Index );
		перем swaplen, diminclen, stop: цел32;
			(*! todo: handle used *)
		нач
			если (dimension < 0) или (dimension >= dim) то СТОП( 1001 );  всё;

			from := (from - origin[dimension]);  to := (to - origin[dimension]);

			если (from < origin[dimension]) или (from + length > origin[dimension] + len[dimension]) то СТОП( 1002 )
			всё;
			если (to < origin[dimension]) или (to + length > origin[dimension] + len[dimension]) то СТОП( 1002 ) всё;

			если from = to то возврат
			всё;

			from := from * diminc[dimension];  to := to * diminc[dimension];  swaplen := diminc[dimension] * length;
			diminclen := diminc[dimension] * len[dimension];

			stop := baseadr + bytes;  увел( from, baseadr );  увел( to, baseadr );
			нцПока (from < stop) делай Array1dBytes.MoveB( from, to, swaplen );  увел( from, diminclen );  увел( to, diminclen );  кц;

		кон BlockCopy;
	(** move block of data within dimension <dimension> from <from> to <to> *)
		проц BlockMove*( dimension, from, to, length: Index );
		перем swaplen, diminclen, stop: цел32;  movefrom, moveto, movelen, dataadr: цел32;  swapcache: IndexArray;
			(*! todo: handle used *)
		нач
			если (dimension < 0) или (dimension >= dim) то СТОП( 1001 );  всё;

			from := (from - origin[dimension]);  to := (to - origin[dimension]);

			если (from < 0) или (from + length > len[dimension]) то СТОП( 1002 )
			всё;
			если (to < 0) или (to + length > len[dimension]) то СТОП( 1002 ) всё;

			если from = to то возврат
			всё;

			from := from * diminc[dimension];  to := to * diminc[dimension];  swaplen := diminc[dimension] * length;
			diminclen := diminc[dimension] * len[dimension];

			нов( swapcache, swaplen );  dataadr := адресОт( swapcache[0] );

			если from < to то movefrom := (from + swaplen);  movelen := (to - from);  moveto := from;
			иначе  (* to < from *)
				movefrom := to;  movelen := (from - to);  moveto := to + swaplen;
			всё;

			stop := baseadr + bytes;  увел( from, baseadr );  увел( to, baseadr );  увел( movefrom, baseadr );  увел( moveto, baseadr );

			нцПока (from < stop) делай
				Array1dBytes.MoveB( from, dataadr, swaplen );  Array1dBytes.MoveB( movefrom, moveto, movelen );
				Array1dBytes.MoveB( dataadr, to, swaplen );  увел( from, diminclen );  увел( to, diminclen );  увел( movefrom, diminclen );
				увел( moveto, diminclen );
			кц;

		кон BlockMove;

		проц LoadXd*( перем R: DataIO.Reader );
		перем version, i, size: цел32;  readRawData: булево;  readbytes: цел32;
		нач
			R.чЦел32_мз( version );  R.чЦел32_мз( dim );  нов( len, dim );  нов( diminc, dim );  нов( origin, dim );  нов( permutation, dim );
			GetInfo( elementsize );  size := 1;
			нцДля i := 0 до dim - 1 делай R.чЦел32_мз( len[i] );  size := size * len[i];  кц;
			Allocate( size, baseadr, protector );  bytes := size * elementsize;
			нцДля i := 0 до dim - 1 делай R.чЦел32_мз( diminc[i] );  кц;
			(* elementsize already set via GetInfo *)
			нцДля i := 0 до dim - 1 делай R.чЦел32_мз( origin[i] );  кц;
			(* protector set via Allocate *)
			нцДля i := 0 до dim - 1 делай R.чЦел32_мз( permutation[i] );  кц;
			ValidateCache;  R.чЦел8_мз( bc );  SetBoundaryCondition( bc );
			(* cache variables set via ValidateCache *)
			R.чБулево_мз( readRawData );
			если readRawData то R.чЦел32_мз( readbytes );
				утв ( readbytes = bytes );
				утв ( bytes # 0 );
				ReadMemory( R, baseadr, bytes, readbytes );
				утв ( readbytes = bytes )
			всё;
		кон LoadXd;

		проц StoreXd*( перем W: DataIO.Writer;  storeRawData: булево );
		конст version = 0;
		перем i: цел32;
		нач
			W.пЦел32_мз( version );
			(* baseadr+bytes set while Allocation *)
			W.пЦел32_мз( dim );
			нцДля i := 0 до dim - 1 делай W.пЦел32_мз( len[i] );  кц;
			нцДля i := 0 до dim - 1 делай W.пЦел32_мз( diminc[i] );  кц;
			(* elementsize set via GetInfo *)
			нцДля i := 0 до dim - 1 делай W.пЦел32_мз( origin[i] );  кц;
			(* protector set via Allocate *)
			нцДля i := 0 до dim - 1 делай W.пЦел32_мз( permutation[i] );  кц;
			(* cache variables set via ValidateCache *)
			W.пЦел8_мз( bc );  W.пБулево_мз( storeRawData );
			если storeRawData то
				утв ( bytes # 0 );
				W.пЦел32_мз( bytes );  StoreMemory( W, baseadr, bytes );
			всё;
		кон StoreXd;

	кон Array;

	Rectangle = окласс
	перем origin, len, destpos, destlen: IndexArray;
		next: Rectangle;
	кон Rectangle;

	BoundaryEnum* = окласс  (* object for enumeration of boundaries of a w.r.t (origin,len), additionally destination*)
	перем root: Rectangle;

		проц & Init*( a: Array;  origin, len: IndexArray );
		перем dim, this: цел32;  rect: Rectangle;  rectorigin, rectlen: IndexArray;  i: цел32;  done: булево;

			проц Min( x, y: Index ): Index;
			нач
				если x < y то возврат x иначе возврат y всё;
			кон Min;

			проц Max( x, y: Index ): Index;
			нач
				если x > y то возврат x иначе возврат y всё;
			кон Max;

			проц CutLower( перем outero, outerlen: Index;  innero, innerlen: Index ): булево;
			нач
				если outero < innero то увел( outerlen, outero );  outerlen := Min( outerlen, innero ) - outero;  возврат истина
				иначе возврат ложь
				всё;
			кон CutLower;

			проц CutHigher( перем outero, outerlen: Index;  innero, innerlen: Index ): булево;
			нач
				если outero + outerlen > innero + innerlen то
					увел( outerlen, outero );  outero := Max( innero + innerlen, outero );  outerlen := outerlen - outero;  возврат истина
				иначе возврат ложь
				всё;
			кон CutHigher;

		нач
			dim := длинаМассива( origin );
			утв ( dim = a.dim );
			утв ( длинаМассива( origin ) = длинаМассива( len ) );

			done := ложь;  this := dim - 1;

			нцПока (this >= 0) и (~done) делай  (* look for largest blocks in highest dimension *)

				если rectlen = НУЛЬ то нов( rectorigin, dim );  нов( rectlen, dim );  всё;
				нцДля i := 0 до dim - 1 делай rectorigin[i] := origin[i];  rectlen[i] := len[i];  кц;
				если CutLower( rectorigin[this], rectlen[this], a.origin[this], a.len[this] ) то
					увел( origin[this], rectlen[this] );  умень( len[this], rectlen[this] );
					если len[this] = 0 то done := истина всё;
					нов( rect );  rect.next := root;  root := rect;  rect.len := rectlen;  rect.origin := rectorigin;  rectorigin := НУЛЬ;
					rectlen := НУЛЬ;
				всё;
				если ~done то
					если rectlen = НУЛЬ то нов( rectorigin, dim );  нов( rectlen, dim );  всё;
					нцДля i := 0 до dim - 1 делай rectorigin[i] := origin[i];  rectlen[i] := len[i];  кц;
					если CutHigher( rectorigin[this], rectlen[this], a.origin[this], a.len[this] ) то
						умень( len[this], rectlen[this] );
						если len[this] = 0 то done := истина всё;
						нов( rect );  rect.next := root;  root := rect;  rect.len := rectlen;  rect.origin := rectorigin;  rectorigin := НУЛЬ;
						rectlen := НУЛЬ;
					всё;
				всё;
				умень( this );
			кц;
		кон Init;

		проц Get*( перем origin, len: IndexArray ): булево;
		нач
			если root # НУЛЬ то origin := root.origin;  len := root.len;  root := root.next;  возврат истина иначе возврат ложь всё;
		кон Get;

	кон BoundaryEnum;

	(* The in-line assember code works in WinAos, but not in Aos.  Why?  We don't know yet.
	(** store memory to Writer as if it was ARRAY OF CHAR *)
	PROCEDURE StoreMemory( W: DataIO.Writer;  baseadr: SIGNED32;  len: SIGNED32 );
	VAR proc: PROCEDURE {DELEGATE} ( VAR x: ARRAY OF CHAR;  ofs, len: SIGNED32 );

		PROCEDURE PushAndCall( writer: SIGNED32;  call: SIGNED32;  baseadr: SIGNED32;  len: SIGNED32 );
		CODE {SYSTEM.i386}
			PUSH	len[EBP]	;  array length
			PUSH	baseadr[EBP]	;  array position array[0]
			XOR	EAX, EAX	;
			PUSH	EAX	;  offset
			PUSH	len[EBP]	;  len
			PUSH	writer[EBP]	;  writer
			CALL	call[EBP]	;  now call W.Bytes
		END PushAndCall;

	BEGIN
		proc := W.Bytes;  PushAndCall( SYSTEM.VAL( SIGNED32, W ), SYSTEM.VAL( SIGNED32, proc ), baseadr, len );
	END StoreMemory;


(** read memory from reader as if it was ARRAY OF CHAR *)
	PROCEDURE ReadMemory( R: DataIO.Reader;  baseadr: SIGNED32;  size: SIGNED32;  VAR len: SIGNED32 );
	VAR proc: PROCEDURE {DELEGATE} ( VAR x: ARRAY OF CHAR;  ofs, size: SIGNED32;  VAR len: SIGNED32 );

		PROCEDURE PushAndCall( reader: SIGNED32;  call: SIGNED32;  baseadr: SIGNED32;  size: SIGNED32;  lenadr: SIGNED32 );
		CODE {SYSTEM.i386}
			PUSH	len[EBP]	;
			PUSH	baseadr[EBP]
			XOR	EAX, EAX
			PUSH	EAX
			PUSH	size[EBP]
			PUSH	lenadr[EBP]
			PUSH	reader[EBP]
			CALL	call[EBP]
		END PushAndCall;

	BEGIN
		proc := R.Bytes;  PushAndCall( SYSTEM.VAL( SIGNED32, R ), SYSTEM.VAL( SIGNED32, proc ), baseadr, size, ADDRESSOF( len ) );
	END ReadMemory;
*)

	(** oberon versions of Store and Read Memory: *)
	проц StoreMemory( W: DataIO.Writer;  baseadr: цел32;  len: цел32 );   (* store memory to Writer  *)
	перем adr: цел32;  char: симв8;
	нач
		adr := baseadr;  увел( len, baseadr );
		нцПока (adr < len) делай НИЗКОУР.прочтиОбъектПоАдресу( adr, char );  W.пСимв8( char );  увел( adr );  кц;
	кон StoreMemory;

	проц ReadMemory( R: DataIO.Reader;  baseadr: цел32;  size: цел32;  перем len: цел32 );   (* read memory from reader *)
	перем adr: цел32;  char: симв8;
	нач
		adr := baseadr;  увел( size, baseadr );  len := 0;
		нцПока (adr < size) делай R.чСимв8( char );  НИЗКОУР.запишиОбъектПоАдресу( adr, char );  увел( adr );  увел( len );  кц;
	кон ReadMemory;


(** helper procedures , should be in-lined some time*)

	проц CheckIndexArray( dim: Index;  перем a: IndexArray );
	нач
		если (a = НУЛЬ ) или (длинаМассива( a ) # dim) то нов( a, dim ) всё;
	кон CheckIndexArray;

	проц CopyIndexArray( src: массив из Index;  dest: IndexArray );
	перем i: цел32;
	нач
		i := 0;
		нцПока (i < длинаМассива( dest )) делай dest[i] := src[i];  увел( i );  кц;
	кон CopyIndexArray;

	проц Intersect*( org1, len1, org2, len2: IndexArray;  перем org, len: IndexArray ): булево;
	перем i, dim: цел32;  o1, o2, l1, l2: цел32;
	нач
		если (длинаМассива( org1 ) # длинаМассива( len1 )) или (длинаМассива( org2 ) # длинаМассива( len2 )) то СТОП( 1000 ) всё;
		dim := матМинимум( длинаМассива( org1 ), длинаМассива( org2 ) );  нов( org, dim );  нов( len, dim );  i := 0;
		(*dbgSISISI("Intersection, from dims ",LEN(org1)," & ",LEN(org2)," to ",dim); *)
		нцПока (i < dim) делай
			o1 := org1[i];  o2 := org2[i];  l1 := len1[i] + o1;  l2 := len2[i] + o2;
			если o1 > o2 то org[i] := o1 иначе org[i] := o2 всё;
			если l1 < l2 то len[i] := l1 - org[i] иначе len[i] := l2 - org[i] всё;
			если len[i] <= 0 то возврат ложь всё;
			(*
			dbgSISISI("o1=",o1," o2=",o2," o=",org[i]);
			dbgSISISI("l1= ",len1[i]," l2= ",len2[i]," l=",len[i]);
			*)
			увел( i );

		кц;

		возврат истина;
	кон Intersect;

	проц -CheckLEQ*( lesseq, than: цел32 );
	(* invoke trap  INDEX OUT OF RANGE   if lesseq > than *)
	машКод {SYSTEM.i386}
		MOV	ECX, [ESP]	;  than
		MOV	EBX, [ESP+4]	;  less
		CMP	EBX, ECX
		JLE	ok
		PUSH	7
		INT	3
		ok:
		ADD	ESP, 8
	кон CheckLEQ;

	проц -CheckLE*( lesseq, than: цел32 );
	(* invoke trap  INDEX OUT OF RANGE   if lesseq > than *)
	машКод {SYSTEM.i386}
		MOV	ECX, [ESP]	;  than
		MOV	EBX, [ESP+4]	;  less
		CMP	EBX, ECX
		JL	ok
		PUSH	7
		INT	3
		ok:
		ADD	ESP, 8
	кон CheckLE;

	проц -CheckEQ*( equals, this: цел32 );
	(* invoke trap  INDEX OUT OF RANGE   if equals # this *)
	(*
		Oberon code for CheckEQ:
		PROCEDURE CheckEQ*(lesseq,than: SIGNED32)
		BEGIN IF this=equals THEN HALT(100) (* in asm:  invoke trap  INDEX OUT OF RANGE *)  END; END CheckEQ;
	*)
	машКод {SYSTEM.i386}
		MOV	ECX, [ESP]	;  this
		MOV	EBX, [ESP+4]	;  equals
		CMP	EBX, ECX
		JE	ok
		PUSH	7
		INT	3
		ok:
		ADD	ESP, 8
	кон CheckEQ;

(** chck permutation for validity, precondition: permutation has less  than 2^31 entries since bit 31 is used for marking *)
	проц CheckPermutation( dim: цел32;  перем permutation: массив из цел32 ): булево;
	перем i, j: цел32;  valid: булево;  set: мнвоНаБитахМЗ;
	нач
		если длинаМассива( permutation ) # dim то возврат ложь всё;
		i := 0;
		нцПока (i < dim) делай
			j := НИЗКОУР.подмениТипЗначения( цел32, НИЗКОУР.подмениТипЗначения( мнвоНаБитахМЗ, permutation[i] ) - {31} );  включиВоМнвоНаБитах( НИЗКОУР.подмениТипЗначения( мнвоНаБитахМЗ, permutation[j] ), 31 );  увел( i );
		кц;
		i := 0;  valid := истина;
		нцПока (i < dim) делай
			set := НИЗКОУР.подмениТипЗначения( мнвоНаБитахМЗ, permutation[i] );
			если 31 в set то исключиИзМнваНаБитах( set, 31 ) иначе valid := ложь всё;
			permutation[i] := НИЗКОУР.подмениТипЗначения( цел32, set );  увел( i );
		кц;
		возврат valid;
	кон CheckPermutation;

(** make a valid permutation from firstpart of permutation, i.e. extend to len LEN(permutation) and check for validity
	example: beginning = (3,4), full = (1,2,3,4,5) -> full = (3,4,1,2,5)
	*)
	проц CompletePermutation( beginning: массив из цел32;  full: массив из цел32 ): булево;
	перем srcdim, destdim, i, j, val, this, next: цел32;
	нач
		srcdim := длинаМассива( beginning );  destdim := длинаМассива( full );
		если srcdim > destdim то СТОП( 100 ) всё;
		i := 0;
		нцПока (i < destdim) делай full[i] := i;  увел( i );  кц;
		i := 0;
		нцПока (i < srcdim) делай  (* check and insert, when possible *)
			val := beginning[i];  j := i;  this := full[i];  full[i] := val;
			нцПока (j < destdim - 1) и (this # val) делай  (* search *)
				увел( j );  next := full[j];  full[j] := this;  this := next;
			кц;
			если (j = destdim - 1) и (this # val) то  (* value not found in rest, i.e. no valid permutation ! *)
				возврат ложь;
			всё;
			увел( i );
		кц;
		возврат истина;
	кон CompletePermutation;

	проц ApplyPermutation( permutation: массив из Index;  перем array: массив из Index );
	перем i, dim: цел32;
	нач
		dim := длинаМассива( permutation );  i := 0;
		нцПока (i < dim) делай permutation[i] := array[permutation[i]];  увел( i );  кц;
		i := 0;
		нцПока (i < dim) делай array[i] := permutation[i];  увел( i );  кц;
	кон ApplyPermutation;

	проц IdentityPermutation( dim: цел32 ): IndexArray;
	перем a: IndexArray;  i: цел32;
	нач
		нов( a, dim );  i := 0;
		нцПока (i < dim) делай a[i] := i;  увел( i );  кц;
		возврат a;
	кон IdentityPermutation;

	проц ComputeIncrease( len: IndexArray;  permutation: IndexArray;  elementsize: цел32;  diminc: IndexArray );
	перем i: цел32;
	нач
		если permutation # НУЛЬ то
			i := 1;  diminc[permutation[0]] := elementsize;
			нцПока (i < длинаМассива( len )) делай diminc[permutation[i]] := diminc[permutation[i - 1]] * len[permutation[i - 1]];  увел( i );  кц;
		иначе
			i := 1;  diminc[0] := elementsize;
			нцПока (i < длинаМассива( len )) делай diminc[i] := diminc[i - 1] * len[i - 1];  увел( i );  кц;
		всё;
	кон ComputeIncrease;

(*
(** shallow copy: any field of ArrayMemoryStructure is copied shallow *)
	PROCEDURE AMSCopyShallow( src: ArrayMemoryStructure;  dest: ArrayMemoryStructure );
	BEGIN
		dest^ := src^;
	END AMSCopyShallow;
*)

(** description copy: fields of ArrayMemoryStructure are copied deep but not data *)
	проц AMSCopyDescr( src: ArrayMemoryStructure;  dest: ArrayMemoryStructure );
	нач
		dest^ := src^;  нов( dest.len, src.dim );  CopyIndexArray( src.len^, dest.len );  нов( dest.diminc, src.dim );
		CopyIndexArray( src.diminc^, dest.diminc );  нов( dest.origin, src.dim );  CopyIndexArray( src.origin^, dest.origin );
	кон AMSCopyDescr;

	проц EnumArrayPart( mem: ArrayMemoryStructure;  pos, len: IndexArray;  chunks: булево ): Enumerator;
	перем enum: Enumerator;  i: цел32;  check: булево;
	нач
		check := ложь;
		если pos = НУЛЬ то pos := mem.origin иначе check := истина;  всё;
		если len = НУЛЬ то len := mem.len иначе check := истина;  всё;
		(* consistency check *)
		если check то
			если (длинаМассива( pos ) # mem.dim) или (длинаМассива( len ) # mem.dim) то СТОП( 1000 ) всё;
			i := 0;
			нцПока (i < mem.dim) делай
				если (pos[i] < mem.origin[i]) или (pos[i] + len[i] > mem.origin[i] + mem.len[i]) то СТОП( 1001 ) всё;
				увел( i );
			кц;
		всё;

		нов( enum, mem, pos, len, chunks );  возврат enum;
	кон EnumArrayPart;

	(*
(* included in EnumArrayPart with: pos=NIL,len=NIL but slightly faster: *)
	PROCEDURE EnumArray( mem: ArrayMemoryStructure;  chunks: BOOLEAN ): Enumerator;
	VAR enum: Enumerator;
	BEGIN
		NEW( enum, mem, mem.origin, mem.len, chunks );  RETURN enum;
	END EnumArray;
*)

(** Traverse memory elementwise with a function proc, proc must be the adress of a  PROCEDURE (VAR l: (elementtype) );
		example with basic type FLOAT64:  TraverseMemory(ADDRESSOF(p),mem); with p := PROCEDURE (VAR l: FLOAT64); *)
	проц TraverseMemory*( proc: Address;  mem: ArrayMemoryStructure );
	перем enum: Enumerator;  len, diminclen, adr: цел32;

		проц PushAdrAndCall( adr: цел32;  calladr: цел32 );
		машКод {SYSTEM.i386}
			PUSH	[EBP+adr]	;
			CALL	[EBP+calladr]	;
			ADD	ESP, 4
		кон PushAdrAndCall;

	нач
		enum := EnumArrayPart( mem, НУЛЬ , НУЛЬ , ложь );  diminclen := mem.elementsize;
		нцДо
			len := enum.size;  adr := enum.adr;
			нцПока (len > 0) делай PushAdrAndCall( adr, proc );  умень( len, diminclen );  увел( adr, diminclen );  кц;
		кцПри ~enum.Next();
	кон TraverseMemory;

(** Traverse memory elementwise with a function proc, proc must be the adress of a  PROCEDURE (VAR l,r: (elementtype) );
	example with basic type FLOAT64;  TraverseMemory(ADDRESSOF(p),left,right); with p := PROCEDURE (VAR l,r: FLOAT64); *)
	проц TraverseMemory2*( proc: Address;  srcmem, destmem: ArrayMemoryStructure );
	перем src, dest: Enumerator;

		проц PushAdrAndCall2( src, dest: цел32;  calladr: цел32 );
		машКод {SYSTEM.i386}
			PUSH	[EBP+src]	;
			PUSH	[EBP+dest]
			CALL	[EBP+calladr]	;
			ADD	ESP, 8
		кон PushAdrAndCall2;

	нач
		утв ( srcmem.elementsize = destmem.elementsize );
		src := EnumArrayPart( srcmem, НУЛЬ , НУЛЬ , ложь );  dest := EnumArrayPart( destmem, НУЛЬ , НУЛЬ , ложь );
		нцДо PushAdrAndCall2( src.adr, dest.adr, proc );  кцПри ~(src.Next() и dest.Next());
	кон TraverseMemory2;

(** Traverse memory elementwise with a function proc, proc must be the adress of a  PROCEDURE (VAR l,r: (elementtype) );
	example with basic type FLOAT64;  TraverseMemory(ADDRESSOF(p),left,right,dest); with p := PROCEDURE (VAR l,r,d: FLOAT64); *)
	проц TraverseMemory3*( proc: Address;  leftmem, rightmem, destmem: ArrayMemoryStructure );
	перем left, right, dest: Enumerator;

		проц PushAdrAndCall3( left, right, dest: цел32;  calladr: цел32 );
		машКод {SYSTEM.i386}
			PUSH	[EBP+left]	;
			PUSH	[EBP+right]	;
			PUSH	[EBP+dest]	;
			CALL	[EBP+calladr]	;
			ADD	ESP, 12
		кон PushAdrAndCall3;

	нач
		утв ( leftmem.elementsize = rightmem.elementsize );
		утв ( rightmem.elementsize = destmem.elementsize );
		left := EnumArrayPart( leftmem, НУЛЬ , НУЛЬ , ложь );  right := EnumArrayPart( rightmem, НУЛЬ , НУЛЬ , ложь );
		dest := EnumArrayPart( destmem, НУЛЬ , НУЛЬ , ложь );
		нцДо PushAdrAndCall3( left.adr, right.adr, dest.adr, proc );  кцПри ~(left.Next() и right.Next() и dest.Next());
	кон TraverseMemory3;

	проц TraverseAndCopy( src, dest: Enumerator );
	перем srcdiminclen, destdiminclen, diminclen, srcadr, destadr: цел32;
	нач
		srcadr := src.adr;  destadr := dest.adr;  srcdiminclen := src.size;  destdiminclen := dest.size;
		если (srcdiminclen < destdiminclen) то diminclen := srcdiminclen иначе diminclen := destdiminclen всё;
		нцДо
			если debug то dbgSISISI( "Traverse and copy: ", srcadr, ",", destadr, ",", diminclen );  всё;
			НИЗКОУР.копируйПамять( srcadr, destadr, diminclen );  умень( srcdiminclen, diminclen );  умень( destdiminclen, diminclen );
			увел( srcadr, diminclen );  увел( destadr, diminclen );
			если srcdiminclen = 0 то
				если src.Next() то srcdiminclen := src.size;  srcadr := src.adr всё;
			всё;
			если destdiminclen = 0 то
				если dest.Next() то destdiminclen := dest.size;  destadr := dest.adr всё;
			всё;
		кцПри (srcdiminclen = 0) или (destdiminclen = 0);
		если (srcdiminclen # 0) или (destdiminclen # 0) то
			dbgS( "WARNING: Traverse and Copy: DIFFERENT SIZES " );
			если debug то СТОП( 1003 ) всё;
		всё;
	кон TraverseAndCopy;

(** copy procedure, copies data from srcmem to destmem going through src and dest elementwise.
	This procedure does NOT check for same dimensions and does NOT observe limits in each dimension but it respects global limits
	example: copying two dimensional 3x2-Matrix to one dimensional vector with length 5 yields:
	a[0,0] -> v[0], a[0,1] -> v[1], a[1,0] -> v[2], a[1,1] -> v[3], a[2,0] -> v[4]
	*)
	проц CopyDataByCoordinateTraversal*( srcmem, destmem: ArrayMemoryStructure );
	перем src, dest: Enumerator;
	нач
		если srcmem.elementsize # destmem.elementsize то СТОП( 100 ) всё;
		src := EnumArrayPart( srcmem, НУЛЬ , НУЛЬ , истина );  dest := EnumArrayPart( destmem, НУЛЬ , НУЛЬ , истина );
		TraverseAndCopy( src, dest );
	кон CopyDataByCoordinateTraversal;

	проц CopyDataRaw*( srcmem, destmem: ArrayMemoryStructure );
	перем len: цел32;
	нач
		len := матМинимум( srcmem.bytes, destmem.bytes );  НИЗКОУР.копируйПамять( srcmem.baseadr, destmem.baseadr, len );
	кон CopyDataRaw;

	проц CopyDataPositionPreserving*( srcmem, destmem: ArrayMemoryStructure );
	перем pos, len: IndexArray;  src, dest: Enumerator;
	нач
		если Intersect( srcmem.origin, srcmem.len, destmem.origin, destmem.len, pos, len ) то
			src := EnumArrayPart( srcmem, pos, len, истина );  dest := EnumArrayPart( destmem, pos, len, истина );
			TraverseAndCopy( src, dest );
		всё;
	кон CopyDataPositionPreserving;

	проц MakeMemoryStructure*( dim: цел32;  origin, len: IndexArray;  elementsize: Index;
																 baseadr: Address ): ArrayMemoryStructure;
	перем memory: ArrayMemoryStructure;
	нач
		нов( memory );  memory.dim := dim;  нов( memory.len, dim );  нов( memory.diminc, dim );  нов( memory.origin, dim );
		memory.elementsize := elementsize;  memory.baseadr := baseadr;  memory.adrwoffset := baseadr;

		Array1dBytes.MoveB( адресОт( len[0] ), адресОт( memory.len[0] ), размер16_от( цел32 ) * dim );
		Array1dBytes.MoveB( адресОт( origin[0] ), адресОт( memory.origin[0] ), размер16_от( цел32 ) * dim );
		ComputeIncrease( memory.len, НУЛЬ , elementsize, memory.diminc );

		(*  (* bug fixed in Vs 1.1 *)	(** check: *)
		i := 0;  uadr := 0;
		WHILE (i < dim) DO INC( uadr, (memory.len[i] - 1) * memory.diminc[i] );  INC( i );  END;
		memory.bytes := uadr;  *)

		memory.bytes := memory.diminc[dim - 1] * memory.len[dim - 1];  возврат memory;
	кон MakeMemoryStructure;

	проц MakeContinuousMemStruct*( adr, elements, elementsize: цел32;  перем memory: ArrayMemoryStructure );
	нач
		если memory = НУЛЬ то нов( memory ) всё;
		если memory.dim # 1 то memory.dim := 1;  нов( memory.len, 1 );  нов( memory.diminc, 1 );  нов( memory.origin, 1 );  всё;
		memory.len[0] := elements;  memory.diminc[0] := elementsize;  memory.origin[0] := 0;
		memory.elementsize := elementsize;  memory.bytes := elements * elementsize;  memory.baseadr := adr;
	кон MakeContinuousMemStruct;

	проц CheckEqDimensions*( l, r: Array );
	(*! optimzie -> inline:  *)
	перем i: цел32;
	нач
		CheckEQ( l.dim, r.dim );  CheckEQ( l.elementsize, r.elementsize );
		нцДля i := 0 до l.dim - 1 делай CheckEQ( l.len[i], r.len[i] );  CheckEQ( l.origin[i], r.origin[i] );  кц;
	кон CheckEqDimensions;

	проц ToggleDimensions*( a: Array;  d1, d2: цел32;  rearrangeMemory: булево );
	перем permutation: IndexArray;
	нач
		permutation := IdentityPermutation( a.dim );  permutation[d1] := d2;  permutation[d2] := d1;
		a.PermuteDimensions( permutation, rearrangeMemory );
	кон ToggleDimensions;

	проц dbgS( s: массив из симв8 );
	нач
		dbgOut.пСтроку8( s );  dbgOut.пВК_ПС;
	кон dbgS;

	проц dbgSI( s: массив из симв8;  i: цел32 );
	нач
		dbgOut.пСтроку8( s );  dbgOut.пЦел64( i, 10 );  dbgOut.пВК_ПС;
	кон dbgSI;

	проц dbgSISI( s: массив из симв8;  i: цел32;  s2: массив из симв8;  i2: цел32 );
	нач
		dbgOut.пСтроку8( s );  dbgOut.пЦел64( i, 1 );  dbgOut.пСтроку8( s2 );  dbgOut.пЦел64( i2, 1 );  dbgOut.пВК_ПС;
	кон dbgSISI;

	проц dbgSISISI( s: массив из симв8;  i: цел32;  s2: массив из симв8;  i2: цел32;  s3: массив из симв8;  i3: цел32 );
	нач
		dbgOut.пСтроку8( s );  dbgOut.пЦел64( i, 1 );  dbgOut.пСтроку8( s2 );  dbgOut.пЦел64( i2, 1 );  dbgOut.пСтроку8( s3 );
		dbgOut.пЦел64( i3, 1 );  dbgOut.пВК_ПС;
	кон dbgSISISI;

	проц dbgWriteMemoryInfo*( a: ArrayMemoryStructure );
	перем i: цел32;
	нач
		dbgS( "---------------------------------" );  dbgS( "DebugInfo for ArrayXdBytes.Array: " );  dbgSISI( "Array with dimension", a.dim, " and elementsize: ", a.elementsize );  dbgSISI( "Adress:", a.baseadr, "; bytes used:", a.bytes );  dbgSI( "Adr with offset:", a.adrwoffset );

		нцДля i := 0 до a.dim - 1 делай dbgS( "----------" );  dbgSI( "Index: ", i );  dbgSISISI( "origin= ", a.origin[i], ",len=", a.len[i], "diminc= ", a.diminc[i] );  кц;

		если a суть Array то
			просейТип a: Array делай dbgS( "----------" );  dbgSISI( "f0=", a.f0, "; f1=", a.f1 );  dbgSISI( "f2=", a.f2, "; f3=", a.f3 );
			всё;
		всё;
		dbgS( "---------------------------------" );

	кон dbgWriteMemoryInfo;

	проц Adr1*( a: Array;  x: Index ): Index;
	(*! optimzie -> inline:  *)
	перем adr: Index;
	нач
		adr := a.adrwoffset + x * a.f0;  Array1dBytes.AdrCheck( adr, a.baseadr, a.bytes );  возврат adr;
	кон Adr1;

	проц Adr2*( a: Array;  x, y: Index ): Index;
	(*! optimzie -> inline:  *)
	перем adr: Index;
	нач
		adr := a.adrwoffset + x * a.f0 + y * a.f1;  Array1dBytes.AdrCheck( adr, a.baseadr, a.bytes );  возврат adr;
	кон Adr2;

	проц Adr3*( a: Array;  x, y, z: Index ): Index;
	(*! optimzie -> inline:  *)
	перем adr: Index;
	нач
		adr := a.adrwoffset + x * a.f0 + y * a.f1 + z * a.f2;  Array1dBytes.AdrCheck( adr, a.baseadr, a.bytes );  возврат adr;
	кон Adr3;

	проц Adr4*( a: Array;  x, y, z, t: Index ): Index;
	(*! optimzie -> inline:  *)
	перем adr: Index;
	нач
		adr := a.adrwoffset + x * a.f0 + y * a.f1 + z * a.f2 + t * a.f3;  Array1dBytes.AdrCheck( adr, a.baseadr, a.bytes );
		возврат adr;
	кон Adr4;

	проц AdrX*( a: ArrayMemoryStructure;  перем b: массив из Index;  dim: Index ): Index;
	(*! optimzie -> inline:  *)
	перем adr, i: Index;
	нач
		CheckLEQ( dim, a.dim );  adr := a.adrwoffset;  i := 0;
		нцПока (i < dim) делай adr := adr + a.diminc[i] * b[i];   (* a.IncUsage( i, b[i] + 1 ); *) увел( i );  кц;
		Array1dBytes.AdrCheck( adr, a.baseadr, a.bytes );  возврат adr;
	кон AdrX;

	(*
	fof 080728: open array return value not allowed any more
	PROCEDURE Array1*( x: SIGNED32 ): ARRAY OF SIGNED32;
	(*! optimzie -> inline:  *)
	VAR index: IndexArray;
	BEGIN
		NEW( index, 1 );  index[0] := x;  RETURN index^;
	END Array1;
	*)


	проц Index1*( x: цел32 ): IndexArray;
	(*! optimzie -> inline:  *)
	перем index: IndexArray;
	нач
		нов( index, 1 );  index[0] := x;  возврат index;
	кон Index1;

	проц Array1*( x: цел32 ): IndexArray;
	(*! optimzie -> inline:  *)
	перем index: IndexArray;
	нач
		нов( index, 1 );  index[0] := x;  возврат index;
	кон Array1;


	(*
fof 080728: open array return value not allowed any more	PROCEDURE Array2*( x, y: SIGNED32 ): ARRAY OF SIGNED32;
	(*! optimzie -> inline:  *)
	VAR index: IndexArray;
	BEGIN
		NEW( index, 2 );  index[0] := x;  index[1] := y;  RETURN index^
	END Array2;
	*)

	проц Index2*( x, y: цел32 ): IndexArray;
	(*! optimzie -> inline:  *)
	перем index: IndexArray;
	нач
		нов( index, 2 );  index[0] := x;  index[1] := y;  возврат index
	кон Index2;

	проц Array2*( x, y: цел32 ): IndexArray;
	(*! optimzie -> inline:  *)
	перем index: IndexArray;
	нач
		нов( index, 2 );  index[0] := x;  index[1] := y;  возврат index
	кон Array2;

	(*
fof 080728: open array return value not allowed any more	PROCEDURE Array3*( x, y, z: SIGNED32 ): ARRAY OF SIGNED32;
	(*! optimzie -> inline:  *)
	VAR index: IndexArray;
	BEGIN
		NEW( index, 3 );  index[0] := x;  index[1] := y;  index[2] := z;  RETURN index^;
	END Array3;
	*)
	проц Array3*( x, y, z: цел32 ): IndexArray;
	(*! optimzie -> inline:  *)
	перем index: IndexArray;
	нач
		нов( index, 3 );  index[0] := x;  index[1] := y;  index[2] := z;  возврат index;
	кон Array3;


	проц Index3*( x, y, z: цел32 ): IndexArray;
	(*! optimzie -> inline:  *)
	перем index: IndexArray;
	нач
		нов( index, 3 );  index[0] := x;  index[1] := y;  index[2] := z;  возврат index;
	кон Index3;

	(*
	fof 080728: open array return value not allowed any more
	PROCEDURE Array4*( x, y, z, t: SIGNED32 ): ARRAY OF SIGNED32;
	(*! optimzie -> inline:  *)
	VAR index: IndexArray;
	BEGIN
		NEW( index, 4 );  index[0] := x;  index[1] := y;  index[2] := z;  index[3] := t;  RETURN index^;
	END Array4;
	*)

	проц Index4*( x, y, z, t: цел32 ): IndexArray;
	(*! optimzie -> inline:  *)
	перем index: IndexArray;
	нач
		нов( index, 4 );  index[0] := x;  index[1] := y;  index[2] := z;  index[3] := t;  возврат index;
	кон Index4;

	проц Array4*( x, y, z, t: цел32 ): IndexArray;
	(*! optimzie -> inline:  *)
	перем index: IndexArray;
	нач
		нов( index, 4 );  index[0] := x;  index[1] := y;  index[2] := z;  index[3] := t;  возврат index;
	кон Array4;

	проц IndexX*( перем a: массив из цел32 ): IndexArray;
	перем index: IndexArray;
	нач
		нов( index, длинаМассива( a ) );  НИЗКОУР.копируйПамять( адресОт( a[0] ), адресОт( index[0] ), длинаМассива( a ) * размер16_от( цел32 ) );  возврат index;
	кон IndexX;

	проц IndexCpy*( src: IndexArray ): IndexArray;
	перем dest: IndexArray;  i: цел32;
	нач
		нов( dest, длинаМассива( src ) );  i := 0;
		нцПока (i < длинаМассива( dest )) делай dest[i] := src[i];  увел( i );  кц;
		возврат dest;
	кон IndexCpy;

	проц Get1*( a: Array;  x: Index;  перем v: массив из НИЗКОУР.октет );
	(*! optimzie -> inline:  *)
	нач
		если длинаМассива( v ) # a.elementsize то СТОП( 100 ) всё;
		НИЗКОУР.копируйПамять( Adr1( a, x ), адресОт( v ), a.elementsize );
	кон Get1;

	проц Get2*( a: Array;  x, y: Index;  перем v: массив из НИЗКОУР.октет );
	(*! optimzie -> inline:  *)
	нач
		если длинаМассива( v ) # a.elementsize то СТОП( 100 ) всё;
		НИЗКОУР.копируйПамять( Adr2( a, x, y ), адресОт( v ), a.elementsize );
	кон Get2;

	проц Get3*( a: Array;  x, y, z: Index;  перем v: массив из НИЗКОУР.октет );
	(*! optimzie -> inline:  *)
	нач
		если длинаМассива( v ) # a.elementsize то СТОП( 100 ) всё;
		НИЗКОУР.копируйПамять( Adr3( a, x, y, z ), адресОт( v ), a.elementsize );
	кон Get3;

	проц Get4*( a: Array;  x, y, z, t: Index;  перем v: массив из НИЗКОУР.октет );
	(*! optimzie -> inline:  *)
	нач
		если длинаМассива( v ) # a.elementsize то СТОП( 100 ) всё;
		НИЗКОУР.копируйПамять( Adr4( a, x, y, z, t ), адресОт( v ), a.elementsize );
	кон Get4;

	проц GetX*( a: Array;  перем b: массив из Index;  dim: Index;  перем v: массив из НИЗКОУР.октет );
	(*! optimzie -> inline:  *)
	нач
		если длинаМассива( v ) # a.elementsize то СТОП( 100 ) всё;
		(* dimension is checked in AdrX *)
		НИЗКОУР.копируйПамять( AdrX( a, b, dim ), адресОт( v ), a.elementsize );
	кон GetX;

	проц Set1*( a: Array;  x: Index;  перем v: массив из НИЗКОУР.октет );
	(*! optimzie -> inline:  *)
	нач
		если длинаМассива( v ) # a.elementsize то СТОП( 100 ) всё;
		НИЗКОУР.копируйПамять( адресОт( v ), Adr1( a, x ), a.elementsize );
	кон Set1;

	проц Set2*( a: Array;  x, y: Index;  перем v: массив из НИЗКОУР.октет );
	(*! optimzie -> inline:  *)
	нач
		если длинаМассива( v ) # a.elementsize то СТОП( 100 ) всё;
		НИЗКОУР.копируйПамять( адресОт( v ), Adr2( a, x, y ), a.elementsize );
	кон Set2;

	проц Set3*( a: Array;  x, y, z: Index;  перем v: массив из НИЗКОУР.октет );
	(*! optimzie -> inline:  *)
	нач
		если длинаМассива( v ) # a.elementsize то СТОП( 100 ) всё;
		НИЗКОУР.копируйПамять( адресОт( v ), Adr3( a, x, y, z ), a.elementsize );
	кон Set3;

	проц Set4*( a: Array;  x, y, z, t: Index;  перем v: массив из НИЗКОУР.октет );
	(*! optimzie -> inline:  *)
	нач
		если длинаМассива( v ) # a.elementsize то СТОП( 100 ) всё;
		НИЗКОУР.копируйПамять( адресОт( v ), Adr4( a, x, y, z, t ), a.elementsize );
	кон Set4;

	проц SetX*( a: Array;  перем b: массив из Index;  dim: Index;  перем v: массив из НИЗКОУР.октет );
	(*! optimzie -> inline:  *)
	нач
		если длинаМассива( v ) # a.elementsize то СТОП( 100 ) всё;
		НИЗКОУР.копируйПамять( адресОт( v ), AdrX( a, b, dim ), a.elementsize );
	кон SetX;

	(*
	PROCEDURE SubArrayMemoryStructure*( a: Array;  pos: ARRAY OF Index;  dims, len: ARRAY OF Index;  VAR memory: ArrayMemoryStructure );
	(* dimension of Memory LEN(origin)=LEN(len) *)
	VAR dim, i, thisdim: SIGNED32;
	BEGIN
		dim := LEN( dims );
		IF (dim # LEN( len )) THEN HALT( 100 ) END;
		IF (LEN( pos ) # a.dim) THEN HALT( 101 ) END;
		CheckLEQ( dim, a.dim );
		WHILE (i < dim) DO thisdim := dims[i];  dims[i] := a.diminc[thisdim];  INC( i );  END;
		MakeMemoryStructure( dim, len, dims, AdrX( a, pos, a.dim ), a.baseadr + a.bytes, a.elementsize, memory );
	END SubArrayMemoryStructure;
	*)

(** copy part of one array to another, may also be used to extract dimensions from array a to b,
	example: a= 3x4 matrix , v= vector with len 10
	CopyArrayParts(a,v,(1,1),(1,4),(2),(4)) copies elements 1-4 of column 1 to vector beginning at position 2 *)
	проц CopyArrayPartToArrayPart*( srcmem, destmem: ArrayMemoryStructure;
																	  srcpos, srclen, destpos, destlen: IndexArray );
	перем src, dest: Enumerator;
	нач
		src := EnumArrayPart( srcmem, srcpos, srclen, истина );  dest := EnumArrayPart( destmem, destpos, destlen, истина );
		TraverseAndCopy( src, dest );
	кон CopyArrayPartToArrayPart;

	проц FillArrayPart*( mem: ArrayMemoryStructure;  pos, len: IndexArray;  val: массив из НИЗКОУР.октет );
	перем src: Enumerator;  nrElems: цел32;
	нач
		если длинаМассива( val ) # mem.elementsize то СТОП( 1001 ) всё;
		src := EnumArrayPart( mem, pos, len, истина );  nrElems := src.size DIV mem.elementsize;
		нцДо Array1dBytes.Fill( src.adr, val, nrElems );  кцПри ~src.Next();

	кон FillArrayPart;

	проц CopyArrayToMemory*( srcmem: ArrayMemoryStructure;  destadr: Index;  nrelems: Index );
	перем destmem: ArrayMemoryStructure;
	нач
		если nrelems * srcmem.elementsize > srcmem.bytes то СТОП( 1001 ) всё;
		MakeContinuousMemStruct( destadr, nrelems, srcmem.elementsize, destmem );
		CopyDataByCoordinateTraversal( srcmem, destmem );
	кон CopyArrayToMemory;

(** copy memory fromadr -> adr, bytes *)
	проц CopyMemoryToArray*( srcadr: Index;  destmem: ArrayMemoryStructure;  nrelems: Index );
	перем srcmem: ArrayMemoryStructure;
	нач
		если nrelems * destmem.elementsize > destmem.bytes то СТОП( 1001 ) всё;
		MakeContinuousMemStruct( srcadr, nrelems, destmem.elementsize, srcmem );
		CopyDataByCoordinateTraversal( srcmem, destmem );
	кон CopyMemoryToArray;

	проц CopyArrayPartToMemory*( srcmem: ArrayMemoryStructure;  destadr: Index;  srcpos, srclen: IndexArray;
																	destlen: Index );
	перем src, dest: Enumerator;  destmem: ArrayMemoryStructure;
	нач
		MakeContinuousMemStruct( destadr, destlen, srcmem.elementsize, destmem );
		src := EnumArrayPart( srcmem, srcpos, srclen, истина );  dest := EnumArrayPart( destmem, НУЛЬ , НУЛЬ , истина );
		TraverseAndCopy( src, dest );

	кон CopyArrayPartToMemory;

	проц CopyMemoryToArrayPart*( srcadr: Index;  destmem: ArrayMemoryStructure;  srclen: Index;
																	destpos, destlen: IndexArray );
	перем src, dest: Enumerator;  srcmem: ArrayMemoryStructure;
	нач
		MakeContinuousMemStruct( srcadr, srclen, destmem.elementsize, srcmem );
		src := EnumArrayPart( srcmem, НУЛЬ , НУЛЬ , истина );  dest := EnumArrayPart( destmem, destpos, destlen, истина );
		TraverseAndCopy( src, dest );
	кон CopyMemoryToArrayPart;

	проц -InBounds*( origin, len: Index;  idx: Index ): булево;
	машКод {SYSTEM.i386}
		; if (idx < origin) or (idx-origin >= len) then return false end;
		; return true;
		; AL=1 : TRUE; AL=0: FALSE
		MOV	EAX, [ESP]	;  EAX := idx
		MOV	EBX, [ESP+4]	;  EBX := len
		MOV	ECX, [ESP+8]	;  ECX := origin
		CMP	EAX, ECX	;
		JL	outbound	;  idx < origin: outbound
		SUB	EAX, ECX
		CMP	EAX, EBX
		JGE	outbound	;  (idx-origin) >= len
		MOV	AL, 1
		JMP	done	;
		outbound:
		MOV	AL, 0
		done:
		ADD	ESP, 12
	кон InBounds;

	проц -PeriodicBounds*( origin, len: Index;  idx: Index ): Index;
	машКод {SYSTEM.i386}
		; DEC( idx, origin );  idx := idx MOD len;  INC( idx, origin );

		; modulus:
		; a := b MOD c; 	c -> EBX	; b -> EAX

		; CDQ
		; IDIV EBX
		; CMP     EDX,0
		; JNL     2
		; ADD     EDX,EBX

		; EDX -> a

		MOV	EAX, [ESP]	;  EAX := idx
		SUB	EAX, [ESP+8]	;  EAX := EAX-origin
		MOV	EBX, [ESP+4]	;  EBX := len
		CDQ
		IDIV	EBX
		CMP	EDX, 0
		JNL	2
		ADD	EDX, EBX
		MOV	EAX, EDX
		ADD	EAX, [ESP+8]
		ADD	ESP, 12
	кон PeriodicBounds;

	проц MirrorOnB*( origin, len: Index;  idx: Index ): Index;   (* mirror on origin / origin + len, infinite domain*)
	(*! optimize -> inline *)
	нач
		если len = 1 то возврат idx всё;
		умень( idx, origin );  умень( len );
		если нечётноеЛи¿( idx DIV (len) ) то возврат origin + len - idx остОтДеленияНа (len);  иначе возврат origin + idx остОтДеленияНа (len) всё;
	кон MirrorOnB;

	проц MirrorOffB*( origin, len: Index;  idx: Index ): Index;   (* mirror between origin and origin -1  / origin + len and origin +len+1, infinite domain*)
	(*! optimize -> inline *)
	нач
		умень( idx, origin );
		если нечётноеЛи¿( idx DIV len ) то возврат origin + (-idx - 1) остОтДеленияНа (len) иначе возврат origin + idx остОтДеленияНа len;  всё;
	кон MirrorOffB;

	проц TestB*;
	перем i: Index;
	нач
		нцДля i := -30 до 30 делай dbgOut.пЦел64( i, 1 );  dbgOut.пСтроку8( ":" );  dbgOut.пЦел64( MirrorOffB( 2, 7, i ), 1 );  dbgOut.пВК_ПС;  кц;
		нцДля i := -30 до 30 делай dbgOut.пЦел64( i, 1 );  dbgOut.пСтроку8( ":" );  dbgOut.пЦел64( MirrorOnB( 2, 7, i ), 1 );  dbgOut.пВК_ПС;  кц;

	кон TestB;

кон ArrayXdBytes.
ArrayXdBytes.TestB ~
