(** AUTHOR "Yves Weber";
	PURPOSE "Some utilities used by the MPEGVideoDecoder module";
*)
модуль MPEGUtilities;

использует
	НИЗКОУР, Machine, MPEGTables, Потоки, ЛогЯдра, Raster, Codecs;

конст
	(* required for iDCT (copied from DivXHelper.Mod) *)
	W1 = 2841;				(* 2048*sqrt(2)*cos(1*pi/16) *)
	W2 = 2676;				(* 2048*sqrt(2)*cos(2*pi/16) *)
	W3 = 2408;				(* 2048*sqrt(2)*cos(3*pi/16) *)
	W5 = 1609;				(* 2048*sqrt(2)*cos(5*pi/16) *)
	W6 = 1108;				(* 2048*sqrt(2)*cos(6*pi/16) *)
	W7 = 565;				(* 2048*sqrt(2)*cos(7*pi/16) *)

	EnableMMX = истина;

перем
	IdctBorder*: укль на массив из цел32;
	ii: цел32;

тип
	(* Helper Types *)
	PointerToArrayOfCHAR* = укль на массив из симв8;
	PointerToArrayOfLONGINT* = укль на массив из цел32;

	Dequantizer* = окласс
		проц DequantizeNonintraCoeffs*(
			coeffs: PointerToArrayOfLONGINT;
			nonintraQM: PointerToArrayOfLONGINT;
			qScale: цел32): булево;
		перем
			i: цел32;
			sign: цел32;

		нач
			нцДля i := 0 до 63 делай
				если coeffs[i] > 0 то
					sign := 1;
				аесли coeffs[i] = 0 то
					sign := 0;
				иначе
					sign := -1;
				всё;
				coeffs[i] := ((2*coeffs[i] + sign) * qScale * nonintraQM[i]) DIV 16;

				(* oddify towards zero *)
				если (coeffs[i] остОтДеленияНа 2) = 0 то
					coeffs[i] := coeffs[i] - sign;
				всё;

				(* ensure limits *)
				если coeffs[i] > 2047 то
					coeffs[i] := 2047;
				всё;

				если coeffs[i] < -2048 то
					coeffs[i] := -2048;
				всё;
			кц;

			возврат истина;
		кон DequantizeNonintraCoeffs;

		(* Dequantizes the coefficients *)
		проц DequantizeIntraCoeffs*(
			coeffs: PointerToArrayOfLONGINT;
			intraQM: PointerToArrayOfLONGINT;
			qScale: цел32;
			перем prediction: цел32;
			first: булево;
			mbSkipped: булево): булево;
		перем
			i: цел32;

		нач
			(* dequantize all coefficients *)
			нцДля i := 1 до 63 делай
				coeffs[i] := (2*coeffs[i]*qScale*intraQM[i]) DIV 16;

				если ((coeffs[i] остОтДеленияНа 2) = 0) и (coeffs[i] # 0) то
					если coeffs[i] > 0 то
						умень(coeffs[i]);
					иначе
						увел(coeffs[i]);
					всё;
				всё;

				(* ensure limits *)
				если coeffs[i] > 2047 то
					coeffs[i] := 2047;
				всё;

				если coeffs[i] < -2048 то
					coeffs[i] := -2048;
				всё;
			кц;

			(* special handling of DC *)
			coeffs[0] := coeffs[0] * 8;

			(* calculate DC = DCold + difference for all type of blocks *)
			если first и mbSkipped то
				prediction := 8*128;
			всё;
			увел(prediction, coeffs[0]);
			coeffs[0] := prediction;

			возврат истина;
		кон DequantizeIntraCoeffs;

		(* Dequantizes the coefficients - MPEG2 version *)
		проц DequantizeNonintraCoeffs2*(
			coeffs: PointerToArrayOfLONGINT;
			nonintraQM: PointerToArrayOfLONGINT;
			qScale: цел32);
		перем
			i: цел32;
			sum: цел32;

		нач
			нцДля i := 0 до 63 делай
				если coeffs[i] # 0 то
					если coeffs[i] > 0 то
						coeffs[i] := ((2 * coeffs[i] + 1) * nonintraQM[i] * qScale) DIV 32;
					иначе
						coeffs[i] := ((2 * coeffs[i] - 1) * nonintraQM[i] * qScale) DIV 32;
					всё;

					(* ensure limits *)
					если coeffs[i] > 2047 то
						coeffs[i] := 2047;
					аесли coeffs[i] < -2048 то
						coeffs[i] := -2048;
					всё;

					увел(sum, coeffs[i]);
				всё;
			кц;

			MismatchControl(coeffs[63], sum);
		кон DequantizeNonintraCoeffs2;


		(* Dequantizes the coefficients - MPEG-2 version *)
		проц DequantizeIntraCoeffs2*(
			coeffs: PointerToArrayOfLONGINT;
			intraQM: PointerToArrayOfLONGINT;
			qScale: цел32;
			dcPrecision: цел32);
		перем
			i: цел32;
			sum: цел32;

		нач
			(* special treatment of DC *)
			coeffs[0] := MPEGTables.DCM[dcPrecision] * coeffs[0];
			sum := coeffs[0];

			нцДля i := 1 до 63 делай
				coeffs[i] := ((2 * coeffs[i]) * intraQM[i] * qScale) DIV 32;

				(* ensure limits *)
				если coeffs[i] > 2047 то
					coeffs[i] := 2047;
				всё;

				если coeffs[i] < -2048 то
					coeffs[i] := -2048;
				всё;

				увел(sum, coeffs[i]);
			кц;

			MismatchControl(coeffs[63], sum);
		кон DequantizeIntraCoeffs2;


		(* Performs the mismatch contros - used for intra and non-intra - MPEG2 only *)
		проц MismatchControl(перем coeffs63: цел32; sum: цел32);
		нач
			если (sum остОтДеленияНа 2) = 0 то
				(* sum is even *)
				если (coeffs63 остОтДеленияНа 2) = 1 то
					(* odd *)
					умень(coeffs63);
				иначе
					(* even *)
					увел(coeffs63);
				всё;
			всё;
		кон MismatchControl;
	кон Dequantizer;


	(* Object to store one decoded picture *)
	(* Color information is in one big array of char:
	     yyyyyyyyyyyyyyyyyyyycbcbcbcbcbcbcrcrcrcrcrcrcr
	     |                               |                     |
	     0                        cbOffset          crOffset

	     for rgb, use the convention y->r, cb->g, cr->b
	*)
	Frame* = окласс
		перем
			buffer*: PointerToArrayOfCHAR;
			cbOffset*, crOffset*: цел32;
			frameNr*: цел32;
			picType*: цел32;			(* I, P or B-Frame -> 1, 2 or 3 *)
	кон Frame;

	(* MPEG-2 Picture Coding Extension *)
	PicCodingExt* = окласс
		перем
			dcPrecision*: цел32;								(* DC precision *)
			picStructure*: цел32;								(* picture structure *)
			topFieldFirst*: булево;
			framePredFrameDct*: булево;
			concealmentMV*: булево;						(* concealment motion vectors used *)
			qScaleType*: булево;
			intraVlcFormat*: булево;
			alternateScan*: булево;
			repeatFirstField*: булево;
			chroma420Type*: булево;
			progressiveFrame*: булево;


		проц Dump*;
		нач
			ЛогЯдра.пСтроку8("dc Precision: "); ЛогЯдра.пЦел64(dcPrecision, 0); ЛогЯдра.пВК_ПС;
			ЛогЯдра.пСтроку8("picture structure: ");
			просей picStructure из
				0: ЛогЯдра.пСтроку8("Reserved");
			|	1: ЛогЯдра.пСтроку8("Top Field");
			|	2: ЛогЯдра.пСтроку8("Bottom Field");
			|	3: ЛогЯдра.пСтроку8("Frame");
			всё;
			ЛогЯдра.пВК_ПС;
			ЛогЯдра.пСтроку8("top field first: "); если topFieldFirst то ЛогЯдра.пСтроку8("TRUE") иначе ЛогЯдра.пСтроку8("FALSE") всё; ЛогЯдра.пВК_ПС;
			ЛогЯдра.пСтроку8("frame pred frame dct: "); если framePredFrameDct то ЛогЯдра.пСтроку8("TRUE") иначе ЛогЯдра.пСтроку8("FALSE") всё; ЛогЯдра.пВК_ПС;
			ЛогЯдра.пСтроку8("concealment MV: "); если concealmentMV то ЛогЯдра.пСтроку8("TRUE") иначе ЛогЯдра.пСтроку8("FALSE") всё; ЛогЯдра.пВК_ПС;
			ЛогЯдра.пСтроку8("qScaleType: "); если qScaleType то ЛогЯдра.пСтроку8("TRUE") иначе ЛогЯдра.пСтроку8("FALSE") всё; ЛогЯдра.пВК_ПС;
			ЛогЯдра.пСтроку8("intraVlcFormat: "); если intraVlcFormat то ЛогЯдра.пСтроку8("TRUE") иначе ЛогЯдра.пСтроку8("FALSE") всё; ЛогЯдра.пВК_ПС;
			ЛогЯдра.пСтроку8("alternate scan: "); если alternateScan то ЛогЯдра.пСтроку8("TRUE") иначе ЛогЯдра.пСтроку8("FALSE") всё; ЛогЯдра.пВК_ПС;
			ЛогЯдра.пСтроку8("repeat first field: "); если repeatFirstField то ЛогЯдра.пСтроку8("TRUE") иначе ЛогЯдра.пСтроку8("FALSE") всё; ЛогЯдра.пВК_ПС;
			ЛогЯдра.пСтроку8("chroma 4:2:0 type: "); если chroma420Type то ЛогЯдра.пСтроку8("TRUE") иначе ЛогЯдра.пСтроку8("FALSE") всё; ЛогЯдра.пВК_ПС;
			ЛогЯдра.пСтроку8("progressiveFrame: "); если progressiveFrame то ЛогЯдра.пСтроку8("TRUE") иначе ЛогЯдра.пСтроку8("FALSE") всё; ЛогЯдра.пВК_ПС;
		кон Dump;
	кон PicCodingExt;

	(* everything about motion vectors *)
	(* MPEG-1 does not use all variables *)
	MotionVectorInfos* = окласс
		перем
			fullPel*: массив 2 из массив 2 из булево;						(* full Pel or half Pel *)
			fCode*: массив 2 из массив 2 из цел32;							(* MPEG-2 version of forw/back f code *)
			f*: массив 2 из массив 2 из цел32;
			rSize*: массив 2 из массив 2 из цел32;
			motionVerticalFieldSelect*: массив 2 из массив 2 из булево;		(* flag to choose reference field for prediction *)
			motionCode*: массив 2 из массив 2 из массив 2 из цел32;
			motionResidual*: массив 2 из массив 2 из массив 2 из цел32;
			dmVector*: массив 2 из цел32;

			mv*: массив 2 из массив 2 из массив 2 из цел32;				(* calculated motion vectors *)
			pmv*: массив 2 из массив 2 из массив 2 из цел32;				(* predictions *)

			проц Dump*(r, s, t: цел32);
			нач
				ЛогЯдра.пСтроку8("Motion Vector Type: ");
				если s = 0 то
					ЛогЯдра.пСтроку8("Forward ");
				иначе
					ЛогЯдра.пСтроку8("Backward ");
				всё;
				если t = 0 то
					ЛогЯдра.пСтроку8("Horizontal");
				иначе
					ЛогЯдра.пСтроку8("Vertical");
				всё;
				ЛогЯдра.пВК_ПС;
				ЛогЯдра.пСтроку8("fCode: "); ЛогЯдра.пЦел64(fCode[s][t], 0); ЛогЯдра.пВК_ПС;
				ЛогЯдра.пСтроку8("fullPel: "); если fullPel[r][s] то ЛогЯдра.пСтроку8("TRUE"); иначе ЛогЯдра.пСтроку8("FALSE"); всё; ЛогЯдра.пВК_ПС;
				ЛогЯдра.пСтроку8("f: "); ЛогЯдра.пЦел64(f[r][s], 0); ЛогЯдра.пВК_ПС;
				ЛогЯдра.пСтроку8("rSize: "); ЛогЯдра.пЦел64(rSize[r][s], 0); ЛогЯдра.пВК_ПС;
				ЛогЯдра.пСтроку8("motionVerticalFieldSelect: "); если motionVerticalFieldSelect[r][s] то ЛогЯдра.пСтроку8("TRUE"); иначе ЛогЯдра.пСтроку8("FALSE"); всё; ЛогЯдра.пВК_ПС;
				ЛогЯдра.пСтроку8("motionCode: "); ЛогЯдра.пЦел64(motionCode[r][s][t], 0); ЛогЯдра.пВК_ПС;
				ЛогЯдра.пСтроку8("motionResidual: "); ЛогЯдра.пЦел64(motionResidual[r][s][t], 0); ЛогЯдра.пВК_ПС;
				ЛогЯдра.пСтроку8("dmVector: "); ЛогЯдра.пЦел64(dmVector[t], 0); ЛогЯдра.пВК_ПС;
			кон Dump;

	кон MotionVectorInfos;

	(* Inverse Discrete Cosine Transformation - copied (and slightly modified) from DivXHelper.Mod *)
	IDCT* = окласс
		проц PerformIDCT*(block: PointerToArrayOfLONGINT );
		перем
			i: цел32;

		нач
			нцДля i:= 0 до 7 делай
				IDCTRow( block, i * 8)
			кц;

			нцДля i:= 0 до 7 делай
				IDCTCol( block, i )
			кц;
		кон PerformIDCT;

		проц IDCTRow( blk: PointerToArrayOfLONGINT; baseIndex: цел32);
		перем
			x0, x1, x2, x3, x4, x5, x6, x7, x8: цел32;
			adr, tempAdr: адресВПамяти;

		нач
			adr := адресОт( blk[baseIndex] );

			(* shortcut *)
			x1 := НИЗКОУР.прочти32битаПоАдресу( adr + 4*размер16_от(цел32) ) * 2048;
			x2 := НИЗКОУР.прочти32битаПоАдресу( adr + 6*размер16_от(цел32) );
			x3 := НИЗКОУР.прочти32битаПоАдресу( adr + 2*размер16_от(цел32) );
			x4 := НИЗКОУР.прочти32битаПоАдресу( adr + размер16_от(цел32) );
			x5 := НИЗКОУР.прочти32битаПоАдресу( adr + 7*размер16_от(цел32) );
			x6 := НИЗКОУР.прочти32битаПоАдресу( adr + 5*размер16_от(цел32) );
			x7 := НИЗКОУР.прочти32битаПоАдресу( adr + 3*размер16_от(цел32) );

			если ( x1 = 0 ) и ( x2 = 0 ) и ( x3 = 0 ) и ( x4 = 0 ) и ( x5 = 0 ) и ( x6 = 0 ) и ( x7 = 0 )  то
				x0 := НИЗКОУР.прочти32битаПоАдресу( adr ) * 8;
				НИЗКОУР.запиши32битаПоАдресу( adr , x0 );
				tempAdr := adr + размер16_от( цел32 );
				НИЗКОУР.запиши32битаПоАдресу( tempAdr, x0 );
				tempAdr := tempAdr + размер16_от( цел32 );
				НИЗКОУР.запиши32битаПоАдресу( tempAdr, x0 );
				tempAdr := tempAdr + размер16_от( цел32 );
				НИЗКОУР.запиши32битаПоАдресу( tempAdr, x0 );
				tempAdr := tempAdr + размер16_от( цел32 );
				НИЗКОУР.запиши32битаПоАдресу( tempAdr, x0 );
				tempAdr := tempAdr + размер16_от( цел32 );
				НИЗКОУР.запиши32битаПоАдресу( tempAdr, x0 );
				tempAdr := tempAdr + размер16_от( цел32 );
				НИЗКОУР.запиши32битаПоАдресу( tempAdr, x0 );
				tempAdr := tempAdr + размер16_от( цел32 );
				НИЗКОУР.запиши32битаПоАдресу( tempAdr, x0 );
				возврат
			всё;
			x0 := ( НИЗКОУР.прочти32битаПоАдресу( adr ) * 2048 ) + 128;    (* for proper rounding in the fourth stage *)

			(* first stage *)
			x8 := W7 * ( x4 + x5 );
			x4 := x8 + ( W1 - W7 ) * x4;
			x5 := x8 - ( W1 + W7 ) * x5;
			x8 := W3 * ( x6 + x7 );
			x6 := x8 - ( W3 - W5 ) * x6;
			x7 := x8 - ( W3 + W5 ) * x7;

			(* second stage *)
			x8 := x0 + x1;
			x0 := x0 - x1;
			x1 := W6 * ( x3 + x2 );
			x2 := x1 - ( W2 + W6 ) * x2;
			x3 := x1 + ( W2 - W6 ) * x3;
			x1 := x4 + x6;
			x4 := x4 - x6;
			x6 := x5 + x7;
			x5 := x5 - x7;

			(* third stage *)
			x7 := x8 + x3;
			x8 := x8 - x3;
			x3 := x0 + x2;
			x0 := x0 - x2;
			x2 := ( 181 * ( x4 + x5 ) + 128 ) DIV 256;
			x4 := ( 181 * ( x4 - x5 ) + 128 ) DIV 256;

			(* fourth stage *)
			НИЗКОУР.запиши32битаПоАдресу( adr, ( x7 + x1 ) DIV 256 );
			tempAdr := adr + размер16_от( цел32 );
			НИЗКОУР.запиши32битаПоАдресу( tempAdr, ( x3 + x2 ) DIV 256 );
			tempAdr := tempAdr + размер16_от( цел32 );
			НИЗКОУР.запиши32битаПоАдресу( tempAdr, ( x0 + x4 ) DIV 256 );
			tempAdr := tempAdr + размер16_от( цел32 );
			НИЗКОУР.запиши32битаПоАдресу( tempAdr, ( x8 + x6 ) DIV 256 );
			tempAdr := tempAdr + размер16_от( цел32 );
			НИЗКОУР.запиши32битаПоАдресу( tempAdr, ( x8 - x6 ) DIV 256 );
			tempAdr := tempAdr + размер16_от( цел32 );
			НИЗКОУР.запиши32битаПоАдресу( tempAdr, ( x0 - x4 ) DIV 256 );
			tempAdr := tempAdr + размер16_от( цел32 );
			НИЗКОУР.запиши32битаПоАдресу( tempAdr, ( x3 - x2 ) DIV 256 );
			tempAdr := tempAdr + размер16_от( цел32 );
			НИЗКОУР.запиши32битаПоАдресу( tempAdr, ( x7 - x1 ) DIV 256 )
		кон IDCTRow;

		проц IDCTCol( blk: PointerToArrayOfLONGINT; baseIndex: цел32 );
		перем
			x0, x1, x2, x3, x4, x5, x6, x7, x8: цел32;
			adr, tempAdr, sourceAdr: адресВПамяти;

		нач
			adr := адресОт( blk[baseIndex] );

			(* shortcut *)
			x1 := НИЗКОУР.прочти32битаПоАдресу( adr + 32*размер16_от(цел32) ) * 256;
			x2 := НИЗКОУР.прочти32битаПоАдресу( adr + 48*размер16_от(цел32) );
			x3 := НИЗКОУР.прочти32битаПоАдресу( adr + 16*размер16_от(цел32) );
			x4 := НИЗКОУР.прочти32битаПоАдресу( adr + 8*размер16_от(цел32) );
			x5 := НИЗКОУР.прочти32битаПоАдресу( adr + 56*размер16_от(цел32) );
			x6 := НИЗКОУР.прочти32битаПоАдресу( adr + 40*размер16_от(цел32) );
			x7 := НИЗКОУР.прочти32битаПоАдресу( adr + 24*размер16_от(цел32) );

			если ( x1 = 0 ) и ( x2 = 0 ) и ( x3 = 0 ) и ( x4 = 0 ) и ( x5 = 0 ) и ( x6 = 0 ) и ( x7 = 0 )  то
				x0 := IdctBorder[( ( НИЗКОУР.прочти32битаПоАдресу( adr ) + 32 ) DIV 64 ) + 512];	(* +512 is the base offset in the array *)
				НИЗКОУР.запиши32битаПоАдресу( adr , x0 );
				tempAdr := adr + 8*размер16_от( цел32 );
				НИЗКОУР.запиши32битаПоАдресу( tempAdr, x0 );
				tempAdr := tempAdr + 8*размер16_от( цел32 );
				НИЗКОУР.запиши32битаПоАдресу( tempAdr, x0 );
				tempAdr := tempAdr + 8*размер16_от( цел32 );
				НИЗКОУР.запиши32битаПоАдресу( tempAdr, x0 );
				tempAdr := tempAdr + 8*размер16_от( цел32 );
				НИЗКОУР.запиши32битаПоАдресу( tempAdr, x0 );
				tempAdr := tempAdr + 8*размер16_от( цел32 );
				НИЗКОУР.запиши32битаПоАдресу( tempAdr, x0 );
				tempAdr := tempAdr + 8*размер16_от( цел32 );
				НИЗКОУР.запиши32битаПоАдресу( tempAdr, x0 );
				tempAdr := tempAdr + 8*размер16_от( цел32 );
				НИЗКОУР.запиши32битаПоАдресу( tempAdr, x0 );
				возврат
			всё;

			 x0 := (НИЗКОУР.прочти32битаПоАдресу( adr )* 256) + 8192;

			(* first stage *)
			x8 := W7 * ( x4 + x5 ) + 4;
			x4 := ( x8 + ( W1 - W7 ) * x4 ) DIV 8;
			x5 := ( x8 - ( W1 + W7) * x5 ) DIV 8;
			x8 := W3 * ( x6 + x7 ) + 4;
			x6 := ( x8 - ( W3 - W5 ) * x6 )DIV 8;
			x7 := ( x8 - ( W3 + W5 ) * x7 ) DIV 8;

			(* second stage *)
			x8 := x0 + x1;
			x0 := x0 - x1;
			x1 := W6 * ( x3 + x2 ) + 4;
			x2 := ( x1 - ( W2 + W6 ) * x2 ) DIV 8;
			x3 := ( x1 + ( W2 - W6 ) * x3 ) DIV 8;
			x1 := x4 + x6;
			x4 := x4 - x6;
			x6 := x5 + x7;
			x5 := x5 - x7;

			(* third stage *)
			x7 := x8 + x3;
			x8 := x8 - x3;
			x3 := x0 + x2;
			x0 := x0 - x2;
			x2 := ( 181 * ( x4 + x5 ) + 128 ) DIV 256;
			x4 := ( 181 * ( x4 - x5 ) + 128 ) DIV 256;

			(* fourth stage *)
			tempAdr := adr;
			sourceAdr := адресОт(IdctBorder[512] );
			НИЗКОУР.запиши32битаПоАдресу( tempAdr, НИЗКОУР.прочти32битаПоАдресу( ( ( ( x7 + x1 ) DIV 16384 )*размер16_от(цел32) ) + sourceAdr ) );
			tempAdr := tempAdr + 8*размер16_от( цел32 );
			НИЗКОУР.запиши32битаПоАдресу( tempAdr, НИЗКОУР.прочти32битаПоАдресу( ( ( ( x3 + x2 ) DIV 16384 )*размер16_от(цел32) ) + sourceAdr ) );
			tempAdr := tempAdr + 8*размер16_от( цел32 );
			НИЗКОУР.запиши32битаПоАдресу( tempAdr, НИЗКОУР.прочти32битаПоАдресу( ( ( ( x0 + x4 ) DIV 16384 )*размер16_от(цел32) ) + sourceAdr ) );
			tempAdr := tempAdr + 8*размер16_от( цел32 );
			НИЗКОУР.запиши32битаПоАдресу( tempAdr, НИЗКОУР.прочти32битаПоАдресу( ( ( ( x8 + x6 ) DIV 16384 )*размер16_от(цел32) ) + sourceAdr ) );
			tempAdr := tempAdr + 8*размер16_от( цел32 );
			НИЗКОУР.запиши32битаПоАдресу( tempAdr, НИЗКОУР.прочти32битаПоАдресу( ( ( ( x8 - x6 ) DIV 16384 )*размер16_от(цел32) ) + sourceAdr ) );
			tempAdr := tempAdr + 8*размер16_от( цел32 );
			НИЗКОУР.запиши32битаПоАдресу( tempAdr, НИЗКОУР.прочти32битаПоАдресу( ( ( ( x0 - x4 ) DIV 16384 )*размер16_от(цел32) ) + sourceAdr ) );
			tempAdr := tempAdr + 8*размер16_от( цел32 );
			НИЗКОУР.запиши32битаПоАдресу( tempAdr, НИЗКОУР.прочти32битаПоАдресу( ( ( ( x3 - x2 ) DIV 16384 )*размер16_от(цел32) ) + sourceAdr ) );
			tempAdr := tempAdr + 8*размер16_от( цел32 );
			НИЗКОУР.запиши32битаПоАдресу( tempAdr, НИЗКОУР.прочти32битаПоАдресу( ( ( ( x7 - x1 ) DIV 16384 )*размер16_от(цел32) ) + sourceAdr ) )
		кон IDCTCol;
	кон IDCT;

	(* A demultiplexed (i.e. video or audio only) MPEG stream where single bits can be read *)
	(* Partially based on AVI.AVIStream *)
	BitStream* = окласс
		перем
			first: цел32;						(* First element in the ringbuffer *)
			last: цел32;						(* Last element in the ringbuffer (only used until input reports EOF) *)
			bitIndex: цел32;					(* Position (Bit) in the current SIGNED32 (buffer[0..3] or [4..7]) *)
			buffer: массив 8 из симв8;			(* Local buffer (two LONGINTs) *)
			bufAdr: адресВПамяти;					(* Address of buffer[0] *)
			input: Codecs.DemuxStream;		(* The underlying Reader *)
			eof: булево;						(* End of File *)
			bitsLeft: размерМЗ;					(* only used when eof is TRUE *)

			len: цел32;
			i: цел32;

		(* Constructor *)
		проц & Init*( r: Codecs.DemuxStream );
		нач
			утв(r # НУЛЬ);
			first := 0;
			last := -1;
			bitIndex := 0;
			bufAdr := адресОт(buffer[0]);
			input := r;
			eof := ложь;

			(* fill the buffer with the first bytes *)
			ReadLongintFromStream();
			ReadLongintFromStream();
		кон Init;

		проц Reset*;
		перем
			dummy: цел32; result: целМЗ;

		нач
			input.SetPosX(Codecs.SeekByte, 0, dummy, result);
			first := 0;
			last := -1;
			bitIndex := 0;
			bufAdr := адресОт(buffer[0]);
			eof := ложь;

			(* fill the buffer with the first bytes *)
			ReadLongintFromStream();
			ReadLongintFromStream();
		кон Reset;


		(* Read four bytes from the stream and write it to the buffer *)
		проц ReadLongintFromStream;
		перем
			read: размерМЗ;

		нач
			если eof то возврат всё;

			input.чБайты(buffer, first, 4, read);

			если (input.кодВозвратаПоследнейОперации = Потоки.КонецФайла) или (read < 4) то
				eof := истина;
				bitsLeft := 32 + read*8;
			всё;
			first := 4 - first;
		кон ReadLongintFromStream;

		(* Align stream to next byte *)
		проц ByteAlign*;
		нач
			если (bitIndex остОтДеленияНа 8) # 0 то
				SkipBits(8 - (bitIndex остОтДеленияНа 8));
			всё;
		кон ByteAlign;

		(* True if actual position is on byte boundary *)
		проц IsAligned*(): булево;
		нач
			возврат ((bitIndex остОтДеленияНа 8) = 0);
		кон IsAligned;

		(* Read next n bits without advancing in stream. At least one, at most 32 Bits are allowed (this is not checked!) *)
		(* Returns -1 if eof *)
		проц ShowBits*(n: цел32): цел32;
		перем
			nbit: цел32;
			bufa, bufb: цел32;
			temp: цел32;

		нач
			если eof и (bitsLeft < n) то
				(* there are not enough bits -> return -1 *)
				возврат -1;
			всё;

			nbit := (bitIndex + n) - 32;

			если nbit > 0 то
				(* we have to read both 32 bit values *)
				bufa := Machine.ChangeByteOrder(НИЗКОУР.прочти32битаПоАдресу(bufAdr + first));
				bufb := Machine.ChangeByteOrder(НИЗКОУР.прочти32битаПоАдресу(bufAdr + 4 - first));

				 temp := логСдвиг(логСдвиг(bufa, bitIndex), nbit - bitIndex );
				возврат НИЗКОУР.подмениТипЗначения(цел32, НИЗКОУР.подмениТипЗначения(мнвоНаБитахМЗ, логСдвиг(bufb, nbit - 32)) + НИЗКОУР.подмениТипЗначения(мнвоНаБитахМЗ, temp));
			иначе
				(* the n bits are completely in the first 32 bits *)
				bufa := Machine.ChangeByteOrder(НИЗКОУР.прочти32битаПоАдресу(bufAdr + first));

				возврат логСдвиг(логСдвиг(bufa, bitIndex), n - 32);
			всё;
		кон ShowBits;

		(* Displays the content of the ringbuffer. Mainly used for debugging *)
		проц ShowBuffer*;
		нач
			ЛогЯдра.п16ричное(кодСимв8(buffer[0]), -1); ЛогЯдра.пСтроку8(" ");
			ЛогЯдра.п16ричное(кодСимв8(buffer[1]), -1); ЛогЯдра.пСтроку8(" ");
			ЛогЯдра.п16ричное(кодСимв8(buffer[2]), -1); ЛогЯдра.пСтроку8(" ");
			ЛогЯдра.п16ричное(кодСимв8(buffer[3]), -1); ЛогЯдра.пСтроку8(" ");
			ЛогЯдра.п16ричное(кодСимв8(buffer[4]), -1); ЛогЯдра.пСтроку8(" ");
			ЛогЯдра.п16ричное(кодСимв8(buffer[5]), -1); ЛогЯдра.пСтроку8(" ");
			ЛогЯдра.п16ричное(кодСимв8(buffer[6]), -1); ЛогЯдра.пСтроку8(" ");
			ЛогЯдра.п16ричное(кодСимв8(buffer[7]), -1); ЛогЯдра.пСтроку8(" ");
			ЛогЯдра.пСтроку8("first = "); ЛогЯдра.пЦел64(first, 0);
		кон ShowBuffer;

		(* Read next n bits and advance bit stream. At most 32 bits are allowed *)
		проц GetBits*( n: цел32): цел32;
		перем
			ret: цел32;
		нач
			ret := ShowBits( n );
			SkipBits( n );
			возврат ret
		кон GetBits;

		(* Skip next n bits. At most 32 bits are allowed *)
		проц SkipBits*(n: цел32);
		нач
			если eof и (bitsLeft <= 0) то
				возврат;
			всё;

			если eof то
				(* adjust bitsLeft *)
				умень(bitsLeft, n);
			всё;

			увел(bitIndex, n);

			если bitIndex > 31 то
				ReadLongintFromStream();
				умень(bitIndex, 32);
			всё;
		кон SkipBits;

		проц Pos*(): Потоки.ТипМестоВПотоке;
		нач
			возврат input.МестоВПотоке() - 8;
		кон Pos;

		проц SetPos*(pos: Потоки.ТипМестоВПотоке);
		перем
			dummy: цел32; result: целМЗ;

		нач
			input.SetPosX(Codecs.SeekByte, pos(цел32), dummy, result);
			first := 0;
			last := -1;
			bitIndex := 0;
			bufAdr := адресОт(buffer[0]);
			eof := ложь;

			(* fill the buffer with the first bytes *)
			ReadLongintFromStream();
			ReadLongintFromStream();
		кон SetPos;

		проц HasMoreData*(): булево;
		нач
			возврат ~(eof и (bitsLeft <= 0));
		кон HasMoreData;

	кон BitStream;


	(* Provides procedures to read multiple information from an MPEGBitStream *)
	StreamReader* = окласс
		перем
			stream: BitStream;
			eof*: булево;

		(* constructor *)
		проц &init*(s: BitStream);
		нач
			stream := s;
			eof := ложь;
		кон init;

		(* Read the next motion code from the stream *)
		проц ReadMotionCode*(): цел32;
		перем
			bits: цел32;
			res: цел32;

		нач
			если eof то возврат 0 всё;

			bits := stream.GetBits(1);
			если bits = 1 то
				возврат 0;
			аесли bits < 0 то
				eof := истина;
				возврат 0;
			иначе
				bits := stream.ShowBits(3);
				если bits < 0 то eof := истина; возврат 0 всё;
				если bits # 0 то
					res := MPEGTables.MC4[bits][0];
					stream.SkipBits(MPEGTables.MC4[bits][1]);
					bits := stream.GetBits(1);
					если bits = 1 то
						возврат -res;
					аесли bits < 0 то
						eof := истина;
						возврат 0;
					иначе
						возврат res;
					всё;
				иначе
					stream.SkipBits(3);
					bits := stream.ShowBits(3);
					если bits < 0 то eof := истина; возврат 0 всё;
					если bits >= 3 то
						res := MPEGTables.MC7[bits][0];
						stream.SkipBits(MPEGTables.MC7[bits][1]);
						bits := stream.GetBits(1);
						если bits = 1 то
							возврат -res;
						аесли bits < 0 то
							eof := истина;
							возврат 0;
						иначе
							возврат res;
						всё;
					иначе
						stream.SkipBits(1);
						bits := stream.ShowBits(5) - 12;
						если bits <= -12 то eof := истина; возврат 0 всё;
						res := MPEGTables.MC10[bits][0];
						stream.SkipBits(MPEGTables.MC10[bits][1]);
						bits := stream.GetBits(1);
						если bits = 1 то
							возврат -res;
						аесли bits < 0 то
							eof := истина;
							возврат 0;
						иначе
							возврат res;
						всё;
					всё;
				всё;
			всё;
		кон ReadMotionCode;


		(* Read the next run/level code from the stream. Assumption: 10 = end of block (not 0/1) *)
		(* Returns EndOfBlock *)
		проц ReadRunLevelCode*(c: PointerToArrayOfLONGINT; перем cur: цел32; MPEG2: булево): булево;
		перем
			run, length: цел32;
			level: цел32;
			index: цел32;

		нач
			если eof то возврат истина всё;

			length := 0;

			просей stream.ShowBits(6) из
				0:
					(* 0000 00 -> CASE for the next 6 bits *)
					просей stream.ShowBits(12) из
						1:
							(* 0000 0000 0001 -> RLC17*)
							stream.SkipBits(12);
							index := stream.ShowBits(4);
							если index < 0 то eof := истина; возврат истина всё;
							run := MPEGTables.RLC17[index][0];
							level := MPEGTables.RLC17[index][1];
							length := 4;

					|	2..3:
							(* 0000 0000 0010 .. 0000 0000 0011 -> RLC16*)
							stream.SkipBits(11);
							index := stream.ShowBits(4);
							если index < 0 то eof := истина; возврат истина всё;
							run := MPEGTables.RLC16[index][0];
							level := MPEGTables.RLC16[index][1];
							length := 4;

					|	4..7:
							(* 0000 0000 0100 .. 0000 0000 0111 -> no table (trivial) *)
							stream.SkipBits(10);
							index := stream.ShowBits(4);
							если index < 0 то eof := истина; возврат истина всё;
							run := 0;
							level := 31-index;
							length := 4;

					|	8..15:
							(* 0000 0000 1000 .. 0000 0000 1111 -> RLC14*)
							stream.SkipBits(9);
							index := stream.ShowBits(4);
							если index < 0 то eof := истина; возврат истина всё;
							run := MPEGTables.RLC14[index][0];
							level := MPEGTables.RLC14[index][1];
							length := 4;

					|	16..31:
							(* 0000 0001 0000 .. 0000 0001 1111 -> RLC13*)
							stream.SkipBits(8);
							index := stream.ShowBits(4);
							если index < 0 то eof := истина; возврат истина всё;
							run := MPEGTables.RLC13[index][0];
							level := MPEGTables.RLC13[index][1];
							length := 4;

					|	32..63:
							(* 0000 0010 0000 .. 0000 0011 1111 -> RLC11*)
							stream.SkipBits(7);
							index := stream.ShowBits(3);
							если index < 0 то eof := истина; возврат истина всё;
							run := MPEGTables.RLC11[index][0];
							level := MPEGTables.RLC11[index][1];
							length := 3;

					иначе
						(* must be negative *)
						eof := истина;
						возврат истина;
					всё;

			|	1:
					(* 0000 01 -> Escape *)
					stream.SkipBits(6);
					run := stream.GetBits(6);
					если run < 0 то eof := истина; возврат истина всё;
					если ~MPEG2 то
						index := stream.GetBits(8);
						если index = 0 то
							level := stream.GetBits(8);
							если level < 0 то eof := истина; возврат истина всё;
						аесли index = 128 то
							level := -stream.GetBits(8);
							если level > 0 то eof := истина; возврат истина всё;
						аесли index < 0 то
							eof := истина;
							возврат истина;
						иначе
							если index > 127 то
								level := -256+index;
							иначе
								level := index;
							всё;
						всё;
					иначе
						(* MPEG-2 *)
						level := stream.GetBits(12);
						утв(level # 0);
						если level > 2047 то
							level := level - 4095;	(* level + 1 - 2*2048 *)
						аесли level < 0 то
							eof := истина;
							возврат истина;
						всё;
					всё;
					увел(cur, run);
					c[MPEGTables.ZZN[cur]] := level;
					увел(cur);
					возврат ложь;

			|	2..7:
					(* 0000 10 .. 0001 11 -> RLC8 *)
					index := stream.ShowBits(7) - 4;
					если index < 0 то eof := истина; возврат истина всё;
					run := MPEGTables.RLC8[index][0];
					level := MPEGTables.RLC8[index][1];
					length := MPEGTables.RLC8[index][2];

			|	8..9:
					(* 0010 00 .. 0010 01 -> RLC9 *)
					index := stream.ShowBits(8) - 32;
					если index < 0 то eof := истина; возврат истина всё;
					run := MPEGTables.RLC9[index][0];
					level := MPEGTables.RLC9[index][1];
					length := 8;

			|	10..31:
					(* 0010 10 .. 0111 11 -> RLC6 *)
					index := stream.ShowBits(5) - 5;
					если index < 0 то eof := истина; возврат истина всё;
					run := MPEGTables.RLC6[index][0];
					level := MPEGTables.RLC6[index][1];
					length := MPEGTables.RLC6[index][2];

			|	32..47:
					(* 1000 00 .. 1011 11 -> End of Block *)
					stream.SkipBits(2);
					возврат истина;

			|	48..63:
					(* 1100 00 .. 1111 11 -> 0/1 *)
					run := 0;
					level := 1;
					length := 2;

			иначе
				eof := истина;
				возврат истина;
			всё;

			stream.SkipBits(length);
			index := stream.GetBits(1);
			если index = 1 то
				level := -level;
			аесли index < 0 то
				eof := истина;
				возврат истина;
			всё;

			увел(cur, run);
			c[MPEGTables.ZZN[cur]] := level;
			увел(cur);

			возврат ложь;
		кон ReadRunLevelCode;


		(* Read the next run/level code from the stream (second table, MPEG2 only) *)
		(* Returns EndOfBlock *)
		проц ReadRunLevelCode2*(c: PointerToArrayOfLONGINT; перем cur: цел32): булево;
		перем
			run, length: цел32;
			level: цел32;
			index: цел32;

		нач
			если eof то возврат истина всё;

			length := 0;

			просей stream.ShowBits(6) из
				0:
					(* 0000 00 -> CASE for the next 6 bits *)
					просей stream.ShowBits(12) из
						1:
							(* 0000 0000 0001 -> RLC17*)
							stream.SkipBits(12);
							index := stream.ShowBits(4);
							если index < 0 то eof := истина; возврат истина всё;
							run := MPEGTables.RLC17[index][0];
							level := MPEGTables.RLC17[index][1];
							length := 4;

					|	2..3:
							(* 0000 0000 0010 .. 0000 0000 0011 -> RLC16*)
							stream.SkipBits(11);
							index := stream.ShowBits(4);
							если index < 0 то eof := истина; возврат истина всё;
							run := MPEGTables.RLC16[index][0];
							level := MPEGTables.RLC16[index][1];
							length := 4;

					|	4..7:
							(* 0000 0000 0100 .. 0000 0000 0111 -> no table (trivial) *)
							stream.SkipBits(10);
							index := stream.ShowBits(4);
							если index < 0 то eof := истина; возврат истина всё;
							run := 0;
							level := 31-index;
							length := 4;

					|	8..15:
							(* 0000 0000 1000 .. 0000 0000 1111 -> RLC14*)
							stream.SkipBits(9);
							index := stream.ShowBits(4);
							если index < 0 то eof := истина; возврат истина всё;
							run := MPEGTables.RLC14[index][0];
							level := MPEGTables.RLC14[index][1];
							length := 4;

					|	16..31:
							(* 0000 0001 0000 .. 0000 0001 1111 -> RLC13*)
							stream.SkipBits(8);
							index := stream.ShowBits(4);
							если index < 0 то eof := истина; возврат истина всё;
							run := MPEGTables.RLC13[index][0];
							level := MPEGTables.RLC13[index][1];
							length := 4;

					|	32..39:
							(* 0000 0010 0 -> 5/2*)
							run := 5;
							level := 2;
							length := 9;

					|	40..47:
							(* 0000 0010 1 -> 14/1*)
							run := 14;
							level := 1;
							length := 9;

					|	48..51:
							(* 0000 0011 00 -> 2/4*)
							run := 2;
							level := 4;
							length := 10;

					|	52..55:
							(* 0000 0011 01 -> 16/1*)
							run := 16;
							level := 1;
							length := 10;

					|	56..63:
							(* 0000 0011 1 -> 15/1*)
							run := 15;
							level := 1;
							length := 9;

					иначе
						(* must be negative *)
						eof := истина;
						возврат истина;
					всё;

			|	1:
					(* 0000 01 -> Escape *)
					stream.SkipBits(6);
					run := stream.GetBits(6);
					если run < 0 то eof := истина; возврат истина всё;
					level := stream.GetBits(12);
					утв(level # 0);
					если level > 2047 то
						level := level - 4095;	(* level + 1 - 2*2048 *)
					аесли level < 0 то
						eof := истина;
						возврат истина;
					всё;
					увел(cur, run);
					c[MPEGTables.ZZN[cur]] := level;
					увел(cur);
					возврат ложь;

			|	2..7:
					(* 0000 10 .. 0001 11 -> RLC8_2 *)
					index := stream.ShowBits(7) - 4;
					если index < 0 то eof := истина; возврат истина всё;
					run := MPEGTables.RLC8_2[index][0];
					level := MPEGTables.RLC8_2[index][1];
					length := MPEGTables.RLC8_2[index][2];

			|	8..9:
					(* 0010 00 .. 0010 01 -> RLC9_2 *)
					index := stream.ShowBits(8) - 32;
					если index < 0 то eof := истина; возврат истина всё;
					run := MPEGTables.RLC9_2[index][0];
					level := MPEGTables.RLC9_2[index][1];
					length := 8;

			|	10..11:
					(* 0010 1 -> 2/1 *)
					run := 2;
					level := 1;
					length := 5;

			|	12..13:
					(* 0011 0 -> 1/2 *)
					run := 1;
					level := 2;
					length := 5;

			|	14..15:
					(* 0011 1 -> 3/1 *)
					run := 3;
					level := 1;
					length := 5;

			|	16..23:
					(* 010 -> 1/1 *)
					run := 1;
					level := 1;
					length := 3;

			|	24..27:
					(* 0110 -> End of Block *)
					stream.SkipBits(4);
					возврат истина;

			|	28..31:
					(* 0111 -> 0/3 *)
					run := 0;
					level := 3;
					length := 4;

			|	32..47:
					(* 10 -> 0/1 *)
					run := 0;
					level := 1;
					length := 2;

			|	48..55:
					(* 110 -> 0/23 *)
					run := 0;
					level := 2;
					length := 3;

			|	56..57:
					(* 1110 0 -> 0/4 *)
					run := 0;
					level := 4;
					length := 5;

			|	58..59:
					(* 1110 1 -> 0/6 *)
					run := 0;
					level := 6;
					length := 5;

			|	60..63:
					(* 1111 00 .. 1111 11 -> RLC9_2_2 *)
					index := stream.ShowBits(8) - 240;
					если index < 0 то eof := истина; возврат истина всё;
					run := MPEGTables.RLC9_2_2[index][0];
					level := MPEGTables.RLC9_2_2[index][1];
					length := MPEGTables.RLC9_2_2[index][2];

			иначе
				eof := истина;
				возврат истина;
			всё;

			stream.SkipBits(length);
			index := stream.GetBits(1);
			если index = 1 то
				level := -level;
			аесли index < 0 то
				eof := истина;
				возврат истина;
			всё;

			увел(cur, run);
			c[MPEGTables.ZZN[cur]] := level;
			увел(cur);

			возврат ложь;
		кон ReadRunLevelCode2;


		(* Read the macroblock address increment *)
		(* Return value: > 0 -> increment; -1 -> error; -2 -> escape; -3 -> stuffing *)
		проц ReadAddressIncrement*():цел32;
		перем
			tmp: цел32;

		нач
			если eof то возврат 0 всё;

			просей stream.ShowBits(4) из
				0:
					(* code length 7..11 *)
					stream.SkipBits(4);

					просей stream.ShowBits(4) из
						0:
							(* illegal value *)
							возврат -1;

					|	1:
							(* escape or stuffing *)
							stream.SkipBits(4);
							tmp := stream.GetBits(3);
							если tmp = 0 то
								возврат -2;
							аесли tmp = 7 то
								возврат -3;
							аесли tmp < 0 то
								eof := истина;
								возврат 0;
							иначе
								возврат -1;
							всё;

					|	2:
							(* illegal value *)
							возврат -1;

					|	3..5:
							(* code length 10 or 11 *)
							если stream.ShowBits(6) >= 18 то
								tmp := stream.GetBits(6);
								возврат (39-tmp);
							аесли stream.ShowBits(6) < 0 то
								eof := истина;
								возврат 0;
							иначе
								tmp := stream.GetBits(7);
								возврат (57-tmp);
							всё;

					|	6..11:
							(* code length 8 *)
							tmp := stream.GetBits(4);
							если tmp < 0 то eof := истина; возврат 0 всё;
							возврат (21-tmp);

					|	12..15:
							(* code length 7 *)
							tmp := stream.GetBits(3);
							если tmp < 0 то eof := истина; возврат 0 всё;
							возврат (15-tmp);

					иначе
						eof := истина;
						возврат 0;
					всё;

			|	1:
					(* code length 5 *)
					tmp := stream.GetBits(5);
					если tmp < 0 то eof := истина; возврат 0 всё;
					возврат (9-tmp);

			|	2:
					(* code 0010 *)
					stream.SkipBits(4);
					возврат 5;

			|	3:
					(* code 0011 *)
					stream.SkipBits(4);
					возврат 4;

			|	4,5:
					(* code 010 *)
					stream.SkipBits(3);
					возврат 3;

			|	6,7:
					(* code 011 *)
					stream.SkipBits(3);
					возврат 2;

			|	8..15:
					(* code 1 *)
					stream.SkipBits(1);
					возврат 1;

			иначе
				eof := истина;
				возврат 0;
			всё;
		кон ReadAddressIncrement;


		проц ReadMacroBlockType*(type: цел32; перем intra, pattern, back, forw, quant: булево): булево;
		перем
			tmp: цел32;

		нач
			если eof то возврат ложь всё;

			intra := ложь;
			pattern := ложь;
			back := ложь;
			forw := ложь;
			quant := ложь;

			просей type из
				1:	(* I-Picture *)
					intra := истина;
					tmp := stream.GetBits(1);
					если tmp = 1 то
						возврат истина;
					аесли tmp < 0 то
						eof := истина;
						возврат ложь;
					иначе
						tmp := stream.GetBits(1);
						если tmp = 1 то
							quant := истина;
							возврат истина;
						аесли tmp < 0 то
							eof := истина;
							возврат ложь;
						иначе
							возврат ложь;
						всё;
					всё;

			|	2:	(* P-Picture *)
					просей stream.ShowBits(3) из
						0:
							stream.SkipBits(3);
							просей stream.ShowBits(3) из
								0:
									(* illegal value *)
									возврат ложь;

							|	1:
									(* 0000 01 *)
									stream.SkipBits(3);
									intra := истина;
									quant := истина;
									возврат истина;

							|	2,3:
									(* 0000 1 *)
									stream.SkipBits(2);
									pattern := истина;
									quant := истина;
									возврат истина;

							|	4,5:
									(* 0001 0 *)
									stream.SkipBits(2);
									pattern := истина;
									forw := истина;
									quant := истина;
									возврат истина;

							|	6,7:
									(* 0001 1 *)
									stream.SkipBits(2);
									intra := истина;
									возврат истина;

							иначе
								eof := истина;
								возврат ложь;
							всё;

					|	1:
							(* 001 *)
							stream.SkipBits(3);
							forw := истина;
							возврат истина;

					|	2,3:
							(* 01 *)
							stream.SkipBits(2);
							pattern := истина;
							возврат истина;

					|	4..7:
							(* 1 *)
							stream.SkipBits(1);
							pattern := истина;
							forw := истина;
							возврат истина;

					иначе
						eof := истина;
						возврат ложь;
					всё;

			|	3:	(* B-Picture *)
					просей stream.ShowBits(4) из
						0:
							stream.SkipBits(4);
							tmp := stream.GetBits(2);
							просей tmp из
								0:
									(* illegal value *)
									возврат ложь;

							|	1:
									(* 0000 01 *)
									intra := истина;
									quant := истина;
									возврат истина;

							|	2:
									(* 0000 10 *)
									pattern := истина;
									back := истина;
									quant := истина;
									возврат истина;

							|	3:
									(* 0000 11 *)
									pattern := истина;
									forw := истина;
									quant := истина;
									возврат истина;
							иначе
								eof := истина;
								возврат ложь;
							всё;

					|	1:
							stream.SkipBits(4);
							tmp := stream.GetBits(1);
							если tmp = 0 то
								(* 0001 0 *)
								pattern := истина;
								forw := истина;
								back := истина;
								quant := истина;
								возврат истина;
							аесли tmp < 0 то
								eof := истина;
								возврат ложь;
							иначе
								(* 0001 1 *)
								intra := истина;
								возврат истина;
							всё;

					|	2:
							(* 0010 *)
							stream.SkipBits(4);
							forw := истина;
							возврат истина;

					|	3:
							(* 0011 *)
							stream.SkipBits(4);
							pattern := истина;
							forw := истина;
							возврат истина;

					|	4,5:
							(* 010 *)
							stream.SkipBits(3);
							back := истина;
							возврат истина;

					|	6,7:
							(* 011 *)
							stream.SkipBits(3);
							pattern := истина;
							back := истина;
							возврат истина;

					|	8..11:
							(* 10 *)
							stream.SkipBits(2);
							forw := истина;
							back := истина;
							возврат истина;

					|	12..15:
							(* 11 *)
							stream.SkipBits(2);
							pattern := истина;
							forw := истина;
							back := истина;
							возврат истина;

					иначе
						eof := истина;
						возврат ложь;
					всё;

			|	4:	(* D-Picture *)
					tmp := stream.GetBits(1);
					если tmp = 1 то
						intra := истина;
						возврат истина;
					аесли tmp < 0 то
						eof := истина;
						возврат ложь;
					иначе
						возврат ложь;
					всё;

			иначе
				возврат ложь;		(* illegal picture type *)
			всё;

			(* we should not reach this point *)
		кон ReadMacroBlockType;

		проц ReadSequenceExtension*(
			перем MainProfile: булево;
			 перем LevelID: цел32;
			 перем ChromaFormat: цел32;
			 перем videoWidth, videoHeight: цел32): булево;
		перем
			tmp: цел32;

		нач
			если eof то возврат ложь всё;

			(* escape bit, must be 0 for all currently defined profiles and levels *)
			если stream.ShowBits(1) # 0 то
				если stream.ShowBits(1) < 0 то
					eof := истина;
					возврат ложь;
				иначе
					ЛогЯдра.пСтроку8("Profile/Level not supported"); ЛогЯдра.пВК_ПС;
					возврат ложь;
				всё;
			иначе
				stream.SkipBits(1);
			всё;

			(* Profile *)
			просей stream.ShowBits(3) из
				0..3, 6, 7:
					ЛогЯдра.пСтроку8("Profile not supported"); ЛогЯдра.пВК_ПС;
					возврат ложь;

			|	4:	(* Main Profile *)
					MainProfile := истина;

			|	5:	(* Simple Profile *)
					MainProfile := ложь;
			иначе
				eof := истина;
				возврат ложь;
			всё;
			stream.SkipBits(3);

			(* Level *)
			просей stream.ShowBits(4) из
				0..3, 5, 7, 9, 11..16:
					ЛогЯдра.пСтроку8("Level not supported"); ЛогЯдра.пВК_ПС;
					возврат ложь;

			|	4:	(* High *)
					если MainProfile то
						LevelID := 4;
					иначе
						ЛогЯдра.пСтроку8("Level not supported"); ЛогЯдра.пВК_ПС;
						возврат ложь;
					всё;

			|	6:	(* High 1440 *)
					если MainProfile то
						LevelID := 3;
					иначе
						ЛогЯдра.пСтроку8("Level not supported"); ЛогЯдра.пВК_ПС;
						возврат ложь;
					всё;

			|	8: 	(* Main *)
					LevelID := 2;

			|	10:	(* Low *)
					LevelID := 1;
			иначе
				eof := истина;
				возврат ложь;
			всё;
			stream.SkipBits(4);

			(* Progressive Bit *)
			(* We ignore this bit because it is rarely used (even if the whole movie IS progressive) and therefore does not help that much *)
			stream.SkipBits(1);

			(* Chroma format *)
			просей stream.ShowBits(2) из
				0:	(* reserved *)
					ЛогЯдра.пСтроку8("Illegal chroma format"); ЛогЯдра.пВК_ПС;

			| 	1:	(* 4:2:0, the only format required to be supported by MP@ML *)
					ChromaFormat := 1;

			|	2:	(* 4:2:2, currently not supported - not sure if it will ever be... *)
					ЛогЯдра.пСтроку8("4:2:2 chroma format is not supported"); ЛогЯдра.пВК_ПС;
					возврат ложь;

			|	3:	(* 4:4:4, currently not supported - not sure if it will ever be... *)
					ЛогЯдра.пСтроку8("4:4:4: chroma format is not supported"); ЛогЯдра.пВК_ПС;
					возврат ложь;
			иначе
				eof := истина;
				возврат ложь;
			всё;
			stream.SkipBits(2);

			(* horizontal size extension *)
			tmp := stream.GetBits(2);
			если tmp < 0 то возврат ложь всё;
			videoWidth := tmp * 4096 + videoWidth;

			(* vertical size extension *)
			tmp := stream.GetBits(2);
			если tmp < 0 то возврат ложь всё;
			videoHeight := tmp * 4096 + videoHeight;

			(* ignore all the rest: bitrate (12), marker (1), vbv buffer (8), low delay (1), framerate (7) *)
			stream.SkipBits(29);

			возврат истина;
		кон ReadSequenceExtension;

		проц ReadSequenceDisplayExtension*(): булево;
		нач
			если eof то возврат ложь всё;

			(* Contains information about the source video format -> not important for the decoder *)
			stream.SkipBits(7);
			если stream.ShowBits(1) = 1 то
				stream.SkipBits(24);
			всё;
			stream.SkipBits(30);
			возврат истина;
		кон ReadSequenceDisplayExtension;

		проц ReadQuantMatrixExtension*(): булево;
		нач
			если eof то возврат ложь всё;
		кон ReadQuantMatrixExtension;

		проц ReadCopyrightExtension*(): булево;
		нач
			если eof то возврат ложь всё;
		кон ReadCopyrightExtension;

		проц ReadPictureDisplayExtension*(): булево;
		нач
			если eof то возврат ложь всё;
		кон ReadPictureDisplayExtension;

		проц ReadPictureCodingExtension*(перем pce: PicCodingExt; перем mvi: MotionVectorInfos): булево;
		нач
			если eof то возврат ложь всё;

			mvi.fCode[0][0] := stream.GetBits(4);
			mvi.fCode[0][1] := stream.GetBits(4);
			mvi.fCode[1][0] := stream.GetBits(4);
			mvi.fCode[1][1] := stream.GetBits(4);
			pce.dcPrecision := stream.GetBits(2);
			pce.picStructure := stream.GetBits(2);
			pce.topFieldFirst := stream.ShowBits(1) = 1; stream.SkipBits(1);
			pce.framePredFrameDct := stream.ShowBits(1) = 1; stream.SkipBits(1);
			pce.concealmentMV := stream.ShowBits(1) = 1; stream.SkipBits(1);
			pce.qScaleType := stream.ShowBits(1) = 1; stream.SkipBits(1);
			pce.intraVlcFormat := stream.ShowBits(1) = 1; stream.SkipBits(1);
			pce.alternateScan := stream.ShowBits(1) = 1; stream.SkipBits(1);
			pce.repeatFirstField := stream.ShowBits(1) = 1; stream.SkipBits(1);
			pce.chroma420Type := stream.ShowBits(1) = 1; stream.SkipBits(1);
			pce.progressiveFrame := stream.ShowBits(1) = 1; stream.SkipBits(1);
			если stream.ShowBits(1) = 1 то
				stream.SkipBits(21);
			иначе
				stream.SkipBits(1);
			всё;
			если stream.ShowBits(1) < 0 то
				eof := истина;
				возврат ложь;
			всё;
			возврат истина;
		кон ReadPictureCodingExtension;

		проц ReadQuantizerMatrix*(matrix: PointerToArrayOfLONGINT);
		перем
			i, j: цел32;
			tmp: цел32;
			zzQM: массив 64 из цел32;

		нач
			если eof то возврат всё;

			нцДля i := 0 до 63 делай
				tmp := stream.GetBits(8);
				если tmp < 0 то
					eof := истина;
					возврат;
				иначе
					zzQM[i] := tmp;
				всё;
			кц;

			нцДля i := 0 до 7 делай
				нцДля j := 0 до 7 делай
					matrix[i*8+j] := zzQM[MPEGTables.ZZ[i][j]];
				кц;
			кц;
		кон ReadQuantizerMatrix;


		проц ReadMotionVectors*(s: цел32; перем mvi: MotionVectorInfos; frameMotionType: цел32);
		нач
			если eof то возврат всё;

			если frameMotionType # 1 то
				если frameMotionType # 2 то
					mvi.motionVerticalFieldSelect[0][s] := (stream.GetBits(1) = 1);
				всё;
				ReadMotionVectorsHelper(0, s, mvi);
			иначе
				(* motionVectorCount = 2 *)
				mvi.motionVerticalFieldSelect[0][s] := (stream.GetBits(1) = 1);
				ReadMotionVectorsHelper(0, s, mvi);
				mvi.motionVerticalFieldSelect[1][s] := (stream.GetBits(1) = 1);
				ReadMotionVectorsHelper(1, s, mvi);
			всё;
			если stream.ShowBits(1) < 0 то
				eof := истина;
			всё;
		кон ReadMotionVectors;


		проц ReadMotionVectorsHelper(r, s: цел32; перем mvi: MotionVectorInfos);
		нач
			если eof то возврат всё;

			mvi.motionCode[r][s][0] := ReadMotionCode();
			если (mvi.fCode[s][0] # 1) и (mvi.motionCode[r][s][0] # 0) то
				mvi.motionResidual[r][s][0] := stream.GetBits(mvi.fCode[s][0] - 1);
			всё;
			если ложь то
				просей stream.ShowBits(2) из
					0,1:	mvi.dmVector[0] := 0;
						stream.SkipBits(1);
				|	2:	mvi.dmVector[0] := 1;
						stream.SkipBits(2);
				|	3:	mvi.dmVector[0] := -1;
						stream.SkipBits(2);
				всё;
			всё;
			mvi.motionCode[r][s][1] := ReadMotionCode();
			если (mvi.fCode[s][1] # 1) и (mvi.motionCode[r][s][1] # 0) то
				mvi.motionResidual[r][s][1] :=  stream.GetBits(mvi.fCode[s][1] - 1);
			всё;
			если ложь то		(* interlaced videos only *)
				просей stream.ShowBits(2) из
					0,1:	mvi.dmVector[1] := 0;
						stream.SkipBits(1);
				|	2:	mvi.dmVector[1] := 1;
						stream.SkipBits(2);
				|	3:	mvi.dmVector[1] := -1;
						stream.SkipBits(2);
				всё;
			всё;
			если stream.ShowBits(1) < 0 то
				eof := истина;
			всё;
		кон ReadMotionVectorsHelper;
	кон StreamReader;

	тип MMXConsts = укль на MMXConstsDesc;
	тип MMXConstsDesc = запись
		mmwMultY, mmwMultUG, mmwMultUB, mmwMultVR, mmwMultVG: цел64;

		(* various masks and other constants *)
		mmb10, mmw0080, mmw00ff, mmwCutRed, mmwCutGreen, mmwCutBlue: цел64;

		mask5, mask6, maskBlue: цел64;
	кон;

	(* Convert colorspace (copied and slightly edited from the DivXPlayer) *)
	тип ColorSpace* = окласс
		перем
			mmxConsts: MMXConsts;

		(* initialize rgb lookup tables *)
		проц &Init*;
		нач
			нов( mmxConsts );
			mmxConsts.mmwMultY := 2568256825682568H;
			mmxConsts.mmwMultUG := 0F36EF36EF36EF36EH;
			mmxConsts.mmwMultUB := 40CF40CF40CF40CFH;
			mmxConsts.mmwMultVR := 3343334333433343H;
			mmxConsts.mmwMultVG := 0E5E2E5E2E5E2E5E2H;

			(* various masks and other constants *)
			mmxConsts.mmb10 := 1010101010101010H;
			mmxConsts.mmw0080 := 0080008000800080H;
			mmxConsts.mmw00ff := 00FF00FF00FF00FFH;
			mmxConsts.mmwCutRed := 7C007C007C007C00H;
			mmxConsts.mmwCutGreen := 03E003E003E003E0H;
			mmxConsts.mmwCutBlue := 001F001F001F001FH;

			mmxConsts.mask5 := 0F8F8F8F8F8F8F8F8H;
			mmxConsts.mask6 := 0FCFCFCFCFCFCFCFCH;
			mmxConsts.maskBlue :=  1F1F1F1F1F1F1F1FH;
		кон Init;

		(* Convert picture from one colorspace to an another *)
		проц Convert*(
			src: PointerToArrayOfCHAR;
			srcYBaseOffset: цел32;
			yStride: цел32;
			srcUBaseOffset, srcVBaseOffset,uvStride: цел32;
			img: Raster.Image;
			 width, height, dstStride: цел32 );
		нач
			если img.fmt.code = Raster.BGR888.code то
				ConvertYUVToRGB888( src, srcYBaseOffset,  yStride, srcUBaseOffset, srcVBaseOffset, uvStride, img, width, height,
					dstStride );
			аесли img.fmt.code = Raster.BGR565.code то
				если EnableMMX то
					ConvertYUVToRGB565MMX( src, srcYBaseOffset,  yStride, srcUBaseOffset, srcVBaseOffset, uvStride, img, width, height,
						dstStride );
				иначе
					ConvertYUVToRGB565( src, srcYBaseOffset,  yStride, srcUBaseOffset, srcVBaseOffset, uvStride, img, width, height,
						dstStride );
				всё;
			всё;
		кон Convert;

		(* Convert picture from YUV -> RGB 565, mmx version *)
		проц ConvertYUVToRGB565MMX(
			puc: PointerToArrayOfCHAR;
			pucYBaseOffset, pucUBaseOffset, pucVBaseOffset: адресВПамяти;
			strideY, strideUV: размерМЗ;
			pucOut: Raster.Image;
			widthY, heightY, strideOut: цел32 );
		перем
			y, horizCount: цел32;
			pusOut: адресВПамяти;

		нач
			 strideOut := widthY*2;

			 если heightY < 0 то
				(* we are flipping our output upside-down *)
				heightY  := -heightY;
				pucYBaseOffset := pucYBaseOffset + ( heightY - 1 ) * strideY ;
				pucUBaseOffset := pucUBaseOffset + ( heightY DIV 2 - 1 ) * strideUV;
				pucVBaseOffset := pucVBaseOffset + ( heightY DIV 2 - 1 ) * strideUV;
				strideY  := -strideY;
				strideUV := -strideUV;
			всё;

			pusOut := pucOut.adr;
			pucYBaseOffset := адресОт( puc[0] )+ pucYBaseOffset;
			pucUBaseOffset := адресОт ( puc[0] ) + pucUBaseOffset;
			pucVBaseOffset := адресОт( puc[0] ) + pucVBaseOffset;

			horizCount := -(widthY DIV 8);

			нцДля y := 0 до heightY-1 делай
				ScanLine565MMX(horizCount, pucVBaseOffset, pucUBaseOffset, pucYBaseOffset, pusOut,
					адресОт( mmxConsts.mmwMultY ) );

					pucYBaseOffset := pucYBaseOffset + strideY;
					если ( y остОтДеленияНа 2 ) > 0 то
						pucUBaseOffset := pucUBaseOffset + strideUV;
						pucVBaseOffset := pucVBaseOffset + strideUV
				всё;
					pusOut := pusOut + strideOut;
			кц;
		кон ConvertYUVToRGB565MMX;

		проц ScanLine565MMX(horizCount: размерМЗ; pucV, pucU, pucY, pucOut, mmxConsts: адресВПамяти);
		машКод { SYSTEM.MMX, SYSTEM.PentiumPro }

			PUSH ECX
			MOV EAX, [EBP+pucOut]
			MOV EBX, [EBP+pucY]
			MOV ECX, [EBP+pucU]
			MOV EDX, [EBP+pucV]
			MOV EDI, [EBP+horizCount]
			MOV ESI, [EBP+mmxConsts]

		horizLoop:
			; load data
			MOVD MMX2, [ECX]						; mm2 = ________u3u2u1u0
			MOVD MMX3, [EDX]						; mm3 = ________v3v2v1v0
			MOVQ MMX0, [EBX]						; mm0 = y7y6y5y4y3y2y1y0

			PXOR MMX7, MMX7							; zero mm7

			; convert chroma part
			PUNPCKLBW MMX2, MMX7       		; MMX2 = __U3__U2__U1__U0
			PUNPCKLBW MMX3, MMX7       		; MMX3 = __V3__V2__V1__V0
;			PSUBW MMX2, mmw0080			; MMX2 -= 128
			PSUBW MMX2, [ESI+48]				; MMX2 -= 128
;			PSUBW MMX3, mmw0080			; MMX3 -= 128
			PSUBW MMX3, [ESI+48]				; MMX3 -= 128
			PSLLW MMX2, 3								; MMX2 *= 8
			PSLLW MMX3, 3								; MMX3 *= 8
			MOVQ MMX4, MMX2						; MMX4 = MMX2 = U
			MOVQ MMX5, MMX3						; MMX5 = MMX3 = V
;			PMULHW MMX2, mmwMultUG		; MMX2 *= U GREEN COEFF
;			PMULHW MMX3, mmwMultVG		; MMX3 *= V GREEN COEFF
;			PMULHW MMX4, mmwMultUB		; MMX4 = BLUE CHROMA
;			PMULHW MMX5, mmwMultVR		; MMX5 = RED CHROMA
			PMULHW MMX2, [ESI+8] 				; MMX2 *= U GREEN COEFF
			PMULHW MMX3, [ESI+32] 			; MMX3 *= V GREEN COEFF
			PMULHW MMX4, [ESI+16] 			; MMX4 = BLUE CHROMA
			PMULHW MMX5, [ESI+24]				; MMX5 = RED CHROMA

			PADDSW MMX2, MMX3					 ; MMX2 = GREEN CHROMA

			; convert luma part
;			PSUBUSB MMX0, mmb10				; MMX0 -= 16
;			MOVQ MMX1, mmw00ff
			PSUBUSB MMX0, [ESI+40]				; MMX0 -= 16
			MOVQ MMX6, [ESI+56]					;
			MOVQ MMX1, MMX0
			PSRLW MMX0, 8							; MMX0 = __Y7__Y5__Y3__Y1 LUMA ODD
			PAND MMX1, MMX6						; MMX1 = __Y6__Y4__Y2__Y0 LUMA EVEN
			PSLLW MMX0, 3								; MMX0 *= 8
			PSLLW MMX1, 3								; MMX1 *= 8
;			PMULHW MMX0, mmwMultY		; MMX0 LUMA ODD *= LUMA COEFF
;			PMULHW MMX1, mmwMultY			; MMX1 LUMA EVEN *= LUMA COEFF
			PMULHW MMX0, [ESI]					; MMX0 LUMA ODD *= LUMA COEFF
			PMULHW MMX1, [ESI]					; MMX1 LUMA EVEN *= LUMA COEFF
			; complete the matrix calc with the additions
			MOVQ MMX3, MMX4						 ; COPY BLUE CHROMA
			MOVQ MMX6, MMX5						 ; COPY RED CHROMA
			MOVQ MMX7, MMX2						 ; COPY GREEN CHROMA
			PADDSW MMX3, MMX0					 ; MMX3 = LUMA ODD + BLUE CHROMA
			PADDSW MMX4, MMX1					 ; MMX4 = LUMA EVEN + BLUE CHROMA
			PADDSW MMX6, MMX0					 ; MMX6 = LUMA ODD + RED CHROMA
			PADDSW MMX5, MMX1					 ; MMX5 = LUMA EVEN + RED CHROMA
			PADDSW MMX7, MMX0					 ; MMX7 = LUMA ODD + GREEN CHROMA
			PADDSW MMX2, MMX1					 ; MMX2 = LUMA EVEN + GREEN CHROMA
			; clipping
			PACKUSWB MMX3, MMX3
			PACKUSWB MMX4, MMX4
			PACKUSWB MMX6, MMX6
			PACKUSWB MMX5, MMX5
			PACKUSWB MMX7, MMX7
			PACKUSWB MMX2, MMX2
			; interleave odd and even parts
			PUNPCKLBW MMX4, MMX3			 ; MMX4 = B7B6B5B4B3B2B1B0 BLUE
			PUNPCKLBW MMX5, MMX6			 ; MMX5 = R7R6R5R4R3R2R1R0 RED
			PUNPCKLBW MMX2, MMX7			 ; MMX2 = G7G6G5G4G3G2G1G0 GREEN

			; mask not needed bits (using 555)
;			PAND MMX4, mask5
;			PAND MMX5, mask5
;			PAND MMX2, mask5
			PAND MMX4, [ESI+88]
			PAND MMX5, [ESI+88]
			PAND MMX2, [ESI+96]

			; mix colors and write

			PSRLW MMX4, 3						 	; MMX4 = RED SHIFTED
;			PAND MMX4, maskBlue			 	; MASK THE BLUE AGAIN
			PAND MMX4, [ESI+104]			 	; MASK THE BLUE AGAIN
			PXOR MMX7, MMX7						 ; ZERO MMX7
			MOVQ MMX1, MMX5						 ; MMX1 = COPY BLUE
			MOVQ MMX3, MMX4						 ; MMX3 = COPY RED
			MOVQ MMX6, MMX2						 ; MMX6 = COPY GREEN

			PUNPCKHBW MMX1, MMX7
			PUNPCKHBW MMX3, MMX7
			PUNPCKHBW MMX6, MMX7
			PSLLW MMX6, 3						 	; SHIFT GREEN
			PSLLW MMX1, 8						 	; SHIFT BLUE
			POR MMX6, MMX3
			POR MMX6, MMX1
			MOVQ [EAX+8], MMX6

			PUNPCKLBW MMX2, MMX7			 ; MMX2 = __G3__G2__G1__G0 ALREADY MASKED
			PUNPCKLBW MMX4, MMX7
			PUNPCKLBW MMX5, MMX7
			PSLLW MMX2, 3						 	; SHIFT GREEN
			PSLLW MMX5, 8						 	; SHIFT BLUE
			POR MMX2, MMX4
			POR MMX2, MMX5
			MOVQ [EAX], MMX2
			ADD EBX, 8               				; PUCY   += 8;
			ADD ECX, 4               				; PUCU   += 4;
			ADD EDX, 4               				; PUCV   += 4;
			ADD EAX, 16              				; PUCOUT += 16 // WROTE 16 BYTES

			INC EDI
			JNE horizLoop

			EMMS
			POP ECX
		кон ScanLine565MMX;

		(* Convert picture from YUV -> RGB 565 *)
		проц ConvertYUVToRGB565(
			puc: PointerToArrayOfCHAR;
			pucYBaseOffset, pucUBaseOffset, pucVBaseOffset: адресВПамяти;
			strideY: размерМЗ;
			strideUV: размерМЗ;
			pucOut: Raster.Image;
			widthY, heightY, strideOut: цел32 );
		перем
			xCount, yCount, strideDiff: цел32;
			pusOut: адресВПамяти;
			r, g, b: цел32;
			y, u, v: цел32;

		нач
			strideDiff := (strideOut - widthY)*размер16_от(цел16); (* expressed in bytes *)

			если heightY < 0 то
				(* we are flipping our output upside-down *)
				heightY  := -heightY;
				pucYBaseOffset := pucYBaseOffset + ( heightY - 1 ) * strideY ;
				pucUBaseOffset := pucUBaseOffset + ( heightY DIV 2 - 1 ) * strideUV;
				pucVBaseOffset := pucVBaseOffset + ( heightY DIV 2 - 1 ) * strideUV;
				strideY  := -strideY;
				strideUV := -strideUV;
			всё;

			pusOut := pucOut.adr;
			pucYBaseOffset := адресОт( puc[0] )+ pucYBaseOffset;
			pucUBaseOffset := адресОт ( puc[0] ) + pucUBaseOffset;
			pucVBaseOffset := адресОт( puc[0] ) + pucVBaseOffset;


			нцДля yCount := 0 до heightY - 1 делай
				нцДля xCount := 0 до  widthY - 1 делай

					y := кодСимв8( НИЗКОУР.подмениТипЗначения( симв8, НИЗКОУР.прочти8битПоАдресу( pucYBaseOffset + xCount ) ) ) - 16;
					u := кодСимв8( НИЗКОУР.подмениТипЗначения( симв8, НИЗКОУР.прочти8битПоАдресу( pucUBaseOffset + ( xCount DIV 2 ) ) ) ) - 128;
					v := кодСимв8( НИЗКОУР.подмениТипЗначения( симв8, НИЗКОУР.прочти8битПоАдресу( pucVBaseOffset + ( xCount DIV 2 ) ) ) ) - 128;

					r := ( 2568H*y + 3343H*u ) DIV 2000H;
					g := ( 2568H*y - 0C92H*v - 1A1EH*u ) DIV 2000H;
					b := ( 2568H*y + 40CFH*v ) DIV 2000H;

					если r > 255 то r := 255; аесли r < 0 то r := 0 всё;
					если g > 255 то g := 255; аесли g < 0 то g := 0 всё;
					если b > 255 то b := 255; аесли b < 0 то b := 0 всё;

					НИЗКОУР.запиши16битПоАдресу( pusOut,  цел16( мнвоНаБитахМЗ(r DIV 8 ) + мнвоНаБитахМЗ(( g DIV 4 ) * 32 ) +
																мнвоНаБитахМЗ((b DIV 8 ) * 2048 ) ) );

					pusOut := pusOut + размер16_от( цел16 );
				кц;

				pucYBaseOffset := pucYBaseOffset + strideY;
				если yCount остОтДеленияНа 2 > 0 то
					pucUBaseOffset := pucUBaseOffset + strideUV;
					pucVBaseOffset := pucVBaseOffset + strideUV
				всё;
				pusOut := pusOut + strideDiff;
			кц;
		кон ConvertYUVToRGB565;

		(* Convert YUV -> RGB 888 *)
		проц ConvertYUVToRGB888(
			puc: PointerToArrayOfCHAR;
			pucYBaseOffset, pucUBaseOffset, pucVBaseOffset: адресВПамяти;
			strideY, strideUV: размерМЗ;
			pucOut: Raster.Image;
			widthY, heightY, strideOut: цел32 );
		перем
			xCount, yCount, strideDiff: цел32;
			pusOut: адресВПамяти;
			r, g, b: цел32;
			y, u, v: цел32;
		нач
			strideDiff := (strideOut - widthY)*3; (* expressed in bytes *)

			если heightY < 0 то
				(* we are flipping our output upside-down *)
				heightY  := -heightY;
				pucYBaseOffset := pucYBaseOffset + ( heightY - 1 ) * strideY ;
				pucUBaseOffset := pucUBaseOffset + ( heightY DIV 2 - 1 ) * strideUV;
				pucVBaseOffset := pucVBaseOffset + ( heightY DIV 2 - 1 ) * strideUV;
				strideY  := -strideY;
				strideUV := -strideUV;
			всё;

			pusOut := pucOut.adr;
			pucYBaseOffset := адресОт( puc[0] )+ pucYBaseOffset;
			pucUBaseOffset := адресОт ( puc[0] ) + pucUBaseOffset;
			pucVBaseOffset := адресОт( puc[0] ) + pucVBaseOffset;

			нцДля yCount := 0 до heightY - 1 делай
				нцДля xCount := 0 до  widthY - 1 делай

					y := кодСимв8( НИЗКОУР.подмениТипЗначения( симв8, НИЗКОУР.прочти8битПоАдресу( pucYBaseOffset + xCount ) ) ) - 16;
					u := кодСимв8( НИЗКОУР.подмениТипЗначения( симв8, НИЗКОУР.прочти8битПоАдресу( pucUBaseOffset + ( xCount DIV 2 ) ) ) ) - 128;
					v := кодСимв8( НИЗКОУР.подмениТипЗначения( симв8, НИЗКОУР.прочти8битПоАдресу( pucVBaseOffset + ( xCount DIV 2 ) ) ) ) - 128;

					r := ( 2568H*y + 3343H*u ) DIV 2000H;
					g := ( 2568H*y - 0C92H*v - 1A1EH*u ) DIV 2000H;
					b := ( 2568H*y + 40CFH*v ) DIV 2000H;

					если r > 255 то r := 255; аесли r < 0 то r := 0 всё;
					если g > 255 то g := 255; аесли g < 0 то g := 0 всё;
					если b > 255 то b := 255; аесли b < 0 то b := 0 всё;

					НИЗКОУР.запиши8битПоАдресу( pusOut, r );
					увел( pusOut );
					НИЗКОУР.запиши8битПоАдресу( pusOut, g );
					увел( pusOut );
					НИЗКОУР.запиши8битПоАдресу( pusOut, b );
					увел( pusOut );
				кц;

				pucYBaseOffset := pucYBaseOffset + strideY;
				если yCount остОтДеленияНа 2 > 0 то
					pucUBaseOffset := pucUBaseOffset + strideUV;
					pucVBaseOffset := pucVBaseOffset + strideUV;
				всё;
				pusOut := pusOut + strideDiff;
			кц;
		кон ConvertYUVToRGB888;
	кон ColorSpace;


	(* Procedures to clear, copy and interpolate blocks *)
	(* TransferIDCT* is copied from the DivXPlayer *)
	BlockActions* = окласс
		(* clear an 8x8 CHAR block *)
		проц ClearBlock*(dest: PointerToArrayOfCHAR; destOffs, incr: размерМЗ);
		перем
			d: адресВПамяти;		(* current address *)
			i: размерМЗ;			(* loop var *)

		нач
			d := адресОт(dest[destOffs]);

			нцДля i := 0 до 7 делай
				НИЗКОУР.запиши32битаПоАдресу(d, 0);			(* wipes 4 CHARs each time *)
				НИЗКОУР.запиши32битаПоАдресу(d + 4, 0);		(* wipes 4 CHARs each time *)
				увел(d, incr);
			кц;
		кон ClearBlock;

		(* clear an 8x8 SIGNED32 array *)
		проц ClearBlockLongint*(block: PointerToArrayOfLONGINT);
		нач
			если EnableMMX то
				ClearBlockMMX(адресОт(block[0]));
			иначе
				ClearBlockGeneric(block);
			всё;
		кон ClearBlockLongint;

		(* Reset block to 0 *)
		проц ClearBlockGeneric(block: PointerToArrayOfLONGINT );
		перем
			i: размерМЗ;
			adr: адресВПамяти;
		нач
			adr := адресОт( block[0] );

			нцДля i := 0 до 63 делай
				НИЗКОУР.запиши32битаПоАдресу( adr, 0 );
				увел(adr, размер16_от(цел32));
			кц;
		кон ClearBlockGeneric;

		проц ClearBlockMMX(dst: адресВПамяти);
		машКод{ SYSTEM.MMX, SYSTEM.PentiumPro }
			MOV		EDX, -32			; clear loop counter
			MOV		ESI, [EBP+dst]		; capture block address

			PXOR  MMX0, MMX0				; mm0 = 0
		loop:
			MOVQ	[ESI], MMX0				; clear memory location
			ADD		ESI, 8
			INC		EDX
			JNZ		loop
			EMMS
		кон ClearBlockMMX;

		проц CopyBlock*(src, dest: PointerToArrayOfCHAR; srcOffs, destOffs, srcIncr, destIncr, lines: размерМЗ);
		перем
			s, d: адресВПамяти;		(* current addresses *)
			i: размерМЗ;			(* loop var *)

		нач
			s := адресОт(src[srcOffs]);
			d := адресОт(dest[destOffs]);

			нцДля i := 0 до (lines-1) делай
				НИЗКОУР.копируйПамять(s, d, 8);
				увел(s, srcIncr);
				увел(d, destIncr);
			кц;
		кон CopyBlock;

		(* move a block by overwriting the destination, motion vectors in half pel precision *)
		проц MoveBlockOverwrite*(src, dest: PointerToArrayOfCHAR; destOffs, mvX, mvY, srcIncr, destIncr, lines: цел32);
		перем
			buffer: массив 16 из симв8;		(* temporary buffer *)
			bufadr: размерМЗ;				(* address of buffer *)
			index: цел32;				(* position in buffer *)
			i, j: цел32;					(* loop vars *)
			s, d: адресВПамяти;				(* addresses of src and dest *)
			tmp1, tmp2: цел32;			(* temporary var *)

		нач
			s := адресОт(src[destOffs])+ (mvY DIV 2)*destIncr + (mvX DIV 2);
			d := адресОт(dest[destOffs]);

			если (mvX остОтДеленияНа 2) = 0 то
				если (mvY остОтДеленияНа 2) = 0 то
					(* simple copy, no interpolation *)
					CopyBlock(src, dest, destOffs + (mvY DIV 2)*destIncr + (mvX DIV 2), destOffs, srcIncr, destIncr, lines);
				иначе
					(* vertical interpolation only *)
					bufadr := адресОт(buffer[0]);

					НИЗКОУР.копируйПамять(s, bufadr, 8);
					увел(s, srcIncr);

					нцДля i := 0 до (lines-1) делай
						НИЗКОУР.копируйПамять(s, bufadr+8-index, 8);
						нцДля j := 0 до 7 делай
							НИЗКОУР.запиши8битПоАдресу(d+j,
								(кодСимв8(НИЗКОУР.подмениТипЗначения(симв8, НИЗКОУР.прочти8битПоАдресу(bufadr + index + j))) +
								кодСимв8(НИЗКОУР.подмениТипЗначения(симв8, НИЗКОУР.прочти8битПоАдресу(bufadr + 8 - index + j)))) DIV 2);
						кц;
						index := 8 - index;
						увел(s, srcIncr);
						увел(d, destIncr);
					кц;
				всё;
			иначе
				если (mvY остОтДеленияНа 2) = 0 то
					(* horizontal interpolation only *)
					bufadr := адресОт(buffer[0]);

					нцДля i := 0 до (lines-1) делай
						НИЗКОУР.копируйПамять(s+1, bufadr, 8);
						tmp2 := кодСимв8(НИЗКОУР.подмениТипЗначения(симв8, НИЗКОУР.прочти8битПоАдресу(s)));
						нцДля j := 0 до 7 делай
							tmp1 := tmp2;
							tmp2 := кодСимв8(НИЗКОУР.подмениТипЗначения(симв8, НИЗКОУР.прочти8битПоАдресу(bufadr+j)));
							НИЗКОУР.запиши8битПоАдресу(d+j, (tmp1 + tmp2) DIV 2);
						кц;
						увел(s, srcIncr);
						увел(d, destIncr);
					кц;
				иначе
					(* vertical and horizontal interpolation *)
					bufadr := адресОт(buffer[0]);

					(* setup *)
					НИЗКОУР.копируйПамять(s+1, bufadr, 8);
					tmp2 := кодСимв8(НИЗКОУР.подмениТипЗначения(симв8, НИЗКОУР.прочти8битПоАдресу(s)));
					нцДля j := 0 до 7 делай
						tmp1 := tmp2;
						tmp2 := кодСимв8(НИЗКОУР.подмениТипЗначения(симв8, НИЗКОУР.прочти8битПоАдресу(bufadr+j)));
						НИЗКОУР.запиши8битПоАдресу(bufadr+j, (tmp1 + tmp2) DIV 2);
					кц;
					увел(s, srcIncr);

					нцДля i := 0 до (lines-1) делай
						(* part 1: horizontal interpolation *)
						НИЗКОУР.копируйПамять(s+1, bufadr+8-index, 8);
						tmp2 := кодСимв8(НИЗКОУР.подмениТипЗначения(симв8, НИЗКОУР.прочти8битПоАдресу(s)));
						нцДля j := 0 до 7 делай
							tmp1 := tmp2;
							tmp2 := кодСимв8(НИЗКОУР.подмениТипЗначения(симв8, НИЗКОУР.прочти8битПоАдресу(bufadr+8-index+j)));
							НИЗКОУР.запиши8битПоАдресу(bufadr+8-index+j, (tmp1 + tmp2) DIV 2);
						кц;

						(* part 2: vertical interpolation *)
						нцДля j := 0 до 7 делай
							НИЗКОУР.запиши8битПоАдресу(bufadr+index+j,
								(кодСимв8(НИЗКОУР.подмениТипЗначения(симв8, НИЗКОУР.прочти8битПоАдресу(bufadr + index + j))) +
								кодСимв8(НИЗКОУР.подмениТипЗначения(симв8, НИЗКОУР.прочти8битПоАдресу(bufadr + 8 - index + j)))) DIV 2);
						кц;
						НИЗКОУР.копируйПамять(bufadr+index, d, 8);
						index := 8 - index;

						увел(s, srcIncr);
						увел(d, destIncr);
					кц;
				всё;
			всё;
		кон MoveBlockOverwrite;

		(* move a block by interpolating (sum DIV 2) with the destination, motion vectors in half pel precision *)
		проц MoveBlockInterp*(src, dest: PointerToArrayOfCHAR; destOffs, mvX, mvY, srcIncr, destIncr, lines: цел32);
		перем
			buffer: массив 16 из симв8;		(* temporary buffer *)
			bufadr: адресВПамяти;			(* address of buffer *)
			index: цел32;				(* position in buffer *)
			i, j: цел32;					(* loop vars *)
			s, d: адресВПамяти;					(* addresses of src and dest *)
			tmp1, tmp2: цел32;			(* temporary var *)

		нач
			s := адресОт(src[destOffs])+ (mvY DIV 2)*destIncr + (mvX DIV 2);
			d := адресОт(dest[destOffs]);

			если (mvX остОтДеленияНа 2) = 0 то
				если (mvY остОтДеленияНа 2) = 0 то
					(* simple copy, no interpolation *)
					нцДля i := 0 до (lines-1) делай
						нцДля j := 0 до 7 делай
							НИЗКОУР.запиши8битПоАдресу(d+j,
								(кодСимв8(НИЗКОУР.подмениТипЗначения(симв8, НИЗКОУР.прочти8битПоАдресу(s+j))) +
								кодСимв8(НИЗКОУР.подмениТипЗначения(симв8, НИЗКОУР.прочти8битПоАдресу(d+j)))) DIV 2);
						кц;

						увел(s, srcIncr);
						увел(d, destIncr);
					кц;
				иначе
					(* vertical interpolation only *)
					bufadr := адресОт(buffer[0]);

					НИЗКОУР.копируйПамять(s, bufadr, 8);
					увел(s, srcIncr);

					нцДля i := 0 до (lines-1) делай
						НИЗКОУР.копируйПамять(s, bufadr+8-index, 8);
						нцДля j := 0 до 7 делай
							tmp1 :=
								(кодСимв8(НИЗКОУР.подмениТипЗначения(симв8, НИЗКОУР.прочти8битПоАдресу(bufadr + index + j))) +
								кодСимв8(НИЗКОУР.подмениТипЗначения(симв8, НИЗКОУР.прочти8битПоАдресу(bufadr + 8 - index + j)))) DIV 2;

							НИЗКОУР.запиши8битПоАдресу(d+j, (tmp1 + кодСимв8(НИЗКОУР.подмениТипЗначения(симв8, НИЗКОУР.прочти8битПоАдресу(d + j)))) DIV 2);
						кц;
						index := 8 - index;
						увел(s, srcIncr);
						увел(d, destIncr);
					кц;
				всё;
			иначе
				если (mvY остОтДеленияНа 2) = 0 то
					(* horizontal interpolation only *)
					bufadr := адресОт(buffer[0]);

					нцДля i := 0 до (lines-1) делай
						НИЗКОУР.копируйПамять(s+1, bufadr, 8);
						tmp2 := кодСимв8(НИЗКОУР.подмениТипЗначения(симв8, НИЗКОУР.прочти8битПоАдресу(s)));
						нцДля j := 0 до 7 делай
							tmp1 := tmp2;
							tmp2 := кодСимв8(НИЗКОУР.подмениТипЗначения(симв8, НИЗКОУР.прочти8битПоАдресу(bufadr+j)));
							tmp1 := (tmp1 + tmp2) DIV 2;
							НИЗКОУР.запиши8битПоАдресу(d+j, (tmp1 + кодСимв8(НИЗКОУР.подмениТипЗначения(симв8, НИЗКОУР.прочти8битПоАдресу(d+j)))) DIV 2);
						кц;
						увел(s, srcIncr);
						увел(d, destIncr);
					кц;
				иначе
					(* vertical and horizontal interpolation *)
					bufadr := адресОт(buffer[0]);

					(* setup *)
					НИЗКОУР.копируйПамять(s+1, bufadr, 8);
					tmp2 := кодСимв8(НИЗКОУР.подмениТипЗначения(симв8, НИЗКОУР.прочти8битПоАдресу(s)));
					нцДля j := 0 до 7 делай
						tmp1 := tmp2;
						tmp2 := кодСимв8(НИЗКОУР.подмениТипЗначения(симв8, НИЗКОУР.прочти8битПоАдресу(bufadr+j)));
						НИЗКОУР.запиши8битПоАдресу(bufadr+j, (tmp1 + tmp2) DIV 2);
					кц;
					увел(s, srcIncr);

					нцДля i := 0 до (lines-1) делай
						(* part 1: horizontal interpolation *)
						НИЗКОУР.копируйПамять(s+1, bufadr+8-index, 8);
						tmp2 := кодСимв8(НИЗКОУР.подмениТипЗначения(симв8, НИЗКОУР.прочти8битПоАдресу(s)));
						нцДля j := 0 до 7 делай
							tmp1 := tmp2;
							tmp2 := кодСимв8(НИЗКОУР.подмениТипЗначения(симв8, НИЗКОУР.прочти8битПоАдресу(bufadr+8-index+j)));
							НИЗКОУР.запиши8битПоАдресу(bufadr+8-index+j, (tmp1 + tmp2) DIV 2);
						кц;

						(* part 2: vertical interpolation *)
						нцДля j := 0 до 7 делай
							tmp1 :=
								(кодСимв8(НИЗКОУР.подмениТипЗначения(симв8, НИЗКОУР.прочти8битПоАдресу(bufadr + index + j))) +
								кодСимв8(НИЗКОУР.подмениТипЗначения(симв8, НИЗКОУР.прочти8битПоАдресу(bufadr + 8 - index + j)))) DIV 2;

							НИЗКОУР.запиши8битПоАдресу(d+j, (tmp1 + кодСимв8(НИЗКОУР.подмениТипЗначения(симв8, НИЗКОУР.прочти8битПоАдресу(d + j)))) DIV 2);
						кц;
						index := 8 - index;

						увел(s, srcIncr);
						увел(d, destIncr);
					кц;
				всё;
			всё;
		кон MoveBlockInterp;

		проц TransferIDCTAdd*( source: PointerToArrayOfLONGINT; dest: PointerToArrayOfCHAR; destOffset, stride: размерМЗ );
		нач
			если EnableMMX то
				TransferIDCTAddMMX( адресОт( source[0] ), адресОт( dest[destOffset] ), stride );
			иначе
				TransferIDCTAddGeneric( source, dest, destOffset, stride );
			всё;
		кон TransferIDCTAdd;

		проц TransferIDCTCopy*( source: PointerToArrayOfLONGINT; dest: PointerToArrayOfCHAR; destOffset, stride: размерМЗ );
		нач
			если EnableMMX то
				TransferIDCTCopyMMX( адресОт( source[0] ), адресОт( dest[destOffset] ), stride );
			иначе
				TransferIDCTCopyGeneric( source, dest, destOffset, stride );
			всё;
		кон TransferIDCTCopy;

		(* Add macroblock to a block in the actual picture *)
		проц TransferIDCTAddGeneric( source: PointerToArrayOfLONGINT; dest: PointerToArrayOfCHAR; destOffset, stride: размерМЗ );
		перем
			x, y: размерМЗ; s, d: адресВПамяти; sum: цел32;
		нач
			stride := stride -  8;
			s := адресОт( source[0] );
			d := адресОт( dest[destOffset] );

			нцДля y := 0 до 7 делай
				нцДля x := 0 до 7 делай

					sum := кодСимв8( НИЗКОУР.подмениТипЗначения(симв8, НИЗКОУР.прочти8битПоАдресу( d ) ) ) + НИЗКОУР.прочти32битаПоАдресу( s );
					если sum > 255 то
						НИЗКОУР.запиши8битПоАдресу( d, 255 )
					аесли sum < 0 то
						НИЗКОУР.запиши8битПоАдресу( d, 0 )
					иначе
						НИЗКОУР.запиши8битПоАдресу( d, sum )
					всё;
					s := s + размер16_от( цел32 );
					d := d + размер16_от( симв8 );

				кц;
				d := d + stride
			кц;
		кон TransferIDCTAddGeneric;

		проц TransferIDCTAddMMX( source, dest: адресВПамяти; stride: размерМЗ );
		машКод{ SYSTEM.MMX, SYSTEM.PentiumPro }
			MOV EAX, [EBP+source]			;  PARAMETER 1, *SOURCES32
			MOV EBX, [EBP+dest]			;  PARAMETER 2, *DESTU8
			MOV EDI, [EBP+stride]			;  PARAMETER 3, STRIDE
			MOV EDX, -8					;  loop counter
			PXOR MMX7, MMX7				;  SET MMX7 = 0

		loop:
			MOVQ MMX0,  [EBX]				;  eight bytes of destination into mm0
			MOVQ MMX1,  MMX0				;  eight bytes of destination into mm1
			PUNPCKLBW MMX0, MMX7			;  unpack first 4 bytes from dest into mm0, no saturation
			PUNPCKHBW MMX1, MMX7		;  unpack next 4 bytes from dest into mm1, no saturation
			MOVQ MMX2, [EAX]				;  two source Doublewords into mm2
			PACKSSDW MMX2, [EAX+8]		;  pack mm2 with next two source double words into mm2
			MOVQ MMX3, [EAX+16]
			PACKSSDW MMX3, [EAX+24]
			PADDSW MMX0, MMX2			; add source and destination
			PADDSW MMX1, MMX3			; add source and destination
			PACKUSWB MMX0, MMX1			; pack mm0 and mm1 into mm0
			MOVQ [EBX], MMX0				; copy output to destination
			ADD EBX, EDI					; add +stride to dest ptr
			ADD EAX, 32
			INC EDX
			JNZ loop
			EMMS
		кон TransferIDCTAddMMX;

		(* Copy a macroblock to the actual picture *)
		проц TransferIDCTCopyGeneric( source: PointerToArrayOfLONGINT; dest: PointerToArrayOfCHAR; destOffset, stride: размерМЗ );
		перем
			x, y: размерМЗ; s, d: адресВПамяти; val: цел32;
		нач
			stride := stride - 8;
			s := адресОт( source[0] );
			d := адресОт( dest[destOffset] );

			нцДля y := 0 до 7 делай
				нцДля x:= 0 до 7 делай
					val := НИЗКОУР.прочти32битаПоАдресу( s );
					если val  > 255 то
						НИЗКОУР.запиши8битПоАдресу( d, 255 )
					аесли val <  0 то
						НИЗКОУР.запиши8битПоАдресу( d, 0 )
					иначе
						НИЗКОУР.запиши8битПоАдресу( d, val )
					всё;
					s := s + размер16_от(цел32);
					d := d + размер16_от( симв8 );
				кц;
				d := d + stride
			кц;
		кон TransferIDCTCopyGeneric;

		проц TransferIDCTCopyMMX( source, dest: адресВПамяти; stride: размерМЗ );
		машКод{ SYSTEM.MMX, SYSTEM.PentiumPro }
			MOV EAX, [EBP+source]			;  PARAMETER 1, *SOURCES32
			MOV EBX, [EBP+dest]			;  PARAMETER 2, *DESTU8
			MOV EDI, [EBP+stride]			;  PARAMETER 3, STRIDE
			MOV EDX, -8

		loop:
			MOVQ MMX0,  [EAX]				;  eight bytes (two SIGNED32) of source into mm0
			PACKSSDW MMX0, [EAX+8]		; Pack next 8 bytes (two SIGNED32) together with mm0
			MOVQ MMX1, [EAX+16]
			PACKSSDW MMX1, [EAX+24]
			PACKUSWB MMX0, MMX1			; Pack 4 SIGNED16 with another 4 SIGNED16 into mm0
			MOVQ [EBX], MMX0				; Write mm0 to dest
			ADD EBX, EDI					; Add stride to dest
			ADD EAX, 32					; next source
			INC EDX
			JNZ loop
			EMMS
		кон TransferIDCTCopyMMX;
	кон BlockActions;

нач
	нов(IdctBorder, 1024 );
	нцДля ii := -512 до 511 делай
		если ii < -256 то
			IdctBorder[ii + 512] := -256
		аесли ii > 255 то
			IdctBorder[ii + 512] := 255
		иначе
			IdctBorder[ii + 512] := ii;
		всё;
	кц;
кон MPEGUtilities.
