(* Aos, Copyright 2001, Pieter Muller, ETH Zurich *)

модуль IP; (** AUTHOR "pjm, mvt, eb"; PURPOSE "IP (v4 and v6)"; *)

использует НИЗКОУР, ЛогЯдра, Commands, Strings, Network;

конст
	(* DEBUG *)
	DEBUG = истина;

	(** Error codes *)
	Ok* = 0;
	DeviceAlreadyUsed* = 3901;
	DuplicateInterfaceName* = 3902;
	NoInterfaceName* = 3903;
	GatewayNotInSubnet* = 3904;
	IPv6AdrUsedOnIPv4Interface* = 4001;
	IPv4AdrUsedOnIPv6Interface* = 4002;
	DublicatedAddresses* = 4003;
	MixedIpProtocols* = 4003;
	LocalAdrSetIntv6* = 4004;   (* local address must be NIL when calling SetAdrs on a IPv6 interface *)
	PrefixNotSet* = 4005; (* prefix on ipv6 interface must be set with local address *)

	MaxNofDNS* = 10; (** maximum number of DNS servers per interface *)
	MaxTTL* = 255; (** maximum time-to-live on outgoing datagrams *)

	NbrOfReceivers = 255; (* Number of possible receivers, i.e. possible layer 3 protocols *)

	(** IP address constants *)
	NilAdrIPv4 = 0;

	(* Comparators for Adr.usedProtocols *)
	IPv4* = 4;
	IPv6* = 6;
	NilAdrIdent = -1;	(* usedProtocol of NilAdrs *)

	(* ICMP *)
	ICMPHdrLen* = 4;
	ICMPSrcLLAdrOptionType* = 1;
	ICMPTargetLLAdrOptionType* = 2;
	ICMPPrefixInfoOptionType* = 3;
	ICMPRedirectHdrOptionType* = 4;
	ICMPMTUOptionType* = 5;
	ICMPAdvIntOptionType* = 7;
	ICMPHomeAgOptionType* = 8;
	ICMPRouteOption* = 9;


тип
	Adr* = запись
		ipv4Adr*: цел32;
		ipv6Adr*: массив 16 из симв8;
		usedProtocol*: цел32;
		data*: цел32;
	кон; (** An IP Address.	usedProtocol = 0: No protocol yet used
							usedProtocol = IPv4: IPv4 address stored in field ipv4Adr
							usedProtocol = IPv6: IPv6 address stored in field ipv6Adr
							data can be used to store additional informations. I.e. in IPv6 the
							prefix length is stored in the data field *)

тип
	Packet* = укль на массив из симв8;

	Name* = массив 128 из симв8; (** Name type for interface name *)

	Interface* = окласс
	перем
		(** IP addresses of this interface. *)
		localAdr*, maskAdr*, gatewayAdr*, subnetAdr*, broadAdr*: Adr;

		(** name of the interface *)
		name*: Name;

		(** Device that the interface belongs to *)
		dev*: Network.LinkDevice;

		(** DNS server list - can be used by DNS, not used in IP itself *)
		DNS-: массив MaxNofDNS из Adr; (* DNS server list *)
		DNScount*: цел32; (* number of DNS servers in list *)

		(* interface *)
		next*: Interface; (* next pointer for interface list *)
		closed*: булево; (* is interface already closed? *)
		protocol*: цел32; (* Interface for IPv4 or IPv6?. Only used by IP otherwise use dynamic type checking! *)


		(** Set addresses. Is normally called just after instanciation, but can also be called later, e.g. by DHCP.
			If "gatewayAdr" is "NilAdr", the subnet is considered to have no gateway, else it must be in the same
			subnet as the "localAdr".
			"domain" can be an empty string. It is normally used by a DNS implementation. It is not used in IP directly.
			In IPv6 maskAdr is the prefix of the currently IP address *)
		проц SetAdrs*(localAdr, maskOrPrefixAdr, gatewayAdr: Adr; перем res: целМЗ);
		нач
			(* Extensions have to override this method.*)
			СТОП(99);
		кон SetAdrs;


		(** Remove all domain name servers from the interface. *)
		проц DNSRemoveAll*;
		нач {единолично}
			DNScount := 0;
		кон DNSRemoveAll;


		(** Add a domain name server to the interface. *)
		проц DNSAdd*(adr: Adr);
		перем
			i: цел32;

		нач {единолично}
			(* concurrent lookup is consistent *)
			утв(DNScount < MaxNofDNS);

			i := 0;
			нцПока i < DNScount делай
				если AdrsEqual (DNS[i],adr) то возврат всё;
				увел(i)
			кц;
			DNS[DNScount] := adr;
			увел(DNScount);
		кон DNSAdd;


		(** Remove a domain name server from the interface. *)
		проц DNSRemove*(adr: Adr);
		перем i: цел32;
		нач {единолично}
			(* concurrent lookup could result in a duplicate address in worst-case *)
			(* this happends hardly ever and is harmless for DNS anyway *)
			i := 0;
			нцПока (i < DNScount) и (~ AdrsEqual(DNS[i],adr)) делай
				увел(i)
			кц;
			если i < DNScount то
				увел(i);
				нцПока i < DNScount делай
					DNS[i-1] := DNS[i];
					увел(i);
				кц;
				умень(DNScount);
			всё;
		кон DNSRemove;


		(** Send an IP packet on this interface. *)
		проц Send*(type: цел32; destAdr: Adr; конст l4hdr, data: массив из симв8; h4len, dofs, dlen, TTL: цел32);
		нач
			(* Extensions have to override this method.*)
			СТОП(99);
		кон Send;


		(* Internal procedure to perform the rest of the send operation. Used by "Send" and for IP forwarding. *)
		проц DoSend*(destAdr: Adr; конст l3hdr, l4hdr, data: массив из симв8; h3len, h4len, dofs, dlen: цел32) ;
		нач
			(* Extensions have to override this method.*)
			СТОП(99);
		кон DoSend;


		(** Enumerate all ARP table entries. *)
		проц ARPEnumerate*(handle: ARPHandler);
		нач
			(* Extensions have to override this method.*)
			СТОП(99);
		кон ARPEnumerate;


		(** Close and deactivate the interface, i.e. remove it from the configuration. *)
		проц Close*;
		нач
			(* Extensions have to override this method.*)
			СТОП(99);
		кон Close;


		(** Check if adr is a broadcast address *)
		проц IsBroadcast*(adr: Adr) : булево;
		нач
			(* Extensions have to override this method.*)
			СТОП(99);
		кон IsBroadcast;


		(** Check if adr is a multicast address *)
		проц IsMulticast*(adr: Adr) : булево;
		нач
			(* Extensions have to override this method.*)
			СТОП(99);
		кон IsMulticast;


		(** Receive an IP packet *)
		проц IPInput*(dev: Network.LinkDevice; type: цел32; buffer: Network.Buffer);
		нач
			(* Extensions have to override this method.*)
			СТОП(99);
		кон IPInput;


		(** Reads the source address of a IP packet buffer *)
		проц ReadSrcAdr* (buffer: Network.Buffer): Adr;
		нач
			(* Extensions have to override this method.*)
			СТОП(99);
		кон ReadSrcAdr;


		(** Reads the destination address of a IP packet buffer *)
		проц ReadDestAdr* (buffer: Network.Buffer): Adr;
		нач
			(* Extensions have to override this method.*)
			СТОП(99);
		кон ReadDestAdr;


		(** Creates a pseudo-header for checksum calculation (TCP/UDP) and returns the length of this header *)
		проц WritePseudoHeader*(перем pseudoHdr: массив из симв8;  src, dst: Adr; protocol, pktLengthUpperLayer: цел32): цел32;
		нач
			(* Extensions have to override this method.*)
			СТОП(99);
		кон WritePseudoHeader;


		(** Writes the configuration of this interface *)
		проц OutInterface*;
		нач
			(* Extensions have to override this method.*)
			СТОП(99);
		кон OutInterface;

	кон Interface;


тип
	(* List of interfaces *)
	InterfaceList* = укль на запись
		interface*: Interface;
		next*: InterfaceList;
	кон;

	Receiver* = проц {делегат} (int: Interface; type: цел32; fip, lip: Adr; buffer: Network.Buffer);
	V6InterfaceByDstIP* = проц {делегат} (dstAdr: Adr): Interface;

	(** Handler for ARPPool.Enumerate. *)
	ARPHandler* = проц {делегат} (ip: Adr; complete: булево; link: Network.LinkAdr; size, sendTime, updateTime, updateDate, hash: цел32);

	InterfaceHandler* = проц {делегат} (int: Interface);


перем
	(* receiver *)
	receivers*: массив 256 из Receiver; (* registered receivers - array position is IPv4 protocol field or IPv6 next header field *)

	(* Interface by dst for IPv6 *)
	v6InterfaceByDstIP*: V6InterfaceByDstIP;

	(* IP *)
	NilAdr*: Adr; (* To check if an IP address is NIL use IsNilAdr instead *)
	preferredProtocol*: цел32;	(* Preferred IP protocol *)

	(* IP counters *)
	NIPSentToSubnet*, NIPSentToGateway*, NIPSentBroadcast*, NIPCantFragment*,
	NIPRcvTotal*, NIPTooSmall*, NIPBadVersion*, NIPOptions*, NIPBadChecksum*,
	NIPBadLength*, NIPTrim*, NIPBadHdrLen*, NIPNotForUs*, NIPCantReassemble*, NIPSrcIsBroadcast*,
	NIPDelivered*, NIPNoReceiver*, NIPForwarded*, NIPSentLocalLoopback*, NIPSentPointToPoint*: цел32;

	(* turn on/off IP forwarding, echo replay *)
	IPForwarding*: булево;
	EchoReply*: булево;

	(* Interface *)
	interfaces*: Interface; (* list of all installed interfaces *)

	counter: цел32; (* Use it only in the module body! *)


(** Is address not yet specified *)
проц IsNilAdr* (adr: Adr): булево;
перем
	isNil: булево;
	i: цел32;

нач
	просей adr.usedProtocol из
		IPv4:
			возврат (adr.ipv4Adr = NilAdrIPv4)

		|IPv6:
			isNil := истина;
			i := 0;
			нцПока ((i<16) и isNil) делай
				если adr.ipv6Adr[i] # 0X то
					isNil := ложь;
				всё;
				увел(i);
			кц;
			возврат isNil;

		|NilAdrIdent:
			возврат истина;

		иначе
			если DEBUG то
				утв(истина);
			всё;
			возврат истина;
	всё;
кон IsNilAdr;


(* Checks if two addresses are equal *)
проц AdrsEqual* (adr1, adr2: Adr): булево;
перем
	equal: булево;
	i: цел32;

нач
	если adr1.usedProtocol # adr2.usedProtocol то
		возврат ложь;
	всё;

	просей adr1.usedProtocol из
		IPv4:
			если adr1.ipv4Adr = adr2.ipv4Adr то
				возврат истина;
			всё;

		|IPv6:
			equal := истина;
			i := 0;
			нцПока ((i < 16) и equal) делай
				если adr1.ipv6Adr[i] # adr2.ipv6Adr[i] то
					equal := ложь;
				всё;
				увел(i);
			кц;

			если adr1.data # adr2.data то
				equal := ложь;
			всё;

			возврат equal;

		|NilAdrIdent:
			(* both addresses NIL therefore equal *)
			если adr2.usedProtocol = NilAdrIdent то
				возврат истина;
			иначе
				возврат ложь;
			всё;

		иначе
			если DEBUG то
				утв(истина);
			всё;
			возврат ложь;
	всё;
	возврат ложь;
кон AdrsEqual;


(** Convert a dotted-decimal string to an ip address. Return NilAdr on failure. *)
проц StrToAdr*(ipString: массив из симв8): Adr;
перем
	retAdr: Adr;
	i, j, x: цел32;
	adr: массив 4 из симв8;
	ok: булево;
	charCount: цел32;				(* ipv6: number of character between two : *)
	ipv6AdrPart: массив 6 из симв8;		(* two bytes of an IPv6 address *)
	ipv6AdrRight: массив 16 из симв8;	(* right part of an IPv6 address; after :: *)
	hexToChar: массив 3 из симв8;
	leftParts: цел32;					(* number of bytes before :: *)
	rightParts: цел32;				(* number of bytes after :: *)
	val: цел32;
	res: целМЗ;
	state: цел32;						(* state of the FSM look at the eof for more info *)
	dPointOcc: булево;				(* double point occured *)
	prefixVal: цел32;


	(* compute a subpart (two bytes) of a IPv6 address; subpart:=between two : *)
	проц ComputeIPv6Part():булево;
	нач
		просей charCount из
			0:
				возврат истина;

			|1,2:
				если dPointOcc то
					ipv6AdrRight[rightParts] := 0X;
					увел(rightParts);
				иначе
					retAdr.ipv6Adr[leftParts] := 0X;
					увел(leftParts);
				всё;
				Strings.HexStrToInt(ipv6AdrPart, val, res);

				если res = Strings.Ok то
					если dPointOcc то
						ipv6AdrRight[rightParts] := симв8ИзКода(val);
						увел(rightParts);
					иначе
						retAdr.ipv6Adr[leftParts] := симв8ИзКода(val);
						увел(leftParts);
					всё;
				иначе
					возврат ложь;
				всё;

			|3:
				hexToChar[0] := ipv6AdrPart[0];
				hexToChar[1] := 0X;
				Strings.HexStrToInt(hexToChar, val, res);

				если res = Strings.Ok то
					если dPointOcc то
						ipv6AdrRight[rightParts] := симв8ИзКода(val);
						увел(rightParts);
					иначе
						retAdr.ipv6Adr[leftParts] := симв8ИзКода(val);
						увел(leftParts);
					всё;
				иначе
					возврат ложь;
				всё;
				ipv6AdrPart[0] := "0";
				Strings.HexStrToInt(ipv6AdrPart, val, res);

				если res = Strings.Ok то
					если dPointOcc то
						ipv6AdrRight[rightParts] := симв8ИзКода(val);
						увел(rightParts);
					иначе
						retAdr.ipv6Adr[leftParts] := симв8ИзКода(val);
						увел(leftParts);
					всё;
				иначе
					возврат ложь;
				всё;

			|4:
				hexToChar[0] := ipv6AdrPart[0];
				hexToChar[1] := ipv6AdrPart[1];
				hexToChar[2] := 0X;
				Strings.HexStrToInt(hexToChar, val, res);

				если res = Strings.Ok то
					если dPointOcc то
						ipv6AdrRight[rightParts] := симв8ИзКода(val);
						увел(rightParts);
					иначе
						retAdr.ipv6Adr[leftParts] := симв8ИзКода(val);
						увел(leftParts);
					всё;
				иначе
					возврат ложь;
				всё;
				ipv6AdrPart[0] := "0";
				ipv6AdrPart[1] := "0";
				Strings.HexStrToInt(ipv6AdrPart, val, res);

				если res = Strings.Ok то
					если dPointOcc то
						ipv6AdrRight[rightParts] := симв8ИзКода(val);
						увел(rightParts);
					иначе
						retAdr.ipv6Adr[leftParts] := симв8ИзКода(val);
						увел(leftParts);
					всё;
				иначе
					возврат ложь;
				всё;

			иначе
				если DEBUG то
					утв(истина);
				всё;
				возврат ложь;
		всё;
		charCount := 0;
		возврат истина;
	кон ComputeIPv6Part;


нач
	retAdr := NilAdr;

	если IsValidIPv4Str(ipString) то
		(* Return an ipv4 address *)
		i := 0;
		j := 0;
		x := -1;
		ok := ложь;

		нц
			если (ipString[i] = ".") или (ipString[i] = 0X) то
				если (x < 0) или (x > 255) или (j = 4) то прервиЦикл всё;
				adr[j] := симв8ИзКода(x);
				если ipString[i] = 0X то ok := (j = 3); прервиЦикл всё;
				x := -1; увел(i); увел(j)
			аесли (ipString[i] >= "0") и (ipString[i] <= "9") то
				если x = -1 то x := 0 всё;
				x := x*10 + (кодСимв8(ipString[i])-кодСимв8("0"));
				увел(i)
			иначе
				прервиЦикл
			всё
		кц;

		если ok то
			retAdr.ipv4Adr := НИЗКОУР.подмениТипЗначения (цел32, adr);
			retAdr.usedProtocol := IPv4;
			возврат retAdr;
		иначе
			возврат NilAdr;
		всё


	(* IPv6 *)
	аесли IsValidIPv6Str(ipString) то
		i := 0;
		state := 1;
		charCount := 0;
		dPointOcc := ложь;
		retAdr.usedProtocol := 6;
		retAdr.ipv4Adr := NilAdrIPv4;
		i := 0;
		j := 0;
		charCount := 0;
		leftParts := 0;
		rightParts := 0;
		prefixVal := 0;

		Strings.UpperCase(ipString);

		нцПока (i < (длинаМассива(ipString) - 1)) и (ipString[i] # 0X) делай

			просей state из  (* Using the same FSM as IsValidIPv6Str *)
				-1:	(* Error state
					    Should never happen, is checked by IsValidIPv6Str() *)
					возврат NilAdr;

				|1:	(* reading two blocks of two bytes of 0-9\A-F *)
					если ipString[i] = ":" то
						ipv6AdrPart[charCount] := 0X;
						если ~ComputeIPv6Part() то
							возврат NilAdr;
						всё;
						state := 2;

					аесли ipString[i] = "/" то
						ipv6AdrPart[charCount] := 0X;

						если ~ComputeIPv6Part() то
							возврат NilAdr;
						всё;
						state := 3;

					иначе
						(* 0-9, A-F *)
						ipv6AdrPart[charCount] := ipString[i];
						увел(charCount);
					всё;

				|2:	(* a : occured *)
					если ipString[i] = ":" то
						dPointOcc := истина;
						state := 4;
					иначе
						(* 0-9, A-F *)
						state := 1;
						charCount := 0;
						ipv6AdrPart[charCount] := ipString[i];
						увел(charCount);
					всё;

				|3:	(* prefix will follow *)
					prefixVal := (prefixVal * 10) + (кодСимв8(ipString[i]) - кодСимв8("0"));

				|4:	(* A :: occured *)
					если ipString[i] = "/" то
						state := 3;
					иначе
						если ~ComputeIPv6Part() то
							возврат NilAdr;
						всё;

						(* 0-9, A-F *)
						state := 1;
						charCount := 0;
						ipv6AdrPart[charCount] := ipString[i];
						увел(charCount);
					всё;
				иначе
					если DEBUG то
						утв(истина);
					всё;
			всё;
			увел(i);
		кц;

		ipv6AdrPart[charCount] := 0X;
		если charCount # 0 то
			если ~ComputeIPv6Part() то
				возврат NilAdr;
			всё;
		всё;

		если dPointOcc то
			(* fill 0X for :: *)
			нцДля i:= leftParts до ((длинаМассива(retAdr.ipv6Adr) -1) - rightParts) делай
				retAdr.ipv6Adr[i] := 0X;
			кц;

			(* fill part behind :: *)
			нцДля i := 0 до (rightParts - 1) делай
				retAdr.ipv6Adr[(длинаМассива(retAdr.ipv6Adr) - rightParts) + i] := ipv6AdrRight[i];
			кц;
		всё;

		если prefixVal > 64 то
			возврат NilAdr;
		всё;
		retAdr.data := prefixVal;
		возврат retAdr;
	всё;
	возврат NilAdr;
кон StrToAdr;


(** Convert an IP address to a dotted-decimal string. *)
проц AdrToStr*(adr: Adr; перем string: массив из симв8);
перем
	i, j, x: цел32;
	a: массив 4 из симв8;
	val: цел32;
	hexToStr: массив 5 из симв8;
	prefixLenStr: массив 64 из симв8;
	maxZeroRow: цел32;
	currentZeroRow: цел32;
	maxZeroStart: цел32;
	currentZeroStart: цел32;
	lastZero: булево;
	lastDPoint: булево;
	countEnded: булево;

нач
	просей adr.usedProtocol из
		IPv4:
			утв(длинаМассива(string) >= 16);	(* enough space for largest result *)
			Network.Put4(a, 0, adr.ipv4Adr);
			i := 0;
			нцДля j := 0 до 3 делай
				x := кодСимв8(a[j]);
				если x >= 100 то string[i] := симв8ИзКода(кодСимв8("0")+x DIV 100); увел(i) всё;
				если x >= 10 то string[i] := симв8ИзКода(кодСимв8("0")+x DIV 10 остОтДеленияНа 10); увел(i) всё;
				string[i] := симв8ИзКода(кодСимв8("0")+x остОтДеленияНа 10); увел(i);
				если j = 3 то string[i] := 0X иначе string[i] := "." всё;
				увел(i)
			кц

		|IPv6:
			нцДля i := 0 до (длинаМассива(adr.ipv6Adr) -1) шаг 2 делай
				(* simple version *)
				val :=  кодСимв8(adr.ipv6Adr[i]) * 256;
				val := val + кодСимв8(adr.ipv6Adr[i+1]);
				Strings.IntToHexStr (val, 3, hexToStr);

				(* Delete leading zeros *)
				нцПока (hexToStr[0] = "0") и (hexToStr[1] # 0X) делай
					Strings.Delete(hexToStr, 0, 1);
				кц;
				Strings.Append (string, hexToStr);

				если i # (длинаМассива(adr.ipv6Adr) - 2) то
					Strings.Append (string, ":");
				всё;
			кц;

			(* replace longest row of zeros with :: *)
			maxZeroRow := 0;
			currentZeroRow := 0;
			maxZeroStart := 0;
			currentZeroStart := 0;
			i := 0;
			lastZero := ложь;
			lastDPoint := истина;
			countEnded :=истина;

			нцПока string[i] # 0X делай
				если string[i] = "0" то
					если lastDPoint то
						увел(currentZeroRow);
						lastZero := истина;
						lastDPoint := ложь;
						если countEnded то
							currentZeroStart := i;
							countEnded := ложь;
						всё;
					всё;
				аесли string[i] = ":" то
					lastDPoint := истина;
					если lastZero то
						lastZero := ложь;
					всё;
				иначе
					если lastDPoint то
						lastDPoint := ложь;
						countEnded := истина;
						если currentZeroRow > maxZeroRow то
							maxZeroRow := currentZeroRow;
							maxZeroStart := currentZeroStart;
						всё;
					всё;
				всё;

				увел(i);
			кц;

			если ~countEnded то
				если currentZeroRow > maxZeroRow то
					maxZeroRow := currentZeroRow;
					maxZeroStart := currentZeroStart;
				всё;
			всё;
			если maxZeroRow # 0 то
				(* write a :: *)
				если maxZeroStart = 0 то
					string[0] := ":";
					i := 1;
					нцПока ((string[i] # 0X) и ~((string[i] # "0") и (string[i] # ":"))) делай увел(i); кц;
					если string[i] = 0X то
						string := "::";
					иначе
						Strings.Delete(string, 1, i-2);
					всё;
				иначе
					i := maxZeroStart;
					нцПока ((string[i] = "0") или (string[i] = ":")) делай увел(i); кц;
					если string[i] = 0X то
						string[maxZeroStart] := ":";
						string[maxZeroStart+1] := 0X;
					иначе
						Strings.Delete(string, maxZeroStart, i - maxZeroStart - 1);
					всё;
				всё;
			всё;

			если adr.data # 0 то
				(* write prefix *)
				Strings.IntToStr(adr.data, prefixLenStr);
				Strings.Append (string, "/");
				Strings.Append (string, prefixLenStr);
			всё;

		иначе
			если IsNilAdr (adr) то
				string := "";
			всё;
	всё;
кон AdrToStr;


(** Convert a IP address from an array [ofs..ofs+x] to an
	Adr-type variable.
	Example for IPv4:
	If the LSB (least significant byte) is stored the the beginning [ofs],
	LSBfirst must be set to TRUE.
		(address "a.b.c.d" is stored as [d,c,b,a])
	If the LSB is stored at the end [ofs+3], LSBfirst must be set to FALSE.
		(address "a.b.c.d" is stored as [a,b,c,d])
*)
проц ArrayToAdr*(конст array: массив из симв8; ofs, protocol: цел32; LSBfirst: булево): Adr;
перем
	adr: Adr;
	i, swapTemp: цел32;
нач
	утв((protocol = 4) или (protocol = 6));

	если protocol = IPv4 то  (* index check *)
		если ~(ofs + 4 <= длинаМассива(array)) то
			возврат NilAdr;
		всё;

		НИЗКОУР.копируйПамять(адресОт(array[ofs]), адресОт(adr.ipv4Adr), 4);
		если LSBfirst то
			SwapEndian(adr.ipv4Adr);
		всё;
		adr.usedProtocol := IPv4;

	аесли protocol = IPv6 то
		если ~(ofs + 16 <= длинаМассива(array)) то
			возврат NilAdr;
		всё;

		НИЗКОУР.копируйПамять(адресОт(array[ofs]), адресОт(adr.ipv6Adr), 16);
		если LSBfirst то
			нцДля i := 0 до 3 делай
				НИЗКОУР.копируйПамять(адресОт(adr.ipv6Adr[i*4]), адресОт(swapTemp), 4);
				SwapEndian(swapTemp);
				НИЗКОУР.копируйПамять(адресОт(swapTemp), адресОт(adr.ipv6Adr[i*4]), 4);
			кц;
		всё;
		adr.usedProtocol := IPv6;

	иначе
		если DEBUG то
			утв(истина);
		всё;
		возврат NilAdr;
	всё;
	возврат adr;
кон ArrayToAdr;


(** Convert an Adr-type variable  into an array [ofs..ofs+x]
	Example in IPv4:
	If the LSB (least significant byte) should be stored the the
	beginning [ofs], LSBfirst must be set to TRUE.
		(address "a.b.c.d" is stored as [d,c,b,a])
	If the LSB should be stored at the end [ofs+3], LSBfirst must be set to FALSE.
		(address "a.b.c.d" is stored as [a,b,c,d])
*)
проц AdrToArray*(adr: Adr; перем array: массив из симв8; ofs: цел32; LSBfirst: булево);
перем
	tempAdr: Adr;
	i, swapTemp: цел32;

нач
	tempAdr := adr;

	просей adr.usedProtocol из
		IPv4:
			если ~(ofs+4 <= длинаМассива(array)) то
				tempAdr := NilAdr;
			всё;

			если LSBfirst то
				SwapEndian(tempAdr.ipv4Adr);
			всё;
			НИЗКОУР.копируйПамять(адресОт(tempAdr.ipv4Adr), адресОт(array[ofs]), 4);

		| IPv6:
			если ~(ofs + 16 <= длинаМассива(array)) то
				tempAdr := NilAdr;
			всё;

			если LSBfirst то
				нцДля i := 0 до 3 делай
					НИЗКОУР.копируйПамять(адресОт(tempAdr.ipv6Adr[i*4]), адресОт(swapTemp), 4);
					SwapEndian(swapTemp);
					НИЗКОУР.копируйПамять(адресОт(swapTemp), адресОт(tempAdr.ipv6Adr[i*4]), 4);
				кц;
			всё;
			НИЗКОУР.копируйПамять(адресОт(adr.ipv6Adr), адресОт(array[ofs]), 16);
		иначе
			если DEBUG то
				утв(истина);
			всё;
	всё;
кон AdrToArray;


(** Reads the IP source address from a buffer *)
проц SrcAdrFromBuffer* (buffer: Network.Buffer): Adr;
перем
	i: цел32;
	adr: Adr;

нач
	просей кодСимв8(buffer.data[buffer.l3ofs]) DIV 16 из
		IPv4:
			adr.usedProtocol := IPv4;
			НИЗКОУР.копируйПамять(адресОт(buffer.data[buffer.l3ofs+12]),адресОт(adr.ipv4Adr),4); (* data might be unaligned *)
			SetIPv6AdrNil(adr);
			возврат adr;

		|IPv6:
			adr.usedProtocol := IPv6;
			нцДля i := 0 до 15 делай
				adr.ipv6Adr[i] := buffer.data[buffer.l3ofs+8 + i];
			кц;
			adr.ipv4Adr := NilAdrIPv4;

		иначе
			если DEBUG то
				утв(истина);
			всё;
			возврат NilAdr;
	всё;
	возврат NilAdr;
кон SrcAdrFromBuffer;


(** Reads the IP destination address from a buffer *)
проц DestAdrFromBuffer* (buffer: Network.Buffer): Adr;
перем
	adr: Adr;
	i: цел32;

нач
	просей кодСимв8(buffer.data[buffer.l3ofs]) DIV 16 из
		IPv4:
			adr.usedProtocol := IPv4;
			НИЗКОУР.копируйПамять(адресОт(buffer.data[buffer.l3ofs+16]),адресОт(adr.ipv4Adr),4); (* data might be unaligned *)
			SetIPv6AdrNil(adr);
			возврат adr;

		|IPv6:
			adr.usedProtocol := IPv6;
			нцДля i := 0 до 15 делай
				adr.ipv6Adr[i] := buffer.data[buffer.l3ofs+24 + i];
			кц;
			adr.ipv4Adr := NilAdrIPv4;

		иначе
			если DEBUG то
				утв(истина);
			всё;
			возврат NilAdr;
	всё;
	возврат NilAdr;
кон DestAdrFromBuffer;


(* Swap internal representation of an IP address from big to little endian or vice versa. *)
проц -SwapEndian(перем adr: цел32);
машКод
#если I386 то
	POP EAX
	MOV ECX, [EAX]
	XCHG CL, CH
	ROL ECX, 16
	XCHG CL, CH
	MOV [EAX], ECX
#аесли AMD64 то
	POP RAX
	MOV ECX, [RAX]
	BSWAP ECX
	MOV [RAX], ECX
#аесли ARM то
	LDMIA	SP!, {R0}
	LDR	R1, [R0, #0]
	REV	R1, R1
	STR	R1, [R0, #0]
#иначе
	unimplemented
#кон
кон SwapEndian;


(** Write an IP address. *)
проц OutAdr*(adr: Adr);
перем
	s: массив 64 из симв8;

нач
	AdrToStr(adr, s); ЛогЯдра.пСтроку8(s);
кон OutAdr;


(** Enumerate all installed interfaces *)
проц Enumerate*(handler: InterfaceHandler);
перем item: Interface;
нач
	item := interfaces;
	нцПока item # НУЛЬ делай
		handler(item);
		item := item.next;
	кц;
кон Enumerate;


(** Output the configuration of the specified interface. Can be used as Handler in Enumerate(). *)
проц OutInterface*(interface: Interface);
нач
	interface.OutInterface;
кон OutInterface;


(** Aos command: Output statistics and configuration of all installed interfaces. *)
проц IPConfig*(context : Commands.Context);
нач
	context.out.пСтроку8("Interfaces:"); context.out.пВК_ПС;
	context.out.пСтроку8("----------------------"); context.out.пВК_ПС;
	Enumerate(OutInterface);
	context.out.пВК_ПС;
	context.out.пСтроку8("IP statistics:"); context.out.пВК_ПС;
	context.out.пСтроку8("----------------------"); context.out.пВК_ПС;
	context.out.пСтроку8("NIPSentToSubnet"); context.out.пЦел64(NIPSentToSubnet,10);context.out.пВК_ПС;
	context.out.пСтроку8("NIPSentToGateway"); context.out.пЦел64(NIPSentToGateway,10);context.out.пВК_ПС;
	context.out.пСтроку8("NIPSentBroadcast"); context.out.пЦел64(NIPSentBroadcast,10);context.out.пВК_ПС;
	context.out.пСтроку8("NIPCantFragment"); context.out.пЦел64(NIPCantFragment,10);context.out.пВК_ПС;
	context.out.пСтроку8("NIPRcvTotal"); context.out.пЦел64(NIPRcvTotal,10);context.out.пВК_ПС;
	context.out.пСтроку8("NIPTooSmall"); context.out.пЦел64(NIPTooSmall,10);context.out.пВК_ПС;
	context.out.пСтроку8("NIPBadVersion"); context.out.пЦел64(NIPBadVersion,10);context.out.пВК_ПС;
	context.out.пСтроку8("NIPOptions"); context.out.пЦел64(NIPOptions,10);context.out.пВК_ПС;
	context.out.пСтроку8("NIPBadChecksum"); context.out.пЦел64(NIPBadChecksum,10);context.out.пВК_ПС;
	context.out.пСтроку8("NIPBadLength"); context.out.пЦел64(NIPBadLength,10);context.out.пВК_ПС;
	context.out.пСтроку8("NIPTrim"); context.out.пЦел64(NIPTrim, 10);context.out.пВК_ПС;
	context.out.пСтроку8("NIPBadHdrLen"); context.out.пЦел64(NIPBadHdrLen,10);context.out.пВК_ПС;
	context.out.пСтроку8("NIPNotForUs"); context.out.пЦел64(NIPNotForUs,10);context.out.пВК_ПС;
	context.out.пСтроку8("NIPCantReassemble"); context.out.пЦел64(NIPCantReassemble,10);context.out.пВК_ПС;
	context.out.пСтроку8("NIPSrcIsBroadcast"); context.out.пЦел64(NIPSrcIsBroadcast,10);context.out.пВК_ПС;
	context.out.пСтроку8("NIPDelivered"); context.out.пЦел64(NIPDelivered,10);context.out.пВК_ПС;
	context.out.пСтроку8("NIPNoReceiver"); context.out.пЦел64(NIPNoReceiver,10);context.out.пВК_ПС;
	context.out.пСтроку8("NIPForwarded"); context.out.пЦел64(NIPForwarded,10);context.out.пВК_ПС;
	context.out.пСтроку8("NIPSentLocalLoopback"); context.out.пЦел64(NIPSentLocalLoopback,10);context.out.пВК_ПС;
	context.out.пСтроку8("NIPSentPointToPoint"); context.out.пЦел64(NIPSentPointToPoint,10);context.out.пВК_ПС; context.out.пВК_ПС;
кон IPConfig;


(** 	First part of a split checksum operation. len must be non-zero and even. chk1 must be 0 at the
	beginning. The result can be passed to a following call to Checksum1(). The last chk1 result must
	be passed to Checksum2, which sums the data following sequentially on the data summed by this
	operation. Carries from bit 15 are accumulated in the top 16 bits, so at most 65535 words can be
	summed by Checksum1 and Checksum2 together. *)
проц Checksum1*(конст data: массив из симв8; ofs, len: размерМЗ; chk1: цел32): цел32;
машКод
#если I386 то
	MOV EAX, [EBP+chk1]
	MOV EBX, [EBP+data]
	ADD EBX, [EBP+ofs]
	MOV ECX, [EBP+len]
	SHR ECX, 1
	JNC sloop
	PUSH 8	; ASSERT(~ODD(len))
	INT 3
sloop:
	MOVZX EDX, WORD [EBX]
	ADD EAX, EDX
	ADD EBX, 2
	DEC ECX
	JNZ sloop
#аесли AMD64 то
	MOV EAX, [RBP+chk1]
	MOV RBX, [RBP+data]
	ADD RBX, [RBP+ofs]
	MOV RCX, [RBP+len]
	SHR RCX, 1
	JNC sloop
	PUSH 8	; ASSERT(~ODD(len))
	INT 3
sloop:
	MOVZX EDX, WORD [RBX]
	ADD EAX, EDX
	ADD RBX, 2
	DEC RCX
	JNZ sloop
#аесли ARM то
	LDR R0, [FP, #chk1]
	LDR R1, [FP, #ofs]
	LDR R2, [FP, #len]
	LDR R3, [FP, #data] ; LDR R3, [FP, #20]
	ADD R3, R3, R1
	AND R4, R2, #1
	LSR R2, R2, #1 ; number of 16-bit words to process
	CMP R4, #0
	BEQ WordLoop
	SWI #8 ; ASSERT(~ODD(length))
WordLoop: ; sum up the words
	LDRH R4, [R3, #0]
	ADD R0, R0, R4
	ADD R3, R3, #2
	SUB R2, R2, #1
	CMP R2, #0
	BNE WordLoop
#иначе
	unimplemented
#кон
кон Checksum1;


(** 	Continue a checksum operation. len can be zero or odd. chk1 can be the result of Checksum1 for
	the immediately preceding data, or 0 for contiguous data. *)
проц Checksum2*(конст data: массив из симв8; ofs, len: размерМЗ; chk1: цел32): цел16;
машКод
#если I386 то
	MOV EAX, [EBP+chk1]
	MOV EBX, [EBP+data]
	ADD EBX, [EBP+ofs]
	MOV ECX, [EBP+len]
	SHR ECX, 1
	JZ eloop
sloop:
	MOVZX EDX, WORD [EBX]
	ADD EAX, EDX
	ADD EBX, 2
	DEC ECX
	JNZ sloop
eloop:
	TEST [EBP+len], 1	; check for odd length
	JZ even
	MOVZX EDX, BYTE [EBX]	; add last byte
	ADD EAX, EDX
even:
	MOV ECX, EAX	; now add in all the carries
	SHR ECX, 16
	AND EAX, 0FFFFH
	ADD EAX, ECX
	MOV ECX, EAX	; add in additional carry
	SHR ECX, 16
	ADD EAX, ECX	; result is in low 16 bits of EAX
	NOT EAX
#аесли AMD64 то
	MOV EAX, [RBP + chk1]
	MOV RBX, [RBP + data]
	ADD RBX, [RBP + ofs]
	MOV RCX, [RBP + len]
	SHR RCX, 1
	JZ eloop
sloop:
	MOVZX EDX, WORD [RBX]
	ADD EAX, EDX
	ADD RBX, 2
	DEC RCX
	JNZ sloop
eloop:
	TEST [RBP + len], 1	; check for odd length
	JZ even
	MOVZX EDX, BYTE [RBX]	; add last byte
	ADD EAX, EDX
even:
	MOV ECX, EAX	; now add in all the carries
	SHR ECX, 16
	AND EAX, 0FFFFH
	ADD EAX, ECX
	MOV ECX, EAX	; add in additional carry
	SHR ECX, 16
	ADD EAX, ECX	; result is in low 16 bits of EAX
	NOT EAX
#аесли ARM то
	LDR	R0, [FP, #chk1]
	LDR	R1, [FP, #20] ; LDR R1, [FP, #data]
	LDR	R2, [FP, #ofs]
	LDR	R3, [FP, #len]
	ADD	R1, R1, R2
	LSR	R4, R3, #1 ; number of 16-bit words to process
	CMP	R4, #0
	BEQ	Remainder
WordLoop: ; sum up the words
	LDRH	R5, [R1, #0]
	ADD	R0, R0, R5
	ADD	R1, R1, #2
	SUB	R4, R4, #1
	CMP	R4, #0
	BNE	WordLoop
	ANDS R5, R3, #1 ; if len is even
	BEQ WrapUp
Remainder: ; addition of the remaining byte
	LDRB	R5, [R1, #0]
	ADD	R0, R0, R5
WrapUp: ; 32-bit sum is in R0
	LDR	R7, [PC, #WordMask - $ - 8] ; load the 16-bit word mask
	LSR	R6, R0, 16 ; upper 16 bits of R0 is the carry
	AND	R0, R0, R7
	ADD	R0, R0, R6
	LSR	R6, R0, 16 ; upper 16 bits of R0 is the carry
	AND	R0, R0, R7
	ADD	R0, R0, R6
	EOR	R0, R0, R7 ; negate the bits of the resulted 16-bit word
	B		end
data:
	WordMask:	d32 0FFFFH
end:
#иначе
	unimplemented
#кон
кон Checksum2;


(* Return TRUE if "adr1" and "adr2" are in the same subnet defined by "mask". Only for IPv4 *)
проц SameSubnetv4(adr1, adr2, mask: цел32): булево;
машКод
#если I386 то
	MOV EAX, [EBP + adr1]
	MOV EBX, [EBP + adr2]
	MOV ECX, [EBP + mask]
	AND EAX, ECX
	AND EBX, ECX
	CMP EAX, EBX
	SETE AL
#аесли AMD64 то
	MOV EAX, [RBP + adr1]
	MOV EBX, [RBP + adr2]
	MOV ECX, [RBP + mask]
	AND EAX, ECX
	AND EBX, ECX
	CMP EAX, EBX
	SETE AL
#аесли ARM то
	LDR R0, [FP, #adr1]
	LDR R1, [FP, #adr2]
	LDR R2, [FP, #mask]
	AND R0, R0, R2
	AND R1, R1, R2
	CMP R0, R1
	MOVEQ R0, #1
	MOVNE R0, #0
#иначе
	unimplemented
#кон
кон SameSubnetv4;


(* Return TRUE if adr matches the prefix *)
проц MatchPrefix*(adr: Adr; prefix: Adr): булево;
перем
	bytesToCheck: цел32;
	bitsToCheck: цел32;
	i: цел32;
	matches: булево;
	diffSet: мнвоНаБитахМЗ;

нач
	если DEBUG то
		утв ((IsNilAdr(adr)) или (adr.usedProtocol = IPv6));
	всё;

	matches := истина;

	bytesToCheck := prefix.data DIV 8;
	bitsToCheck := prefix.data остОтДеленияНа 8;

	нцДля i := 0 до bytesToCheck - 1 делай
		если adr.ipv6Adr[i] # prefix.ipv6Adr[i] то
			matches := ложь;
		всё;
	кц;

	если bitsToCheck # 0 то
		diffSet := {};
		нцДля i := 0 до 8 - bitsToCheck - 1 делай
			diffSet := diffSet + мнвоНаБитахМЗ({i});
		кц;

		нцДля i := 0 до bitsToCheck - 1 делай
			если (НИЗКОУР.подмениТипЗначения(мнвоНаБитахМЗ, adr.ipv6Adr[bytesToCheck]) - diffSet) # (НИЗКОУР.подмениТипЗначения(мнвоНаБитахМЗ, prefix.ipv6Adr[bytesToCheck]) - diffSet) то
				matches := ложь;
			всё;
		кц;
	всё;
	возврат matches;
кон MatchPrefix;


(** Return the interface on which packets with "dst" address should be sent. Return NIL if no interface matches. *)
проц InterfaceByDstIP*(dest: Adr): Interface;
перем
	item, gw: Interface;

нач
	просей dest.usedProtocol из
		IPv4:
			gw := НУЛЬ;
			item := interfaces;
			нц
				если item = НУЛЬ то прервиЦикл всё;
				если (item.protocol = IPv4) и (~IsNilAdr(item.localAdr)) и (item.dev.Linked() # Network.LinkNotLinked) то
					если SameSubnetv4(dest.ipv4Adr, item.subnetAdr.ipv4Adr, item.maskAdr.ipv4Adr) то
						прервиЦикл;
					аесли (gw = НУЛЬ) и (~IsNilAdr(item.subnetAdr)) то
						если item.protocol # IPv4 то
							gw := item;
						аесли ~IsNilAdr(item.gatewayAdr) то
							gw := item;
						всё;
					всё;
				всё;
				item := item.next;
			кц;
			если item # НУЛЬ то
				возврат item;
			иначе
				возврат gw;
			всё;

		|IPv6:
			(* Requires special handling when multiple devices are present *)
			возврат v6InterfaceByDstIP(dest);

		иначе
			если DEBUG то
				утв(истина);
			всё;
			возврат НУЛЬ;
	всё;
кон InterfaceByDstIP;


(** Return the reference to an installed interface by its name. NIL is returned if no interface with this name
	was found. *)
проц InterfaceByName*(конст name: массив из симв8): Interface;
перем item: Interface;
нач
	item := interfaces;
	нцПока (item # НУЛЬ) и (item.name # name) делай
		item := item.next;
	кц;
	возврат item;
кон InterfaceByName;


(** Delivers first preferred (if possible) interface of an device.
	Return the reference to an installed interface by its device. NIL is returned if no interface with this
	device was found. *)
проц InterfaceByDevice*(dev: Network.LinkDevice): Interface;
перем
	item: Interface;
	unprefInt: Interface;
нач
	unprefInt := НУЛЬ;
	item := interfaces;
	нцПока (item # НУЛЬ) делай
		если item.dev = dev то
			если item.protocol # preferredProtocol то
				unprefInt := item;
			иначе
				возврат item;
			всё;
		всё;
		item := item.next;
	кц;
	(* return interface with unpreferred protocol or NIL *)
	возврат unprefInt;
кон InterfaceByDevice;


(** Return a list of installed interfaces of a certain device. *)
проц InterfaceListByDevice* (dev: Network.LinkDevice):InterfaceList;
перем
	item: Interface;
	interfaceList: InterfaceList;
	interfaceListItem: InterfaceList;

нач
	item := interfaces;
	interfaceList := НУЛЬ;

	(* search for interfaces with matching device and put them in a list *)
	нцПока item # НУЛЬ делай
		если item.dev = dev то
			нов(interfaceListItem);
			interfaceListItem.interface := item;
			interfaceListItem.next := interfaceList;
			interfaceList := interfaceListItem;
		всё;
		item := item.next;
	кц;
	возврат interfaceList;
кон InterfaceListByDevice;


(** Install a receiver for a type. The type is stored in
	IPv4: Protocol field
	IPv6: Next header field *)
проц InstallReceiver*( type: цел32; r: Receiver);
нач {единолично}
	если DEBUG то
		утв(r # НУЛЬ);
		утв((type >=0) и (type <= 255));
		утв(receivers[type] = НУЛЬ);
	всё;

	receivers[type] := r;
кон InstallReceiver;


(** Remove the currently installed receiver for a type. The type is stored in
	IPv4: Protocol field
	IPv6: Next header field *)
проц RemoveReceiver*(type: цел32);
нач {единолично}
	утв((type >=0) и (type <= 255));
	утв(receivers[type] # НУЛЬ);

	receivers[type] := НУЛЬ;
кон RemoveReceiver;


(** Checks if a string is a valid IPv4 address *)
проц IsValidIPv4Str (конст ipString: массив из симв8): булево;
перем
	i,j: цел32;
	ipNr: цел32;
	digits: массив 4 из симв8;
	startClass: цел32;
нач
	i := 0;

	(* Class A *)
	нцПока (i < Strings.Length(ipString)) и (ipString[i] #'.') и (i < 3) делай
		digits[i] := ipString[i];
		увел (i);
	кц;
	digits[i] := 0X;

	если ipString[i] # '.' то возврат ложь всё;

	(* Check if in digits are only numbers *)
	j := 0;
	нцПока digits[j] # 0X делай
		если (кодСимв8(digits[j]) - кодСимв8("0")) > 9 то возврат ложь всё;
		увел (j);
	кц;
	Strings.StrToInt (digits, ipNr);
	если ipNr > 255 то возврат ложь всё;

	(* Class B *)
	увел(i);
	startClass := i;
	нцПока (i < Strings.Length(ipString)) и (ipString[i] # '.') и (i - startClass <= 3) делай
		digits[i-startClass] := ipString[i];
		увел (i);
	кц;
	digits[i-startClass] := 0X;

	если ipString[i] # '.' то возврат ложь всё;

	(* Check if in digits are only number *)
	j := 0;
	нцПока digits[j] # 0X делай
		если (кодСимв8(digits[j]) - кодСимв8("0")) > 9 то возврат ложь всё;
		увел (j);
	кц;
	Strings.StrToInt (digits, ipNr);
	если ipNr > 255 то возврат ложь всё;

	(* Class C *)
	увел(i);
	startClass := i;
	нцПока (i < Strings.Length (ipString)) и (ipString[i] # '.') и (i - startClass <= 3) делай
		digits[i-startClass] := ipString[i];
		увел (i);
	кц;
	digits[i-startClass] := 0X;

	если ipString[i] # '.' то возврат ложь всё;

	(* Check if in digits are only number *)
	j := 0;
	нцПока digits[j] # 0X делай
		если (кодСимв8(digits[j]) - кодСимв8("0")) > 9 то возврат ложь всё;
		увел (j);
	кц;
	Strings.StrToInt (digits, ipNr);
	если ipNr > 255 то возврат ложь всё;

	(* Class D *)
	увел(i);
	startClass := i;
	нцПока (i < Strings.Length (ipString)) и (i - startClass <= 3) делай
		digits[i-startClass] := ipString[i];
		увел (i);
	кц;
	digits[i-startClass] := 0X;

	(* Check if in digits are only number *)
	j := 0;
	нцПока digits[j] # 0X делай
		если (кодСимв8(digits[j]) - кодСимв8("0")) > 9 то возврат ложь всё;
		увел (j);
	кц;
	Strings.StrToInt (digits, ipNr);
	если ipNr > 255 то возврат ложь всё;

	возврат истина;
кон IsValidIPv4Str;


(** Checks if a string is a valid IPv6 address *)
проц IsValidIPv6Str (ipString: массив из симв8): булево;
перем
	i: цел32;
	state: цел32; (* -1: error *)
	charCount: цел32;
	ascD: цел32;
	ascH: цел32;
	dPointOcc: булево;
	prefixLenArr: массив 3 из цел32;
	prefixLen: цел32;

нач
	i := 0;
	state := 1;
	dPointOcc := ложь;

	Strings.UpperCase(ipString);

	нцПока (i < (длинаМассива(ipString) - 1)) и (ipString[i] # 0X) делай

		просей state из
			-1:
				возврат ложь;

			|1:
				(* 0-9 & A-F *)
				ascD := кодСимв8(ipString[i]) - кодСимв8("0");
				ascH := кодСимв8(ipString[i]) - кодСимв8("A");

				если ((ascD >= 0) и (ascD <= 9)) или ((ascH >= 0) и (ascH <= 5)) то
					увел(charCount);

					(* more than 4 digits between two : *)
					если charCount > 4 то
						state := -1;
					всё;

				(* : *)
				аесли ipString[i] = ":" то
					charCount := 0;
					state := 2;
				аесли ipString[i] = "/" то
					charCount := 0;
					state := 3;
				иначе
					state := -1;
				всё;

			|2:
				ascD := кодСимв8(ipString[i]) - кодСимв8("0");
				ascH := кодСимв8(ipString[i]) - кодСимв8("A");

				если ipString[i] = ":" то
					если dPointOcc то
						state := -1;
					иначе
						dPointOcc := истина;
						state := 4;
					всё

				аесли ((ascD >= 0) и (ascD <= 9)) или ((ascH >= 0) и (ascH <= 5)) то
					увел(charCount);
					state := 1;
				иначе
					state := -1;
				всё;

			|3:
				ascD := кодСимв8(ipString[i]) - кодСимв8("0");

				если ~((ascD >= 0) и (ascD <= 9)) то
					state := -1;
				иначе
					если charCount > 3 то
						state := -1;
					иначе
						prefixLenArr[charCount] := ascD;
						увел(charCount);
					всё;
				всё;

			|4:
				ascD := кодСимв8(ipString[i]) - кодСимв8("0");
				ascH := кодСимв8(ipString[i]) - кодСимв8("A");

				если ipString[i] = "/" то
					state := 3;
				аесли ((ascD >= 0) и (ascD <= 9)) или ((ascH >= 0) и (ascH <= 5)) то
					увел(charCount);
					state := 1;
				иначе
					state := -1;
				всё;

			иначе
				если DEBUG то
					утв(истина);
				всё;
		всё;
		увел(i);
	кц;

	просей state из
		1:
			возврат истина;

		|3:
			если charCount > 0 то
				prefixLen := 0;
				нцДля i:= 0 до charCount - 1 делай
					prefixLen := prefixLen * 10;
					увел(prefixLen, prefixLenArr[i]);
				кц;
				если prefixLen <= 64 то
					возврат истина;
				иначе
					возврат ложь;
				всё;
			иначе
				возврат ложь;
			всё;

		|4:
			возврат истина;

		иначе
			если DEBUG то
				утв(истина);
			всё;
			возврат ложь;
	всё;
	возврат ложь;
кон IsValidIPv6Str;


(** Set IPv6 address to zero *)
проц SetIPv6AdrNil (adr: Adr);
перем
	i: цел32;

нач
	нцДля i := 0 до 15 делай
		adr.ipv6Adr[i] := 0X;
	кц;
кон SetIPv6AdrNil;


(* Add the interface to the IP configuration. *)
проц AddInterface*(int: Interface; перем res: целМЗ);
перем
	item: Interface;
нач {единолично}
	item := interfaces;
	нцПока item # НУЛЬ делай
		(* Check if interface name already exists *)
		если item.name = int.name то
			res := DuplicateInterfaceName;
			возврат;
		всё;
		item := item.next;
	кц;
	(* Add interface *)
	int.next := interfaces;
	interfaces := int;
	res := Ok;
кон AddInterface;


(* Remove the interface from the IP configuration. *)
проц RemoveInterface*(int: Interface);
перем
	item: Interface;

нач {единолично}
	item := interfaces;
	если item = НУЛЬ то
		(* empty list *)
	аесли item = int то
		(* remove first item *)
		interfaces := interfaces.next;
	иначе
		нцПока item.next # int делай
			item := item.next;
		кц;
		если item.next # НУЛЬ то
			item.next := item.next.next;
		иначе
			(* not found *)
		всё;
	всё;
кон RemoveInterface;


(* Prints out a packet *)
проц PacketOut*(конст title, buffer: массив из симв8; all: булево);
перем
	i: размерМЗ;
	length: размерМЗ;

нач
	ЛогЯдра.пВК_ПС;ЛогЯдра.пСтроку8("********************");ЛогЯдра.пВК_ПС;
	ЛогЯдра.пСтроку8(title); ЛогЯдра.пВК_ПС;

	если all то
		length := длинаМассива(buffer) -1;
	иначе
		length := матМинимум(длинаМассива(buffer) - 1, 256);
	всё;

	нцДля i := 0 до length делай
		если (i остОтДеленияНа 4) = 0 то
			ЛогЯдра.пВК_ПС;
			ЛогЯдра.пЦел64(i, 2);ЛогЯдра.пСтроку8(":  ");
		всё;
		ЛогЯдра.п16ричное(кодСимв8(buffer[i]), -1);
		ЛогЯдра.пСтроку8(" ");
	кц;

	ЛогЯдра.пВК_ПС;ЛогЯдра.пСтроку8("********************");ЛогЯдра.пВК_ПС;
кон PacketOut;


нач
	(* IPFowarding default value is FALSE *)
	IPForwarding := ложь;

	(* EchoReply default value is TRUE *)
	EchoReply := истина;

	(* Initializations *)
	(* NilAdr *)
	NilAdr.ipv4Adr := NilAdrIPv4;
	SetIPv6AdrNil (NilAdr);
	NilAdr.usedProtocol := NilAdrIdent;

	(* Initialize receiver list *)
	нцДля counter:=0 до NbrOfReceivers-1 делай
		receivers[counter] := НУЛЬ;
	кц;

	(* Initialize inteface list *)
	interfaces := НУЛЬ;
кон IP.



Free:
System.Free TraceRoute VNC Ping WMFTPClient FTPClient WebFTPServer TCPServices TLS InitNetwork Ping DHCP TCP DNS UDP ICMP IPv4 IPv6 IP~

Start:
InitNetwork.Init

Compile:
PC.Compile \s IP.Mod IPv4.Mod IPv6.Mod ICMP.Mod UDP.Mod DNS.Mod TCP.Mod DHCP.Mod InitNetwork.Mod WebFTPServer.Mod FTPClient.Mod WMFTPClient.Mod Ping.Mod VNC.Mod TraceRoute.Mod~



History:
02.05.2005	eb	Supports IPv6 and fragmented IPv6 packets.




IsValidIPv6Str:
~~~~~~~~~~~~~~~~~~~~~~~~~~~~~~`

FSM used in IsValidIPv6Str:
-----------------------
EOS: end of string
	State 1: Initial state
			0-9/A-F goto state 1
			: goto state 2
			/ goto state 3
			EOS valid
	State 2:	0-9/A-F goto state 1
			: goto state 4
			EOS invalid
	State 3:	0-9 goto state 3
			EOS valid
	State 4:	/ goto state 3
			0-9/A-F goto state 1
			EOS valid

