модуль Unix;   (* Josef Templ, 5.3.90	SVR4 system calls *)  (** Linux x86 version, non portable *)

(* Linux PPC version	g.f. 18.04.98	*)
(* Linux x86 version	g.f 10.11.99 	*)
(*	2000.09.19	g.f.	'Sigaltstack' added	*)
(*	2002.06.27	g.f.	TmDesc fixed,  new: Utime, Mktime *)
(*	2006.07.31	g.f.	shared memory support added *)
(*	2007.04.13	g.f.	Thread priorities added *)

использует S := НИЗКОУР, Glue, Трассировка;


конст
	Version* = "Linux";

  	libcname* = "libc.so.6";
	libX11name* = "libX11.so.6";
	libpthreadname = "libpthread.so.0";

	LittleEndian* = истина;   (** byte order of basic types *)
	LsbIs0* = истина;   (** bit order of SET type *)

	PageSize* = 4096;	(* least MMU page size *)

	AlternateStackSize = 32 * 4096;

	stdin* = 0;  stdout* = 1;  stderr* = 2;

	(** Unix error codes:	*)
	EPERM* = 1;   (* Not super-user *)
	ENOENT* = 2;   (* No such file or directory *)
	ESRCH* = 3;   (* No such process *)
	EINTR* = 4;   (* interrupted system call *)
	EIO* = 5;   (* I/O error *)
	ENXIO* = 6;   (* No such device or address *)
	E2BIG* = 7;   (* Arg list too long *)
	ENOEXEC* = 8;   (* Exec format error *)
	EBADF* = 9;   (* Bad file number *)
	ECHILD* = 10;   (* No children *)
	EAGAIN* = 11;   (* No more processes *)
	ENOMEM* = 12;   (* Not enough core *)
	EACCES* = 13;   (* Permission denied *)
	EFAULT* = 14;   (* Bad address *)
	ENOTBLK* = 15;   (* Block device required *)
	EBUSY* = 16;   (* Mount device busy *)
	EEXIST* = 17;   (* File exists *)
	EXDEV* = 18;   (* Cross-device link *)
	ENODEV* = 19;   (* No such device *)
	ENOTDIR* = 20;   (* Not a directory *)
	EISDIR* = 21;   (* Is a directory *)
	EINVAL* = 22;   (* Invalid argument *)
	ENFILE* = 23;   (* File table overflow *)
	EMFILE* = 24;   (* Too many open files *)
	ENOTTY* = 25;   (* Inappropriate ioctl for device *)
	ETXTBSY* = 26;   (* Text file busy *)
	EFBIG* = 27;   (* File too large *)
	ENOSPC* = 28;   (* No space left on device *)
	ESPIPE* = 29;   (* Illegal seek *)
	EROFS* = 30;   (* Read only file system *)
	EMLINK* = 31;   (* Too many links *)
	EPIPE* = 32;   (* Broken pipe *)
	EDOM* = 33;   (* Math arg out of domain of func *)
	ERANGE* = 34;   (* Math result not representable *)
	ENOMSG* = 42;   (* No message of desired type *)
	EIDRM* = 43;   (* Identifier removed *)
	ECHRNG* = 44;   (* Channel number out of range *)
	EL2NSYNC* = 45;   (* Level 2 not synchronized *)
	EL3HLT* = 46;   (* Level 3 halted *)
	EL3RST* = 47;   (* Level 3 reset *)
	ELNRNG* = 48;   (* Link number out of range *)
	EUNATCH* = 49;   (* Protocol driver not attached *)
	ENOCSI* = 50;   (* No CSI structure available *)
	EL2HLT* = 51;   (* Level 2 halted *)
	EDEADLK* = 35;   (* Deadlock condition. *)
	ENOLCK* = 37;   (* No record locks available. *)

	(* open flags *)
	rdonly* = мнвоНаБитах32({});  rdwr* = мнвоНаБитах32({1});  creat* = мнвоНаБитах32({6});  trunc* = мнвоНаБитах32({9});

	(* access modes *)
	rwrwr* = 1B4H;  rwxrwxrwx* = 1FFH;

	F_OK* = {};  X_Ok* = {0};  W_OK* = {1};  R_OK* = {2};

	SCHED_OTHER = 0;

	T_SIGRESUME = SIGUSR1;
	T_SIGSUSPEND = SIGUSR2;

	SIGHUP*		= 1;
	SIGINT*		= 2;
	SIGQUIT*	=3;
	SIGILL*		= 4;
	SIGTRAP*	= 5;
	SIGABRT*	= 6;
	SIGIOT*		= 6;
	SIGBUS*		= 7;
	SIGFPE*		= 8;
	SIGKILL*		= 9;
	SIGUSR1*	= 10;
	SIGSEGV*	= 11;
	SIGUSR2*	= 12;
	SIGPIPE*	= 13;
	SIGALRM*	= 14;
	SIGTERM*	= 15;
	SIGSTKFLT*	= 16;
	SIGCHLD*	= 17;
	SIGCONT*	= 18;
	SIGSTOP*	= 19;
	SIGTSTP*	= 20;
	SIGTTIN*		= 21;
	SIGTTOU*	= 22;
	SIGURG*		= 23;
	SIGXCPU*	= 24;
	SIGXFSZ*	= 25;
	SIGVTALRM*	= 26;
	SIGPROF*	= 27;
	SIGWINCH*	=28;
	SIGIO*		=29;
	SIGPOLL*	= SIGIO;
	SIGPWR*	= 30;
	SIGSYS*		= 31;
	SIGUNUSED = 31;

	SIG_BLOCK = 0;
	SIG_UNBLOCK=1;
	SIG_SETMASK=2;

	SA_NOCLDSTOP	= 0x00000001;
	SA_SIGINFO			= 0x00000004;
	SA_ONSTACK		= 0x08000000;
	SA_RESTART		= 0x10000000;
	SA_NODEFER		= 0x40000000;
	SA_RESETHAND	= 0x80000000;

	CLOCK_MONOTONIC* = 1;
	CLOCK_MONOTONIC_RAW* = 4;
	CLOCK_PROCESS_CPUTIME_ID* = 2;
	CLOCK_REALTIME* = 0;
	CLOCK_THREAD_CPUTIME_ID* = 3;

	PTHREAD_CANCEL_ENABLE 	= 0;
	PTHREAD_CANCEL_DISABLE	= 1;

	PTHREAD_CANCEL_ASYNCHRONOUS	= 0;
	PTHREAD_CANCEL_DEFERRED	= 1;

	PTHREAD_BARRIER_SERIAL_THREAD* = -1;

	CPUSetSize* = 128;

	(*--------------------------- Threads -------------------------------*)

тип
	Thread_t* = адресВПамяти;
	Mutex_t* = адресВПамяти;
	Condition_t* = адресВПамяти;

	MutexType = массив 10 из целМЗ;
	MutexAttributeType = массив 1 из целМЗ;
	ConditionType = массив 12 из целМЗ;

	Key_t* = адресВПамяти;

	Sigset_t= массив 32 из целМЗ;
	SignalTrap = проц ( sig: цел32; mc: Mcontext );

	path_t*	= массив из симв8;
	arg_t*		= массив из симв8;
	argv_t*	= массив из arg_t;

	Sem* = запись reserved1-: массив 4 из адресВПамяти кон;
	Barrier* = запись reserved1-: массив 3 из адресВПамяти; reserved2-: массив 2 из целМЗ кон;

	CPUSet* = массив CPUSetSize DIV (матМаксимум (мнвоНаБитахМЗ) - матМинимум (мнвоНаБитахМЗ) + 1) из мнвоНаБитахМЗ;

конст
	(* Thread priorities *)
	ThreadLow* = 1; ThreadNormal* = 20; ThreadHigh* = 99;
	NumPriorities* = 99;	(* number of priority levels *)


	(*---------------------------- IP -----------------------------------*)

конст
	(* domain *)
		AFINET* = 2;
		AFINET6* = 26;

		PFINET* = AFINET;
		PFINET6* = AFINET6;

	(* types of connection*)
		SockStream*	= 1;
		SockDGram*	= 2;

	(* Protocols *)
		IpProtoUDP*	= 17;
		IpProtoTCP*		=  6;

	(* setsockopt *)
		SoLSocket*		= 1;			(* socket option level *)
		SoLinger* 		= 13; 		(* linger (gracefully close the connection)*)
		SoKeepAlive*	= 9;			(* keep connection alive *)
		SoNoDelay*	= 1;			(* no delay *)

	(* ioctl *)
		FioNRead*		= 541BH;	(* something to read ? *)

	(* recv *)
		MsgPeek*		= 2;
		MsgDontWait*	= 40H;		(* non blocking read *)

	(* shutdown *)
		ShutRDWR*	= 2;

	SockAddrSizeV4*	= 16;
	SockAddrSizeV6*	= 28;

	(*----------------------- seral line, cf Unix.V24.Mod -----------------------*)

	FIONREAD*	= 541BH;
	TIOCMGET*		= 5415H;
	TIOCMBIS*		= 5416H;
	TIOCMBIC*		= 5417H;
	TIOCMSET*		= 5418H;

	(* speeds *)
	B0*	= 0;
	B50*	= 1;
	B75*	= 2;
	B110*	= 3;
	B134*	= 4;
	B150*	= 5;
	B200*	= 6;
	B300*	= 7;
	B600*	= 8;
	B1200* 	= 9;
	B1800* 	= 10;
	B2400* 	= 11;
	B4800* 	= 12;
	B9600* 	= 13;
	B19200*	= 14;
	B38400*	= 15;

	B57600* 	= 1001H;
	B115200*	= 1002H;
	B230400*	= 1003H;



	(* tio.cflag bits *)
	CSIZE*		= {4,5};
	   CS5*		= {};
	   CS6*		= {4};
	   CS7*		= {5};
	   CS8*		= {4,5};
	CSTOPB*	= {6};
	CREAD*		= {7};
	PARENB*	= {8};
	PARODD*	= {9};
	HUPCL*		= {10};
	CLOCAL*	= {11};


тип
	Termios* = запись
		iflags*, oflags*, cflags*, lflags*: мнвоНаБитах32;
		line*: симв8;
		cc*	: массив 32 из симв8;
		ispeed-, ospeed-: цел32
	кон;

	(*------------------------------------------------------------------*)


тип
	dev_t*		= цел64;
	ino_t*		= длинноеЦелМЗ;
	nlink_t*	= длинноеЦелМЗ;
	mode_t*	= целМЗ;
	off_t*		= длинноеЦелМЗ;
	blksize_t*= длинноеЦелМЗ;
	blkcnt_t*	= длинноеЦелМЗ;
	uid_t*		= цел32;
	gid_t*		= цел32;
	pid_t*		= цел32;

	Status* = запись
			#если I386 то
				dev-		: dev_t;
				pad1		: INTEGER;
				ino-		: ino_t;
				mode-	: mode_t;
				nlink-		: nlink_t;
				uid-		: SIGNED32;
				gid-		: SIGNED32;
				rdev-		: dev_t;
				pad2		: INTEGER;
				size-		: размерМЗ;
				blksize-	: blksize_t;
				blocks-	: blkcnt_t;
				atime-	: Timeval;
				mtime-	: Timeval;
				ctime-	: Timeval;
			#аесли AMD64 то
				dev-		: dev_t;
				ino-		: ino_t;
				nlink-		: nlink_t;
				mode-	: mode_t;
				uid-		: целМЗ;
				gid-		: целМЗ;
				pad1		: целМЗ;
				rdev-		: dev_t;
				size-		: размерМЗ;
				blksize-	: blksize_t;
				blocks-	: blkcnt_t;
				atime-	: Timeval;
				mtime-	: Timeval;
				ctime-	: Timeval;
			#иначе
				unimplemented
			#кон
				reserved	: массив 3 из длинноеЦелМЗ;
		кон;
	tvPtr* = укль {опасныйДоступКПамяти, неОтслСборщиком} на Timeval;
	Timeval* = запись
				sec*	: длинноеЦелМЗ;
				usec*	: длинноеЦелМЗ;
			кон;

	TmPtr* = укль {опасныйДоступКПамяти, неОтслСборщиком} на Tm;
	Tm* = запись
				sec*, min*, hour*, mday*, mon*, year*, wday*, yday*, isdst*: цел32;
				gmtoff*, tmzone*: цел32;
			кон;

	Tms* = укль на запись
				utime*, stime*, cutime*, cstime*: цел32
			кон;

	Timezone* = запись
				minuteswest*, dsttime*: цел32
			кон;

	Itimerval* = запись
				interval*, value*: Timeval
			кон;

	Timespec* = запись
		tv_sec*: длинноеЦелМЗ;
		tv_nsec*: длинноеЦелМЗ;
	кон;

конст
	FdSetLen* = 32;

тип
	FdSet* = массив FdSetLen из мнвоНаБитах32;


	Dirent* = укль {опасныйДоступКПамяти, неОтслСборщиком} на запись
				ino-		: ino_t;
				off-		: off_t;
				reclen-	: цел16;
				typ-		: симв8;
				name-	: (*array of*) симв8;
			кон;

	Stack* = запись
				sp*		: адресВПамяти;
				flags*		: мнвоНаБитахМЗ;
				size*		: размерМЗ
			кон;

	Ucontext* = укль {опасныйДоступКПамяти, неОтслСборщиком} на UcontextDesc;
	UcontextDesc* = запись
				flags-		: мнвоНаБитахМЗ;
				link-		: адресВПамяти;
				stack-	: Stack;
				mc-		: McontextDesc
			кон;

	Mcontext* = укль{опасныйДоступКПамяти, неОтслСборщиком}  на McontextDesc;
	McontextDesc* = запись
			#если I386 то
				r_gs-		: адресВПамяти;
				r_fs-		: адресВПамяти;
				r_es-		: адресВПамяти;
				r_ds-		: адресВПамяти;
				r_di-		: адресВПамяти;
				r_si-		: адресВПамяти;
				r_bp-		: адресВПамяти;
				r_sp_x		: адресВПамяти;
				r_bx-		: адресВПамяти;
				r_dx-		: адресВПамяти;
				r_cx-		: адресВПамяти;
				r_ax-		: адресВПамяти;
				trapno-	: SIGNED32;
				err-		: SIGNED32;
				r_pc-		: адресВПамяти;
				r_cs-		: адресВПамяти;
				flags-		: SIGNED32;
				r_sp-		: адресВПамяти;		(* sp at error (signal) *)
				r_ss-		: SIGNED32;
				fpc-		: адресВПамяти; 		(* FP context *)
				oldmask	: SIGNED32;
				cr2			: SIGNED32
			#аесли AMD64 то
				r_8-			: цел64;
  				r_9-			: цел64;
  				r_10-		: цел64;
  				r_11-		: цел64;
  				r_12-		: цел64;
  				r_13-		: цел64;
  				r_14-		: цел64;
  				r_15-		: цел64;
  				r_di-		: цел64;
  				r_si-		: цел64;
  				r_bp-		: адресВПамяти;
  				r_bx-		: цел64;
  				r_dx-		: цел64;
  				r_ax-		: цел64;
  				r_cx-		: цел64;
  				r_sp-		: адресВПамяти;
  				r_pc-		: адресВПамяти;
  				r_efl		: цел64;
  				r_csgsfs	: цел64;           (* Actually short cs, gs, fs, pad0.  *)
  				err-		: цел64;
  				trapno-	: цел64;
  				oldmask	: цел64;
  				cr2			: цел64;
  			#иначе
  				unimplemented
  			#кон
		кон;


	PThreadAttr = запись
		reserved1-: массив 5 из адресВПамяти;
		reserved2-: массив 4 из целМЗ;
	кон;


	Sigaction = запись
		sa_handler: адресВПамяти;
		(*filler1: ADDRESS;*)
		sa_mask: Sigset_t;
		sa_flags: адресВПамяти;
		filler: адресВПамяти;
	кон;

	Sched_param = запись
		sched_priority: цел32;
		safety: массив 8 из адресВПамяти;
	кон;


перем
	suspend_mutex: MutexType;
	mainthread: Thread_t;
	suspend_done: цел32;
	resume_done: цел32;
	sasuspend, saresume: Sigaction;
	thread_exit: Key_t;

	argc-: цел32;  argv-: адресВПамяти;  environ-: адресВПамяти;

	sysinfo-: запись
		sysname-, nodename-, release-, version-, machine-: массив 65 из симв8;
	кон;

	sysconf: проц {C} (name: целМЗ):длинноеЦелМЗ;

	pthread_mutex_init: проц {C} (mutex: адресВПамяти; mutexattr: адресВПамяти): целМЗ;
	pthread_mutex_destroy: проц {C} (mutex: адресВПамяти): целМЗ;
	pthread_mutex_lock: проц {C} (mutex: адресВПамяти): целМЗ;
	pthread_mutex_unlock: проц {C} (mutex: адресВПамяти): целМЗ;

	pthread_mutexattr_init: проц {C} (mutexattr: адресВПамяти): целМЗ;
	pthread_mutexattr_settype: проц {C} (mutexattr: адресВПамяти; type: целМЗ): целМЗ;

	pthread_cond_init: проц {C} (cond: адресВПамяти; condAttr: адресВПамяти): целМЗ;
	pthread_cond_destroy: проц {C} (cond: адресВПамяти): целМЗ;
	pthread_cond_wait: проц {C} (cond: адресВПамяти; mutex: адресВПамяти): целМЗ;
	pthread_cond_signal: проц {C} (cond: адресВПамяти): целМЗ;

	pthread_create-: проц {C} (newthread: адресВПамяти; attr: адресВПамяти; start_routine: адресВПамяти; arg: проц): целМЗ;
	pthread_detach: проц {C} (thr: адресВПамяти);
	pthread_kill: проц {C} (thr: адресВПамяти; sigid: целМЗ): целМЗ;
	pthread_cancel: проц {C} (thr: адресВПамяти);
	pthread_join-: проц {C} (thread: Thread_t; return: адресВПамяти): целМЗ;

	pthread_key_create	: проц {C} ( key: адресВПамяти; destructor: проц {C} ( param: адресВПамяти ) ): целМЗ;
	pthread_setspecific	: проц {C} ( key: Key_t; value: адресВПамяти ): целМЗ;
	pthread_getspecific	: проц {C} ( key: Key_t ): адресВПамяти;

	pthread_attr_init: проц {C} (attr: адресВПамяти);
	pthread_attr_destroy: проц {C} (attr: адресВПамяти);
	pthread_attr_setscope: проц {C}(attr: адресВПамяти; set: целМЗ);
	pthread_attr_setdetachstate: проц {C}(attr: адресВПамяти; set: целМЗ);
	pthread_attr_setstacksize: проц {C}(attr: адресВПамяти; stackSize: размерМЗ);
	pthread_attr_getstacksize: проц {C}(attr: адресВПамяти; stackSize: адресВПамяти);
	pthread_getattr_np: проц {C} (thr: адресВПамяти; attr: адресВПамяти);
	pthread_self-: проц {C} (): Thread_t;

	sched_get_priority_max: проц {C} (policy: целМЗ): целМЗ;
	sched_get_priority_min: проц {C} (policy: целМЗ): целМЗ;
	pthread_setschedparam: проц {C} (thread: Thread_t; policy: целМЗ; param: адресВПамяти): целМЗ;
	pthread_getschedparam: проц {C} (thread: Thread_t; policy: адресВПамяти; param: адресВПамяти): целМЗ;
	pthread_setcancelstate: проц {C} (state: целМЗ; oldstate: адресВПамяти): целМЗ;
	pthread_setcanceltype: проц {C} (type: целМЗ; oldtype: адресВПамяти): целМЗ;
	sigaction: проц {C} (signum: целМЗ; конст act, oldact: адресВПамяти): целМЗ;
	sigemptyset: проц {C} (set: адресВПамяти);
	sigfillset: проц {C} (set: адресВПамяти): цел32;
	sigsuspend: проц {C} (set: адресВПамяти): цел32;
	sigaddset: проц {C} (set: адресВПамяти; signo: цел32);
	sigdelset: проц {C} (set: адресВПамяти; signo: цел32);
	nanosleep-: проц {C} (req, rem: адресВПамяти): цел32;
	sigaltstack: проц {C} (ss, oss: адресВПамяти): цел32;
	pthread_sigmask: проц {C}(how: цел32; set: адресВПамяти; oldset: адресВПамяти): цел32;

	sem_init-: проц {C} (sem: адресВПамяти; pshared: целМЗ; value: целМЗ): целМЗ;
	sem_wait-: проц {C} (sem: адресВПамяти): целМЗ;
	sem_post-: проц {C} (sem: адресВПамяти): целМЗ;
	sem_destroy-: проц {C} (sem: адресВПамяти): целМЗ;

	pthread_barrier_init-: проц {C} (barrier: адресВПамяти; attr: адресВПамяти; count: целМЗ): целМЗ;
	pthread_barrier_wait-: проц {C} (barrier: адресВПамяти): целМЗ;
	pthread_barrier_destroy-: проц {C} (barrier: адресВПамяти): целМЗ;

	pthread_getaffinity_np-: проц {C} (thread: Thread_t; cpusetsize: размерМЗ; cpuset: адресВПамяти): целМЗ;
	pthread_setaffinity_np-: проц {C} (thread: Thread_t; cpusetsize: размерМЗ; cpuset: адресВПамяти): целМЗ;

	(*pid: return param for process id. Only set if initialized non-null. path: pointer to string denoting the executable. file_actions: modify which files are open for the new process, if NIL it inherits open files from parent process. attrp: sets process groups, scheduler, signals etc, leave NIL. argv, evp: char** to the arguments and env. variables*)
	posix_spawnp- 	: проц {C} (pid: адресВПамяти; path: адресВПамяти; file_actions: адресВПамяти; attrp: адресВПамяти; argv: адресВПамяти ; envp: адресВПамяти): цел32;
	(*more restrictive than spawnp*)
	posix_spawn- 	: проц {C} (pid: адресВПамяти; path: адресВПамяти; file_actions: адресВПамяти; attrp: адресВПамяти; argv: адресВПамяти ; envp: адресВПамяти): цел32;
	waitpid-			: проц {C} (pid: pid_t; status: адресВПамяти; options: цел32): pid_t;
	pipe-				: проц {C} (pipefd: адресВПамяти): цел32; (*pipefd is assumed to be a pointer to a C array of 2 elements, after pipe creation the array will contain file descriptors for the input and output end of the pipe. returns 0 on success, or -1 on fail*)
	dup2-				: проц {C} (oldfd,newfd: цел32): цел32; (*overwrites file descriptor newfd with a copy of oldfd. useful for redirecting pipes.*)
	dup-				: проц {C} (oldfd: цел32): цел32;

	read-			: проц {C} ( fd: цел32; buf: адресВПамяти; n: размерМЗ ): размерМЗ;
	write-			: проц {C} ( fd: цел32; buf: адресВПамяти; n: размерМЗ ): размерМЗ;
	open-			: проц {C} ( name: адресВПамяти;  flags: мнвоНаБитах32; mode: mode_t ): цел32;
	close-		: проц {C} ( fd: цел32 ): цел32;
	lseek-		: проц {C} ( fd: цел32; offset: off_t; origin: цел32 ): off_t;
	fsync-		: проц {C} ( fd: цел32 ): цел32;
	ioctl-			: проц {C} ( fd: цел32; request: цел32; arg: адресВПамяти ): цел32;
	unlink-		: проц {C} ( name: адресВПамяти ): цел32;
	rename-		: проц {C} ( oldname, newname: адресВПамяти ): цел32;
	ftruncate-		: проц {C} ( fd: цел32;  length: размерМЗ ): цел32;
	chmod-		: проц {C} ( name: адресВПамяти;  mode: мнвоНаБитахМЗ ): цел32;
	utime-		: проц {C} ( name: адресВПамяти;  tb: адресВПамяти ): цел32;
	access-		: проц {C} ( name: адресВПамяти;  mode: мнвоНаБитахМЗ ): цел32;
	select-		: проц {C} ( width: цел32; rd, wr, ex: адресВПамяти;  перем timeout: Timeval ): цел32;
	realpath-		: проц {C} ( file_name: адресВПамяти; resolved_name: адресВПамяти ): адресВПамяти;

	chdir-			: проц {C} ( name: адресВПамяти ): цел32;
	mkdir-		: проц {C} ( name: адресВПамяти;  mode: mode_t ): цел32;
	rmdir-			: проц {C} ( path: адресВПамяти ): цел32;

	xstat-			: проц {C} ( ver: цел32; name: адресВПамяти;  перем buf: Status ): цел32;
	lxstat-		: проц {C} ( ver: цел32; name: адресВПамяти;  перем buf: Status ): цел32;
	fxstat-		: проц {C} ( ver: цел32; fd: цел32;  перем buf: Status ): цел32;

	getpid-		: проц {C} ( ): цел32;
	getuid-		: проц {C} ( ): цел32;

	posix_memalign-	: проц {C} ( перем p: адресВПамяти;  alignment, size: размерМЗ ): цел32;
	malloc-		: проц {C} ( size: размерМЗ ): адресВПамяти;
	free-			: проц {C} ( p: адресВПамяти );
	mprotect-	: проц {C} ( p: адресВПамяти; len: размерМЗ; prot: цел32 ): цел32;

	alarm-		: проц {C} ( ms: цел32 ): цел32;
	setitimer-		: проц {C} ( which: цел32;  перем value, ovalue: Itimerval ): цел32;
	getitimer-		: проц {C} ( which: цел32;  перем value: Itimerval ): цел32;
	clock_gettime-	: проц {C} (clk_id: целМЗ; tp: адресВПамяти): целМЗ;
	clock_getres-	: проц {C} (clk_id: целМЗ; res: адресВПамяти): целМЗ;

	gettimeofday-	: проц {C} ( перем tv: Timeval;  перем tz: Timezone ): цел32;
	mktime-			: проц {C} ( перем tm: Tm ): цел32;
	localtime-		: проц {C} ( конст tv: Timeval ): TmPtr;
	time-				: проц {C} ( перем tv: Timeval ): цел32;
	times-			: проц {C} ( перем tms: Tms ): цел32;

	system-		: проц {C} ( cmd: адресВПамяти );
	uname-		: проц {C} ( utsname: адресВПамяти ): цел32;

	getcwd-		: проц {C} ( buf: адресВПамяти;  len: размерМЗ ): адресВПамяти;
	getenv-		: проц {C} ( name: адресВПамяти ): адресВПамяти;

	opendir-		: проц {C} ( name: адресВПамяти ): адресВПамяти;
	readdir-		: проц {C} ( dir: адресВПамяти ): Dirent;
	closedir-		: проц {C} ( dir: адресВПамяти );

	sigsetjmp-	: проц {C} ( env: адресВПамяти;  savemask: цел32 ): цел32;
	siglongjmp-	: проц {C} ( env: адресВПамяти;  val: цел32 );

	kill-			: проц {C} ( pid, sig: цел32 ): цел32;
	exit-			: проц {C} ( status: цел32 );
	perror-		: проц {C} ( msg: адресВПамяти );
	errno_location: проц {C} ( ): адресВПамяти;

	xSetErrorHandler: проц {C} (h: адресВПамяти): целМЗ;
	xSetIOErrorHandler: проц {C} (h: адресВПамяти): целМЗ;

	libc-: адресВПамяти;
	libp-: адресВПамяти;
	libx-: адресВПамяти;

	libraryPaths: массив 8 из массив 32 из симв8;
	noPaths: размерМЗ;



	проц getnprocs* (): длинноеЦелМЗ;
	нач {безКооперации, безОбычныхДинПроверок}
		возврат sysconf( 0x54 ); (*0x53 for number of processors configured, 0x54 for number of processors online *)
	кон getnprocs;

	проц NewKey*( ): Key_t;
	перем
		key: Key_t;
	нач {безКооперации, безОбычныхДинПроверок}
		утв(pthread_key_create(адресОт(key), НУЛЬ) = 0);
		возврат key;
	кон NewKey;

	проц ReadKey* (key: Key_t): адресВПамяти;
	нач {безКооперации, безОбычныхДинПроверок, UNTRACKED}
		возврат pthread_getspecific(key);
	кон ReadKey;

	проц WriteKey* (key: Key_t; value: адресВПамяти);
	нач {безКооперации, безОбычныхДинПроверок}
		утв(pthread_setspecific(key, value) = 0);
	кон WriteKey;


	проц NewMtx*( ): Mutex_t;
	перем
		mtx: Mutex_t;
	нач {безКооперации, безОбычныхДинПроверок}
		mtx := malloc( размер16_от(MutexType) );
		утв(mtx # 0);
		утв(pthread_mutex_init(mtx, НУЛЬ) = 0);
		возврат mtx;
	кон NewMtx;

	проц NewRecursiveMtx*( ): Mutex_t;
	перем
		mtx: Mutex_t;
		attr: MutexAttributeType;
		res: целМЗ;
	конст
		Recursive = 1;
	нач {безКооперации, безОбычныхДинПроверок}
		mtx := malloc( размер16_от(MutexType) );
		res := pthread_mutexattr_init(операцияАдресОт attr);
		res := pthread_mutexattr_settype(операцияАдресОт attr, Recursive);

		утв(mtx # 0);
		утв(pthread_mutex_init(mtx, операцияАдресОт attr) = 0);
		возврат mtx;
	кон NewRecursiveMtx;



	проц MtxDestroy*(mtx: Mutex_t);
	нач {безКооперации, безОбычныхДинПроверок}
		утв(pthread_mutex_destroy(mtx) = 0);
	кон MtxDestroy;

	проц MtxLock*(mtx: Mutex_t);
	нач {безКооперации, безОбычныхДинПроверок}
		утв(pthread_mutex_lock(mtx) = 0);
	кон MtxLock;

	проц MtxUnlock*(mtx: Mutex_t);
	нач {безКооперации, безОбычныхДинПроверок}
		утв(pthread_mutex_unlock(mtx) = 0);
	кон MtxUnlock;

	проц NewCond* ( ): Condition_t;
	перем cond: Condition_t;
	нач {безКооперации, безОбычныхДинПроверок}
		cond := malloc( размер16_от(ConditionType) );
		утв(cond # 0);
		утв(pthread_cond_init(cond, НУЛЬ)=0);
		возврат cond;
	кон NewCond;

	проц CondDestroy*(con: Condition_t);
	нач {безКооперации, безОбычныхДинПроверок}
		утв(pthread_cond_destroy(con) = 0);
	кон CondDestroy;

	проц CondWait*(con: Condition_t; mtx: Mutex_t);
	нач {безКооперации, безОбычныхДинПроверок}
		утв(pthread_cond_wait(con, mtx) = 0);
	кон CondWait;

	проц CondSignal*(cond: Condition_t);
	нач {безКооперации, безОбычныхДинПроверок}
		утв(pthread_cond_signal(cond) = 0);
	кон CondSignal;

	проц ThrThis*(): Thread_t;
	нач {безКооперации, безОбычныхДинПроверок, UNTRACKED}
		возврат pthread_self( );
	кон ThrThis;

	проц ThrYield*( );
	нач {безКооперации, безОбычныхДинПроверок}
		ThrSleep(1);
	кон ThrYield;

	проц ThrExit*( );
	нач {безКооперации, безОбычныхДинПроверок}
		siglongjmp (pthread_getspecific (thread_exit), 1);
	кон ThrExit;

	проц ThrSetPriority*(thr: Thread_t; prio: цел32);
	перем
		param: Sched_param;
		policy: цел32;
	нач {безКооперации, безОбычныхДинПроверок}
		если pthread_getschedparam( thr, операцияАдресОт policy, операцияАдресОт param ) # 0 то всё;
		param.sched_priority := prio;
		если pthread_setschedparam( thr, SCHED_OTHER, операцияАдресОт param ) # 0 то
			Perror("pthread_setschedparam");
		всё
	кон ThrSetPriority;

	проц ThrGetPriority*(thr: Thread_t):цел32;
	перем
		param: Sched_param;
		policy: цел32;
	нач {безКооперации, безОбычныхДинПроверок}
	    если pthread_getschedparam( thr, операцияАдресОт policy, операцияАдресОт param ) # 0 то всё;
	    возврат  param.sched_priority;
	кон ThrGetPriority;

	проц {C} Starter(proc: проц): адресВПамяти;
	перем
		me: Thread_t;
		old, new: Sigset_t;
		param: Sched_param;
		res: целМЗ;
		attr: PThreadAttr;
		stack: Stack;
		size: размерМЗ;
		state: массив 2048 из симв8;
	нач {безКооперации, безОбычныхДинПроверок}
		me := pthread_self();

		pthread_getattr_np(me, операцияАдресОт attr);
		pthread_attr_getstacksize (операцияАдресОт attr, операцияАдресОт size);
		pthread_attr_destroy(операцияАдресОт attr);

		stack.sp := S.GetFramePointer () - size + AlternateStackSize;
		stack.size := AlternateStackSize;
		stack.flags := {};

		если sigaltstack(операцияАдресОт stack, НУЛЬ) # 0 то
			Perror("signaltstack")
		всё;

		если sigfillset( операцияАдресОт new ) < 0 то
			Perror("sigfillset");
		всё;
		sigdelset( операцияАдресОт new, SIGILL );
		sigdelset( операцияАдресОт new, SIGTRAP );
		sigdelset( операцияАдресОт new, SIGFPE );
		sigdelset( операцияАдресОт new, SIGBUS );
		sigdelset( операцияАдресОт new, SIGSEGV );
		sigdelset( операцияАдресОт new, SIGTERM );
		sigdelset( операцияАдресОт new, T_SIGSUSPEND );

		res := pthread_sigmask( SIG_SETMASK, операцияАдресОт new, операцияАдресОт old );
		res := pthread_setcancelstate( PTHREAD_CANCEL_ENABLE, НУЛЬ );
		res := pthread_setcanceltype( PTHREAD_CANCEL_ASYNCHRONOUS, НУЛЬ );
		param.sched_priority := 0;
		res := pthread_setschedparam( me, SCHED_OTHER, операцияАдресОт param );

		утв (pthread_setspecific (thread_exit, операцияАдресОт state) = 0);
		если sigsetjmp (операцияАдресОт state, 0) = 0 то proc всё;
		возврат НУЛЬ;
	кон Starter;

	проц ThrStart*(p: проц; stackSize: размерМЗ): Thread_t;
	перем
		attr: PThreadAttr;
		id: Thread_t;
		res: целМЗ;
	конст
		PTHREAD_SCOPE_SYSTEM = 0;
		PTHREAD_CREATE_DETACHED = 1;
	нач {безКооперации, безОбычныхДинПроверок}
		pthread_attr_init(операцияАдресОт attr);
		pthread_attr_setscope(операцияАдресОт attr, PTHREAD_SCOPE_SYSTEM);
		pthread_attr_setdetachstate(операцияАдресОт attr, PTHREAD_CREATE_DETACHED);
		(*pthread_attr_setdetachstate(ADDRESS OF attr, 0);*)
		pthread_attr_setstacksize(операцияАдресОт attr, stackSize + AlternateStackSize);
		res := pthread_create(операцияАдресОт id, операцияАдресОт attr, Starter, p);
		возврат id;
	кон ThrStart;

	проц ThrSleep*(ms: цел32);
	перем
		sltime,rem: запись
			tv_sec: длинноеЦелМЗ;        (* seconds *)
			tv_nsec: длинноеЦелМЗ;       (* nanoseconds *)
     	кон;
	нач {безКооперации, безОбычныхДинПроверок}
		sltime.tv_sec := ms DIV 1000;
		sltime.tv_nsec := 1000000*(ms остОтДеленияНа 1000);
		нцПока (nanosleep(операцияАдресОт sltime, операцияАдресОт rem) < 0) делай
			(* check error ! *)
			sltime := rem;
		кц;
	кон ThrSleep;

	проц NanoSleep*(ns: длинноеЦелМЗ);
	перем
		sltime,rem: запись
			tv_sec: длинноеЦелМЗ;        (* seconds *)
			tv_nsec: длинноеЦелМЗ;       (* nanoseconds *)
     	кон;
	нач {безКооперации, безОбычныхДинПроверок, UNTRACKED}
		sltime.tv_sec := ns DIV 1000000000;
		sltime.tv_nsec := ns остОтДеленияНа 1000000000;
		нцПока (nanosleep(операцияАдресОт sltime, операцияАдресОт rem) < 0) делай
			(* check error ! *)
			sltime := rem;
		кц;
	кон NanoSleep;

	проц ThrKill*(thr: Thread_t);
	нач {безКооперации, безОбычныхДинПроверок}
		если (thr # mainthread) то
	    		pthread_detach( thr );
    			если (thr = pthread_self()) то
				ThrExit;
			иначе
				pthread_cancel( thr );
			всё
		всё;
    кон ThrKill;

	проц {C} resume_handler( sig: цел32 );
	нач {безКооперации, безОбычныхДинПроверок}
	кон resume_handler;

	проц ThrResume*( thr: Thread_t );
	перем  res: целМЗ;
	нач {безКооперации, безОбычныхДинПроверок, UNTRACKED}
		res := pthread_mutex_lock(операцияАдресОт suspend_mutex );
		resume_done := 0;
		res := pthread_kill( thr, T_SIGRESUME );
		утв(res = 0);

		нцПока (сравнениеСОбменом(resume_done,0,0) # 1) делай NanoSleep(1000) кц;
		res := pthread_mutex_unlock( операцияАдресОт suspend_mutex );
	кон ThrResume;

	перем suspendHandler*: проц(c: Ucontext);

	проц {C} suspend_handler(sig: цел32; scp: адресВПамяти; ucp: адресВПамяти);
	перем block: Sigset_t; res: целМЗ;
	нач {безКооперации, безОбычныхДинПроверок, UNTRACKED}
		если suspendHandler # НУЛЬ то suspendHandler( S.подмениТипЗначения( Ucontext, ucp) ) всё;
		res := sigfillset( операцияАдресОт block );
		sigdelset(  операцияАдресОт block, T_SIGRESUME );
		утв(сравнениеСОбменом(suspend_done,0,1)=0);
		res := sigsuspend(  операцияАдресОт block ); (* await T_SIGRESUME *)
		утв(сравнениеСОбменом(resume_done,0,1) = 0); (*makes no difference if we do that here or in the resume handler*)
	кон suspend_handler;

	проц ThrSuspend*(thr: Thread_t; saveContext: булево);
	перем res: целМЗ;
	нач {безКооперации, безОбычныхДинПроверок, UNTRACKED}
		res := pthread_mutex_lock(операцияАдресОт suspend_mutex );
		suspend_done := 0;
		res := pthread_kill( thr, T_SIGSUSPEND );
		утв(res = 0);
		нцПока (сравнениеСОбменом(suspend_done,0,0) # 1) делай NanoSleep( 1000 ) кц;
		res := pthread_mutex_unlock( операцияАдресОт suspend_mutex );
	кон ThrSuspend;





	проц ThrInitialize*( перем low, high: цел32 ): булево;
	перем
		param: Sched_param; res: целМЗ;
	нач {безКооперации, безОбычныхДинПроверок}
		утв(pthread_mutex_init( операцияАдресОт suspend_mutex, НУЛЬ ) = 0);
		mainthread := pthread_self();
		high := sched_get_priority_max(SCHED_OTHER);
		low := sched_get_priority_min(SCHED_OTHER);

		param.sched_priority := high;
		если pthread_setschedparam( mainthread, SCHED_OTHER, операцияАдресОт param)#0 то
			Perror("ThrInitialize: setparam");
		всё;

		res := sigfillset( операцияАдресОт sasuspend.sa_mask );
		sasuspend.sa_flags := SA_SIGINFO;
		sasuspend.sa_handler := suspend_handler;
		утв(sigaction( T_SIGSUSPEND, операцияАдресОт sasuspend, НУЛЬ ) = 0);

		sigemptyset( операцияАдресОт saresume.sa_mask );
		saresume.sa_flags := 0;
		saresume.sa_handler := resume_handler;
		утв(sigaction( T_SIGRESUME, операцияАдресОт saresume, НУЛЬ ) = 0);

		утв (pthread_key_create (операцияАдресОт thread_exit, НУЛЬ) = 0);

		возврат истина;
	кон ThrInitialize;

	проц CopyContext*(конст from: McontextDesc; перем to: McontextDesc);
	нач {безКооперации, безОбычныхДинПроверок}
		S.копируйПамять(операцияАдресОт from, операцияАдресОт to, размерОт McontextDesc);
	кон CopyContext;


	проц ModifyContext*( cont: Mcontext;  pc, bp, sp: адресВПамяти );
	нач {безКооперации, безОбычныхДинПроверок}
		cont.r_pc := pc;
		cont.r_bp := bp;
		cont.r_sp := sp;
	кон ModifyContext;

	проц Perror*( конст msg: массив из симв8 );
	нач {безКооперации, безОбычныхДинПроверок}
		perror( адресОт( msg ) )
	кон Perror;

	проц Dlsym*( lib: адресВПамяти;  конст sym: массив из симв8;  objAddr: адресВПамяти );
	перем val: цел32;
	нач {безКооперации, безОбычныхДинПроверок}
		Glue.Dlsym( lib, sym, objAddr );
		S.прочтиОбъектПоАдресу( objAddr, val );
		если val = 0 то
			Трассировка.пСтроку8( "Unix.Dlsym:  entry '" );  Трассировка.пСтроку8( sym );  Трассировка.пСтроку8( "' not found" );
			Трассировка.пВК_ПС;
		(*	exit(0);	*)
		всё
	кон Dlsym;

	проц Dlopen*( конст libname: массив из симв8;  mode: цел32 ): адресВПамяти;
	перем h: адресВПамяти;  i, j, k: цел16;
		p: массив 256 из симв8;
	нач {безКооперации, безОбычныхДинПроверок}
		если libname[0] = '/' то  h := Glue.dlopen( адресОт( libname ), mode );
		иначе
			i := 0;  h := 0;
			нцПока (h = 0) и (i < noPaths) делай
				копируйСтрокуДо0( libraryPaths[i], p );  j := 0;
				нцПока p[j] # 0X делай  увел( j )  кц;
				p[j] := '/';  k := 0;
				нцДо  увел( j );  p[j] := libname[k];  увел( k )  кцПри p[j] = 0X;
				h := Glue.dlopen( адресОт( p ), mode );  увел( i );
			кц
		всё;
		если h = 0 то
			Трассировка.пСтроку8( "Unix.Dlopen: loading library " );
			Трассировка.пСтроку8( libname );  Трассировка.пСтроку8( " failed" );  Трассировка.пВК_ПС;
		всё;
		возврат h
	кон Dlopen;

	проц Dlclose*( lib: адресВПамяти );
	нач {безКооперации, безОбычныхДинПроверок}
		Glue.dlclose( lib )
	кон Dlclose;

	проц GetArg*( no: цел32;  перем val: массив из симв8 );
	перем ch: симв8;  adr: адресВПамяти;  i: цел32;
	нач {безКооперации, безОбычныхДинПроверок}
		если no >= argc то  val[0] := 0X
		иначе
			S.прочтиОбъектПоАдресу( argv + размер16_от(адресВПамяти)*no, adr );  i := 0;
			нцДо  S.прочтиОбъектПоАдресу( adr, ch );  val[i] := ch;  увел( adr );  увел( i );   кцПри (ch = 0X) или (i >= длинаМассива( val ));
		всё
	кон GetArg;

	проц GetArgval*(  конст argName: массив из симв8;  перем val: массив из симв8 );
	перем i: цел16;
		buf: массив 40 из симв8;
	нач {безКооперации, безОбычныхДинПроверок}
		i := 1;
		нцПока i < argc - 1 делай
			GetArg( i, buf );
			если buf = argName то  GetArg( i + 1, val );  возврат   всё;
			увел( i )
		кц;
		val[0] := 0X
	кон GetArgval;



	проц getSysinfo;
	перем res: целМЗ;  p: цел16;
		buf: массив 4096 из симв8;

		проц copy( перем p: цел16;  перем dest: массив из симв8 );
		перем i: цел16;
		нач {безКооперации, безОбычныхДинПроверок}
			нцПока buf[p] <= ' ' делай  увел( p )  кц;
			i := 0;
			нцДо  dest[i] := buf[p];  увел( i );  увел( p )  кцПри (buf[p - 1] = 0X) или (i >= длинаМассива( dest ));
			dest[i - 1] := 0X
		кон copy;

	нач {безКооперации, безОбычныхДинПроверок}
		нцДля p := 0 до 4096 - 1 делай  buf[p] := 0X  кц;
		res := uname( адресОт( buf ) );
		p := 0;
		copy( p, sysinfo.sysname );
		copy( p, sysinfo.nodename );
		copy( p, sysinfo.release );
		copy( p, sysinfo.version );
		copy( p, sysinfo.machine );
	кон getSysinfo;

	перем trap: SignalTrap;

	проц {C} SigHandler  ( sig: цел32; scp: адресВПамяти; ucp: Ucontext ); (* reversed arguments !! *)
	нач {безКооперации, безОбычныхДинПроверок}
		если trap # НУЛЬ то
			trap( sig, S.подмениТипЗначения( Mcontext, адресОт( ucp.mc ) ) )
		иначе
			Трассировка.пСтроку8( "Unix.SigHandler: sig = " ); Трассировка.пЦел64( sig, 0 ); Трассировка.пВК_ПС;  exit( -1 );
		всё;
	кон SigHandler;

	проц InstallTrap* ( h: SignalTrap );
	нач {безКооперации, безОбычныхДинПроверок}
		trap := h;
	кон InstallTrap;



	проц InstallHandler(sig: цел32);
	перем
		act: Sigaction;
		mask: Sigset_t;
	нач {безКооперации, безОбычныхДинПроверок}
		sigemptyset(операцияАдресОт mask);
		act.sa_mask := mask;
		act.sa_flags :=  SA_SIGINFO +  SA_ONSTACK (* run on separate sig stack *) +  SA_NODEFER;
		act.sa_handler := операцияАдресОт SigHandler;
		если sigaction( sig, операцияАдресОт act, 0 ) # 0 то
			Perror("sigaction");
		всё
	кон InstallHandler;

	проц fstat*  ( fd: цел32;  перем buf: Status ): цел32;
	нач {безКооперации, безОбычныхДинПроверок}
	#если AMD64 то
		возврат  fxstat( 1, fd, buf );
	#иначе
		возврат  fxstat( 3, fd, buf );
	#кон
	кон fstat;

	проц stat*  ( path: адресВПамяти;  перем buf: Status ): цел32;
	нач {безКооперации, безОбычныхДинПроверок}
	#если AMD64 то
		возврат  xstat( 1, path, buf );
	#иначе
		возврат  xstat( 3, path, buf );
	#кон
	кон stat;


	проц HandleSignal*( sig: цел32 );
	нач {безКооперации, безОбычныхДинПроверок}
		InstallHandler( sig )
	кон HandleSignal;

	проц errno*(): цел32;
	перем loc: адресВПамяти;
	нач {безКооперации, безОбычныхДинПроверок}
		loc := errno_location();
		возврат S.прочти32битаПоАдресу(loc);
	кон errno;

	тип OberonXErrorHandler* = проц (disp, err: адресВПамяти): цел32;
	тип OberonXIOErrorHandler* = проц (disp: адресВПамяти): цел32;
	перем oberonXErrorHandler: OberonXErrorHandler;
	перем oberonXIOErrorHandler: OberonXIOErrorHandler;


	проц {C} X11ErrorHandler(d: адресВПамяти; err: адресВПамяти): целМЗ;
	перем res: целМЗ;
	нач {безКооперации, безОбычныхДинПроверок}
		если oberonXErrorHandler # НУЛЬ то
			res := oberonXErrorHandler(d, err);
		всё;
		возврат 0;
	кон X11ErrorHandler;

	проц {C} X11IOErrorHandler(d: адресВПамяти): целМЗ;
	перем res: целМЗ;
	нач {безКооперации, безОбычныхДинПроверок}
		если oberonXIOErrorHandler # НУЛЬ то
			res := oberonXIOErrorHandler(d);
		всё;
		возврат 0;
	кон X11IOErrorHandler;

	проц InitXErrorHandlers*(xErrorHandler: OberonXErrorHandler; xIOErrorHandler: OberonXIOErrorHandler);
	перем res: целМЗ;
	нач {безКооперации, безОбычныхДинПроверок}
		oberonXErrorHandler := xErrorHandler;
		oberonXIOErrorHandler := xIOErrorHandler;
		res := xSetErrorHandler(операцияАдресОт X11ErrorHandler);
		res := xSetIOErrorHandler(операцияАдресОт X11IOErrorHandler);
	кон InitXErrorHandlers;

	проц Init;
	нач {безКооперации, безОбычныхДинПроверок}
		argc := Glue.argc;
		argv := Glue.argv;
		environ := Glue.environ;

#если I386 то
		libraryPaths[0] := "/lib/i386-linux-gnu/i686/cmov";
		libraryPaths[1] := "/lib/i386-linux-gnu";
		libraryPaths[2] := "/lib32";
		libraryPaths[3] := "/lib";
		libraryPaths[4] := "/usr/lib/i386-linux-gnu";
		libraryPaths[5] := "/usr/lib32";
		libraryPaths[6] := "/usr/lib";
		noPaths := 7;
#аесли AMD64 то
		libraryPaths[0] := "/lib/x86_64-linux-gnu";
		libraryPaths[1] := "/lib64";
		libraryPaths[2] := "/lib";
		libraryPaths[3] := "/usr/lib/x86_64-linux-gnu";
		libraryPaths[4] := "/usr/lib64";
		libraryPaths[5] := "/usr/lib";
		noPaths := 6;
#иначе
	=== error
#кон

		libc := Dlopen( libcname, 2 );
		libp := Dlopen( libpthreadname, 2 );

		Dlsym( libc, "exit",		адресОт(exit) );

		Dlsym( libc, "sysconf", адресОт(sysconf) );

		Dlsym( libc, "pthread_mutex_init", адресОт(pthread_mutex_init) );
		Dlsym( libc, "pthread_mutex_destroy", адресОт(pthread_mutex_destroy) );
		Dlsym( libc, "pthread_mutex_lock", адресОт(pthread_mutex_lock) );
		Dlsym( libc, "pthread_mutex_unlock", адресОт(pthread_mutex_unlock) );

		Dlsym( libp, "pthread_mutexattr_init", адресОт(pthread_mutexattr_init) );
		Dlsym( libp, "pthread_mutexattr_settype", адресОт(pthread_mutexattr_settype) );


		Dlsym( libc, "pthread_cond_init", адресОт(pthread_cond_init) );
		Dlsym( libc, "pthread_cond_destroy", адресОт(pthread_cond_destroy) );
		Dlsym( libc, "pthread_cond_wait", адресОт(pthread_cond_wait) );
		Dlsym( libc, "pthread_cond_signal", адресОт(pthread_cond_signal) );

		Dlsym( libp, "pthread_create", адресОт(pthread_create) );
		Dlsym( libp, "pthread_detach", адресОт(pthread_detach) );
		Dlsym( libp, "pthread_cancel", адресОт(pthread_cancel) );
		Dlsym( libp, "pthread_kill", адресОт(pthread_kill) );
		Dlsym( libp, "pthread_join", адресОт(pthread_join) );

		Dlsym( libp, "pthread_key_create", адресОт( pthread_key_create ) );
		Dlsym( libp, "pthread_getspecific", адресОт( pthread_getspecific ) );
		Dlsym( libp, "pthread_setspecific", адресОт( pthread_setspecific ) );

		Dlsym( libp, "pthread_sigmask", адресОт(pthread_sigmask) );
		Dlsym( libp, "pthread_setcancelstate", адресОт(pthread_setcancelstate) );
		Dlsym( libp, "pthread_setcanceltype", адресОт(pthread_setcanceltype) );
		Dlsym( libp, "pthread_attr_init", адресОт(pthread_attr_init) );
		Dlsym( libp, "pthread_attr_destroy", адресОт(pthread_attr_destroy) );
		Dlsym( libp, "pthread_attr_setscope", адресОт(pthread_attr_setscope) );
		Dlsym( libp, "pthread_attr_setdetachstate", адресОт(pthread_attr_setdetachstate) );
		Dlsym( libp, "pthread_attr_setstacksize", адресОт(pthread_attr_setstacksize) );
		Dlsym( libp, "pthread_attr_getstacksize", адресОт(pthread_attr_getstacksize) );
		Dlsym( libp, "pthread_getattr_np", адресОт(pthread_getattr_np) );
		Dlsym( libp, "pthread_self", адресОт(pthread_self) );

		Dlsym( libp, "sem_init", адресОт(sem_init) );
		Dlsym( libp, "sem_wait", адресОт(sem_wait) );
		Dlsym( libp, "sem_post", адресОт(sem_post) );
		Dlsym( libp, "sem_destroy", адресОт(sem_destroy) );

		Dlsym( libp, "pthread_barrier_init", адресОт(pthread_barrier_init) );
		Dlsym( libp, "pthread_barrier_wait", адресОт(pthread_barrier_wait) );
		Dlsym( libp, "pthread_barrier_destroy", адресОт(pthread_barrier_destroy) );

		Dlsym( libp, "pthread_getaffinity_np", адресОт(pthread_getaffinity_np) );
		Dlsym( libp, "pthread_setaffinity_np", адресОт(pthread_setaffinity_np) );

		Dlsym( libc, "posix_spawnp", адресОт(posix_spawnp) );
		Dlsym( libc, "posix_spawn", адресОт(posix_spawn) );

		Dlsym( libc, "waitpid", адресОт(waitpid) );
		Dlsym( libc, "pipe", адресОт(pipe) );
		Dlsym( libc, "dup2",адресОт(dup2) );
		Dlsym( libc, "dup", адресОт(dup) );

		Dlsym( libc, "sched_get_priority_max", адресОт(sched_get_priority_max) );
		Dlsym( libc, "sched_get_priority_min", адресОт(sched_get_priority_min) );
		Dlsym( libc, "pthread_setschedparam", адресОт(pthread_setschedparam) );
		Dlsym( libc, "pthread_getschedparam", адресОт(pthread_getschedparam) );
		Dlsym( libc, "sigaction", адресОт(sigaction) );
		Dlsym( libc, "sigemptyset", адресОт(sigemptyset) );
		Dlsym( libc, "sigfillset", адресОт(sigfillset) );
		Dlsym( libc, "sigaddset", адресОт(sigaddset) );
		Dlsym( libc, "sigdelset", адресОт(sigdelset) );
		Dlsym( libc, "nanosleep", адресОт(nanosleep) );
		Dlsym( libc, "sigaltstack", адресОт(sigaltstack) );
		Dlsym( libc, "sigsuspend", адресОт(sigsuspend) );

		Dlsym( libc, "read",		адресОт( read ) );
		Dlsym( libc, "write",	адресОт( write ) );
		Dlsym( libc, "open",		адресОт( open ) );
		Dlsym( libc, "close",	адресОт( close ) );
		Dlsym( libc, "lseek",	адресОт( lseek ) );
		Dlsym( libc, "realpath",	адресОт( realpath ) );
		Dlsym( libc, "fsync",	адресОт( fsync ) );
		Dlsym( libc, "ioctl",	адресОт( ioctl ) );
		Dlsym( libc, "unlink",	адресОт( unlink ) );
		Dlsym( libc, "rename",	адресОт( rename ) );
		Dlsym( libc, "ftruncate",	адресОт( ftruncate ) );
		Dlsym( libc, "chmod",	адресОт( chmod ) );
		Dlsym( libc, "utime",	адресОт( utime ) );
		Dlsym( libc, "access",	адресОт( access ) );
		Dlsym( libc, "select",	адресОт( select ) );

		Dlsym( libc, "chdir",	адресОт( chdir ) );
		Dlsym( libc, "mkdir",	адресОт( mkdir ) );
		Dlsym( libc, "rmdir",	адресОт( rmdir ) );

		Dlsym( libc, "__xstat",		адресОт( xstat ) );
		Dlsym( libc, "__lxstat",	адресОт( lxstat ) );
		Dlsym( libc, "__fxstat",	адресОт( fxstat ) );

		Dlsym( libc, "getpid",	адресОт( getpid ) );
		Dlsym( libc, "getuid",	адресОт( getuid ) );

		Dlsym( libc, "alarm",	адресОт( alarm ) );
		Dlsym( libc, "setitimer",	адресОт( setitimer ) );
		Dlsym( libc, "getitimer",	адресОт( getitimer ) );
		Dlsym( libc, "clock_gettime", адресОт(clock_gettime) );
		Dlsym( libc, "clock_getres", адресОт(clock_getres) );

		Dlsym( libc, "gettimeofday", адресОт( gettimeofday ) );
		Dlsym( libc, "mktime",		адресОт( mktime ) );
		Dlsym( libc, "localtime",	адресОт( localtime ) );
		Dlsym( libc, "time",			адресОт( time ) );
		Dlsym( libc, "times",		адресОт( times ) );

		Dlsym( libc, "getcwd",		адресОт( getcwd ) );
		Dlsym( libc, "getenv",		адресОт( getenv ) );

		Dlsym( libc, "opendir",		адресОт( opendir ) );
		Dlsym( libc, "readdir",		адресОт( readdir ) );
		Dlsym( libc, "closedir",	адресОт( closedir ) );


		Dlsym( libc, "__sigsetjmp",	адресОт( sigsetjmp ) );
		Dlsym( libc, "siglongjmp",	адресОт( siglongjmp ) );


		Dlsym( libc, "malloc",		адресОт( malloc ) );
		Dlsym( libc, "posix_memalign",	адресОт( posix_memalign ) );
		Dlsym( libc, "free",			адресОт( free ) );
		Dlsym( libc, "mprotect",	адресОт( mprotect ) );

		Dlsym( libc, "system",	адресОт( system ) );
		Dlsym( libc, "uname",	адресОт( uname ) );

		Dlsym( libc, "kill",		адресОт( kill ) );
		Dlsym( libc, "perror",	адресОт( perror ) );
		Dlsym( libc, "__errno_location",	адресОт(errno_location ) );

		getSysinfo;
	кон Init;

	(* load X11 related libaries only on demand *)
	проц LinkToX*;
	нач {безКооперации, безОбычныхДинПроверок}
		libx := Dlopen( libX11name, 2 );

		Dlsym( libx, "XSetErrorHandler", операцияАдресОт xSetErrorHandler);
		Dlsym( libx, "XSetIOErrorHandler", операцияАдресОт xSetIOErrorHandler);
	кон LinkToX;


	проц {INITIAL} Init0;
	нач {безКооперации, безОбычныхДинПроверок}
		Init;
	кон Init0;
кон Unix.
