модуль Texts;	(** AUTHOR "TF"; PURPOSE "Basic Unicode text system"; *)

использует
	ЛогЯдра, Потоки, Kernel, WMEvents, Locks, Strings, FP1616, UTF8Strings,
	XML, XMLParser, XMLScanner, XMLObjects, Files, Configuration, UCS32, UCS2;

конст
	OpInsert* = 0;
	OpDelete* = 1;
	OpAttributes* = 2;
	OpMulti* = 3;

	NewLineChar* = 10;
	TabChar* = 9;
	SpaceChar* = 32;
	ObjectChar* = -1;
	LabelChar* = -2;

	UsePieceTable = истина;

	TraceHard = ложь;

тип (* FIXME deprecate these types *)
	UCS32String* = UCS32.String;
	PUCS32String* = UCS32.PString;
	Char32* = UCS32.Char;

	FontInfo* = окласс
	перем
		fontcache* : динамическиТипизированныйУкль;
		name* : массив 32 из симв8;
		size* : размерМЗ;
		style* : мнвоНаБитахМЗ;

		проц IsEqual*(f : FontInfo): булево;
		нач
			возврат (name = f.name) и (size = f.size) и (style = f.style)
		кон IsEqual;

		проц Clone*() : FontInfo;
		перем f : FontInfo;
		нач
			нов(f);
			f.fontcache := fontcache; копируйСтрокуДо0(name, f.name); f.size := size; f.style := style;
			возврат f
		кон Clone;
	кон FontInfo;

	Attributes* = окласс
	перем
		color*, bgcolor* : цел32;
		voff* : цел32;
		fontInfo* : FontInfo;

		проц Set* (color, bgcolor, voff : цел32; конст name : массив из симв8; size : размерМЗ; style : мнвоНаБитахМЗ);
		нач
			сам.color := color;
			сам.bgcolor := bgcolor;
			сам.voff := voff;
			нов(fontInfo);
			копируйСтрокуДо0(name, fontInfo.name);
			fontInfo.size := size;
			fontInfo.style := style
		кон Set;

		проц IsEqual*(attr : Attributes) : булево;
		нач
			возврат (attr=сам) или (attr # НУЛЬ) и (color = attr.color) и (bgcolor = attr.bgcolor) и (voff = attr.voff) и
				( (fontInfo = НУЛЬ) и (attr.fontInfo = НУЛЬ) или fontInfo.IsEqual(attr.fontInfo))
		кон IsEqual;

		проц Clone*():Attributes;
		перем a : Attributes;
		нач
			нов(a);
			a.color := color; a.bgcolor := bgcolor; a.voff := voff; если fontInfo # НУЛЬ то a.fontInfo := fontInfo.Clone() всё;
			возврат a
		кон Clone;
	кон Attributes;

	AttributeChangerProc* = проц {делегат} (перем attributes : Attributes; userData : динамическиТипизированныйУкль);

	StyleChangedMsg* = окласс
	кон StyleChangedMsg;

	ParagraphStyle* = окласс
	перем
		name* : массив 128 из симв8;				(* name of the paragraph style *)
		alignment* : цел32;						(* 0 = left, 1 = center, 2 = right, 3 = justified *)
		spaceBefore* : цел32;					(* space before paragraph [mm] *)
		spaceAfter* : цел32;						(* space after paragrapg [mm] *)
		leftIndent* : цел32;						(* left Indent [mm] *)
		rightIndent* : цел32;						(* right Indent [mm] *)
		firstIndent* : цел32;						(* first Line Indent [mm] *)
		charStyle* : CharacterStyle;					(* default character style *)
		tabStops* : массив 256 из симв8;			(* tabStop String *)

		проц IsEqual*(style : ParagraphStyle) : булево;
		нач
			возврат (style # НУЛЬ) и (name = style.name) и (alignment = style.alignment) и (spaceBefore = style.spaceBefore) и
				(spaceAfter = style.spaceAfter) и (leftIndent = style.leftIndent) и (rightIndent = style.rightIndent) и
				(firstIndent = style.firstIndent) и (charStyle = style.charStyle) и (tabStops = style.tabStops)
		кон IsEqual;

		проц Clone*(): ParagraphStyle;
		перем newStyle : ParagraphStyle; newName : массив 128 из симв8;
		нач
			нов(newStyle);
			копируйСтрокуДо0(name,newName);
			Strings.Append(newName,"COPY");
			нцПока GetParagraphStyleByName(newName) # НУЛЬ делай
				Strings.Append(newName,"COPY");
			кц;
			копируйСтрокуДо0(newName, newStyle.name);
			newStyle.alignment := alignment;
			newStyle.spaceBefore := spaceBefore;
			newStyle.spaceAfter := spaceAfter;
			newStyle.leftIndent := leftIndent;
			newStyle.rightIndent := rightIndent;
			newStyle.firstIndent := firstIndent;
			newStyle.charStyle := charStyle;
			копируйСтрокуДо0(tabStops, newStyle.tabStops);

			возврат newStyle;
		кон Clone;

	кон ParagraphStyle;

	ParagraphStyleArray* = укль на массив из ParagraphStyle;

	CharacterStyle* = окласс
	перем
		fontcache* : динамическиТипизированныйУкль;
		name* : массив 128 из симв8;				(* name of the character style *)
		family* : массив 32 из симв8;				(* font family *)
		style* : мнвоНаБитахМЗ;									(* font style; 0 = bold, 1 = italic *)
		size* : размерМЗ;							(* font size [pt]; 1pt == 1/72inch == 0,3527777778mm *)
		leading* : цел32;							(* baseline distance [pt] - usually 120% of font size *)
		baselineShift* : цел32;					(* baseline shift up/down [pt] *)
		tracking* : цел32;						(* character spacing [pt] *)

		scaleHorizontal* : цел32;					(* horizontal character scale *)
		scaleVertical* : цел32;					(* vertical character scale *)
		color* : цел32;							(* character color *)
		bgColor* : цел32;						(* character background color *)

		проц &New*;
		нач
			fontcache := НУЛЬ;
		кон New;

		проц IsEqual*(cstyle : CharacterStyle) : булево;
		нач
			возврат (cstyle # НУЛЬ) и (name = cstyle.name) и (family = cstyle.family) и (style = cstyle.style) и (leading = cstyle.leading) и
			(baselineShift = cstyle.baselineShift) и (tracking = cstyle.tracking) и
			(scaleHorizontal = cstyle.scaleHorizontal) и (scaleVertical = cstyle.scaleVertical) и (color = cstyle.color) и
			(bgColor = cstyle.bgColor)
		кон IsEqual;

		проц Clone*(): CharacterStyle;
		перем newStyle : CharacterStyle; newName : массив 128 из симв8;
		нач
			нов(newStyle);
			копируйСтрокуДо0(name, newName);
			Strings.Append(newName, "COPY");
			нцПока GetCharacterStyleByName(newName) # НУЛЬ делай
				Strings.Append(newName,"COPY");
			кц;
			копируйСтрокуДо0(newName, newStyle.name);
			копируйСтрокуДо0(family, newStyle.family);
			newStyle.style := style;
			newStyle.size := size;
			newStyle.leading := leading;
			newStyle.baselineShift := baselineShift;
			newStyle.tracking := tracking;
			newStyle.scaleHorizontal := scaleHorizontal;
			newStyle.scaleVertical := scaleVertical;
			newStyle.color := color;
			newStyle.bgColor := bgColor;

			возврат newStyle;
		кон Clone;

	кон CharacterStyle;

	CharacterStyleArray* = укль на массив из CharacterStyle;

конст
	HLOver* = 0; HLUnder* = 1; HLWave* = 2;

тип

	HighlightStyle* = окласс
	перем
		kind*: целМЗ;

		проц IsEqual*(hstyle: HighlightStyle) : булево;
		нач
			возврат (hstyle # НУЛЬ) и (kind = hstyle.kind);
		кон IsEqual;

	кон HighlightStyle;

	Link* = Strings.String;

	Piece* = окласс
	перем
		next*, prev* : Piece;
		len*, startpos* : размерМЗ; (* в литерах *)
		attributes* : Attributes;
		pstyle* : ParagraphStyle;
		cstyle* : CharacterStyle;
		link* : Link;

		(** Return a copy of the piece, prev/next pointers nil and pos 0 *)
		проц Clone*() : Piece;
		нач
			СТОП(301); (* Abstract *)
			возврат НУЛЬ
		кон Clone;

		(** Split the UnicodePiece at pos in text position and return right piece *)
		проц Split*(pos : размерМЗ; перем right : Piece);
		нач
			СТОП(301); (* Abstract *)
		кон Split;

		(** Merge right to self; return true if ok *)
		проц Merge*(right : Piece) : булево;
		нач
			СТОП(301); (* Abstract *)
			возврат ложь
		кон Merge;

	кон Piece;

	UnicodePiece* = окласс(Piece)
		(** index in text position; index and (index + length) must be in the piece *)
		проц GetUCS32Buf*(index : размерМЗ; length : размерМЗ; перем ucs : UCS32String; перем res : целМЗ);
		кон GetUCS32Buf;

		(** index in text position; index and (index + length) must be in the piece *)
		проц GetUCS32*(index : размерМЗ;  перем ucs : Char32);
		кон GetUCS32;
	кон UnicodePiece;

	MemUnicodePiece* = окласс(UnicodePiece)
	перем
		buffer : PUCS32String;

		проц SetBuf(конст buffer : UCS32String);
		перем i : размерМЗ;
		нач
			нцПока buffer[i] # 0 делай увел(i) кц; len := i;
			нов(сам.buffer, len);
			нцДля i := 0 до len - 1 делай сам.buffer[i] := buffer[i] кц
		кон SetBuf;

		проц SetBufFromStringJQ(конст buffer : UCS32.StringJQ);
		перем i : размерМЗ;
		нач
			нцПока buffer[i].UCS32CharCode # UCS32.KodEot делай увел(i) кц; len := i;
			нов(сам.buffer, len);
			нцДля i := 0 до len - 1 делай сам.buffer[i] := цел32(buffer[i].UCS32CharCode) кц
		кон SetBufFromStringJQ;


		проц SetBufAsUTF8(конст buffer : массив из симв8);
		перем length, i, idx : размерМЗ;
		нач
			length := UTF8Strings.Length(buffer);
			нов(сам.buffer, length);
			i := 0; idx := 0;
			нцПока (i < length) и UTF8Strings.DecodeChar(buffer, idx, сам.buffer[i]) делай увел(i); кц;
		кон SetBufAsUTF8;

		(** Return a copy of the piece, prev/next pointers nil and pos 0 *)
		проц {перекрыта}Clone*() : Piece;
		перем m : MemUnicodePiece; i : размерМЗ;
		нач
			нов(m);
			m.len := len;
			если attributes # НУЛЬ то m.attributes := attributes.Clone() всё;
			если cstyle # НУЛЬ то m.cstyle := cstyle всё;
			если pstyle # НУЛЬ то m.pstyle := pstyle всё;
			если link # НУЛЬ то m.link := link всё;
			нов(m.buffer, длинаМассива(buffer));
			нцДля i := 0 до длинаМассива(buffer) - 1 делай m.buffer[i] := buffer[i] кц;
			возврат m
		кон Clone;

		(** index in text position; index and (index + length) must be in the piece *)
		проц {перекрыта}GetUCS32Buf*(index : размерМЗ; length : размерМЗ; перем ucs : UCS32String; перем res : целМЗ);
		перем i, j : размерМЗ;
		нач
			i := index - startpos; если (i < 0) или (i >= len) то ucs[0] := 0; res := -1; возврат всё;
			j := 0;
			нцПока (j < длинаМассива(ucs)) и (j < length) и (i < len) делай ucs[j] := buffer[i]; увел(i); увел(j) кц;
			если (j < length) и (i >= len) то res := -1 иначе res := 0 всё;
			если (j > длинаМассива(ucs) - 1) то j := длинаМассива(ucs) -1 всё;
			ucs[j] := 0
		кон GetUCS32Buf;

		проц {перекрыта}GetUCS32*(index : размерМЗ; перем ucs : Char32);
		перем i: размерМЗ;
		нач
			i := index - startpos; если (i < 0) или (i >= len) то ucs := 0 иначе ucs := buffer[i] всё;
		кон GetUCS32;

		(** Split the UnicodePiece at pos in text position and return right piece *)
		проц {перекрыта}Split*(pos : размерМЗ; перем right : Piece);
		перем mp : MemUnicodePiece; i, j : размерМЗ;
		нач
			если pos - startpos < len то
				(* create right part *)
				нов(mp);
				если attributes # НУЛЬ то mp.attributes := attributes.Clone() всё;
				если cstyle # НУЛЬ то mp.cstyle := cstyle всё;
				если pstyle # НУЛЬ то mp.pstyle := pstyle всё;
				если link # НУЛЬ то mp.link := link всё;
				нов(mp.buffer, len - (pos - startpos));
				mp.len := len - (pos - startpos); mp.startpos := pos;
				j := 0; нцДля i := pos - startpos до len - 1 делай mp.buffer[j] := buffer[i]; увел(j) кц;
				(* adjust own length *)
				len := (pos - startpos);
				если len <= 0 то
					ЛогЯдра.пСтроку8("BUG BUG BUG BUG BUG BUG BUG BUG"); ЛогЯдра.пВК_ПС;
				всё;
				(* linking *)
				mp.next := next; если next # НУЛЬ то next.prev := mp всё; mp.prev := сам; next := mp;
				right := mp
			иначе right := next
			всё
		кон Split;

		(** Merge right to self; return true if ok *)
		проц {перекрыта}Merge*(right : Piece) : булево;
		перем temp : PUCS32String; i, j : размерМЗ;
		нач
			если right = НУЛЬ то возврат ложь всё;
			если right = сам то ЛогЯдра.пСтроку8("Consistency Check in Texts Failed"); ЛогЯдра.пВК_ПС всё;
			если (right.len > 1) и (right.next = НУЛЬ) то возврат ложь всё; (* avoid overgreedily merging *)
			если  (right суть MemUnicodePiece) и (right # сам) и
				((attributes = НУЛЬ) и (right.attributes = НУЛЬ) или (attributes # НУЛЬ) и attributes.IsEqual(right.attributes)) и
				((cstyle = НУЛЬ) и (right.cstyle = НУЛЬ) и (pstyle = НУЛЬ) и (right.pstyle = НУЛЬ) или
				(cstyle # НУЛЬ) и cstyle.IsEqual(right.cstyle) и (pstyle # НУЛЬ) и pstyle.IsEqual(right.pstyle)) и
				(link = right.link) и
				(len < 1000) то
				нов(temp, len + right.len);
				нцДля i := 0 до len - 1 делай temp[i] := buffer[i] кц;
				просейТип right : MemUnicodePiece делай
					j := len; нцДля i := 0 до right.len - 1 делай temp[j] := right.buffer[i]; увел(j) кц;
				всё;
				buffer := temp;
				len := len + right.len; next := right.next; если next # НУЛЬ то next.prev := сам всё;
				возврат истина
			иначе
				возврат ложь
			всё
		кон Merge;

	кон MemUnicodePiece;

	ObjectPiece* = окласс(Piece)
	перем
		object* : динамическиТипизированныйУкль;

		проц &Init*;
		нач
			len := 1
		кон Init;

		(** Return a copy of the piece, prev/next pointers nil and pos 0 *)
		проц {перекрыта}Clone*() : Piece;
		перем p : ObjectPiece;
		нач
			нов(p);
			p.len := len;
			если attributes # НУЛЬ то p.attributes := attributes.Clone() всё;
			если cstyle # НУЛЬ то p.cstyle := cstyle всё;
			если pstyle # НУЛЬ то p.pstyle := pstyle всё;
			если link # НУЛЬ то p.link := link всё;
			p.object := object;
			возврат p
		кон Clone;

		проц {перекрыта}Split*(pos : размерМЗ; перем right : Piece);
		нач
			если pos - startpos < len то
				ЛогЯдра.пСтроку8("Should never happen"); ЛогЯдра.пВК_ПС;
			иначе right := next; (* KernelLog.String("Huga right is next"); KernelLog.Ln; *)
			всё
		кон Split;

		(** Merge right to self; return true if ok *)
		проц {перекрыта}Merge*(right : Piece) : булево;
		нач
			возврат ложь
		кон Merge;

	кон ObjectPiece;

	LabelPiece* = окласс(Piece)
	перем
		label* : Strings.String;

		проц &Init*;
		нач
			len := 1
		кон Init;

		(** Return a copy of the piece, prev/next pointers nil and pos 0 *)
		проц {перекрыта}Clone*() : Piece;
		перем p :  LabelPiece;
		нач
			нов(p);
			p.len := len;
			p.label := label;
			возврат p
		кон Clone;

		проц {перекрыта}Split*(pos : размерМЗ; перем right : Piece);
		нач
			если pos - startpos < len то
				ЛогЯдра.пСтроку8("Should never happen"); ЛогЯдра.пВК_ПС;
			иначе right := next; (* KernelLog.String("Huga right is next"); KernelLog.Ln; *)
			всё
		кон Split;

		(** Merge right to self; return true if ok *)
		проц {перекрыта}Merge*(right : Piece) : булево;
		нач
			возврат ложь
		кон Merge;
	кон LabelPiece;

	(* Used to translate an internal position into a display position and vice versa *)
	PositionTranslator* = проц {делегат} (pos : размерМЗ) : размерМЗ;

	(** a TextPosition is assigned to a text and positioned with SetPosition. If
		the text is changed after the position was set, the position is updated *)
	TextPosition* = окласс
	перем
		position : размерМЗ;
		data* : динамическиТипизированныйУкль;
		text- : UnicodeText;
		GetInternalPos, GetDisplayPos : PositionTranslator;
		nextInternalPos* : размерМЗ;

		проц &New*(t : UnicodeText);
		нач
			text := t; text.RegisterPositionObject(сам); position := 0;
		кон New;

		(** Listens for text changes *)
		проц Changed*(op: целМЗ; pos, len : размерМЗ);
		нач
			если TraceHard то
				ЛогЯдра.пСтроку8("TextPosition : ChangeRequest"); ЛогЯдра.пЦел64(op, 5); ЛогЯдра.пЦел64(pos, 5); ЛогЯдра.пЦел64(len, 5);ЛогЯдра.пВК_ПС;
			всё;

			если (position >= pos) и (op = OpInsert) то
				если ((GetInternalPos # НУЛЬ) и (GetDisplayPos # НУЛЬ)) то
					position := GetDisplayPos(nextInternalPos);
				иначе
					увел(position, len);
				всё;
			аесли (position >= pos) и (position <= pos + len)  и (op = OpDelete) то
				position := pos;
			аесли (position > pos) и (op = OpDelete) то
				если position < len то ЛогЯдра.пСтроку8("WRONG"); ЛогЯдра.пСтроку8(" pos ="); ЛогЯдра.пЦел64(pos, 5);
				ЛогЯдра.пСтроку8(" len ="); ЛогЯдра.пЦел64(len, 5);
				ЛогЯдра.пСтроку8(" position = "); ЛогЯдра.пЦел64(position, 0); ЛогЯдра.пВК_ПС;
				ЛогЯдра.пВК_ПС всё;
				умень(position, len)
			всё
		кон Changed;

		(** Position in elements from text start.  *)
		проц SetPosition*(pos : размерМЗ);
		нач
			если pos < 0 то pos := 0 аесли pos > text.GetLength() то pos := text.GetLength() всё;
			position := pos
		кон SetPosition;

		(** Returns position in elements from the text start *)
		проц GetPosition*(): размерМЗ;
		нач
			возврат position
		кон GetPosition;

		(* Sets the callback function for display-to-internal-position translation *)
		проц SetInternalPositionTranslator*(getInternalPos : PositionTranslator);
		нач
			GetInternalPos := getInternalPos;
		кон SetInternalPositionTranslator;

		(* Sets the callback function for internal-to-display-position translation *)
		проц SetDisplayPositionTranslator*(getDisplayPos : PositionTranslator);
		нач
			GetDisplayPos := getDisplayPos;
		кон SetDisplayPositionTranslator;
	кон TextPosition;

	(** a reader may not be shared by processes, must text must be hold by process *)
	TextReader* = окласс(TextPosition)
	перем
		piece : Piece;
		backwards : булево;
		eot- : булево;
		voff-, color-, bgcolor- : цел32;
		font- : FontInfo;
		attributes- : Attributes;
		cstyle- : CharacterStyle;
		pstyle- : ParagraphStyle;
		link- : Link;
		object- : динамическиТипизированныйУкль;

		проц &{перекрыта}New*(t : UnicodeText);
		нач
			New^(t); backwards := ложь;
		кон New;

		(* Clones the properties of an other reader to this reader *)
		проц CloneProperties*(конст otherReader : TextReader);
		нач
			voff := otherReader.voff;
			color := otherReader.color;
			bgcolor := otherReader.bgcolor;
			если font # НУЛЬ то font := otherReader.font.Clone(); всё;
			если otherReader.attributes # НУЛЬ то attributes := otherReader.attributes.Clone(); всё;
			если otherReader.cstyle # НУЛЬ то cstyle := otherReader.cstyle.Clone(); всё;
			если otherReader.pstyle # НУЛЬ то pstyle := otherReader.pstyle.Clone(); всё;
			если otherReader.link # НУЛЬ то link := Strings.NewString(otherReader.link^); всё;
			object := otherReader.object;
		кон CloneProperties;

		(** Listens for text changes *)
		проц {перекрыта}Changed*(op : целМЗ; pos, len : размерМЗ);
		нач
			Changed^(op, pos, len); piece := НУЛЬ
		кон Changed;

		проц ReadCh*(перем ucs32 : цел32);
		перем res : целМЗ; tfont: FontInfo;
			tempObj : ObjectPiece;
		нач
			eot := (backwards) и (position = 0) или (~backwards) и (position = text.GetLength());
			если eot то ucs32 := 0; возврат всё;
			если (piece = НУЛЬ) или (piece.startpos > position) или (piece.startpos + piece.len <= position) то
				text.FindPiece(position, piece);
				если (piece # НУЛЬ) и (piece суть ObjectPiece) то tempObj := piece(ObjectPiece); object := tempObj.object;
				аесли (piece # НУЛЬ) и (piece суть LabelPiece) то object := piece(LabelPiece);
				иначе object := НУЛЬ
				всё;
				если piece = НУЛЬ то res := -1; ucs32 := 0; возврат всё;
				attributes := piece.attributes;
				cstyle := piece.cstyle;
				pstyle := piece.pstyle;
				link := piece.link;
				если cstyle # НУЛЬ то
					voff := cstyle.baselineShift; color := cstyle.color; bgcolor := cstyle.bgColor;
					нов(tfont); копируйСтрокуДо0(cstyle.family, tfont.name); tfont.size := округлиВниз(FP1616.FixpToFloat(cstyle.size)); tfont.style := cstyle.style;
					font := tfont;
				аесли pstyle # НУЛЬ то
					voff := pstyle.charStyle.baselineShift; color := pstyle.charStyle.color; bgcolor := pstyle.charStyle.bgColor;
					нов(tfont); копируйСтрокуДо0(pstyle.charStyle.family, tfont.name); tfont.size := округлиВниз(FP1616.FixpToFloat(pstyle.charStyle.size)); tfont.style := pstyle.charStyle.style;
					font := tfont;
				аесли attributes # НУЛЬ то voff := attributes.voff; color := attributes.color; bgcolor := attributes.bgcolor; font := attributes.fontInfo
				иначе voff := 0; color := 0FFH; bgcolor := 0; font := НУЛЬ
				всё;
			всё;

			если TraceHard то
				если res # 0 то
					ЛогЯдра.пСтроку8("  piece "); ЛогЯдра.пЦел64(piece.startpos, 5); ЛогЯдра.пСтроку8(" piepst :"); ЛогЯдра.пЦел64(position, 5);
					ЛогЯдра.пВК_ПС;
					СТОП(99);
				всё;
			всё;
			если piece суть UnicodePiece то piece(UnicodePiece).GetUCS32(position, ucs32)
			аесли piece суть ObjectPiece то ucs32 := ObjectChar
			аесли piece суть LabelPiece то ucs32 := LabelChar
			всё;
			если backwards то умень(position) иначе увел(position) всё
		кон ReadCh;
		
		
		проц ReadCharJQ*(перем ch : UCS32.CharJQ);
		перем code : цел32;
		нач
			ReadCh(code);
			ch := UCS32.IntToCharJQ(code) кон ReadCharJQ;
		

		(** Position in elements from text start.  *)
		проц {перекрыта}SetPosition*(pos : размерМЗ);
		перем length : размерМЗ;
		нач
			length := text.GetLength();
			если pos < 0 то
				pos := 0;
			аесли pos > length то
				pos := length;
			всё;
			position := pos;
			eot := (backwards и (position = 0)) или (~backwards и (position = length));
		кон SetPosition;

		(** Direction the text is read. dir >= 0 --> forward; dir < 0 --> backwards
		      Backwards can be very slow depending on the text *)
		проц SetDirection*(dir : целМЗ);
		нач
			backwards := dir < 0;
			eot := (backwards и (position = 0)) или (~backwards и (position = text.GetLength()));
		кон SetDirection;

	кон TextReader;

	TextChangeInfo* = окласс
	перем
		timestamp* : цел32;
		op* : целМЗ;
		pos*, len* : размерМЗ;
	кон TextChangeInfo;

	UndoManager*= окласс

		проц InsertText*(pos: размерМЗ; text: Text);
		кон InsertText;

		проц DeleteText*(pos: размерМЗ; text: Text);
		кон DeleteText;

		проц BeginObjectChange*(pos: размерМЗ);
		кон BeginObjectChange;

		проц ObjectChanged*(pos, len: размерМЗ; type: целМЗ; obj: динамическиТипизированныйУкль);
		кон ObjectChanged;

		проц EndObjectChange*(len: размерМЗ; type: целМЗ; to: динамическиТипизированныйУкль);
		кон EndObjectChange;

		проц SetText*(text: Text);
		кон SetText;

		проц Undo*;
		кон Undo;

		проц Redo*;
		кон Redo;

		(** Called when the write lock on the associated text is released. Can be used to notify listeners
			that are interestes in the current number of available undos/redos *)
		проц InformListeners*;
		кон InformListeners;

	кон UndoManager;

тип
	(** UnicodeText offers an editable unicode text abstraction, basing on UnicodePiece *)
	UnicodeText* = окласс
	перем
		first : Piece;
		length : размерМЗ; (* в литерах *)
		nofPieces : размерМЗ;

		posObjects : Kernel.FinalizedCollection;
		pop: целМЗ; ppos, plen : размерМЗ;
		timestamp : цел32;
		upOp: целМЗ; upPos, upLen : размерМЗ;
		onTextChanged* : WMEvents.EventSource;
		lock : Locks.RWLock;
		pieceTableOk : булево;
		pieceTable : укль на массив из Piece;
		isUTF- : булево;	(* is false by default, which prevents the text from being reformatted if not utf *)

		um: UndoManager;

		проц &New*;
		нач
			нов(lock);
			если UsePieceTable то нов(pieceTable, 256) всё;
			pieceTableOk := ложь;
			нов(posObjects); timestamp := 0;
			upOp := -1; upPos := 0; upLen := 0;
			nofPieces := 0;
			isUTF := ложь;
			нов(onTextChanged, сам, onTextChangedStr, НУЛЬ, НУЛЬ);
		кон New;

		(* Marks the text as utf-formatted. Only utf-formatted texts are treated by the bidi algorithm. *)
		проц SetUTF*(utf : булево);
		нач
			если forceUTF то
				isUTF := истина;
			аесли unforceUTF то
				isUTF := ложь;
			иначе
				isUTF := utf;
			всё;
		кон SetUTF;

		проц SetUndoManager*(u: UndoManager);
		нач
			um := u;
			если um # НУЛЬ то
				um.SetText(сам)
			всё
		кон SetUndoManager;

		(** acquire a write lock on the object *)
		проц AcquireWrite*;
		нач
			lock.AcquireWrite
		кон AcquireWrite;

		(** release the write lock on the object *)
		проц ReleaseWrite*;
		перем removeLock : булево;
			op : целМЗ; pos, len : размерМЗ; localtimestamp : цел32;
		нач
			removeLock := lock.GetWLockLevel() = 1;
			если removeLock то op := upOp; pos := upPos; len := upLen; localtimestamp := GetTimestamp(); upOp := -1 всё;
			lock.ReleaseWrite;
			если removeLock и (op >= 0) то InformListeners(localtimestamp, op, pos, len) всё;
		кон ReleaseWrite;

		(** Returns TRUE if the calling thread owns the write lock for this text, FALSE otherwise *)
		проц HasWriteLock*() : булево;
		нач
			возврат lock.HasWriteLock();
		кон HasWriteLock;

		(** acquire a write lock on the object *)
		проц AcquireRead*;
		нач
			lock.AcquireRead
		кон AcquireRead;

		(** release the write lock on the object *)
		проц ReleaseRead*;
		нач
			lock.ReleaseRead
		кон ReleaseRead;

		(** Returns TRUE if the calling thread owns the read lock for this text, FALSE otherwise *)
		проц HasReadLock*() : булево;
		нач
			возврат lock.HasReadLock();
		кон HasReadLock;

		проц InformListeners(timestamp : цел32; op : целМЗ; pos, len : размерМЗ);
		перем updateInfo : TextChangeInfo; um : UndoManager;
		нач
			нов(updateInfo);
			updateInfo.timestamp := timestamp; updateInfo.op := op; updateInfo.pos := pos; updateInfo.len := len;
			onTextChanged.Call(updateInfo);
			um := сам.um;
			если (um # НУЛЬ) то um.InformListeners; всё;
		кон InformListeners;

		проц UpdatePieceTable;
		перем cur : Piece; len, i : размерМЗ;
		нач
			если длинаМассива(pieceTable^) < nofPieces то нов(pieceTable, nofPieces * 2) всё;
			len := длинаМассива(pieceTable^);
			cur := first; i := 0; pieceTable[0] := first;
			нцПока (cur # НУЛЬ) и (i < len) делай pieceTable[i] := cur; cur := cur.next; увел(i) кц;
			pieceTableOk := i = nofPieces;
			если ~pieceTableOk то ЛогЯдра.пЦел64(i, 0); ЛогЯдра.пСтроку8(" vs "); ЛогЯдра.пЦел64(nofPieces, 0); ЛогЯдра.пВК_ПС всё;
		кон UpdatePieceTable;

		(* Return the piece that contains pos or the last piece if pos is not found *)
		проц FindPiece(pos : размерМЗ; перем piece : Piece);
		перем a, b, m : размерМЗ;
		нач
			если UsePieceTable то
				если ~pieceTableOk то UpdatePieceTable всё
			всё;
			если pieceTableOk то
				a := 0; b := nofPieces - 1;
				утв(pieceTable[0] = first);
				нцПока (a < b) делай m := (a + b) DIV 2;
					piece := pieceTable[m];
					если piece.startpos + piece.len <= pos то a := m + 1 иначе b := m всё
				кц;
				piece := pieceTable[a];
				если piece = НУЛЬ то возврат всё;

				если ~(piece.startpos + piece.len >= pos) то
					если ложь (*debug*) то
						ЛогЯдра.пСтроку8("pos = "); ЛогЯдра.пЦел64(pos, 0); ЛогЯдра.пВК_ПС;
						ЛогЯдра.пСтроку8("startpos = "); ЛогЯдра.пЦел64(piece.startpos, 0);  ЛогЯдра.пВК_ПС;
						ЛогЯдра.пСтроку8("len = "); ЛогЯдра.пЦел64(piece.len, 0);  ЛогЯдра.пВК_ПС;
					всё;
				всё;

			иначе
				piece := first; если piece = НУЛЬ то возврат всё;
				нц
					если (piece.next = НУЛЬ) или (piece.startpos + piece.len > pos) то возврат всё;
					piece := piece.next
				кц
			всё
		кон FindPiece;

		проц SendPositionUpdate(obj: динамическиТипизированныйУкль; перем cont: булево);
		нач
			cont := истина;
			если obj суть TextPosition то
				obj(TextPosition).Changed(pop, ppos, plen)
			всё
		кон SendPositionUpdate;

		проц UpdatePositionObjects(op : целМЗ; pos, len : размерМЗ);
		нач
			сам.pop := op; сам.ppos := pos; сам.plen := len;
			posObjects.Enumerate(SendPositionUpdate)
		кон UpdatePositionObjects;

		проц AccumulateChanges(op : целМЗ; pos, len : размерМЗ);
		нач
			если upOp >= 0 то
				если (upOp = OpInsert) и (op = OpAttributes) и (pos = upPos) и (len = upLen) то (* ignore *)
				иначе upOp := OpMulti
				всё
			иначе upOp := op; upPos := pos; upLen := len
			всё;
		кон AccumulateChanges;

		(** Register a position object on the text. The TextPosition objects are automatically be updated if the text is changed.
			TextPosition objects are automatically unregistred by the garbage collector *)
		проц RegisterPositionObject*(po : TextPosition);
		нач
			posObjects.Add(po, НУЛЬ)
		кон RegisterPositionObject;

		(** Split the piece list at pos and return left and right. left or right can be NIL if at end/begin *)
		проц GetSplittedPos(pos : размерМЗ; перем left, right: Piece);
		перем p, t : Piece;
		нач
			FindPiece(pos, p);
			если p = НУЛЬ то left := НУЛЬ; right := НУЛЬ; возврат всё;
			если p.startpos = pos то left := p.prev; right := p
			иначе t := p.next; left := p; p.Split(pos, right);
				если right # t то
					pieceTableOk := ложь; увел(nofPieces)
				всё
			всё
		кон GetSplittedPos;

		(** Insert a piece at position pos into the text. Index in characters/objects *)
		проц InsertPiece*(pos : размерМЗ; n : Piece);
		перем l, r, cur : Piece;
			chpos, chlen : размерМЗ;
		нач
			утв(lock.HasWriteLock(), 3000);
			увел(timestamp);
			если pos > length то pos := length всё;

			увел(length, n.len);
			chpos := pos; chlen := n.len;
			если first = НУЛЬ то n.next := НУЛЬ; n.prev := НУЛЬ; first := n; nofPieces := 1; pieceTableOk := ложь
			иначе
				GetSplittedPos(pos, l, r);
				если l = НУЛЬ то n.next := first; first.prev := n; first := n
				иначе l.next := n; n.prev := l; n.next := r; если r # НУЛЬ то r.prev := n всё
				всё;

				увел(nofPieces);
				если r = НУЛЬ то
				(* optimize loading by re-establishing the pieceTable *)
					если nofPieces < длинаМассива(pieceTable^) то pieceTable[nofPieces - 1] := n
					иначе pieceTableOk := ложь
					всё
				иначе pieceTableOk := ложь
				всё;
				cur := n; нцПока cur # НУЛЬ делай cur.startpos := pos; увел(pos, cur.len); cur := cur.next кц;
				cur := n; если cur.Merge(cur.next) то умень(nofPieces); pieceTableOk := ложь всё;
				если (cur.prev # НУЛЬ) и cur.prev.Merge(cur) то умень(nofPieces); pieceTableOk := ложь всё
			всё;
			AccumulateChanges(OpInsert, chpos, chlen);
			UpdatePositionObjects(OpInsert, chpos, chlen)
		кон InsertPiece;

		проц InsertObject*(obj: XML.Element);
		кон InsertObject;

		(** Insert a UCS32 buffer at position pos into the text. Index in characters/objects
		См. также InsertStringJQ *)
		проц InsertUCS32* (pos : размерМЗ; конст buf : UCS32String);
		перем n : MemUnicodePiece; p : Piece; t: Text;
		нач
			утв(lock.HasWriteLock(), 3000);
			если buf[0] = 0 то возврат всё;
			если pos > GetLength() то pos := GetLength() всё;
			нов(n); n.SetBuf(buf);
			FindPiece(pos, p);
			если (p # НУЛЬ) то
				n.attributes := p.attributes;
				n.cstyle := p.cstyle;
				n.pstyle := p.pstyle;
				n.link := p.link;
			всё;
			если um # НУЛЬ то
				нов(t);
				t.AcquireWrite;
				t.InsertUCS32(0, buf);
				um.InsertText(pos, t);
				t.ReleaseWrite;
			всё;
			InsertPiece(pos, n);
		кон InsertUCS32;


		(** См. InsertUCS32 *)
		проц InsertStringJQ* (pos : размерМЗ; конст buf : UCS32.StringJQ);
		перем n : MemUnicodePiece; p : Piece; t: Text;
		нач
			утв(lock.HasWriteLock(), 3000);
			если buf[0].UCS32CharCode = 0 то возврат всё;
			если pos > GetLength() то pos := GetLength() всё;
			нов(n); n.SetBufFromStringJQ(buf);
			FindPiece(pos, p);
			если (p # НУЛЬ) то
				n.attributes := p.attributes;
				n.cstyle := p.cstyle;
				n.pstyle := p.pstyle;
				n.link := p.link;
			всё;
			если um # НУЛЬ то
				нов(t);
				t.AcquireWrite;
				t.InsertStringJQ(0, buf);
				um.InsertText(pos, t);
				t.ReleaseWrite;
			всё;
			InsertPiece(pos, n);
		кон InsertStringJQ;



		проц InsertUTF8*(pos : размерМЗ; конст buf : массив из симв8);
		перем n : MemUnicodePiece; p : Piece; text : Text;
		нач
			утв(lock.HasWriteLock(), 3000);
			если (buf[0] # 0X) то
				если (pos > GetLength()) то pos := GetLength(); всё;
				нов(n); n.SetBufAsUTF8(buf);
				FindPiece(pos, p);
				если (p # НУЛЬ) то
					n.attributes := p.attributes;
					n.cstyle := p.cstyle;
					n.pstyle := p.pstyle;
					n.link := p.link;
				всё;
				если (um # НУЛЬ) то
					нов(text);
					text.AcquireWrite;
					text.InsertUTF8(0, buf);
					um.InsertText(pos, text);
					text.ReleaseWrite;
				всё;
				InsertPiece(pos, n);
			всё;
		кон InsertUTF8;

		(** Delete len characters from position pos  *)
		проц Delete* (pos, len : размерМЗ);
		перем al, ar, bl, br, cur: Piece; p : размерМЗ; t: Text;
		нач
			утв(lock.HasWriteLock(), 3000);
			увел(timestamp);
			(* don't do illegal changes *)
			если (len <= 0) или (pos < 0) или (pos + len > length) или (first = НУЛЬ) то возврат всё;
			если length = 0 то first := НУЛЬ; nofPieces := 0; pieceTableOk := ложь
			иначе
				GetSplittedPos(pos, al, ar);
				GetSplittedPos(pos + len, bl, br);

				если um # НУЛЬ то
					нов(t);
					t.AcquireWrite;
					t.CopyFromText(сам, pos, len, 0);
					um.DeleteText(pos, t);
					t.ReleaseWrite;
				всё;

				если al # НУЛЬ то
					cur := al.next; нцПока (cur # НУЛЬ) и (cur # br) делай pieceTableOk := ложь; умень(nofPieces); cur := cur.next кц;
					al.next := br; если br # НУЛЬ то br.prev := al всё;
					cur := al
				иначе
					cur := first; нцПока (cur # НУЛЬ) и (cur # br) делай pieceTableOk := ложь; умень(nofPieces); cur := cur.next кц;
					если br # НУЛЬ то br.startpos := 0; br.prev := НУЛЬ всё;
					first := br; cur := first
				всё;
				если cur # НУЛЬ то
					(* update the start positions of all the following pieces *)
					p := cur.startpos; нцПока cur # НУЛЬ делай cur.startpos := p; увел(p, cur.len); cur := cur.next кц;
					если (al # НУЛЬ) и al.Merge(al.next) то умень(nofPieces) всё
				всё
			всё;
			умень(length, len);
			если (first = НУЛЬ) и (length # 0) то ЛогЯдра.пСтроку8("ERROR : No text but length > 0 ! "); ЛогЯдра.пВК_ПС всё;
			AccumulateChanges(OpDelete, pos, len);
			UpdatePositionObjects(OpDelete, pos, len)
		кон Delete;

		проц CopyFromText*(fromText: UnicodeText; fromPos, len, destPos : размерМЗ);
		перем fromP, toP, curP : Piece; pos : размерМЗ; t: Text;
		нач
			утв(lock.HasWriteLock(), 3000);
			утв(fromText.lock.HasReadLock(), 3000);
			утв(fromText # НУЛЬ);
			утв(fromPos >= 0);
			утв(len >= 0);
			утв(fromPos + len <= fromText.length);
			утв(destPos >= 0);
			утв((fromText # сам) или ((destPos < fromPos) или (destPos >  fromPos + len))); (* Avoid recursive copy *)

			fromText.GetSplittedPos(fromPos, curP, fromP);
			fromText.GetSplittedPos(fromPos + len, curP, toP);

			curP := fromP; pos := destPos;

			нцПока (curP # НУЛЬ) и (curP # toP) делай
				InsertPiece(pos, curP.Clone());
				увел(pos, curP.len);
				curP := curP.next
			кц;

			если um # НУЛЬ то
				нов(t);
				t.AcquireWrite;
				t.CopyFromText(сам, destPos, len, 0);
				um.InsertText(destPos, t);
				t.ReleaseWrite;
			всё;
		кон CopyFromText;

		проц AttributeChanger(перем attr : Attributes; userData : динамическиТипизированныйУкль);
		нач
			если (userData # НУЛЬ) и (userData суть Attributes) то attr := userData(Attributes) всё;
		кон AttributeChanger;

		(** Set piece attributes for charater at position pos to pos + len. [Must hold write lock] *)
		проц SetAttributes*(pos, len : размерМЗ; attr : Attributes);
		нач
			UpdateAttributes(pos, len, AttributeChanger, attr)
		кон SetAttributes;

		(** Calls the attributeChanger procedure for all pieces so the attributes can be changed. userData
			is forwarded to the attributeChanger as context.
		 [Must hold write lock] *)
		проц UpdateAttributes*(pos, len : размерМЗ; attributeChanger : AttributeChangerProc; userData : динамическиТипизированныйУкль);
		перем al, ar, bl, br, cur : Piece; attributes: Attributes;
		нач
			если len = 0 то возврат всё;
			(* don't do illegal changes *)
			если (len <= 0) или (pos < 0) или (pos + len > length) или (first = НУЛЬ) то возврат всё;
			утв(attributeChanger # НУЛЬ);
			утв(lock.HasWriteLock(), 3000);
			увел(timestamp);
			GetSplittedPos(pos, al, ar);
			GetSplittedPos(pos + len, bl, br);
			cur := ar;
			если um # НУЛЬ то um.BeginObjectChange(pos) всё;
			нцПока (cur # br)  делай
				attributeChanger(cur.attributes, userData);
				attributes := cur.attributes;
				нцДо
					если um # НУЛЬ то
						если cur.attributes = НУЛЬ то
							um.ObjectChanged(cur.startpos, cur.len, 102, НУЛЬ)
						иначе
							um.ObjectChanged(cur.startpos, cur.len, 102, cur.attributes.Clone())
						всё
					всё;
					cur := cur.next;
				кцПри (cur = br) или (cur.attributes # attributes);
			кц;
			если um # НУЛЬ то
				если userData # НУЛЬ то
					um.EndObjectChange(len, 102, userData(Attributes).Clone())
				иначе
					um.EndObjectChange(len, 102, НУЛЬ)
				всё
			всё;
			(* try merging *)
			нцПока (cur # НУЛЬ) и (cur # al) делай
				если cur.prev # НУЛЬ то
					если cur.prev.Merge(cur) то умень(nofPieces); pieceTableOk := ложь всё
				всё;
				cur := cur.prev
			кц;
			AccumulateChanges(OpAttributes, pos, len);
			UpdatePositionObjects(OpAttributes, pos, len)
		кон UpdateAttributes;

		(** Set piece character style for character at position pos to pos + len. [Must hold lock] *)
		проц SetCharacterStyle*(pos, len : размерМЗ; cstyle : CharacterStyle);
		перем al, ar, bl, br, cur : Piece;
		нач
			если len = 0 то возврат всё;
			(* don't do illegal changes *)
			если (len <= 0) или (pos < 0) или (pos + len > length) или (first = НУЛЬ) то возврат всё;
			утв(lock.HasWriteLock(), 3000);
			увел(timestamp);
			GetSplittedPos(pos, al, ar);
			GetSplittedPos(pos + len, bl, br);
			cur := ar;
			если um # НУЛЬ то um.BeginObjectChange(pos) всё;
			нцПока cur # br делай
				если um # НУЛЬ то um.ObjectChanged(cur.startpos, cur.len, 100, cur.cstyle) всё;
				cur.cstyle := cstyle;
				cur := cur.next
			кц;
			если um # НУЛЬ то um.EndObjectChange(len, 100, cstyle)  всё;
			(* try merging *)
			нцПока (cur # НУЛЬ) и (cur # al) делай
				если cur.prev # НУЛЬ то
					если cur.prev.Merge(cur) то умень(nofPieces); pieceTableOk := ложь всё
				всё;
				cur := cur.prev
			кц;
			AccumulateChanges(OpAttributes, pos, len);
			UpdatePositionObjects(OpAttributes, pos, len)
		кон SetCharacterStyle;

		(** Set piece paragraph style for charater at position pos to pos + len. [Must hold lock] *)
		проц SetParagraphStyle*(pos, len : размерМЗ; pstyle : ParagraphStyle);
		перем al, ar, bl, br, cur : Piece;
		нач
			если len = 0 то возврат всё;
			(* don't do illegal changes *)
			если (len <= 0) или (pos < 0) или (pos + len > length) или (first = НУЛЬ) то возврат всё;
			утв(lock.HasWriteLock(), 3000);
			увел(timestamp);
			GetSplittedPos(pos, al, ar);
			GetSplittedPos(pos + len, bl, br);
			cur := ar;
			если um # НУЛЬ то um.BeginObjectChange(pos) всё;
			нцПока cur # br делай
				если um # НУЛЬ то um.ObjectChanged(cur.startpos, cur.len, 101, cur.pstyle) всё;
				cur.pstyle := pstyle;
				cur := cur.next
			кц;
			если um # НУЛЬ то um.EndObjectChange(len, 101, pstyle)  всё;
			(* try merging *)
			нцПока (cur # НУЛЬ) и (cur # al) делай
				если cur.prev # НУЛЬ то
					если cur.prev.Merge(cur) то умень(nofPieces); pieceTableOk := ложь всё
				всё;
				cur := cur.prev
			кц;
			AccumulateChanges(OpAttributes, pos, len);
			UpdatePositionObjects(OpAttributes, pos, len)
		кон SetParagraphStyle;

		(** Set piece link for charater at position pos to pos + len. [Must hold lock] *)
		проц SetLink*(pos, len : размерМЗ; link :Link);
		перем al, ar, bl, br, cur : Piece;
		нач
			если TraceHard то
				ЛогЯдра.пСтроку8("Setting Link: "); ЛогЯдра.пСтроку8("pos= "); ЛогЯдра.пЦел64(pos, 0);
				ЛогЯдра.пСтроку8(" length= "); ЛогЯдра.пЦел64(len, 0); ЛогЯдра.пВК_ПС;
			всё;
			если len = 0 то возврат всё;
			(* don't do illegal changes *)
			если (len <= 0) или (pos < 0) или (pos + len > length) или (first = НУЛЬ) то возврат всё;
			утв(lock.HasWriteLock(), 3000);
			увел(timestamp);
			GetSplittedPos(pos, al, ar);
			GetSplittedPos(pos + len, bl, br);
			cur := ar;
			нцПока cur # br делай cur.link := link; cur := cur.next кц;
			(* try merging *)
			нцПока (cur # НУЛЬ) и (cur # al) делай
				если cur.prev # НУЛЬ то
					если cur.prev.Merge(cur) то умень(nofPieces); pieceTableOk := ложь всё
				всё;
				cur := cur.prev
			кц;
			AccumulateChanges(OpAttributes, pos, len);
			UpdatePositionObjects(OpAttributes, pos, len)
		кон SetLink;

		(** Return length in characters [Must hold lock]*)
		проц GetLength* () : размерМЗ;
		нач
			утв(lock.HasReadLock(), 3000);
			возврат length
		кон GetLength;

		(** Return the current timestamp [Must hold lock].
		The timestamp can be used to check if an asynchronous change notification reflects the last change. Text
		viewers can use this knowledge to incrementally update the layout. If the notification timestamp #
		GetTimestamp then a full update is needed *)
		проц GetTimestamp*() : цел32;
		нач
			утв(lock.HasReadLock(), 3000);
			возврат timestamp
		кон GetTimestamp;

		проц CheckHealth*;
		перем cur : Piece;
			pos, i, nof : размерМЗ; errors : булево;
		нач
			утв(lock.HasReadLock(), 3000);
			nof := 0; pos := 0; cur := first; i := 0; errors := ложь;
			нцПока cur # НУЛЬ делай
				увел(nof);
				если cur.startpos # pos то
					ЛогЯдра.пСтроку8("Piece #"); ЛогЯдра.пЦел64(i, 4); ЛогЯдра.пСтроку8(" has wrong start pos"); ЛогЯдра.пВК_ПС;
					errors := истина
				всё;
				если cur.len = 0 то
					ЛогЯдра.пСтроку8("Piece #"); ЛогЯдра.пЦел64(i, 4); ЛогЯдра.пСтроку8(" has zero length"); ЛогЯдра.пВК_ПС;
					errors := истина
				всё;
				pos := pos + cur.len;
				cur := cur.next; увел(i);
			кц;

			если pos # length то
				ЛогЯдра.пСтроку8("Piece-List-Length is inconsistent"); ЛогЯдра.пВК_ПС;
				ЛогЯдра.пСтроку8("Measured length "); ЛогЯдра.пЦел64(pos, 4); ЛогЯдра.пВК_ПС;
				ЛогЯдра.пСтроку8("Internal length "); ЛогЯдра.пЦел64(length, 4); ЛогЯдра.пВК_ПС;

				errors := истина
			всё;
			если nof # nofPieces то errors := истина; ЛогЯдра.пСтроку8("ERROR : piece count failed");  ЛогЯдра.пВК_ПС;
				ЛогЯдра.пСтроку8(" nof = "); ЛогЯдра.пЦел64(nof, 0); ЛогЯдра.пСтроку8(" nofPieces = "); ЛогЯдра.пЦел64(nofPieces, 0); ЛогЯдра.пВК_ПС
			всё;
			если ~errors то ЛогЯдра.пСтроку8("Piece list is healthy"); ЛогЯдра.пВК_ПС;
			иначе ЛогЯдра.пСтроку8("!!! Piece list contains errors !!!!"); ЛогЯдра.пВК_ПС
			всё;
		кон CheckHealth;

		проц DumpPieces*;
		перем cur : Piece; 	buf : PUCS32String;
		нач
			cur := first;
			нов(buf, 128);
			если first = НУЛЬ то ЛогЯдра.пСтроку8("Empty piece list..."); ЛогЯдра.пВК_ПС всё;
			нцПока cur # НУЛЬ делай
				ЛогЯдра.пСтроку8("Piece pos = "); ЛогЯдра.пЦел64(cur.startpos, 5); ЛогЯдра.пСтроку8(" len "); ЛогЯдра.пЦел64(cur.len, 5);
				если cur.attributes # НУЛЬ то
					ЛогЯдра.пСтроку8(" [Attributes : color = ");ЛогЯдра.п16ричное(cur.attributes.color, 8);
					ЛогЯдра.пСтроку8(", bgcolor = "); ЛогЯдра.п16ричное(cur.attributes.bgcolor, 8); ЛогЯдра.пСтроку8(" ]");
				всё;
				если cur суть UnicodePiece то ЛогЯдра.пСтроку8("[unicode]")
				аесли cur суть ObjectPiece то ЛогЯдра.пСтроку8("[object]")
				всё;
				 ЛогЯдра.пВК_ПС;
				cur := cur.next
			кц
		кон DumpPieces;
	кон UnicodeText;

	Text* = UnicodeText;

перем
	clipboard* : UnicodeText;
	onTextChangedStr : Strings.String;

	lastSelText : Text;
	lastSelFrom, lastSelTo : TextPosition;

	lastText : Text;
	onLastSelectionChanged-,
	onLastTextChanged- : WMEvents.EventSource;

	pStyles : ParagraphStyleArray; nofPStyles : размерМЗ;
	cStyles : CharacterStyleArray; nofCStyles : размерМЗ;

	forceUTF*, unforceUTF* : булево;

(* predefined attributes ( fron Configuration.XML ) *)
	defaultAttributes- : Attributes;

(** Insert the given Paragraph Style into the Paragraph Style Array *)
проц AddParagraphStyle*(style: ParagraphStyle);
перем
	newStyles: ParagraphStyleArray;
	oldStyle: ParagraphStyle;
	cStyle: CharacterStyle;
	i : размерМЗ;
нач
	oldStyle := GetParagraphStyleByName(style.name);
	если (oldStyle = НУЛЬ) то								(* style does not exist yet - create one *)
		увел(nofPStyles);
		если nofPStyles > длинаМассива(pStyles) то
			нов(newStyles, длинаМассива(pStyles) * 2);
			нцДля i := 0 до длинаМассива(pStyles)-1 делай newStyles[i] := pStyles[i]; кц;
			pStyles := newStyles;
		всё;
		pStyles[nofPStyles-1] := style;
	иначе												(* style does exist - only update style *)
		oldStyle.alignment := style.alignment;
		oldStyle.firstIndent := style.firstIndent;
		oldStyle.leftIndent := style.leftIndent;
		oldStyle.rightIndent := style.rightIndent;
		oldStyle.spaceBefore := style.spaceBefore;
		oldStyle.spaceAfter := style.spaceAfter;
		cStyle := GetCharacterStyleByName(style.charStyle.name);
		если cStyle # НУЛЬ то	oldStyle.charStyle := cStyle; всё;
		копируйСтрокуДо0(style.tabStops, oldStyle.tabStops);
	всё;
кон AddParagraphStyle;

(** Remove the given Paragraph Style from the Paragraph Style Array *)
проц RemoveParagraphStyle*(style: ParagraphStyle);
перем i : размерМЗ;
нач
	i := 0; нцПока (i < nofPStyles) и (pStyles[i] # style) делай увел(i) кц;
	если i < nofPStyles то
		нцПока (i < nofPStyles-1) делай pStyles[i] := pStyles[i+1]; увел(i); кц;
		умень(nofPStyles);
		pStyles[nofPStyles] := НУЛЬ;
	всё;
кон RemoveParagraphStyle;

(** Return the Paragraph Style with the given Name if any *)
проц GetParagraphStyleByName*(конст name: массив из симв8): ParagraphStyle;
перем
	styleObject: ParagraphStyle;
	i : размерМЗ;
	found : булево;
	match: Strings.String;
нач
	styleObject := НУЛЬ;
	i := 0; found := ложь;
	нцПока ((i < nofPStyles) и ~found) делай
		match := Strings.NewString(pStyles[i].name);
		если Strings.Match(match^, name) то
			styleObject := pStyles[i]; found := истина;
		всё;
		увел(i);
	кц;
	возврат styleObject;
кон GetParagraphStyleByName;

(** Insert the given Character Style into the Character Style Array *)
проц AddCharacterStyle*(style: CharacterStyle);
перем
	newStyles: CharacterStyleArray;
	oldStyle: CharacterStyle;
	i : размерМЗ;
нач
	oldStyle := GetCharacterStyleByName(style.name);
	если (oldStyle = НУЛЬ) то								(* style does not exist yet - create one *)
		увел(nofCStyles);
		если nofCStyles > длинаМассива(cStyles) то
			нов(newStyles, длинаМассива(cStyles) * 2);
			нцДля i := 0 до длинаМассива(cStyles)-1 делай newStyles[i] := cStyles[i]; кц;
			cStyles := newStyles;
		всё;
		cStyles[nofCStyles-1] := style;
	иначе												(* style does exist - only update style *)
		если ~oldStyle.IsEqual(style) то
			oldStyle.fontcache := НУЛЬ;
			копируйСтрокуДо0(style.family, oldStyle.family);
			oldStyle.style := style.style;
			oldStyle.size := style.size;
			oldStyle.leading := style.leading;
			oldStyle.baselineShift := style.baselineShift;
			oldStyle.color := style.color;
			oldStyle.bgColor := style.bgColor;
			oldStyle.tracking := style.tracking;
			oldStyle.scaleHorizontal := style.scaleHorizontal;
			oldStyle.scaleVertical := style.scaleVertical;
		всё;
	всё;
кон AddCharacterStyle;

(** Remove the given Character Style from  the Character Style Array *)
проц RemoveCharacterStyle*(style: CharacterStyle);
перем i : размерМЗ;
нач
	i := 0; нцПока (i < nofCStyles) и (cStyles[i] # style) делай увел(i) кц;
	если i < nofCStyles то
		нцПока (i < nofCStyles-1) делай cStyles[i] := cStyles[i+1]; увел(i); кц;
		умень(nofCStyles);
		cStyles[nofCStyles] := НУЛЬ;
	всё;
кон RemoveCharacterStyle;

(** Returns the Character Style with the given Name if any *)
проц GetCharacterStyleByName*(конст name: массив из симв8): CharacterStyle;
перем
	styleObject: CharacterStyle;
	i : размерМЗ;
	found : булево;
	match: Strings.String;
нач
	styleObject := НУЛЬ;
	i := 0; found := ложь;
	нцПока ((i < nofCStyles) и ~found) делай
		match := Strings.NewString(cStyles[i].name);
		если Strings.Match(match^, name) то
			styleObject := cStyles[i]; found := истина;
		всё;
		увел(i);
	кц;
	возврат styleObject;
кон GetCharacterStyleByName;

проц GetCharacterStyleArray*(): CharacterStyleArray;
нач
	возврат cStyles;
кон GetCharacterStyleArray;

проц GetParagraphStyleArray*(): ParagraphStyleArray;
нач
	возврат pStyles;
кон GetParagraphStyleArray;

(* loads the default styles from the default-style XML *)
проц InitDefaultStyles;
перем reader : Files.Reader; f : Files.File;
нач
	(* Load Default Styles *)
	f := Files.Old("DefaultTextStyles.XML");
	если f = НУЛЬ то возврат всё;
	нов(reader, f, 0);
	LoadStyles(reader, ложь);
	(* Load User Styles *)
	f := Files.Old("UserTextStyles.XML");
	если f = НУЛЬ то возврат всё;
	нов(reader, f, 0);
	LoadStyles(reader, ложь);
кон InitDefaultStyles;

(* loads the styles from the given reader *)
проц LoadStyles*(r: Потоки.Чтец; verbose: булево);
перем
	parser : XMLParser.Parser;
	scanner : XMLScanner.Scanner;
	defaultStyles : XML.Document;
	root: XML.Element;
	content : XMLObjects.Enumerator;
	ptr : динамическиТипизированныйУкль;
	str: Strings.String;
	cStyle : CharacterStyle;
	pStyle : ParagraphStyle;
	tempReal: вещ64; tempInt: цел32; tempRes : целМЗ;
нач
	нов(scanner, r);
	нов(parser, scanner);
	defaultStyles := parser.Parse();

	root := defaultStyles.GetRoot();
	content := root.GetContents(); content.Reset();
	нцПока content.HasMoreElements() делай
		ptr := content.GetNext();
		если ptr суть XML.Element то
			str := ptr(XML.Element).GetName();

			если (str # НУЛЬ) и (str^ = "character-style") то					(* character styles *)
				нов(cStyle);
				str := ptr(XML.Element).GetAttributeValue("name"); если str # НУЛЬ то копируйСтрокуДо0(str^, cStyle.name) всё;
				str := ptr(XML.Element).GetAttributeValue("font-family"); если str # НУЛЬ то копируйСтрокуДо0(str^, cStyle.family) всё;
				str := ptr(XML.Element).GetAttributeValue("font-style");
				если str # НУЛЬ то
					если (str^ = "0") то cStyle.style := {};
					аесли (str^ = "1") то cStyle.style := {0};
					аесли (str^ = "2") то cStyle.style := {1};
					аесли (str^ = "3") то cStyle.style := {0,1};
					иначе cStyle.style := {};
					всё;
				всё;
				str := ptr(XML.Element).GetAttributeValue("font-size"); если str # НУЛЬ то Strings.StrToFloat(str^, tempReal); cStyle.size := FP1616.FloatToFixp(устарПреобразуйКБолееУзкомуЦел(tempReal)); всё;
				str := ptr(XML.Element).GetAttributeValue("leading"); если str # НУЛЬ то Strings.StrToFloat(str^, tempReal); cStyle.leading := FP1616.FloatToFixp(устарПреобразуйКБолееУзкомуЦел(tempReal)); всё;
				str := ptr(XML.Element).GetAttributeValue("baseline-shift"); если str # НУЛЬ то Strings.StrToFloat(str^, tempReal); cStyle.baselineShift := FP1616.FloatToFixp(устарПреобразуйКБолееУзкомуЦел(tempReal)); всё;
				str := ptr(XML.Element).GetAttributeValue("color"); если str # НУЛЬ то Strings.HexStrToInt(str^, tempInt, tempRes); cStyle.color := tempInt; всё;
				str := ptr(XML.Element).GetAttributeValue("bgcolor"); если str # НУЛЬ то Strings.HexStrToInt(str^, tempInt, tempRes); cStyle.bgColor := tempInt; всё;
				str := ptr(XML.Element).GetAttributeValue("tracking"); если str # НУЛЬ то Strings.StrToFloat(str^, tempReal); cStyle.tracking := FP1616.FloatToFixp(устарПреобразуйКБолееУзкомуЦел(tempReal)); всё;
				str := ptr(XML.Element).GetAttributeValue("h-scale"); если str # НУЛЬ то Strings.StrToFloat(str^, tempReal); cStyle.scaleHorizontal := FP1616.FloatToFixp(устарПреобразуйКБолееУзкомуЦел(tempReal)); всё;
				str := ptr(XML.Element).GetAttributeValue("v-scale"); если str # НУЛЬ то Strings.StrToFloat(str^, tempReal); cStyle.scaleVertical := FP1616.FloatToFixp(устарПреобразуйКБолееУзкомуЦел(tempReal)); всё;
				AddCharacterStyle(cStyle);									(* Load the Style into Texts *)
				если verbose то ЛогЯдра.пСтроку8("Texts Loading Character Style: "); ЛогЯдра.пСтроку8(cStyle.name); ЛогЯдра.пВК_ПС; всё;

			аесли (str # НУЛЬ) и (str^ = "paragraph-style") то				(* paragraph styles *)
				нов(pStyle);
				str := ptr(XML.Element).GetAttributeValue("name"); если str # НУЛЬ то копируйСтрокуДо0(str^, pStyle.name) всё;
				str := ptr(XML.Element).GetAttributeValue("alignment"); если str # НУЛЬ то Strings.StrToInt(str^, pStyle.alignment) всё;
				str := ptr(XML.Element).GetAttributeValue("first-indent"); если str # НУЛЬ то Strings.StrToFloat(str^, tempReal); pStyle.firstIndent := FP1616.FloatToFixp(устарПреобразуйКБолееУзкомуЦел(tempReal)); всё;
				str := ptr(XML.Element).GetAttributeValue("left-indent"); если str # НУЛЬ то Strings.StrToFloat(str^, tempReal); pStyle.leftIndent := FP1616.FloatToFixp(устарПреобразуйКБолееУзкомуЦел(tempReal)); всё;
				str := ptr(XML.Element).GetAttributeValue("right-indent"); если str # НУЛЬ то Strings.StrToFloat(str^, tempReal); pStyle.rightIndent :=  FP1616.FloatToFixp(устарПреобразуйКБолееУзкомуЦел(tempReal)); всё;
				str := ptr(XML.Element).GetAttributeValue("space-before"); если str # НУЛЬ то Strings.StrToFloat(str^, tempReal); pStyle.spaceBefore := FP1616.FloatToFixp(устарПреобразуйКБолееУзкомуЦел(tempReal)); всё;
				str := ptr(XML.Element).GetAttributeValue("space-after"); если str # НУЛЬ то Strings.StrToFloat(str^, tempReal); pStyle.spaceAfter := FP1616.FloatToFixp(устарПреобразуйКБолееУзкомуЦел(tempReal)); всё;
				str := ptr(XML.Element).GetAttributeValue("character-style");
				если str # НУЛЬ то
					cStyle := GetCharacterStyleByName(str^);
					если cStyle # НУЛЬ то pStyle.charStyle := cStyle; всё;
				всё;
				str := ptr(XML.Element).GetAttributeValue("tab-stops"); если str # НУЛЬ то копируйСтрокуДо0(str^, pStyle.tabStops) всё;
				AddParagraphStyle(pStyle);									(* Load the Style into Texts *)
				если verbose то ЛогЯдра.пСтроку8("Texts Loading Paragraph Style: "); ЛогЯдра.пСтроку8(pStyle.name); ЛогЯдра.пВК_ПС; всё;
			всё;
		всё;
	кц;
кон LoadStyles;

проц SetLastSelection*(text : Text; from, to : TextPosition);
нач
	утв((text # НУЛЬ) и (from # НУЛЬ) и (to # НУЛЬ));
	нач {единолично}
		lastSelText := text; lastSelFrom := from; lastSelTo := to
	кон;
	onLastSelectionChanged.Call(text)
кон SetLastSelection;

проц ClearLastSelection*;
нач {единолично}
	lastSelText := НУЛЬ; lastSelFrom := НУЛЬ; lastSelTo := НУЛЬ
кон ClearLastSelection;

проц GetLastSelection*(перем text : Text; перем from, to : TextPosition) : булево;
нач {единолично}
	text := lastSelText; from := lastSelFrom; to := lastSelTo;
	возврат text # НУЛЬ
кон GetLastSelection;

проц SetLastText*(text : Text);
нач
	нач {единолично}
		lastText := text
	кон;
	onLastTextChanged.Call(text)
кон SetLastText;

проц GetLastText*() : Text;
нач {единолично}
	возврат lastText
кон GetLastText;


проц IzTextsTextVUTF16*( text: Text ) : UCS2.PString;
перем
	builder: UCS2.UCS2StringBuilder;
	r: TextReader;
	textPos := 0, textLen: размерМЗ;
	codePoint : Char32;
нач
	утв(( text # НУЛЬ ) и ( text.HasReadLock( )));
	textLen := text.GetLength( );
	если textLen > 0 то
		нов( builder, textLen + ( textLen DIV 8 + 1 ));
		нов( r, text );
		нцПока ( textPos < textLen ) делай
			r.ReadCh( codePoint );
			если ( codePoint > 0 ) то
				если codePoint = UCS32.KodLF то (* LF -> CRLF *)
					builder.AddChar( UCS32.KodCR );
				всё;
				если codePoint <= 0xFFFF то
					builder.AddChar( бцел16( codePoint ));
				аесли codePoint <= 0x10FFFF то
					builder.AddChar( UCS2.UTF16Lead( codePoint ));
					builder.AddChar( UCS2.UTF16Trail( codePoint ));
				иначе
					builder.AddChar( UCS2.ReplacementChar.UCS2CharCode );
				всё;
			всё;
			увел( textPos );
		кц;
		возврат builder.GetString()
	иначе
		возврат НУЛЬ всё кон IzTextsTextVUTF16;


проц InitDefaultAttributes();
конст
	(** FontStyles from WMGraphics *)
	FontBold = 0; FontItalic = 1;
перем
	res : целМЗ;
	textColor := 0xFF, textBackColor := 0x00: цел32;
	defaultFontSize : цел32;
	defaultFontStyle := {} : мнвоНаБитахМЗ;
	defaultFontName : массив 64 из симв8;
	fontStyleName : массив 16 из симв8;
нач
	Configuration.GetColor("WindowManager.ColorScheme.Default.TextBackColor", textBackColor, res);
	Configuration.GetColor("WindowManager.ColorScheme.Default.TextColor", textColor, res);

	нов(defaultAttributes);
	defaultFontName := "";	defaultFontSize := 0;
	Configuration.Get("WindowManager.FontManager.DefaultTextFont.Name", defaultFontName, res);
	если (res # Configuration.Ok) или  (defaultFontName = "") то defaultFontName := "DejaVuSansMono"; всё;
	Configuration.GetInteger("WindowManager.FontManager.DefaultTextFont.Size", defaultFontSize, res);
	если (res # Configuration.Ok) или (defaultFontSize < 1) то defaultFontSize := 16(* Прибитый гвоздями шрифт *); всё;
	Configuration.Get("WindowManager.FontManager.DefaultTextFont.Style", fontStyleName, res);
	если (res = Configuration.Ok) то
		если fontStyleName = "Bold" то
			defaultFontStyle := {FontBold};
		аесли fontStyleName = "Italic" то
			defaultFontStyle := {FontItalic};
		аесли fontStyleName = "BoldItalic" то
			defaultFontStyle := {FontBold, FontItalic};
		всё;
	всё;
	defaultAttributes.Set(textColor, textBackColor, 0, defaultFontName, defaultFontSize, defaultFontStyle);

кон InitDefaultAttributes;


нач
	нов(pStyles, 4); nofPStyles := 0;
	нов(cStyles, 4); nofCStyles := 0;
	InitDefaultStyles;
	нов(onTextChangedStr, 16); копируйСтрокуДо0("onTextChanged", onTextChangedStr^);
	нов(onLastTextChanged, НУЛЬ, Strings.NewString("OnLastTextChanged"),
		Strings.NewString("fired when the last selection is changed"), НУЛЬ);
	нов(onLastSelectionChanged, НУЛЬ, Strings.NewString("OnLastSelectionChanged"),
		Strings.NewString("fired when the last marked text is changed"), НУЛЬ);
	нов(clipboard);

	forceUTF := ложь;
	unforceUTF := истина;
	InitDefaultAttributes;
кон Texts.

