(* ETH Oberon, Copyright 2000 ETH Zürich Institut für Computersysteme, ETH Zentrum, CH-8092 Zürich.
Refer to the general ETH Oberon System license contract available at: http://www.oberon.ethz.ch/ *)

модуль X11;   (* 1993-95 / rc *)

(* Oberon interface to X Window System Version 11 *)

(*	1998.06.24	g.f.	 Linux PPC version	*)
(*	1999.04.03	g.f.	 support for Threads added	*)
(*	1999.11.03	g.f.	 Linux x86 version	 *)
(*	2001.01.05	g.f.	 [C] - flag for new compiler *)
(*	2001.08.04	g.f.	 made this module a pure interface to xlib,
						 separated low level Display fumctionality into the new module Displays  *)


использует Трассировка, Unix, Modules;

тип
	Pixmap* = адресВПамяти;

	Pattern* = адресВПамяти (* = PatternPtr *) ;
	PatternPtr* = укль на PatternDesc;
	PatternDesc* = запись
				x*, y*: цел32;
				w*, h*: цел16;
				pixmap*: Pixmap
			кон;

	MetricDesc* = запись
				dx*, x*, y*, filler: цел16;
				p*: PatternDesc
	кон;

	Font* = укль на Bytes;
	Bytes* = запись
				metrics*: массив 256 из MetricDesc;
				xid*: цел32
			кон;

	XID* = адресВПамяти;

конст
	BufferSize* = 512;

тип
	Buffer* = массив BufferSize из симв8;
	ComposeStatus* = запись
		opaque: массив 6 из цел32
	кон;
	Modifiers* = массив 8 из KeySym;

	DisplayPtr* = адресВПамяти;
	Window* = адресВПамяти;
	Drawable* = адресВПамяти;
	GC* = адресВПамяти;
	Bool* = целМЗ;
	Colormap* = адресВПамяти;
	Time* = адресВПамяти;
	Atom* = адресВПамяти;

	VisualID* = адресВПамяти;
	Visual* = запись
				extData*: адресВПамяти;
				visualid*: VisualID;
				class*: целМЗ;
				redMask*, greenMask*, blueMask*: длинноеЦелМЗ;
				bitsPerRgb*, mapEntries*: целМЗ
			кон;
	VisualPtr* = укль {опасныйДоступКПамяти,неОтслСборщиком} на Visual;
	VisualInfo* = запись
				visual*{неОтслСборщиком}:  VisualPtr;
				visualID*: VisualID;
				screen*, depth*, class*: целМЗ;
				redmask*, greenmask*, bluemask*: длинноеЦелМЗ;
				colomapsize*, bitsperrgb*: целМЗ
			кон;
	Color* = запись
				pixel*: длинноеЦелМЗ;
				red*, green*, blue*: цел16;
				flags*, pad*: симв8
			кон;
	Point* = запись
				x*, y*: цел16
			кон;
	Rectangle* = запись
				x*, y*, w*, h*: цел16
			кон;
	Cursor* = адресВПамяти;  KeySym* = адресВПамяти;  KeyCode* = симв8;
	AnyEvent* = запись
				typ*: целМЗ;
				serial*: длинноеЦелМЗ;
				sendEvent*: Bool;
				display*: DisplayPtr;
				window*: Window;
			кон;
	Event* = запись (AnyEvent)
				pad*: массив 192 - размерОт AnyEvent из симв8;
			кон;
	SelectionEvent* = запись
				typ*: целМЗ;
				serial*: длинноеЦелМЗ;
				sendEvent*: Bool;
				display*: DisplayPtr;
				requestor*: Window;
				selection*, target*, property*: Atom;
				time*: Time
			кон;
	SelectionRequestEvent* = запись
				typ*: целМЗ;
				serial*: длинноеЦелМЗ;
				sendEvent*: Bool;
				display*: DisplayPtr;
				owner*, requestor*: Window;
				selection*, target*, property*: Atom;
				time*: Time
			кон;
	ExposeEvent* = запись
				typ*: целМЗ;
				serial*: длинноеЦелМЗ;
				sendEvent*: Bool;
				display*: DisplayPtr;
				window*: Window;
				x*, y*, width*, height*, count*: целМЗ;
			кон;
	GraphicsExposeEvent* = запись
				typ*: целМЗ;
				serial*: длинноеЦелМЗ;
				sendEvent*: Bool;
				display*: DisplayPtr;
				drawable*: Drawable;
				x*, y*, width*, height*, count*, majorCode*, minorCode*: целМЗ;
			кон;
	ButtonEvent* = запись
				typ*: целМЗ;
				serial*: длинноеЦелМЗ;
				sendEvent*: Bool;
				display*: DisplayPtr;
				window*, root*, subwindow*: Window;
				time*: Time;
				x*, y*, xRoot*, yRoot*, state*, button*: целМЗ;
				sameScreen: Bool
			кон;

	MotionEvent * = запись
				typ*: целМЗ;
				serial*: длинноеЦелМЗ;
				sendEvent*: Bool;
				display*: DisplayPtr;
				window*, root*, subwindow*: Window;
				time*: Time;
				x*, y*, xRoot*, yRoot*, state*, button*: целМЗ;
				isHint*: симв8;
				sameScreen*: Bool;
			кон;

	KeyEvent* = запись
				typ*: целМЗ;
				serial*: длинноеЦелМЗ;
				sendEvent*: Bool;
				display*: DisplayPtr;
				window*, root*, subwindow*: Window;
				time*: Time;
				x*, y*, xRoot*, yRoot*: целМЗ;
				state*: INTEGERSET;
				keycode*: целМЗ;
				sameScreen: Bool
			кон;

	Image* = адресВПамяти;
	ImagePtr* = укль {опасныйДоступКПамяти,неОтслСборщиком} на ImageDesc;
	ImageDesc* = запись
				width*, height*: целМЗ;
				xoffset*, format*: целМЗ; data*: адресВПамяти;
				byteOrder*, bitmapUnit*, bitmapBitOrder*: целМЗ;
				bitmapPad*, depth*, bytesPerLine*, bitsPerPixel*: целМЗ;
				redmask*, greenmask*, bluemask*: длинноеЦелМЗ;
				obdata*, createImage*, destroyImage*, getPixel*, putPixel*, subImage*, addPixel*: адресВПамяти
			кон;
	ErrorEvent* = запись
				typ*: целМЗ;
				display*: DisplayPtr;
				resourceid*: адресВПамяти;
				serial*: длинноеЦелМЗ;
				errorCode*, requestCode*, minorCode*: симв8
	кон;

	Data40 * = массив 5 из длинноеЦелМЗ; (* max of these is 40 bytes*)
	Data40b* = массив 20 из симв8; (* 20x 8 bits *)
	Data40s* = массив 10 из цел16; (* 10x 16 bits *)
	Data40l* = массив 5 из цел32; (* 5x 32 bits *)

	ClientMessageEvent * = запись
		typ* : целМЗ;
		serial* : длинноеЦелМЗ(*unsigned*);	(* # of last request processed by server *)
		sendEvent* : булево;	(* true if this came from a SendEvent request *)
		display* : DisplayPtr;	(* Display the event was read from *)
		window* : Window;
		messageType* : Atom;
		format* : целМЗ;
		data*: Data40;
			(* any of these, union
			b* : ARRAY 20 OF CHAR;
			s* : ARRAY 10 OF SIGNED16;
			l* : ARRAY 5 OF SIGNED32;
			*)
	кон;

	ConfigureEvent * = запись
		typ* : целМЗ;
		serial* : длинноеЦелМЗ(*unsigned*);	(* # of last request processed by server *)
		sendEvent* : булево;	(* true if this came from a SendEvent request *)
		display* : DisplayPtr;	(* Display the event was read from *)
		event* : Window;
		window* : Window;
		x*, y* : целМЗ;
		width*, height* : целМЗ;
		borderWidth* : целМЗ;
		above* : Window;
		overrideRedirect* : булево;
	кон;

	ErrorEventPtr* = укль {опасныйДоступКПамяти,неОтслСборщиком} на ErrorEvent;
	ErrorHandler* = проц ( d: DisplayPtr;  err: ErrorEventPtr; p3, p4: цел32 ): цел32;
	IOErrorHandler = проц ( d: DisplayPtr; p2, p3, p4: цел32 ): цел32;

	PChar* = укль на массив из симв8;

	VisualInfoPtr*  = укль {опасныйДоступКПамяти, неОтслСборщиком} на VisualInfo;

тип
	XSetWindowAttributes* = запись
		backgroundPixmap*: Pixmap; (* background, None, or ParentRelative *)
		backgroundPixel*: длинноеЦелМЗ;(* background pixel *)
		borderPixmap*: Pixmap;    (* border of the window or CopyFromParent *)
		borderPixel*: длинноеЦелМЗ;(* border pixel value *)
		bitGravity*: целМЗ;         (* one of bit gravity values *)
		winGravity*: целМЗ;         (* one of the window gravity values *)
		backingStore*: целМЗ;       (* NotUseful, WhenMapped, Always *)
		backingPlanes*: длинноеЦелМЗ;(* planes to be preserved if possible *)
		backingPixel*: длинноеЦелМЗ;(* value to use in restoring planes *)
		saveUnder*: булево;         (* should bits under be saved? (popups) *)
		eventMask*:  длинноеЦелМЗ;         (* set of events that should be saved *)
		doNotPropagateMask*: длинноеЦелМЗ;(* set of events that should not propagate *)
		overrideRedirect*: булево;  (* boolean value for override_redirect *)
		colormap*: Colormap;       (* color map to be associated with window *)
		cursor*: Cursor ;           (* cursor to be displayed (or None) *)
	кон ;

	XWindowAttributes* = запись
		x*, y*: целМЗ;			(* location of window *)
		width*, height*: целМЗ;		(* width and height of window *)
		borderWidth*: целМЗ;			(* border width of window *)
		depth*: целМЗ;			(* depth of window *)
		visual* : VisualPtr;			(* the associated visual structure *)
		root* : Window;				(* root of screen containing window *)
		class*: целМЗ;			(* InputOutput, InputOnly*)
		bitGravity*: целМЗ;			(* one of the bit gravity values *)
		winGravity*: целМЗ;			(* one of the window gravity values *)
		backingStore*: целМЗ;		(* NotUseful, WhenMapped, Always *)
		backingPlanes*: длинноеЦелМЗ;		(* planes to be preserved if possible *)
		backingPixel*: длинноеЦелМЗ;		(* value to be used when restoring planes *)
		saveUnder*: булево;			(* boolean, should bits under be saved? *)
		colormap*: Colormap;			(* color map to be associated with window *)
		mapInstalled*: булево;		(* boolean, is color map currently installed*)
		mapState*: целМЗ;		(* IsUnmapped, IsUnviewable, IsViewable *)
		allEventMasks*: длинноеЦелМЗ;		(* set of events all people have interest in*)
		yourEventMask*: длинноеЦелМЗ;		(* my event mask *)
		doNotPropagateMask*: длинноеЦелМЗ;	(* set of events that should not propagate *)
		overrideRedirect*: булево;		(* boolean value for override-redirect *)
		screen*: адресВПамяти; (*X11.Screen;*)			(* back pointer to correct screen *)
	кон;

	(* Data structure for host setting; getting routines. *)
	тип XHostAddress* = запись
			family* : целМЗ;		(* for example FamilyInternet *)
			length* : целМЗ;		(* length of address, in bytes *)
			address*: адресВПамяти;		(* pointer to where to find the bytes *)
		кон;

	(* Data structure for ServerFamilyInterpreted addresses in host routines *)
	тип XServerInterpretedAddress* = запись
			typelength*: целМЗ;		(* length of type string, in bytes *)
			valuelength*: целМЗ;	(* length of value string, in bytes *)
			type*: адресВПамяти;		(* pointer to where to find the type string *)
			value*: адресВПамяти;		(* pointer to where to find the address *)
		кон;


	(* Data structure for XReconfigureWindow *)
	тип XWindowChanges * = запись
			x*, y*: целМЗ;
			width*, height* : целМЗ;
	 	   	borderWidth*: целМЗ;
			sibling* : Window;
	 	   	stackMode*: целМЗ;
		кон;


	(* new version containing base_width, base_height, and win_gravity fields;
	  used with WM_NORMAL_HINTS.
	 *)
	тип DataAspect*=запись
			x*: целМЗ;	(* numerator *)
			y*: целМЗ;	(* denominator *)
		кон;

	тип XSizeHints* = запись
			flags*: длинноеЦелМЗ;	(* marks which fields in this structure are defined *) (* SIGNED64 ?*)
			x*, y*: целМЗ;		(* obsolete for new window mgrs, but clients *)
			width*, height*: целМЗ;	(* should set so old wm's don't mess up *)
			minWidth*, minHeight*: целМЗ;
			maxWidth*, maxHeight*: целМЗ;
			widthInc*, heightInc*: целМЗ;
			maxAspect*, minAspect*: DataAspect;
			baseWidth*, baseHeight*: целМЗ;		(* added by ICCCM version 1 *)
			winGravity*: целМЗ;			(* added by ICCCM version 1 *)
		кон;

	(*  The next block of definitions are for window manager properties that
	  clients and applications use for communication. *)

	(* flags argument in size hints *)
	конст
		USPosition * =  1H; (* user specified x, y *)
		USSize * =   2H; (* user specified width, height *)
		PPosition * =  4H; (* program specified position *)
		PSize * =   8H; (* program specified size *)
		PMinSize * =   10H; (* program specified minimum size *)
		PMaxSize * =   20H; (* program specified maximum size *)
		PResizeInc * =   40H; (* program specified resize increments *)
		PAspect * =   80H; (* program specified min and max aspect ratios *)
		PBaseSize * =   100H; (* program specified base for incrementing *)
		PWinGravity * =  200H; (* program specified window gravity *)

конст
(* Action for EWMH client messages *)
	NET_WM_STATE_REMOVE* = 0;
	NET_WM_STATE_ADD* =1;
	NET_WM_STATE_TOGGLE* = 2;

	(*! ----------FONTS, from Xutil.h ------------------ *)

тип

	(* Extensions need a way to hang private data on some structures.
	called to free private storage
		free_private_proc* = PROCEDURE (extension: ExtData): SIGNED32;*)

	ExtData* = укль {неОтслСборщиком, опасныйДоступКПамяти} на ExtDataDesc;
	ExtDataDesc* = запись
		number*: целМЗ;		(* number returned by XRegisterExtension *)
		next*: ExtData;	(* next item on list of data for structure *)
		free_private*: адресВПамяти;	(* called to free private storage *)
		extension* : ExtData;
		private_data*: адресВПамяти;	(* data private to this extension. *)
	кон;

	(* per character font metric information. *)
	CharStruct* = запись
		lbearing*: цел16;	(* origin to left edge of raster *)
		rbearing*: цел16;	(* origin to right edge of raster *)
		width*: цел16;		(* advance to next char's origin *)
		ascent*: цел16;		(* baseline to top edge of raster *)
		descent*: цел16;	(* baseline to bottom edge of raster *)
		attributes*: цел16;	(* per char flags (not predefined) *)
	кон;

	(* To allow arbitrary information with fonts, there are additional properties returned. *)
	FontProp* = запись
		name*: Atom;
		card32*: длинноеЦелМЗ;
	кон;

	FontStruct* = укль  {неОтслСборщиком, опасныйДоступКПамяти} на FontStructDesc;
	FontStructDesc* = запись
		ext_data*: ExtData;	(* hook for extension to hang data *)
		fid*: Font;            (* Font id for this font *)
		direction*: целМЗ;	(* hint about direction the font is painted *)
		min_char_or_byte2*: целМЗ;(* first character *)
		max_char_or_byte2*: целМЗ;(* last character *)
		min_byte1*: целМЗ;	(* first row that exists *)
		max_byte1*: целМЗ;	(* last row that exists *)
		all_chars_exist*: Bool;(* flag if all characters have non-zero size*)
		default_char*: целМЗ;	(* char to print for undefined character *)
		n_properties*: целМЗ;   (* how many properties there are *)
		properties*: адресВПамяти; (*POINTER TO ARRAY OF FontProp; *)	(* pointer to array of additional properties*)
		min_bounds*: CharStruct;	(* minimum bounds over all existing char*)
		max_bounds*: CharStruct;	(* maximum bounds over all existing char*)
		per_char*: адресВПамяти; (*POINTER TO ARRAY OF CharStruct;*)	(* first_char to last_char information *)
		ascent*: целМЗ;		(* log. extent above baseline for spacing *)
		descent*: целМЗ;	(* log. descent below baseline for spacing *)
	кон;


	(* new structure for manipulating TEXT properties; used with WM_NAME,
		WM_ICON_NAME, WM_CLIENT_MACHINE, and WM_COMMAND. *)
	XTextProperty* = запись
		value*: адресВПамяти;		(* same as Property routines *)
		encoding*: Atom;		(* prop type *)
		format*: целМЗ;	(* prop data format: 8, 16, or 32 *)
		nitems*: длинноеЦелМЗ;	(* number of data items in value *)
	кон;

(*! ------------------- ends  Xutil.h ----------- *)

конст
	(* X constants: <X11/X.h> *)
	False* = 0;  True* = 1;  None* = 0;
	(* line styles: *)
	LineSolid* = 0;  LineOnOffDash* = 1;  LineDoubleDash* = 2;
	(* cap styles: *)
	CapNotLast* = 0;  CapButt* = 1;  CapRound* = 2;  CapProjecting* = 3;
	(* join styles: *)
	JoinMiter* = 0;  JoinRound* = 1;  JoinBevel* = 2;
	(* fill styles: *)
	FillSolid* = 0;  FillTiled* = 1;  FillStippled* = 2;  FillOpaqueStippled* = 3;
	(* functions: *)
	GXand* = 1;  GXcopy* = 3;  GXxor* = 6;  GXor* = 7;  GXequiv* = 9;
	(* color flags: *)
	DoRed* = 1;  DoGreen* = 2;  DoBlue* = 4;  DoAll* = DoRed + DoGreen + DoBlue;
	(* for CreateColormap : *)
	AllocNone* = 0;  AllocAll* = 1;
	(* QueryBestSize Class: *)
	CursorShape* = 0;  TileShape* = 1;  StippleShape* = 2;
	(* visual classes: *)
	StaticGray* = 0;  GrayScale* = 1;  StaticColor* = 2;  PseudoColor* = 3;  TrueColor* = 4;  DirectColor* = 5;
	(* arc modes: *)
	ArcChord* = 0;  ArcPieSlice* = 1;
	(* polygone shape: *)
	Complex* = 0;  Nonconvex* = 1;  Convex* = 2;
	(* clip odering and origin: *)
	CoordModeOrigin* = 0;  CoordModePrevious* = 1;  Unsorted* = 0;  YSorted* = 1;  YXSorted* = 2;
	YXBanded* = 3;
	(* property modes: *)
	PropModeReplace* = 0;
	(* events types: *)
	KeyPress* = 2;  KeyRelease* = 3;  ButtonPress* = 4;  ButtonRelease* = 5;  MotionNotify* = 6;
	FocusIn* = 9;  FocusOut* = 10;
	Expose* = 12;  GraphicsExpose* = 13;  NoExpose* = 14;  UnmapNotify* = 18;
	MapNotify* = 19;  PropertyNotify* = 28;  SelectionClear* = 29;  SelectionRequest* = 30;
	SelectionNotify* = 31;  ClientMessage* = 33;  MappingNotify* = 34;
	(* event masks: *)
	NoEventMask* = 0H;  KeyPressMask* = 1H; KeyReleaseMask* = 2H;
	ButtonPressMask* = 4H;  ButtonReleaseMask* = 8H;  EnterWindowMask* = 10H;
	LeaveWindowMask* = 20H;  PointerMotionMask* = 40H;  PointerMotionHintMask* = 80H;
	Button1MotionMask* = 100H; Button2MotionMask* = 200H; Button3MotionMask* = 400H;
	Button4MotionMask* = 800H;  Button5MotionMask* = 1000H;  ButtonMotionMask* = 2000H;
	KeymapStateMask* = 4000H; ExposureMask* = 8000H; VisibilityChangeMask* = 10000H;
	StructureNotifyMask* = 20000H; ResizeRedirectMask* = 40000H; SubstructureNotifyMask* = 80000H;
	SubstructureRedirectMask* = 100000H; FocusChangeMask * = 200000H; PropertyChangeMask* = 400000H;
	ColormapChangeMask* = 800000H; OwnerGrabButtonMask* = 1000000H;
	(* event modes:  <X11/Xlib.h> *)
	QueuedAlready* = 0;  QueuedAfterReading* = 1;  QueuedAfterFlush* = 2;
	(* focus revert modes: <X11/X.h> *)
	RevertToParent* = 2;
	(* buttons: *)
	Button1* = 1;  Button2* = 2;  Button3* = 3; Button4* = 4; Button5* = 5;

	Button1Mask* = 8; Button2Mask* = 9; Button3Mask* = 10; Button4Mask* = 11; Button5Mask* = 12;
	(* image format: *)
	XYBitmap* = 0;  XYPixmap* = 1;  ZPixmap* = 2;
	(* special keys: <X11/keysymdef.h> *)
	(* cursor shapes: <X11/cursorfont.h> *)
	XCleftptr* = 132;
	(* atoms: <X11/Xatom.h> *)
	XAPRIMARY* = 1;  XASTRING* = 31;
	(* Cursor control & motion *)
	(* X11/keysymdef.h *)
конст

	XK_Home* = 	0FF50H;
	XK_Left* = 	0FF51H;  (* Move left, left arrow *)
	XK_Up* = 	0FF52H;  (* Move up, up arrow *)
	XK_Right* = 	0FF53H;  (* Move right, right arrow *)
	XK_Down* = 	0FF54H;  (* Move down, down arrow *)
	XK_Prior* = 	0FF55H;  (* Prior, previous *)
	XK_Page_Up* = 	0FF55H;
	XK_Next* = 	0FF56H;  (* Next *)
	XK_Page_Down* = 0FF56H;
	XK_End* = 	0FF57H;  (* EOL *)
	XK_Begin* = 	0FF58H;  (* BOL *)

	XK_Escape* = 0FF1BH;
	XK_F1* =0FFBEH;

	(*  X11/X.h *)
(* ****************************************************************
                       RESERVED RESOURCE AND CONSTANT DEFINITIONS
**************************************************************** *)

	ParentRelative* = 1;	(* background pixmap in CreateWindow
					    and ChangeWindowAttributes *)
	CopyFromParent* = 0;	(* border pixmap in CreateWindow
					       and ChangeWindowAttributes
					   special VisualID and special window
					       class passed to CreateWindow *)
	PointerWindow* = 0;	(* destination window in SendEvent *)
	InputFocus* = 1;	(* destination window in SendEvent *)
	PointerRoot* = 1;	(* focus window in SetInputFocus *)
	AnyPropertyType* = 0;	(* special Atom, passed to GetProperty *)
	AnyKey* = 0;	(* special Key Code, passed to GrabKey *)
	AnyButton* = 0;	(* special Button Code, passed to GrabButton *)
	AllTemporary* = 0;	(* special Resource ID passed to KillClient *)
	CurrentTime* = 0;	(* special Time *)
	NoSymbol* = 0;	(* special KeySym *)


	(* EVENT DEFINITIONS
	  Input Event Masks. Used as event-mask window attribute and as arguments
	   to Grab requests.  Not to be confused with event names. *)

конст

	(* Event names.  Used in "type" field in XEvent structures.  Not to be
	confused with event masks above.  They start from 2 because 0 and 1
	are reserved in the protocol for errors and replies. *)

конст

	EnterNotify* = 7; LeaveNotify* =8;  KeymapNotify* = 11;VisibilityNotify* = 15;
	CreateNotify* = 16; DestroyNotify* = 17;
	MapRequest* = 20;  ReparentNotify* = 21; ConfigureNotify* = 22; ConfigureRequest* = 23;
	GravityNotify* = 24; ResizeRequest* =	25; CirculateNotify* = 26; CirculateRequest* = 27;
	LASTEvent* =		36;	 (* must be bigger than any event # *)


	(* Key masks. Used as modifiers to GrabButton and GrabKey, results of QueryPointer,
	state in various key-, mouse-, and button-related events. *)

	ShiftMask* = 0;  LockMask* = 1;  ControlMask* = 2;
	Mod1Mask* = 3;  Mod2Mask* = 4;  Mod3Mask* = 5;
	Mod4Mask* = 6;   Mod5Mask* = 7;

	(* modifier names.  Used to build a SetModifierMapping request or
	to read a GetModifierMapping request.  These correspond to the
	masks defined above. *)
	ShiftMapIndex* =	0;  LockMapIndex* = 1; ControlMapIndex* = 2;
	Mod1MapIndex* =	3; Mod2MapIndex* = 4; Mod3MapIndex* = 5;
	Mod4MapIndex* =	6; Mod5MapIndex* = 7;

	AnyModifier* = 15;  (* used in GrabButton, GrabKey *)

	(* button names. Used as arguments to GrabButton and as detail in ButtonPress
	and ButtonRelease events.  Not to be confused with button masks above.
	Note that 0 is already defined above as "AnyButton".  *)


	(* Notify modes *)
	NotifyNormal* = 0; NotifyGrab* = 1; NotifyUngrab* = 2; NotifyWhileGrabbed* =	3;

	NotifyHint* = 1; (* for MotionNotify events *)

	(* Notify detail *)
	NotifyAncestor* = 0; NotifyVirtual* = 1; NotifyInferior* = 2; NotifyNonlinear* = 3;
	NotifyNonlinearVirtual* = 4; NotifyPointer* = 5; NotifyPointerRoot* = 6;
	NotifyDetailNone* = 7;

	(* Visibility notify *)
	VisibilityUnobscured* =  0; VisibilityPartiallyObscured* = 1; VisibilityFullyObscured* = 2;

	(* Circulation request *)
	PlaceOnTop* = 0; PlaceOnBottom* = 1;

	(* protocol families *)
	FamilyInternet* = 0; (* IPv4 *)  FamilyDECnet* = 1;  FamilyChaos* = 2; FamilyInternet6* = 6; (* IPv6 *)

	(* authentication families not tied to a specific protocol *)
	FamilyServerInterpreted* = 5;

	(* Property notification *)
	PropertyNewValue* = 0;  PropertyDelete* = 1;

	(* Color Map notification *)
	ColormapUninstalled* = 0; ColormapInstalled* = 1;

	(* GrabPointer, GrabButton, GrabKeyboard, GrabKey Modes *)
	GrabModeSync* = 0;  GrabModeAsync* = 1;

	(* GrabPointer, GrabKeyboard reply status *)
	GrabSuccess* = 0; AlreadyGrabbed* = 1; GrabInvalidTime* = 2; GrabNotViewable* = 3; GrabFrozen* = 4;

	(* AllowEvents modes *)
	AsyncPointer* = 0; SyncPointer* = 1; ReplayPointer* = 2; AsyncKeyboard* = 3;
	SyncKeyboard* = 4; ReplayKeyboard* = 5; AsyncBoth* = 6; SyncBoth* = 7;

	(* Used in SetInputFocus, GetInputFocus *)
	RevertToNone* = None;  RevertToPointerRoot* = PointerRoot;



(* ****************************************************************
						 ERROR CODES
 **************************************************************** *)

конст
	Success* =	 0; (* everything's okay *)
	BadRequest* = 1; (* bad request code *)
	BadValue* =	   2;	(* int parameter out of range *)
	BadWindow* = 3; (* parameter not a Window *)
	BadPixmap* =	4; (* parameter not a Pixmap *)
	BadAtom* = 5; (* parameter not an Atom *)
	BadCursor* = 6; (* parameter not a Cursor *)
	BadFont* = 7; (* parameter not a Font *)
	BadMatch* = 8; (* parameter mismatch *)
	BadDrawable* = 9; (* parameter not a Pixmap or Window *)
	BadAccess* = 10; (* depending on context:
				 - key/button already grabbed
				 - attempt to free an illegal
				   cmap entry
				- attempt to store into a read-only
				   color map entry.
				- attempt to modify the access control
				   list from other than the local host.
				*)
	BadAlloc* = 11; (* insufficient resources *)
	BadColor* = 12; (* no such colormap *)
	BadGC* = 13; (* parameter not a GC *)
	BadIDChoice* = 14; (* choice not in range or already used *)
	BadName* = 15; (* font or color name doesn't exist *)
	BadLength* = 16;	(* Request length incorrect *)
	BadImplementation* = 17;	(* server is defective *)

	FirstExtensionError* = 128;
	LastExtensionError* = 255;


(* ****************************************************************
						 WINDOW DEFINITIONS
 **************************************************************** *)

	(*  Window classes used by CreateWindow *)
	(* Note that CopyFromParent is already defined as 0 above *)
	InputOutput* = 1; InputOnly* = 2;

	(* Window attributes for CreateWindow and ChangeWindowAttributes *)
	CWBackPixmap* = 1H; CWBackPixel* = 2H; CWBorderPixmap* = 4H; CWBorderPixel* = 8H;
	CWBitGravity* = 10H; CWWinGravity* = 20H; CWBackingStore* = 40H;  CWBackingPlanes* = 80;
	CWBackingPixel* = 100H; CWOverrideRedirect* = 200H; CWSaveUnder* =400H; CWEventMask* =800H;
	CWDontPropagate* =1000H; CWColormap* = 2000H; CWCursor* =4000H;

	(* ConfigureWindow structure *)
	CWX* = 1H;  CWY* = 2H; CWWidth* = 4H; CWHeight* = 8H; CWBorderWidth* = 10H;
	CWSibling* = 20H; CWStackMode* = 40H;

	(* Bit Gravity *)
	ForgetGravity* = 0; NorthWestGravity* = 1; NorthGravity* = 2; NorthEastGravity* = 3;
	WestGravity* = 4; CenterGravity *= 5; EastGravity* = 6; SouthWestGravity* = 7;
	SouthGravity* = 8; SouthEastGravity* = 9; StaticGravity* = 10;

	(* Window gravity + bit gravity above *)
	UnmapGravity* = 0;

	(* Used in CreateWindow for backing-store hint *)
	NotUseful* = 0; WhenMapped* = 1; Always*= 2;

	(* Used in GetWindowAttributes reply *)
	IsUnmapped* = 0; IsUnviewable* = 1; IsViewable*= 2;

	(* Used in ChangeSaveSet *)
	SetModeInsert* = 0; SetModeDelete* = 1;

	(* Used in ChangeCloseDownMode *)
	DestroyAll* = 0; RetainPermanent* = 1; RetainTemporary* = 2;

	(* Window stacking method (in configureWindow) *)
	Above* =  0; Below* =1; TopIf* = 2; BottomIf* = 3; Opposite* = 4;

	(* Circulation direction *)
	RaiseLowest* = 0; LowerHighest* = 1;

	(* Property modes *)
	PropModePrepend* = 1; PropModeAppend * = 2;



(* ****************************************************************
                                             FONTS
************************************************************* *)
(* used in QueryFont -- draw direction *)
	FontLeftToRight* = 0;
	FontRightToLeft* = 1;
	FontChange* = 255;


(* ****************************************************************
                                      KEYBOARD/POINTER STUFF
 **************************************************************** *)

	AutoRepeatModeOff*= 0; AutoRepeatModeOn* = 1; AutoRepeatModeDefault* = 2;

	LedModeOff* = 0; LedModeOn* = 1;

	(* masks for ChangeKeyboardControl *)
	KBKeyClickPercent* =  1H;  KBBellPercent* =  2H; KBBellPitch* =  4H; 	KBBellDuration* =  8H;
	KBLed* =  10H; KBLedMode* =  20H; KBKey* =  40H; KBAutoRepeatMode* =  80;

	MappingSuccess* = 0; MappingBusy* = 1; MappingFailed* = 2;
	MappingModifier* = 0; MappingKeyboard* = 1; MappingPointer* = 2;

(* ****************************************************************
                                              SCREEN SAVER STUFF
 **************************************************************** *)
  DontPreferBlanking* = 0; PreferBlanking* = 1; DefaultBlanking* = 2;
  DisableScreenSaver* = 0; DisableScreenInterval* = 0;
  DontAllowExposures* = 0; AllowExposures* = 1; DefaultExposures* =2;

(* for ForceScreenSaver *)
  ScreenSaverReset* = 0; ScreenSaverActive* = 1;

(* ****************************************************************
                             HOSTS AND CONNECTIONS
 **************************************************************** *)

	(* for ChangeHosts *)
	HostInsert* = 0; HostDelete* = 1;

	(* for ChangeAccessControl *)
	EnableAccess* = 1; DisableAccess* = 0;


	(* Byte order  used in imageByteOrder and bitmapBitOrder *)
	LSBFirst* = 0; MSBFirst* = 1;


(* ****************************************************************
						ATOMS  <X11/Xatom.h>
 **************************************************************** *)

	(* Do not change!  Changing this file implies a protocol change! *)
	XA_PRIMARY * = 1;  XA_SECONDARY * = 2;  XA_ARC * = 3;  XA_ATOM * = 4;  XA_BITMAP * = 5;
	XA_CARDINAL * = 6;  XA_COLORMAP * = 7;  XA_CURSOR * = 8;  XA_CUT_BUFFER0 * = 9;
	XA_CUT_BUFFER1 * = 10;  XA_CUT_BUFFER2 * = 11;  XA_CUT_BUFFER3 * = 12;  XA_CUT_BUFFER4 * = 13;
	XA_CUT_BUFFER5 * = 14;  XA_CUT_BUFFER6 * = 15;  XA_CUT_BUFFER7 * = 16;  XA_DRAWABLE * = 17;
	XA_FONT * = 18;  XA_INTEGER * = 19;  XA_PIXMAP * = 20;  XA_POINT * = 21;  XA_RECTANGLE * = 22;
	XA_RESOURCE_MANAGER * = 23;  XA_RGB_COLOR_MAP * = 24;  XA_RGB_BEST_MAP * = 25;
	XA_RGB_BLUE_MAP * = 26;  XA_RGB_DEFAULT_MAP * = 27;  XA_RGB_GRAY_MAP * = 28;
	XA_RGB_GREEN_MAP * = 29;  XA_RGB_RED_MAP * = 30;  XA_STRING * = 31;  XA_VISUALID * = 32;
	XA_WINDOW * = 33;  XA_WM_COMMAND * = 34;  XA_WM_HINTS * = 35;  XA_WM_CLIENT_MACHINE * = 36;
	XA_WM_ICON_NAME * = 37;  XA_WM_ICON_SIZE * = 38;  XA_WM_NAME * = 39;  XA_WM_NORMAL_HINTS * = 40;
	XA_WM_SIZE_HINTS * = 41;  XA_WM_ZOOM_HINTS * = 42;  XA_MIN_SPACE * = 43;  XA_NORM_SPACE * = 44;
	XA_MAX_SPACE * = 45;  XA_END_SPACE * = 46;  XA_SUPERSCRIPT_X * = 47;  XA_SUPERSCRIPT_Y * = 48;
	XA_SUBSCRIPT_X * = 49;  XA_SUBSCRIPT_Y * = 50;  XA_UNDERLINE_POSITION * = 51;  XA_UNDERLINE_THICKNESS * = 52;
	XA_STRIKEOUT_ASCENT * = 53;  XA_STRIKEOUT_DESCENT * = 54;  XA_ITALIC_ANGLE * = 55;
	XA_X_HEIGHT * = 56;  XA_QUAD_WIDTH * = 57;  XA_WEIGHT * = 58;  XA_POINT_SIZE * = 59;
	XA_RESOLUTION * = 60;  XA_COPYRIGHT * = 61;  XA_NOTICE * = 62;  XA_FONT_NAME * = 63;
	XA_FAMILY_NAME * = 64;  XA_FULL_NAME * = 65;  XA_CAP_HEIGHT * = 66;  XA_WM_CLASS * = 67;
	XA_WM_TRANSIENT_FOR * = 68;  XA_LAST_PREDEFINED * = 68;

(* ****************************************************************
			CURSORS  <X11/Xcursorfont.h>
 **************************************************************** *)
конст
	 XC_num_glyphs* = 154;
	 XC_X_cursor* = 0;  XC_arrow* = 2;  XC_based_arrow_down* = 4; XC_based_arrow_up* = 6;
	 XC_boat* = 8; XC_bogosity* = 10; XC_bottom_left_corner* = 12; XC_bottom_right_corner* = 14;
	 XC_bottom_side* = 16; XC_bottom_tee* = 18; XC_box_spiral* = 20; XC_center_ptr* = 22;
	 XC_circle* = 24; XC_clock* = 26; XC_coffee_mug* = 28; XC_cross* = 30; XC_cross_reverse* = 32;
	 XC_crosshair* = 34; XC_diamond_cross* = 36; XC_dot* = 38; XC_dotbox* = 40; XC_double_arrow* = 42;
	 XC_draft_large* = 44; XC_draft_small* = 46; XC_draped_box* = 48; XC_exchange* = 50;
	 XC_fleur* = 52; XC_gobbler* = 54; XC_gumby* = 56; XC_hand1* = 58; XC_hand2* = 60;
	 XC_heart* = 62; XC_icon* = 64; XC_iron_cross* = 66; XC_left_ptr* = 68; XC_left_side* = 70;
	 XC_left_tee* = 72; XC_leftbutton* = 74; XC_ll_angle* = 76; XC_lr_angle* = 78; XC_man* = 80;
	 XC_middlebutton* = 82; XC_mouse* = 84; XC_pencil* = 86; XC_pirate* = 88; XC_plus* = 90;
	 XC_question_arrow* = 92; XC_right_ptr* = 94; XC_right_side* = 96; XC_right_tee* = 98;
	 XC_rightbutton* = 100; XC_rtl_logo* = 102; XC_sailboat* = 104; XC_sb_down_arrow* = 106;
	 XC_sb_h_double_arrow* = 108; XC_sb_left_arrow* = 110; XC_sb_right_arrow* = 112;
	 XC_sb_up_arrow* = 114; XC_sb_v_double_arrow* = 116; XC_shuttle* = 118; XC_sizing* = 120;
	 XC_spider* = 122; XC_spraycan* = 124; XC_star* = 126; XC_target* = 128; XC_tcross* = 130;
	 XC_top_left_arrow* = 132; XC_top_left_corner* = 134; XC_top_right_corner* = 136;
	 XC_top_side* = 138; XC_top_tee* = 140; XC_trek* = 142; XC_ul_angle* = 144;
	 XC_umbrella* = 146; XC_ur_angle* = 148; XC_watch* = 150; XC_xterm* = 152;

(* *********************************************** *)
	(* X11/Xlib.h*)
(* *********************************************** *)
тип
	Status* = целМЗ;


перем
	ErrorText*: Buffer;
	ErrorFlag*: булево;  lastEventTime*: Time;  ioErrors: цел16;


перем
	(* Xlib calls: *)
	OpenDisplay-:			проц {C} ( конст name: массив из симв8 ): DisplayPtr;
	DefaultScreen-:			проц {C} ( d: DisplayPtr ): целМЗ;
	DisplayWidth-:			проц {C} ( d: DisplayPtr;  screen: целМЗ ): целМЗ;
	DisplayHeight-:			проц {C} ( d: DisplayPtr;  screen: целМЗ ): целМЗ;
	DisplayHeightMM-:		проц {C} ( d: DisplayPtr;  screen: целМЗ ): целМЗ;
	DefaultDepth-:			проц {C} ( d: DisplayPtr;  screen: целМЗ ): целМЗ;
	DisplayCells-:			проц {C} ( d: DisplayPtr;  screen: целМЗ ): целМЗ;
	DisplayPlanes-:			проц {C} ( d: DisplayPtr;  screen: целМЗ ): целМЗ;
	BlackPixel-:			проц {C} ( d: DisplayPtr;  screen: целМЗ ): длинноеЦелМЗ;
	WhitePixel-:			проц {C} ( d: DisplayPtr;  screen: целМЗ ): длинноеЦелМЗ;
	DefaultVisual-:			проц {C} ( d: DisplayPtr;  screen: целМЗ ): адресВПамяти;
	DefaultColormap-:		проц {C} ( d: DisplayPtr;  screen: целМЗ ): Colormap;
	DefaultRootWindow-:	проц {C} ( d: DisplayPtr ): Window;
	CreateSimpleWindow-:	проц {C} ( d: DisplayPtr;  parent: Window;
													x, y, width, height, borderWidth: целМЗ; border, background: длинноеЦелМЗ ): Window;
	TranslateCoordinates-:	проц {C} ( d: DisplayPtr;  sw, dw: Window;  srcx, srcy: целМЗ;
													перем dstx, dsty: целМЗ;  перем child: Window );
	MoveResizeWindow-:	проц {C} ( d: DisplayPtr;  w: Window;  x, y, width, height: целМЗ );
	StoreName-,
	SetIconName-:			проц {C} ( d: DisplayPtr;  w: Window;  name: адресВПамяти );
	SetCommand-:			проц {C} ( d: DisplayPtr;  w: Window;  argv: адресВПамяти;  argc: целМЗ );
	MapRaised-,
	LowerWindow-,
	ClearWindow-:			проц {C} ( d: DisplayPtr;  w: Window );
	Sync-:					проц {C} ( d: DisplayPtr;  discard: Bool );
	Flush-:					проц {C} ( d: DisplayPtr );
	StoreColor-:				проц {C} ( d: DisplayPtr;  cmap: Colormap;  color: адресВПамяти );
	CreateBitmapFromData-:
								проц {C} ( d: DisplayPtr;  drawable: Drawable;  data: адресВПамяти;
													width, height: целМЗ ): Pixmap;
	CopyArea-:				проц {C} ( d: DisplayPtr;  src, dest: Drawable;  gc: GC;
													srcX, srcY, width, height, destX, destY: целМЗ );
	CopyPlane-:				проц {C} ( d: DisplayPtr;  src, dest: Drawable;  gc: GC;
													srcX, srcY, width, height, destX, destY: целМЗ; plane: длинноеЦелМЗ );
	SetStipple-:				проц {C} ( d: DisplayPtr;  gc: GC;  stipple: Pixmap );
	SetTSOrigin-:			проц {C} ( d: DisplayPtr;  gc: GC;  tsxorigin, tsyorigin: целМЗ );
	DrawPoint-:				проц {C} ( d: DisplayPtr;  w: Drawable;  gc: GC;  x, y: целМЗ );
	FillRectangle-:			проц {C} ( d: DisplayPtr;  w: Drawable;  gc: GC;  x, y, width, height: целМЗ );
	DrawString-:				проц {C} ( d: DisplayPtr;  w: Drawable;  gc: GC;  x, y: целМЗ; string: адресВПамяти; length: целМЗ );
	CreateGC-:				проц {C} ( d: DisplayPtr;  drawable: Drawable;  valueMask: длинноеЦелМЗ; values: адресВПамяти ): GC;
	SetForeground-:			проц {C} ( d: DisplayPtr;  gc: GC;  foreground: длинноеЦелМЗ );
	SetBackground-:			проц {C} ( d: DisplayPtr;  gc: GC;  background: длинноеЦелМЗ );
	SetFunction-:			проц {C} ( d: DisplayPtr;  gc: GC;  function: целМЗ );
	SetFont-:			проц {C} ( d: DisplayPtr;  gc: GC;  font: адресВПамяти );
	SetFillStyle-:			проц {C} ( d: DisplayPtr;  gc: GC;  fill_style: целМЗ );
	SetPlaneMask-:			проц {C} ( d: DisplayPtr;  gc: GC;  mask: длинноеЦелМЗ );
	SetGraphicsExposures-:
								проц {C} ( d: DisplayPtr;  gc: GC;  graphicsExposures: Bool );
	SetLineAttributes-:		проц {C} ( d: DisplayPtr;  gc: GC;  lineWidth, lineStyle, capStyle, joinStyle: целМЗ );
	AllocColorCells-:		проц {C} ( d: DisplayPtr;  cmap: Colormap;  contig: Bool;  перем planeMasks: длинноеЦелМЗ;
													nplanes: целМЗ;  перем pixels: длинноеЦелМЗ;  ncolors: целМЗ ): целМЗ;
	SetWindowBackground-:
								проц {C} ( d: DisplayPtr;  w: Window;  pixel: длинноеЦелМЗ );
	CreateFontCursor-:		проц {C} ( d: DisplayPtr;  shape: целМЗ ): Cursor;
	CreatePixmapCursor-:	проц {C} ( d: DisplayPtr;  csource, cmask: Pixmap;
													перем cfore, cback: Color;  xhot, yhot: целМЗ ): Cursor;
	RecolorCursor-:			проц {C} ( d: DisplayPtr;  curs: Cursor;  cfore, cback: адресВПамяти );
	DefineCursor-:			проц {C} ( d: DisplayPtr;  w: Window;  curs: Cursor );
	DrawLine-:				проц {C} ( d: DisplayPtr;  w: Window;  gc: GC;  x1, y1, x2, y2: целМЗ );
	SetArcMode-:			проц {C} ( d: DisplayPtr;  gc: GC;  arcmode: целМЗ );
	DrawArc-, FillArc-:		проц {C} ( d: DisplayPtr;  w: Window;  gc: GC;
													x, y, width, height, angle1, angle2: целМЗ );
	FillPolygon-:				проц {C} ( d: DisplayPtr;  w: Window;  gc: GC;
													points: адресВПамяти; npoints, shape, mode: целМЗ );
	SetClipMask-:			проц {C} ( d: DisplayPtr;  gc: GC;  clipMask: Pixmap );
	SetClipRectangles-:	проц {C} ( d: DisplayPtr;  gc: GC;
													clipxorigin, clipyorigin: целМЗ; rectangles: адресВПамяти; n, ordering: целМЗ );
	ListFonts-:				проц {C} ( d: DisplayPtr;  pattern: адресВПамяти; maxnames: целМЗ; перем count: целМЗ ): адресВПамяти;
	FreeFontNames-:		проц {C} ( list: адресВПамяти );
	LoadFont-:				проц {C} ( d: DisplayPtr;  name: адресВПамяти ): целМЗ;
	SelectInput-:				проц {C} ( d: DisplayPtr;  w: Window;  eventMask: длинноеЦелМЗ );
	NextEvent-:				проц {C} ( d: DisplayPtr;  перем event: Event );
	EventsQueued-:			проц {C} ( d: DisplayPtr;  mode: целМЗ ): целМЗ;
	SetInputFocus-:			проц {C} ( d: DisplayPtr;  focus: Window;  revertTo: целМЗ;  time: Time );
	LookupString-:			проц {C} ( перем event: KeyEvent;  перем buf: массив из симв8;  bufsize: целМЗ;
													перем keysym: KeySym;  перем cstat: ComposeStatus ): целМЗ;
	QueryPointer-:			проц {C} ( d: DisplayPtr;  w: Window;  перем rw, cw: Window;
													перем xr, yr, xw, yw: целМЗ; перем keysButtons: INTEGERSET );
	RefreshKeyboardMapping-:
								проц {C} ( event: адресВПамяти );
	Bell-:						проц {C} ( d: DisplayPtr;  percent: целМЗ );
	RebindKeysym-:		проц {C} ( d: DisplayPtr;  reboundsym: KeySym;  перем modlist: Modifiers;
													modlength: целМЗ;  newstring: адресВПамяти;  newlength: целМЗ );
	StringToKeysym-:		проц {C} ( string: адресВПамяти ): KeySym;
	CopyColormapAndFree-:
								проц {C} ( d: DisplayPtr;  cmap: Colormap ): Colormap;
	CreateColormap-:		проц {C} ( d: DisplayPtr;  w: Window;  vis: VisualPtr; alloc: целМЗ ): Colormap;
	MatchVisualInfo-:		проц {C} ( d: DisplayPtr;  screen, depth, class: целМЗ; перем vinfo: VisualInfo ): целМЗ;
	SetWindowColormap-:
								проц {C} ( d: DisplayPtr;  w: Window;  cmap: Colormap );
	QueryBestSize-:		проц {C} ( d: DisplayPtr;  class: целМЗ;
													screen: Drawable;  width, height: целМЗ;  перем w, h: целМЗ );
	CreatePixmap-:			проц {C} ( d: DisplayPtr;  drawable: Drawable;
													width, height, depth: целМЗ ): Pixmap;
	FreePixmap-:			проц {C} ( d: DisplayPtr;  pixmap: Pixmap );
	CreateImage-:			проц {C} ( d: DisplayPtr;  visual: VisualPtr;  depth, format, offset: целМЗ;
													data: адресВПамяти;  width, height, bitmapPad, bytesPerLine: целМЗ ): Image;
	DestroyImage-:			проц {C} ( image: Image );
	SubImage-:				проц {C} ( image: Image;  x, y, width, height: целМЗ ): Image;
	GetImage-:				проц {C} ( d: DisplayPtr;  drawable: Drawable;
													x, y, width, height: целМЗ; planeMask: длинноеЦелМЗ; format: целМЗ ): Image;
	GetSubImage-:			проц {C} ( d: DisplayPtr;  drawable: Drawable;
													x, y, width, height: целМЗ; planeMask: длинноеЦелМЗ; format: целМЗ;  dstImage: Image;
													dstX, dstY: целМЗ ): Image;
	PutImage-:				проц {C} ( d: DisplayPtr;  drawable: Drawable;  gc: GC;  image: Image;
													srcX, srcY, dstX, dstY, width, height: целМЗ );
	PutPixel-:				проц {C} ( image: Image;  x, y: целМЗ; pixel: длинноеЦелМЗ ): целМЗ;
	GetPixel-:				проц {C} ( image: Image;  x, y: целМЗ ): длинноеЦелМЗ;
	AddPixel-:				проц {C} ( image: Image;  value: длинноеЦелМЗ );
	Free-:						проц {C} ( data: адресВПамяти );
(*	SetErrorHandler-:		PROCEDURE {C} ( handler: ErrorHandler );	*)
	GetErrorText-:			проц {C} ( d: DisplayPtr;  errcode: целМЗ; перем buf: массив из симв8; length: целМЗ );
	StoreBytes-:				проц {C} ( d: DisplayPtr;  bytes: адресВПамяти; nbytes: целМЗ );
	FetchBytes-:			проц {C} ( d: DisplayPtr;  перем nbytes: целМЗ ): адресВПамяти;
	SetSelectionOwner-:	проц {C} ( d: DisplayPtr;  selection: Atom;  owner: Window;  time: Time );
	GetSelectionOwner-:	проц {C} ( d: DisplayPtr;  selection: Atom ): Window;
	InternAtom-:				проц {C} ( d: DisplayPtr;  конст name: массив из симв8;  onlyifexists: Bool ): Atom;
	SendEvent-:				проц {C} ( d: DisplayPtr;  w: Window;  propagate: Bool;  eventmask: длинноеЦелМЗ;  event: адресВПамяти );
	ConvertSelection-:		проц {C} ( d: DisplayPtr;  selection, target, property: Atom;
													requestor: Window;  timestamp: Time );
	ChangeProperty-:		проц {C} ( d: DisplayPtr;  w: Window;  property, typ: Atom;
													format, mode: целМЗ; data: адресВПамяти; nelements: целМЗ );
	GetWindowProperty-:
								проц {C} ( d: DisplayPtr;  w: Window;  property: Atom;
													offset, length: длинноеЦелМЗ;  delete: Bool;  reqtype: Atom;  перем typ: Atom;
													перем format: целМЗ; перем nitems, bytesafter: длинноеЦелМЗ;  перем prop: адресВПамяти );
	DeleteProperty-:			проц {C} ( d: DisplayPtr;  w: Window;  property: Atom );
	WarpPointer-:			проц {C} ( d: DisplayPtr;  srcwin, dstwin: Window;  srcx, srcy, srcw, srch, dstx, dsty: целМЗ );
	InstallColormap-:		проц {C} ( d: DisplayPtr;  cmap: Colormap );
	GetGeometry-:			проц {C} ( d: DisplayPtr;  drawable: Drawable; перем root, x, y, width, height, orderWidth, Depth: целМЗ );
	ResizeWindow-:			проц {C} ( d: DisplayPtr;  w: Window;  x, y: целМЗ );
	Synchronize-:			проц {C} ( d: DisplayPtr;  onoff: Bool );
	AllocColor-:				проц {C} ( d: DisplayPtr;  cmap: Colormap;  color: адресВПамяти ): целМЗ;
(*	SetIOErrorHandler-:		PROCEDURE {C} ( handler: IOErrorHandler );	*)
	InitXErrorHandlers-:		проц {C} ( eh: ErrorHandler; ioeh: IOErrorHandler );

	CloseDisplay- : проц {C} (display:DisplayPtr): целМЗ;
	CreateWindow- : проц {C} (display: DisplayPtr; parent: Window; x, y: целМЗ; width, height, borderWidth, depth, class: целМЗ; visual: VisualPtr; valuemask: длинноеЦелМЗ;  перем attributes: XSetWindowAttributes ): Window;
	DestroyWindow-: проц {C}(display:DisplayPtr; win: Window): целМЗ;
	DisplayWidthMM-: проц {C} (d: DisplayPtr; screen: целМЗ ): целМЗ;
	FreeColormap- : проц {C} (display: DisplayPtr; colormap: Colormap);
	FreeCursor- : проц {C} (display: DisplayPtr;  cursor: Cursor);
	XGetAtomName- : проц {C} (display: DisplayPtr; atom: Atom): адресВПамяти;
	GetWindowAttributes- : проц {C} (display: DisplayPtr; win: Window; перем attr: XWindowAttributes): Status;


	GrabKeyboard-: проц {C} (display: DisplayPtr; grabwindow: Window; ownerevents: Bool; pointermode, keyboardmode: целМЗ; time: Time): целМЗ;
	GrabPointer-: проц {C} (display:DisplayPtr; grabwindow: Window; ownerevents: Bool; eventmask: целМЗ; pointermode, keyboardmode: целМЗ; confineto: Window; cursor: Cursor; time: Time): целМЗ;
	LookupKeysym- : проц {C} (конст event: KeyEvent; index: целМЗ): KeySym;
	MapWindow- : проц {C} (display: DisplayPtr; win: Window);
	Pending- : проц {C} (display: DisplayPtr): целМЗ;
	RaiseWindow-: проц {C}(display: DisplayPtr; win: Window);
	RootWindow-: проц {C}(display: DisplayPtr; screen: целМЗ): Window;

	SetNormalHints-: проц {C} (d: DisplayPtr; w: Window; перем hints: XSizeHints);
	GetNormalHints-: проц {C} (d: DisplayPtr; w: Window; перем hints: XSizeHints): Status;

	SetStandardProperties-: проц {C} (display: DisplayPtr; w: Window; конст winName: массив из симв8;
							конст iconName: массив из симв8; iconpixmap: Pixmap;  argv: адресВПамяти; argc: целМЗ; перем hints: XSizeHints);
	SetWMProtocols-: проц {C} (display: DisplayPtr; win: Window; protocols: адресВПамяти (* ARRAY OF Atoms *); count: целМЗ): Status;
	UnmapWindow- : проц {C} (display: DisplayPtr; win: Window);


	(* cut and paste delegates *)
	SendSelection*:	 проц {делегат} (перем event: SelectionRequestEvent );
	ReceiveSelection*:  проц {делегат} (перем event: SelectionEvent );
	ClearSelection*: проц {делегат} ;

	CheckTypedEvent-: проц {C} (display: DisplayPtr; eventType: целМЗ; перем event: Event): Bool;
	CheckMaskEvent-: проц {C} (display: DisplayPtr; eventMask: длинноеЦелМЗ; перем event: Event): Bool;

	CheckTypedWindowEvent-: проц {C} (display: DisplayPtr; window: Window; eventType: целМЗ; перем event: Event): Bool;
	CheckWindowEvent-: проц {C} (display: DisplayPtr; window: Window; eventMask: длинноеЦелМЗ; перем event: Event): Bool;

	(* Font *)
	LoadQueryFont-: проц {C} (display: DisplayPtr; name: адресВПамяти): FontStruct;
	QueryFont- : проц {C} (display: DisplayPtr; name: XID): FontStruct;

	KeycodeToKeysym-: проц {C} (disp: DisplayPtr; keycode: целМЗ; index: целМЗ): KeySym;
	KeysymToKeycode-: проц {C} (disp: DisplayPtr; keysym: KeySym): целМЗ;

	XKeysymToString-  : проц {C} (keysym: KeySym): адресВПамяти;

	проц LinkToX;
	перем xlib: адресВПамяти;
	нач
		Unix.LinkToX;
		xlib := Unix.Dlopen( Unix.libX11name, 2 );
		если xlib = 0 то  (* try default version *)
		 xlib := Unix.Dlopen( "libX11.so", 2 )
		всё;
		если xlib = 0 то
			Трассировка.StringLn( "X11.LinkToX:  Unix.Dlopen( libX11.so ) failed " );  Unix.exit( 3 )
		всё;

		Unix.Dlsym( xlib, "XOpenDisplay", адресОт( OpenDisplay ) );
		Unix.Dlsym( xlib, "XDefaultScreen", адресОт( DefaultScreen ) );
		Unix.Dlsym( xlib, "XDisplayWidth", адресОт( DisplayWidth ) );
		Unix.Dlsym( xlib, "XDisplayHeight", адресОт( DisplayHeight ) );
		Unix.Dlsym( xlib, "XDisplayHeightMM", адресОт( DisplayHeightMM ) );
		Unix.Dlsym( xlib, "XDefaultDepth", адресОт( DefaultDepth ) );
		Unix.Dlsym( xlib, "XDisplayCells", адресОт( DisplayCells ) );
		Unix.Dlsym( xlib, "XDisplayPlanes", адресОт( DisplayPlanes ) );
		Unix.Dlsym( xlib, "XBlackPixel", адресОт( BlackPixel ) );
		Unix.Dlsym( xlib, "XWhitePixel", адресОт( WhitePixel ) );
		Unix.Dlsym( xlib, "XDefaultVisual", адресОт( DefaultVisual ) );
		Unix.Dlsym( xlib, "XDefaultColormap", адресОт( DefaultColormap ) );
		Unix.Dlsym( xlib, "XDefaultRootWindow", адресОт( DefaultRootWindow ) );
		Unix.Dlsym( xlib, "XCreateSimpleWindow", адресОт( CreateSimpleWindow ) );
		Unix.Dlsym( xlib, "XTranslateCoordinates", адресОт( TranslateCoordinates ) );
		Unix.Dlsym( xlib, "XMoveResizeWindow", адресОт( MoveResizeWindow ) );
		Unix.Dlsym( xlib, "XStoreName", адресОт( StoreName ) );
		Unix.Dlsym( xlib, "XSetIconName", адресОт( SetIconName ) );
		Unix.Dlsym( xlib, "XSetCommand", адресОт( SetCommand ) );
		Unix.Dlsym( xlib, "XMapRaised", адресОт( MapRaised ) );
		Unix.Dlsym( xlib, "XLowerWindow", адресОт( LowerWindow ) );
		Unix.Dlsym( xlib, "XClearWindow", адресОт( ClearWindow ) );
		Unix.Dlsym( xlib, "XSync", адресОт( Sync ) );  Unix.Dlsym( xlib, "XFlush", адресОт( Flush ) );
		Unix.Dlsym( xlib, "XStoreColor", адресОт( StoreColor ) );
		Unix.Dlsym( xlib, "XCreateBitmapFromData", адресОт( CreateBitmapFromData ) );
		Unix.Dlsym( xlib, "XCopyArea", адресОт( CopyArea ) );
		Unix.Dlsym( xlib, "XCopyPlane", адресОт( CopyPlane ) );
		Unix.Dlsym( xlib, "XSetStipple", адресОт( SetStipple ) );
		Unix.Dlsym( xlib, "XSetTSOrigin", адресОт( SetTSOrigin ) );
		Unix.Dlsym( xlib, "XFillRectangle", адресОт( FillRectangle ) );
		Unix.Dlsym( xlib, "XDrawPoint", адресОт( DrawPoint ) );
		Unix.Dlsym( xlib, "XDrawString", адресОт( DrawString ) );
		Unix.Dlsym( xlib, "XCreateGC", адресОт( CreateGC ) );
		Unix.Dlsym( xlib, "XSetForeground", адресОт( SetForeground ) );
		Unix.Dlsym( xlib, "XSetBackground", адресОт( SetBackground ) );
		Unix.Dlsym( xlib, "XSetPlaneMask", адресОт( SetPlaneMask ) );
		Unix.Dlsym( xlib, "XSetLineAttributes", адресОт( SetLineAttributes ) );
		Unix.Dlsym( xlib, "XSetFunction", адресОт( SetFunction ) );
		Unix.Dlsym( xlib, "XSetFont", адресОт( SetFont ) );
		Unix.Dlsym( xlib, "XSetFillStyle", адресОт( SetFillStyle ) );
		Unix.Dlsym( xlib, "XSetGraphicsExposures", адресОт( SetGraphicsExposures ) );
		Unix.Dlsym( xlib, "XAllocColorCells", адресОт( AllocColorCells ) );
		Unix.Dlsym( xlib, "XSetWindowBackground", адресОт( SetWindowBackground ) );
		Unix.Dlsym( xlib, "XCreateFontCursor", адресОт( CreateFontCursor ) );
		Unix.Dlsym( xlib, "XCreatePixmapCursor", адресОт( CreatePixmapCursor ) );
		Unix.Dlsym( xlib, "XRecolorCursor", адресОт( RecolorCursor ) );
		Unix.Dlsym( xlib, "XDefineCursor", адресОт( DefineCursor ) );
		Unix.Dlsym( xlib, "XDrawLine", адресОт( DrawLine ) );
		Unix.Dlsym( xlib, "XSetArcMode", адресОт( SetArcMode ) );
		Unix.Dlsym( xlib, "XDrawArc", адресОт( DrawArc ) );
		Unix.Dlsym( xlib, "XFillArc", адресОт( FillArc ) );
		Unix.Dlsym( xlib, "XFillPolygon", адресОт( FillPolygon ) );
		Unix.Dlsym( xlib, "XSetClipMask", адресОт( SetClipMask ) );
		Unix.Dlsym( xlib, "XSetClipRectangles", адресОт( SetClipRectangles ) );
		Unix.Dlsym( xlib, "XListFonts", адресОт( ListFonts ) );
		Unix.Dlsym( xlib, "XFreeFontNames", адресОт( FreeFontNames ) );
		Unix.Dlsym( xlib, "XLoadFont", адресОт( LoadFont ) );
		Unix.Dlsym( xlib, "XSelectInput", адресОт( SelectInput ) );
		Unix.Dlsym( xlib, "XSync", адресОт( Sync ) );
		Unix.Dlsym( xlib, "XNextEvent", адресОт( NextEvent ) );
		Unix.Dlsym( xlib, "XEventsQueued", адресОт( EventsQueued ) );
		Unix.Dlsym( xlib, "XSetInputFocus", адресОт( SetInputFocus ) );
		Unix.Dlsym( xlib, "XLookupString", адресОт( LookupString ) );
		Unix.Dlsym( xlib, "XQueryPointer", адресОт( QueryPointer ) );
		Unix.Dlsym( xlib, "XRefreshKeyboardMapping", адресОт( RefreshKeyboardMapping ) );
		Unix.Dlsym( xlib, "XBell", адресОт( Bell ) );
		Unix.Dlsym( xlib, "XRebindKeysym", адресОт( RebindKeysym ) );
		Unix.Dlsym( xlib, "XStringToKeysym", адресОт( StringToKeysym ) );
		Unix.Dlsym( xlib, "XCopyColormapAndFree", адресОт( CopyColormapAndFree ) );
		Unix.Dlsym( xlib, "XCreateColormap", адресОт( CreateColormap ) );
		Unix.Dlsym( xlib, "XMatchVisualInfo", адресОт( MatchVisualInfo ) );
		Unix.Dlsym( xlib, "XSetWindowColormap", адресОт( SetWindowColormap ) );
		Unix.Dlsym( xlib, "XQueryBestSize", адресОт( QueryBestSize ) );
		Unix.Dlsym( xlib, "XCreatePixmap", адресОт( CreatePixmap ) );
		Unix.Dlsym( xlib, "XFreePixmap", адресОт( FreePixmap ) );
		Unix.Dlsym( xlib, "XCreateImage", адресОт( CreateImage ) );
		Unix.Dlsym( xlib, "XDestroyImage", адресОт( DestroyImage ) );
		Unix.Dlsym( xlib, "XSubImage", адресОт( SubImage ) );
		Unix.Dlsym( xlib, "XGetImage", адресОт( GetImage ) );
		Unix.Dlsym( xlib, "XGetSubImage", адресОт( GetSubImage ) );
		Unix.Dlsym( xlib, "XPutImage", адресОт( PutImage ) );
		Unix.Dlsym( xlib, "XPutPixel", адресОт( PutPixel ) );
		Unix.Dlsym( xlib, "XGetPixel", адресОт( GetPixel ) );
		Unix.Dlsym( xlib, "XAddPixel", адресОт( AddPixel ) );
		Unix.Dlsym( xlib, "XFree", адресОт( Free ) );
	(*	Unix.Dlsym( xlib, "XSetErrorHandler", ADDRESSOF( SetErrorHandler ) )	*)
	(*	Unix.Dlsym( xlib, "XSetIOErrorHandler", ADDRESSOF( SetIOErrorHandler ) );	*)
		Unix.Dlsym( xlib, "XGetErrorText", адресОт( GetErrorText ) );
		Unix.Dlsym( xlib, "XStoreBytes", адресОт( StoreBytes ) );
		Unix.Dlsym( xlib, "XFetchBytes", адресОт( FetchBytes ) );
		Unix.Dlsym( xlib, "XSetSelectionOwner", адресОт( SetSelectionOwner ) );
		Unix.Dlsym( xlib, "XGetSelectionOwner", адресОт( GetSelectionOwner ) );
		Unix.Dlsym( xlib, "XInternAtom", адресОт( InternAtom ) );
		Unix.Dlsym( xlib, "XSendEvent", адресОт( SendEvent ) );
		Unix.Dlsym( xlib, "XConvertSelection", адресОт( ConvertSelection ) );
		Unix.Dlsym( xlib, "XChangeProperty", адресОт( ChangeProperty ) );
		Unix.Dlsym( xlib, "XGetWindowProperty", адресОт( GetWindowProperty ) );
		Unix.Dlsym( xlib, "XDeleteProperty", адресОт( DeleteProperty ) );
		Unix.Dlsym( xlib, "XWarpPointer", адресОт( WarpPointer ) );
		Unix.Dlsym( xlib, "XInstallColormap", адресОт( InstallColormap ) );
		Unix.Dlsym( xlib, "XGetGeometry", адресОт( GetGeometry ) );
		Unix.Dlsym( xlib, "XResizeWindow", адресОт( ResizeWindow ) );
		Unix.Dlsym( xlib, "XSynchronize", адресОт( Synchronize ) );
		Unix.Dlsym( xlib, "XAllocColor", адресОт( AllocColor ) );
		Unix.Dlsym( xlib, "XCloseDisplay", адресОт( CloseDisplay));
		Unix.Dlsym( xlib, "XCreateWindow", адресОт( CreateWindow));
		Unix.Dlsym( xlib, "XDestroyWindow", адресОт( DestroyWindow));
		Unix.Dlsym( xlib, "XDisplayWidthMM", адресОт( DisplayWidthMM));
		Unix.Dlsym( xlib, "XFreeColormap", адресОт( FreeColormap));
		Unix.Dlsym( xlib, "XFreeCursor", адресОт( FreeCursor));
		Unix.Dlsym( xlib, "XGetAtomName", адресОт( XGetAtomName));
		Unix.Dlsym( xlib, "XGetNormalHints", адресОт( GetNormalHints));
		Unix.Dlsym( xlib, "XGetWindowAttributes", адресОт( GetWindowAttributes));
		Unix.Dlsym( xlib, "XGetWindowProperty", адресОт( GetWindowProperty));
		Unix.Dlsym( xlib, "XGrabKeyboard", адресОт( GrabKeyboard));
		Unix.Dlsym( xlib, "XGrabPointer", адресОт( GrabPointer));
		Unix.Dlsym( xlib, "XLookupKeysym", адресОт( LookupKeysym));
		Unix.Dlsym( xlib, "XLookupString", адресОт( LookupString));
		Unix.Dlsym( xlib, "XMapWindow", адресОт( MapWindow));
		Unix.Dlsym( xlib, "XUnmapWindow", адресОт( UnmapWindow));
		Unix.Dlsym( xlib, "XPending", адресОт( Pending));
		Unix.Dlsym( xlib, "XRaiseWindow", адресОт( RaiseWindow));
		Unix.Dlsym( xlib, "XRootWindow", адресОт( RootWindow));
		Unix.Dlsym( xlib, "XSendEvent", адресОт( SendEvent));
		Unix.Dlsym( xlib, "XSetNormalHints", адресОт( SetNormalHints));
		Unix.Dlsym( xlib, "XSetStandardProperties", адресОт( SetStandardProperties));
		Unix.Dlsym( xlib, "XSetWMProtocols", адресОт( SetWMProtocols));
		Unix.Dlsym( xlib, "XStoreName", адресОт( StoreName));
		Unix.Dlsym( xlib, "XWarpPointer", адресОт( WarpPointer));
		Unix.Dlsym( xlib, "XCheckTypedEvent", адресОт( CheckTypedEvent));
		Unix.Dlsym( xlib, "XCheckMaskEvent", адресОт( CheckMaskEvent));
		Unix.Dlsym( xlib, "XCheckTypedWindowEvent", адресОт( CheckTypedWindowEvent));
		Unix.Dlsym( xlib, "XCheckWindowEvent", адресОт( CheckWindowEvent));
		Unix.Dlsym(xlib, 'XLoadQueryFont', адресОт( LoadQueryFont));
		Unix.Dlsym(xlib, 'XQueryFont', адресОт( QueryFont));
		Unix.Dlsym(xlib, "XKeycodeToKeysym", адресОт(KeycodeToKeysym));
		Unix.Dlsym(xlib, "XKeysymToKeycode", адресОт(KeysymToKeycode));
		Unix.Dlsym(xlib, "XKeysymToString", адресОт(XKeysymToString));

	кон LinkToX;

	проц MyErrorHandler( d: DisplayPtr;  err {неОтслСборщиком}: ErrorEventPtr ): цел32;
	нач
		ErrorFlag := истина;
		GetErrorText( d, кодСимв8( err.errorCode ), ErrorText, BufferSize );
		Трассировка.StringLn(  ErrorText );
		возврат 0
	кон MyErrorHandler;

	проц MyIOErrorHandler( d: DisplayPtr): цел32;
	нач
		ErrorFlag := истина;  ErrorText := "X11 I/O Error";
		Трассировка.StringLn( ErrorText );
		увел( ioErrors );
		нц кц;
		возврат 0
	кон MyIOErrorHandler;

нач
	ioErrors := 0;  LinkToX;  ErrorFlag := ложь;

	(* Oberon procedures cannot be used as callback procedures because of
		incompatibilities between the PPC Oberon ABI and the PPC SYSV ABI.
		PPC Oberon follows the old MAC and IBM AIX ABI *)
	Unix.InitXErrorHandlers( MyErrorHandler, MyIOErrorHandler );
кон X11.
