модуль WinFS;   (*AUTHOR "fof,ejz"; PURPOSE "Windows file system  for WinAos"; *)

использует НИЗКОУР, Machine, Kernel32, ЛогЯдра, Modules, Kernel, Files, Commands, UCS2;
(* orange marked lines denote overloaded methods *)

конст
	PathDelimiter = "\";  BufferSize = 4096;
	(** File flags *)
	ReadOnly* = Files.ReadOnly;
	Directory* = Files.Directory;
	Hidden* = Files.Hidden;
	System* = Files.System;
	Archive* = Files.Archive;
	Temporary* = Files.Temporary;

	TraceFile = 0;  TraceFileSystem = 1;  TraceCollection = 2;  TraceSearch = 3;  Trace = {};
	TraceMounting=ложь;
	deviceArrival* = 08000H;   (* DBT_DEVICEARRIVAL = 08000H *)
	deviceRemove* = 08004H;   (* DBT_DEVICEREMOVECOMPLETE = 08004H *)


тип
	FileName = массив Kernel32.MaxPath из симв8; 
	FileNameU2 = массив Kernel32.MaxPath из UCS2.Char;
	PFileName = укль на FileName;
	PFileNameU2 = укль на FileNameU2;
	NotificationProc* = проц ( type: цел32;  drives: мнвоНаБитахМЗ );
	Notification = укль на запись
		p: NotificationProc;
		next: Notification
	кон;

перем
	searchPath: массив 4 * Kernel32.MaxPath из симв8;
	workPath, tempPath: FileName;  
	UseU2* : булево;
	
	
	notifications: Notification;
тип

	SearchByName = окласс
	перем sname: FileName;
		found: File;

		проц Init( name: массив из симв8 );
		нач
			found := НУЛЬ;  UpperCase( name, sname )
		кон Init;

		проц EnumFile( f: динамическиТипизированныйУкль;  перем cont: булево );
		перем F: File;  fname: FileName;
		нач
			F := f( File );  UpperCase( F.fname, fname );

			если TraceSearch в Trace то ЛогЯдра.пСтроку8( "Enumerate: " );  ЛогЯдра.пСтроку8( fname );
			всё;
			если sname = fname то found := F;  cont := ложь иначе cont := истина всё;
			если TraceSearch в Trace то
				если cont то ЛогЯдра.пСтроку8( " # " );  иначе ЛогЯдра.пСтроку8( " = " );  всё;
				ЛогЯдра.пСтроку8( sname );  ЛогЯдра.пВК_ПС;
			всё;
		кон EnumFile;

	кон SearchByName;

	Collection = окласс  (* methods in Collection shared by objects Filesystem and File *)
	перем oldFiles, newFiles: Kernel.FinalizedCollection;
		search: SearchByName;
		fileKey: цел32;

		проц & Init*;
		нач
			нов( oldFiles );  нов( newFiles );  нов( search );  fileKey := -1;
		кон Init;

		проц GetNextFileKey( ): цел32;
		нач {единолично}
			умень( fileKey );  возврат fileKey
		кон GetNextFileKey;

		проц Register( F: File );
		нач {единолично}
			если TraceCollection в Trace то ЛогЯдра.пСтроку8( "Collections.Register " );  ЛогЯдра.пСтроку8( F.fname );  ЛогЯдра.пВК_ПС;  всё;
			oldFiles.Add( F, FinalizeFile );  newFiles.Remove( F );  умень( fileKey );  F.Init( F.fname, F.hfile, fileKey,F.fileSystem );
		кон Register;

		проц Unregister( F: File );
		нач {единолично}
			если TraceCollection в Trace то ЛогЯдра.пСтроку8( "Unregister " );  ЛогЯдра.пСтроку8( F.fname );  ЛогЯдра.пВК_ПС;  всё;
			oldFiles.Remove( F );  newFiles.Add( F, FinalizeFile (* FinalizeFile*) );  F.Init( F.fname, Kernel32.InvalidHandleValue, 0, F.fileSystem );
		кон Unregister;

		проц AddNew( F: File );
		нач {единолично}
			если TraceCollection в Trace то ЛогЯдра.пСтроку8( "Collections.AddNew: " );  ЛогЯдра.пСтроку8( F.fname );  ЛогЯдра.пВК_ПС;  всё;
			newFiles.Add( F, FinalizeFile );
		кон AddNew;

		проц AddOld( F: File );
		нач {единолично}
			если TraceCollection в Trace то ЛогЯдра.пСтроку8( "Collections.AddOld: " );  ЛогЯдра.пСтроку8( F.fname );  ЛогЯдра.пВК_ПС;  всё;
			oldFiles.Add( F, FinalizeFile );
		кон AddOld;

		проц ByName( перем fname: массив из симв8 ): File;
		нач {единолично}
			если TraceCollection в Trace то ЛогЯдра.пСтроку8( "Collections.ByName: " );  ЛогЯдра.пСтроку8( fname );  ЛогЯдра.пВК_ПС;  всё;
			search.Init( fname );  oldFiles.Enumerate( search.EnumFile );  возврат search.found
		кон ByName;

		проц ByNameNotGC( перем fname: массив из симв8 ): File;
		нач {единолично}
			если TraceCollection в Trace то ЛогЯдра.пСтроку8( "Collections.ByName: " );  ЛогЯдра.пСтроку8( fname );  ЛогЯдра.пВК_ПС;  всё;
			search.Init( fname );  oldFiles.EnumerateN( search.EnumFile );  возврат search.found;
		кон ByNameNotGC;

		проц Finalize;
		нач {единолично}
			если TraceCollection в Trace то ЛогЯдра.пСтроку8( "Collections.Finalize " );  ЛогЯдра.пВК_ПС;  всё;
			newFiles.Enumerate( EnumFinalize );  newFiles.Clear();  oldFiles.Enumerate( EnumFinalize );  oldFiles.Clear();
		кон Finalize;

		проц FinalizeFile( obj: динамическиТипизированныйУкль );
		перем F: File;
		нач
			F := obj( File );
			если TraceCollection в Trace то ЛогЯдра.пСтроку8( "Collections.FinalizeFile " );  ЛогЯдра.пСтроку8( F.fname );  ЛогЯдра.пВК_ПС;  всё;
			F.Finalize()
		кон FinalizeFile;

	кон Collection;

	AliasFileSystem* = окласс (Files.FileSystem)
	перем fs: WinFileSystem;
		useprefix*: булево;

		проц Prefix( конст name: массив из симв8; перем res: массив из симв8 );
		нач
			если useprefix и (name # "") то Join( prefix, ":", name, res );  иначе копируйСтрокуДо0( name, res );  всё;
		кон Prefix;

		проц & Init*;
		нач
			сам.fs := winFS;  useprefix := истина;  включиВоМнвоНаБитах( flags, Files.NeedsPrefix );
		кон Init;

		проц {перекрыта}New0*(конст name: массив из симв8 ): Files.File;
		перем fname: FileName;  f: Files.File;
		нач
			Prefix( name, fname ); f := fs.New0( fname ); если f # НУЛЬ то  f.fs := сам; всё;  возврат f;
		кон New0;

		проц {перекрыта}Old0*(конст name: массив из симв8 ): Files.File;
		перем fname: FileName;   f: Files.File;
		нач
			Prefix( name, fname );  f :=  fs.Old0( fname ); если f # НУЛЬ то  f.fs := сам; всё; возврат f;
		кон Old0;

		проц {перекрыта}Delete0*(конст name: массив из симв8;  перем key: цел32; перем res: целМЗ);
		перем fname: FileName;
		нач
			Prefix( name, fname );  fs.Delete0( fname, key, res );
		кон Delete0;

		проц {перекрыта}Rename0*(конст old, new: массив из симв8;  fold: Files.File;  перем res: целМЗ );
		перем old0, new0: FileName;
		нач
			Prefix( old, old0 );  Prefix( new, new0 );  fs.Rename0( old0, new0, fold, res );
		кон Rename0;

		проц {перекрыта}Enumerate0*(конст mask: массив из симв8;  flags: мнвоНаБитахМЗ;  enum: Files.Enumerator );
		перем fmask: FileName;
		нач
			Prefix( mask, fmask );  fs.Enumerate1( fmask, flags, enum, useprefix );
		кон Enumerate0;

		проц {перекрыта}FileKey*(конст name: массив из симв8 ): цел32;
		перем fname: FileName;
		нач
			Prefix( name, fname );  возврат fs.FileKey( fname );
		кон FileKey;

		проц {перекрыта}CreateDirectory0*(конст name: массив из симв8;  перем res: целМЗ );
		перем fname: FileName;
		нач
			Prefix( name, fname );  fs.CreateDirectory0( fname, res );
		кон CreateDirectory0;

		проц {перекрыта}RemoveDirectory0*(конст name: массив из симв8;  force: булево;  перем key: цел32; перем res: целМЗ );
		перем fname: FileName;
		нач
			Prefix( name, fname );  fs.RemoveDirectory0( fname, force, key, res );
		кон RemoveDirectory0;

		проц {перекрыта}Has*(конст name: массив из симв8; перем fullName: массив из симв8; перем flags: мнвоНаБитахМЗ): булево;
		перем fname: FileName;
		нач
			Prefix(name, fname );  возврат fs.Has(fname, fullName, flags);
		кон Has;


	кон AliasFileSystem;

	WinFileSystem = окласс (* own object for synchronisation of all actions on the (unique) windows file system *)
	перем collection: Collection;

		проц & Init*;
		нач
			нов( collection );
		кон Init;

		проц New0( name: массив из симв8 ): Files.File;
		перем F: File;  fnameU2: FileNameU2;
		нач {единолично}
			ConvertChar( name, Files.PathDelimiter, PathDelimiter );
			если TraceFileSystem в Trace то ЛогЯдра.пСтроку8( "New0 " );  ЛогЯдра.пСтроку8( name );  ЛогЯдра.пВК_ПС;  всё;
			F := НУЛЬ;
			если name = "" то  (* temporary file *)
				нов( F, name, Kernel32.InvalidHandleValue, 0, сам ); collection.AddNew( F );
			аесли FullPathNameW( UCS2.U8vNovU2(name)^, fnameU2 ) и CheckPath(UCS2.U2vNovU8(fnameU2)^) то
				нов( F, UCS2.U2vNovU8(fnameU2)^, Kernel32.InvalidHandleValue, 0, сам ); collection.AddNew( F );
			всё;
			если TraceFileSystem в Trace то ЛогЯдра.пСтроку8( "failed" );  ЛогЯдра.пВК_ПС;  всё;
			возврат F;
		кон New0;


		проц Old0( name: массив из симв8 ): Files.File;
		перем F: File;  hfile: Kernel32.HANDLE;  fname: FileName; nameU2 : UCS2.PString; fnameU2 : FileNameU2;
		нач {единолично}
			ConvertChar( name, Files.PathDelimiter, PathDelimiter );
			если TraceFileSystem в Trace то ЛогЯдра.пСтроку8( "Old0 " );  ЛогЯдра.пСтроку8( name );  ЛогЯдра.пВК_ПС;  всё;

			nameU2 := UCS2.U8vNovU2(name);
			если (name # "") и FindFileU2( nameU2^, fnameU2 ) то
				UCS2.U2вU8ОбрезаяИДобиваяНулём(fnameU2,fname);
				hfile := Kernel32.CreateFileW( fnameU2, {Kernel32.GenericRead}, {Kernel32.FileShareRead, Kernel32.FileShareWrite}, НУЛЬ , Kernel32.OpenExisting, {Kernel32.FileAttributeNormal}, 0 );
				если hfile # Kernel32.InvalidHandleValue то нов( F, fname, hfile, collection.GetNextFileKey() , сам);    collection.AddOld( F );  возврат F всё
			всё;
			если TraceFileSystem в Trace то ЛогЯдра.пСтроку8( "failed" );  ЛогЯдра.пВК_ПС;  всё;
			возврат НУЛЬ
		кон Old0;

		проц Delete0( name: массив из симв8;  перем key: цел32; перем res: целМЗ );
		перем nameU2 : UCS2.PString; fname : FileName; fnameU2: FileNameU2;  F: File;  ret: Kernel32.BOOL;
		нач {единолично}
			ConvertChar( name, Files.PathDelimiter, PathDelimiter );  key := 0;  res := 1;
			nameU2 := UCS2.U8vNovU2(name);
			если FullPathNameW( nameU2^, fnameU2 ) то
				UCS2.U2вU8ОбрезаяИДобиваяНулём(fnameU2,fname);
				F := collection.ByName( fname );
				если F # НУЛЬ то
					key := F.key;
					если F.ToTemp() то res := 0 всё;
				иначе
					ret := Kernel32.DeleteFileW( fnameU2 );
					если ret # 0 то res := 0 всё
				всё
			всё
		кон Delete0;

		проц Rename0( old, new: массив из симв8;  fold: Files.File;  перем res: целМЗ );
		перем fnold, fnnew: FileName;  Fo, Fn: File;  ret: Kernel32.BOOL;
		
		oldU2, newU2 : UCS2.PString;
		fnoldU2, fnnewU2 : FileNameU2;
		
		
		нач {единолично}
			если TraceFileSystem в Trace то ЛогЯдра.пСтроку8( "Rename " );  ЛогЯдра.пСтроку8( old );  ЛогЯдра.пСтроку8( " -> " );  ЛогЯдра.пСтроку8( new );  ЛогЯдра.пВК_ПС;  всё;
			ConvertChar( old, Files.PathDelimiter, PathDelimiter );  ConvertChar( new, Files.PathDelimiter, PathDelimiter );  res := 1;
			oldU2 := UCS2.U8vNovU2(old); newU2 := UCS2.U8vNovU2(new);
			если FullPathNameW( oldU2^, fnoldU2 ) и FullPathNameW( newU2^, fnnewU2 ) то
				Fn := collection.ByName( UCS2.U2vNovU8(fnnewU2)^ );
				если Fn # НУЛЬ то
					если ~Fn.ToTemp() то возврат всё
				всё;
				если fold # НУЛЬ то
					Fo := fold( File );
					если ~Fo.ToTemp() то возврат всё;
					ret := Kernel32.CopyFileW( UCS2.U8vNovU2(Fo.tfname^)^, fnnewU2, 0 )
				иначе ret := Kernel32.MoveFileExW( fnoldU2, fnnewU2, {Kernel32.MoveFileReplaceExisting, Kernel32.MoveFileCopyAllowed} )
				всё;
				если ret # 0 то res := 0 всё
			аесли TraceFileSystem в Trace то ЛогЯдра.пСтроку8( "Rename failed :" );  ЛогЯдра.пСтроку8( fnold );  ЛогЯдра.пСтроку8( " => " );  ЛогЯдра.пСтроку8( fnnew );  ЛогЯдра.пВК_ПС;
			всё
		кон Rename0;

		проц Enumerate1( mask: массив из симв8;  flags: мнвоНаБитахМЗ;  enum: Files.Enumerator;  useprefix: булево );
		перем i, j: цел32;
			path, pattern: массив 256 из симв8;
			(* pathU2, patternU2: ARRAY 256 OF UCS2.Char; *)
			attr: мнвоНаБитахМЗ;  curPath, longname: FileName;
			curPathU2 : FileNameU2;

			проц EnumeratePath;
			перем h: Kernel32.HANDLE;  FD: Kernel32.FindDataW;  ft: Kernel32.FileTime;  st: Kernel32.SystemTime;  i, j, t, d: цел32; 
			cFileNameU8: укль на массив из симв8;
			нач
				i := 0;
				нцПока curPath[i] # 0X делай увел( i ) кц;
				если curPath[i - 1] # PathDelimiter то curPath[i] := PathDelimiter;  увел( i );  curPath[i] := 0X всё;
				j := i - 1;  h := 0;
				нцПока pattern[h] # 0X делай curPath[i] := pattern[h];  увел( i );  увел( h ) кц;
				если h = 0 то curPath[i] := "*";  увел( i );  curPath[i] := ".";  увел( i );  curPath[i] := "*";  увел( i ) всё;
				curPath[i] := 0X;

				UCS2.U8вU2ОбрезаяИДобиваяНулём(curPath, curPathU2);
				h := Kernel32.FindFirstFileW( curPathU2, FD );
				UCS2.U2вU8ОбрезаяИДобиваяНулём(curPathU2, curPath);
				
				curPath[j] := 0X;  ConvertChar( curPath, PathDelimiter, Files.PathDelimiter ); FixDriveLetter (curPath);
				если h # Kernel32.InvalidHandleValue то
					t := 0;  d := 0;
					нцДо
						если Files.EnumTime в flags то
							неважно Kernel32.FileTimeToLocalFileTime( FD.ftLastWriteTime, ft ); неважно  Kernel32.FileTimeToSystemTime( ft, st );
							d := устарПреобразуйКБолееШирокомуЦел( st.wYear - 1900 ) * 200H + устарПреобразуйКБолееШирокомуЦел( st.wMonth ) * 20H + устарПреобразуйКБолееШирокомуЦел( st.wDay );  t := устарПреобразуйКБолееШирокомуЦел( st.wHour ) * 1000H + устарПреобразуйКБолееШирокомуЦел( st.wMinute ) * 40H + устарПреобразуйКБолееШирокомуЦел( st.wSecond );
						всё;
						cFileNameU8 := UCS2.U2vNovU8(FD.cFileName);
						Join( curPath, "/", cFileNameU8^, longname );
						если ~(Kernel32.FileAttributeDirectory в FD.dwFileAttributes) то
							enum.PutEntry( longname, {}, t, d, FD.nFileSizeLow )
						аесли (cFileNameU8^ # ".") и ((cFileNameU8^ # "..")) то
							enum.PutEntry( longname, {Files.Directory}, t, d, FD.nFileSizeLow )
						всё;
					кцПри Kernel32.FindNextFileW( h, FD ) = Kernel32.False;
					неважно Kernel32.FindClose( h )
				всё;
			кон EnumeratePath;

		нач {единолично}
			копируйСтрокуДо0( mask, path );  ConvertChar( path, Files.PathDelimiter, PathDelimiter );  attr := Kernel32.GetFileAttributesW( UCS2.U8vNovU2(path)^ );  path := "";
			если (Kernel32.FileAttributeDirectory в attr) и (~(Kernel32.FileAttributeTemporary в attr)) то 
				копируйСтрокуДо0( mask, path );  копируйСтрокуДо0( "*", pattern ); 
			иначе 
				(* ПРАВЬМЯ - здесь не делаем U2 *)
				Files.SplitPath( mask, path, pattern );  всё;
			(* UCS2.U8вU2ОбрезаяИДобиваяНулём(path, pathU2);
			UCS2.U8вU2ОбрезаяИДобиваяНулём(pattern, patternU2); *)
			если TraceFileSystem в Trace то
				ЛогЯдра.пСтроку8( "Enumerate0: " );   ЛогЯдра.пСтроку8( mask );  ЛогЯдра.пСтроку8( " :: " );  ЛогЯдра.пСтроку8( path );  ЛогЯдра.пСтроку8( " :: " );  ЛогЯдра.пСтроку8( pattern );  ЛогЯдра.пВК_ПС;
			всё;

			если enum = НУЛЬ то возврат
			всё;
			если path = "." то копируйСтрокуДо0( workPath, curPath );  EnumeratePath()
			аесли IsLocalPath(path) то
				копируйСтрокуДо0( workPath, curPath );
				если path # "" то
					ConvertChar(curPath, PathDelimiter, Files.PathDelimiter);
					Files.JoinPath(curPath, path, curPath);
					ConvertChar( curPath, Files.PathDelimiter, PathDelimiter );
				всё;
				EnumeratePath();
				если ~useprefix то
					i := 0;  j := 0;
					нцПока searchPath[i] # 0X делай
						если searchPath[i] # ";" то curPath[j] := searchPath[i];  увел( j )
						аесли j > 0 то
							curPath[j] := 0X;
							если curPath # workPath то
								если path # "" то
									ConvertChar(curPath, PathDelimiter, Files.PathDelimiter);
									Files.JoinPath(curPath, path, curPath);
									ConvertChar( curPath, Files.PathDelimiter, PathDelimiter );
								всё;
								EnumeratePath()
							всё;
							j := 0
						всё;
						увел( i )
					кц;
					если j > 0 то
						curPath[j] := 0X;
						если path # "" то
							ConvertChar(curPath, PathDelimiter, Files.PathDelimiter);
							Files.JoinPath(curPath, path, curPath);
							ConvertChar( curPath, Files.PathDelimiter, PathDelimiter );
						всё;
						если curPath # workPath то EnumeratePath() всё
					всё;
				всё;
			иначе (* path is an absolute path *)
				копируйСтрокуДо0( path, curPath );  ConvertChar( curPath, Files.PathDelimiter, PathDelimiter );  EnumeratePath()
			всё;
		кон Enumerate1;

		проц FileKey( name: массив из симв8 ): цел32;
		перем fname: FileName;  F: File;
		нач {единолично}
			(*RETURN 0;  (* Finalizers may steal file *) *)

			если name = "" то возврат 0 всё;

			если TraceFileSystem в Trace то ЛогЯдра.пСтроку8( "FileKey " );  ЛогЯдра.пСтроку8( name );  ЛогЯдра.пВК_ПС;
			всё;
			ConvertChar( name, Files.PathDelimiter, PathDelimiter );
			если FindFile( name, fname ) (* OR FullPathName(name,fname) *) то
				F := collection.ByNameNotGC( fname );
				если F # НУЛЬ то возврат F.key всё
			аесли TraceFileSystem в Trace то ЛогЯдра.пСтроку8( "not found: " );  ЛогЯдра.пСтроку8( name );  ЛогЯдра.пСтроку8( "(" );  ЛогЯдра.пСтроку8( fname );  ЛогЯдра.пСтроку8( ")" );  ЛогЯдра.пВК_ПС;
			всё;
			если TraceFileSystem в Trace то ЛогЯдра.пСтроку8( "no key: " );  ЛогЯдра.пСтроку8( name );  ЛогЯдра.пСтроку8( "(" );  ЛогЯдра.пСтроку8( fname );  ЛогЯдра.пСтроку8( ")" );  ЛогЯдра.пВК_ПС;  всё;
			возврат 0

		кон FileKey;

		проц CreateDirectory0( name: массив из симв8;  перем res: целМЗ );
		перем ret: Kernel32.BOOL; nameUCS2 : UCS2.PString;
		нач {единолично}
			ConvertChar( name, Files.PathDelimiter, PathDelimiter );  
			nameUCS2 := UCS2.U8vNovU2(name);
			ret := Kernel32.CreateDirectoryW( nameUCS2^, НУЛЬ );
			если ret # 0 то
				res := 0
			аесли Kernel32.GetLastError() = 183 (*ERROR_ALREADY_EXISTS*) то res := Files.FileAlreadyExists;
			иначе res := 1 всё кон CreateDirectory0;

		проц RemoveDirectory0( name: массив из симв8;  force: булево;  перем key: цел32; перем res: целМЗ );
		перем ret: Kernel32.BOOL; nameUCS2 : UCS2.PString;
		нач {единолично}
			ConvertChar( name, Files.PathDelimiter, PathDelimiter );  key := 0;  res := 1;
			nameUCS2 := UCS2.U8vNovU2(name);
			если ~force то
				ret := Kernel32.RemoveDirectoryW( nameUCS2^ );
				если ret # 0 то res := 0 всё
			иначе res := -1
			всё
		кон RemoveDirectory0;

		проц Finalize;
		нач
			collection.Finalize();
		кон Finalize;

		проц Has*(конст fileName: массив из симв8; перем fullName: массив из симв8; перем flags: мнвоНаБитахМЗ): булево;
		перем name: FileName; fullNameU2 : UCS2.PString;
		нач
			копируйСтрокуДо0(fileName, name);
			нов(fullNameU2,длинаМассива(fullName));
			UCS2.U8вU2ОбрезаяИДобиваяНулём(fullName,fullNameU2^);
			ConvertChar(name, Files.PathDelimiter, PathDelimiter );
			если FindFileU2(UCS2.U8vNovU2(fileName)^, fullNameU2^) то
				flags := FileFlags(Kernel32.GetFileAttributesW(fullNameU2^));
				UCS2.U2вU8ОбрезаяИДобиваяНулём(fullNameU2^,fullName);
				ConvertChar(fullName, PathDelimiter,Files.PathDelimiter);
				возврат истина
			иначе
				UCS2.U2вU8ОбрезаяИДобиваяНулём(fullNameU2^,fullName);
				возврат ложь
			всё;
		кон Has;

	кон WinFileSystem;

	Buffer = укль на запись
		data: массив BufferSize из симв8;
		apos, len: цел32;
		dirty: булево
	кон;

	File* = окласс (Files.File)
	перем fname: FileName;
		tfname: PFileName;
		hfile: Kernel32.HANDLE;
		buffer: Buffer;
		fsize, fpos: цел32;
		fileSystem: WinFileSystem;

		проц &Init( перем name: массив из симв8;  hfile: Kernel32.HANDLE;  key: цел32 ; fs: WinFileSystem);
		перем s: INTEGERSET;  res: Kernel32.BOOL; nameU2 : UCS2.PString;
		нач
			nameU2 := UCS2.U8vNovU2(name);
			если TraceFile в Trace то ЛогЯдра.пСтроку8( "Init: " );  ЛогЯдра.пСтроку8( name );  ЛогЯдра.пСтроку8( " (" );  ЛогЯдра.пЦел64( key, 1 );  ЛогЯдра.пСтроку8( ")" );  ЛогЯдра.пВК_ПС;  всё;
			сам.key := key;  fpos := 0;  сам.hfile := hfile;  копируйСтрокуДо0( name, сам.fname );  tfname := НУЛЬ;
			если hfile # Kernel32.InvalidHandleValue то
				fsize := Kernel32.GetFileSize( hfile, НУЛЬ );  утв( fsize >= 0 );  s := Kernel32.GetFileAttributesW( nameU2^ );
				если Kernel32.FileAttributeTemporary в s то исключиИзМнваНаБитах( s, Kernel32.FileAttributeTemporary );  res := Kernel32.SetFileAttributesW( nameU2^, s );  утв( res # 0 );  s := Kernel32.GetFileAttributesW( nameU2^ ) всё;
				flags := FileFlags( s )
			иначе flags := {Temporary};  fsize := 0
			всё;
			если buffer = НУЛЬ то нов( buffer );  всё;
			buffer.apos := -1;  buffer.len := 0;  buffer.dirty := ложь;
			fileSystem := fs
		кон Init;


		проц {перекрыта}Set*( перем r: Files.Rider;  pos: Files.Position );
		перем size: цел32;
		нач {единолично}
			если hfile # Kernel32.InvalidHandleValue то
				size := Kernel32.GetFileSize( hfile, НУЛЬ );   (* maybe Windows has modified the file since last access, but we ignore file changes once the file rider is set *)
				если size > fsize то fsize := size всё;
			всё;
			r.eof := ложь;  r.res := 0;  r.file := сам;  r.fs := fs;
			если pos < 0 то pos := 0
			аесли pos > fsize то pos := fsize
			всё;
			r.apos := pos DIV BufferSize;  r.bpos := размерМЗ(pos остОтДеленияНа BufferSize);
		кон Set;

		проц {перекрыта}Pos*( перем r: Files.Rider ): Files.Position;
		нач
			возврат r.apos * BufferSize + r.bpos
		кон Pos;

		проц WriteBuffer;
		перем pos, n: цел32;  res: Kernel32.BOOL; tfnameU2 : PFileNameU2;  
		нач
			утв( buffer.dirty );  утв( buffer.len > 0 );  pos := buffer.apos * BufferSize;
			если hfile = Kernel32.InvalidHandleValue то
				утв( Temporary в flags );  
				нов( сам.tfname ); нов(tfnameU2); 
				TempNameU2( tfnameU2^ ); UCS2.U2вU8ОбрезаяИДобиваяНулём(tfnameU2^, сам.tfname^);
				hfile := Kernel32.CreateFileW( tfnameU2^, {Kernel32.GenericRead, Kernel32.GenericWrite}, {Kernel32.FileShareRead}, НУЛЬ , Kernel32.CreateAlways, {Kernel32.FileAttributeTemporary}, 0 );
				утв( hfile # Kernel32.InvalidHandleValue );  fpos := 0
			всё;
			если fpos # pos то fpos := Kernel32.SetFilePointer( hfile, pos, НУЛЬ , Kernel32.FileBegin );  утв( fpos = pos ) всё;
			res := Kernel32.WriteFile( hfile, buffer.data, buffer.len, n, НУЛЬ );
			если (res = 0) и ~(ReadOnly в flags) то
				res := Kernel32.CloseHandle( hfile );
				если TraceFile в Trace то ЛогЯдра.пСтроку8( "closed handle of " );  ЛогЯдра.пСтроку8( fname );  ЛогЯдра.пВК_ПС;  всё;
				hfile :=
					Kernel32.CreateFileW( UCS2.U8vNovU2(fname)^, 
						{Kernel32.GenericRead, Kernel32.GenericWrite}, 
						{Kernel32.FileShareRead, Kernel32.FileShareWrite}, НУЛЬ , Kernel32.OpenExisting, {Kernel32.FileAttributeNormal}, 0 );
				утв( hfile # Kernel32.InvalidHandleValue );  fpos := Kernel32.SetFilePointer( hfile, pos, НУЛЬ , Kernel32.FileBegin );  утв( fpos = pos );
				res := Kernel32.WriteFile( hfile, buffer.data, buffer.len, n, НУЛЬ )
			всё;
			утв( (res # 0) и (n = buffer.len) );  увел( fpos, n );  buffer.dirty := ложь
		кон WriteBuffer;

		проц ReadBuffer( apos: цел32 );
		перем pos, n: цел32;  res: Kernel32.BOOL;
		нач
			если buffer.dirty то WriteBuffer() всё;
			pos := apos * BufferSize;
			если pos >= fsize то buffer.apos := apos;  buffer.len := 0;  возврат всё;
			если fpos # pos то
				fpos := Kernel32.SetFilePointer( hfile, pos, НУЛЬ , Kernel32.FileBegin );
				если (fpos # pos) то ЛогЯдра.пСтроку8( "failed to set buffer: " );  ЛогЯдра.пСтроку8( fname );  ЛогЯдра.пВК_ПС всё;
				утв( fpos = pos )
			всё;
			res := Kernel32.ReadFile( hfile, buffer.data, BufferSize, n, НУЛЬ );
			если res = 0 то ЛогЯдра.пСтроку8( "read file did not work for: " );  ЛогЯдра.пСтроку8( fname );  ЛогЯдра.пВК_ПС;  всё;
			утв( res # 0 );  увел( fpos, n );  buffer.apos := apos;  buffer.len := n
		кон ReadBuffer;

		проц {перекрыта}Read*( перем r: Files.Rider;  перем x: симв8 );
		перем pos: размерМЗ;
		нач {единолично}
			pos := цел32(r.apos * BufferSize) + r.bpos;
			если pos < fsize то
				если buffer.apos # цел32(r.apos) то ReadBuffer( цел32(r.apos) ) всё;
				x := buffer.data[r.bpos];  увел( pos );  r.apos := pos DIV BufferSize;  r.bpos := pos остОтДеленияНа BufferSize
			иначе
				x := 0X; r.eof := истина
			всё
		кон Read;

		проц {перекрыта}ReadBytes*( перем r: Files.Rider;  перем x: массив из симв8;  ofs, len: размерМЗ );
		перем pos, n: размерМЗ;
		нач {единолично}
			утв( (ofs + len) <= длинаМассива( x ) );
			pos := цел32(r.apos * BufferSize) + r.bpos;
			нцПока (len > 0) и (pos < fsize) делай
				если buffer.apos # цел32(r.apos) то ReadBuffer( цел32(r.apos) ) всё;
				n := buffer.len - r.bpos;
				если (n > 0) то
					если n > len то n := len всё;
					НИЗКОУР.копируйПамять( адресОт( buffer.data[r.bpos] ), адресОт( x[ofs] ), n );
					увел( pos, n );  увел( ofs, n );  умень( len, n );
					r.apos := pos DIV BufferSize;  r.bpos := pos остОтДеленияНа BufferSize;
				иначе
					pos := fsize;
				всё;
			кц;
			r.res := len; r.eof := (pos > fsize) или ((pos = fsize) и (len > 0));
		кон ReadBytes;

		проц {перекрыта}Write*( перем r: Files.Rider;  x: симв8 );
		перем pos: размерМЗ;
		нач {единолично}
			pos := цел32(r.apos * BufferSize) + r.bpos;
			если buffer.apos # r.apos то ReadBuffer( цел32(r.apos) ) всё;
			buffer.data[r.bpos] := x;  увел( pos );
			если (r.bpos + 1) > buffer.len то buffer.len := цел32(r.bpos + 1) всё;
			r.apos := pos DIV BufferSize;  r.bpos := pos остОтДеленияНа BufferSize;
			если pos > fsize то fsize := цел32(pos) всё;
			buffer.dirty := истина;
		кон Write;

		проц {перекрыта}WriteBytes*( перем r: Files.Rider;  конст x: массив из симв8;  ofs, len: размерМЗ );
		перем pos, n: размерМЗ;
		нач {единолично}
			если len = 0 то возврат всё;
			утв( (len > 0) и ((ofs + len) <= длинаМассива( x )) );  pos := цел32(r.apos * BufferSize) + r.bpos;
			нцПока len > 0 делай
				если buffer.apos # цел32(r.apos) то ReadBuffer( цел32(r.apos) ) всё;
				n := BufferSize - r.bpos;
				если n > len то n := len всё;
				НИЗКОУР.копируйПамять( адресОт( x[ofs] ), адресОт( buffer.data[r.bpos] ), n );
				если (r.bpos + n) > buffer.len то buffer.len := цел32(r.bpos + n) всё;
				увел( pos, n );  увел( ofs, n );  умень( len, n );  r.apos := pos DIV BufferSize;  r.bpos := pos остОтДеленияНа BufferSize;
				если pos > fsize то fsize := цел32(pos) всё;
				buffer.dirty := истина
			кц
		кон WriteBytes;

		проц {перекрыта}Length*( ): Files.Size;
		нач {единолично}
			возврат fsize
		кон Length;

		проц {перекрыта}GetDate*( перем t, d: цел32 );
		перем ft, lft: Kernel32.FileTime;  st: Kernel32.SystemTime;  res: Kernel32.BOOL;
		нач {единолично}
			res := Kernel32.GetFileTime( hfile, НУЛЬ , НУЛЬ , ft );
			(*
			ASSERT ( res # 0 );   (* <- only if file is not temporary ! *)
			*)
			res := Kernel32.FileTimeToLocalFileTime( ft, lft );  res := Kernel32.FileTimeToSystemTime( lft, st );  d := устарПреобразуйКБолееШирокомуЦел( st.wYear - 1900 ) * 200H + устарПреобразуйКБолееШирокомуЦел( st.wMonth ) * 20H + устарПреобразуйКБолееШирокомуЦел( st.wDay );
			t := устарПреобразуйКБолееШирокомуЦел( st.wHour ) * 1000H + устарПреобразуйКБолееШирокомуЦел( st.wMinute ) * 40H + устарПреобразуйКБолееШирокомуЦел( st.wSecond )
		кон GetDate;

		проц {перекрыта}SetDate*( t, d: цел32 );
		перем ft, lft: Kernel32.FileTime;  st: Kernel32.SystemTime;  res: Kernel32.BOOL; err: цел32;
		нач {единолично}
			st.wDay := устарПреобразуйКБолееУзкомуЦел( d остОтДеленияНа 20H );  d := арифмСдвиг( d, -5 );  st.wMonth := устарПреобразуйКБолееУзкомуЦел( d остОтДеленияНа 10H );  d := арифмСдвиг( d, -4 );  st.wYear := устарПреобразуйКБолееУзкомуЦел( d остОтДеленияНа 80H ) + 1900;  st.wMilliseconds := 0;
			st.wSecond := устарПреобразуйКБолееУзкомуЦел( t остОтДеленияНа 40H );  t := арифмСдвиг( t, -6 );  st.wMinute := устарПреобразуйКБолееУзкомуЦел( t остОтДеленияНа 40H );  t := арифмСдвиг( t, -6 );  st.wHour := устарПреобразуйКБолееУзкомуЦел( t остОтДеленияНа 20H );  res := Kernel32.SystemTimeToFileTime( st, lft );
			res := Kernel32.LocalFileTimeToFileTime( lft, ft );  res := Kernel32.SetFileTime( hfile, НУЛЬ , НУЛЬ , ft );
			если res = 0 то err := Kernel32.GetLastError(); DebugFile(сам) всё;
			утв( res # 0 )
		кон SetDate;

		проц {перекрыта}GetAttributes*(): мнвоНаБитахМЗ;
		перем s: INTEGERSET;
		нач
			s := Kernel32.GetFileAttributes( fname );
			возврат FileFlags(s);
		кон GetAttributes;

		проц {перекрыта}SetAttributes*(a: мнвоНаБитахМЗ);
		перем s: INTEGERSET;
		нач
			s:= WindowsFlags(a);
			SetFileAttributes(fname,s);
		кон SetAttributes;

		проц {перекрыта}GetName*( перем name: массив из симв8 );
		перем i: цел32;  ch: симв8;
		нач {единолично}
			копируйСтрокуДо0( fname, name );  i := 0;  ch := name[0];
			нцПока ch # 0X делай
				если ch = PathDelimiter то name[i] := Files.PathDelimiter всё;
				увел( i );  ch := name[i]
			кц
		кон GetName;

		проц ToTemp( ): булево;
		перем fnameU2: UCS2.PString; ltfname : PFileName; ltfnameU2 : PFileNameU2; res: Kernel32.BOOL;
			from, to: массив 256 из симв8; 
		нач {единолично}
			утв( ~(Temporary в flags) );
			(*ALEX 2005.12.08*)
			fnameU2 := UCS2.U8vNovU2( fname );
			если hfile = Kernel32.InvalidHandleValue то
				hfile := Kernel32.CreateFileW( fnameU2^, {Kernel32.GenericRead}, {Kernel32.FileShareRead, Kernel32.FileShareWrite}, НУЛЬ , Kernel32.CreateAlways, {Kernel32.FileAttributeNormal}, 0 );
			всё;
			если hfile = Kernel32.InvalidHandleValue то
				hfile := Kernel32.CreateFileW( fnameU2^, {Kernel32.GenericRead}, {Kernel32.FileShareRead, Kernel32.FileShareWrite}, НУЛЬ , Kernel32.OpenExisting, {Kernel32.FileAttributeNormal}, 0 );
			всё;
			если buffer.dirty то WriteBuffer() всё;
			(*
			IF hfile # Kernel32.InvalidHandleValue THEN
			*)
			утв( hfile # Kernel32.InvalidHandleValue );  fsize := Kernel32.GetFileSize( hfile, НУЛЬ );  res := Kernel32.CloseHandle( hfile );  hfile := Kernel32.InvalidHandleValue;
			(*
			END;
			*)
			нов( ltfname ); нов( ltfnameU2 );  TempNameU2( ltfnameU2^ ); 
			UCS2.U2вU8ОбрезаяИДобиваяНулём( ltfnameU2^, ltfname^ );
			
			 копируйСтрокуДо0( fname, from );  копируйСтрокуДо0( ltfname^, to );
			если TraceFile в Trace то ЛогЯдра.пСтроку8( "toTemp: " );  ЛогЯдра.пСтроку8( fname );  ЛогЯдра.пСтроку8( " => " );  ЛогЯдра.пСтроку8( ltfname^ );  ЛогЯдра.пВК_ПС;  всё;
			если ~MoveFile( fname, ltfname^ ) то СТОП( 1241 ) (* RETURN FALSE *) всё;
			winFS.collection.Unregister( сам );
			hfile := Kernel32.CreateFileW( ltfnameU2^, {Kernel32.GenericRead, Kernel32.GenericWrite}, {Kernel32.FileShareRead}, НУЛЬ , Kernel32.OpenExisting, {Kernel32.FileAttributeTemporary}, 0 );
			(* IF hfile = Kernel32.InvalidHandleValue THEN RETURN FALSE END; *)
			утв( hfile # Kernel32.InvalidHandleValue );  fsize := Kernel32.GetFileSize( hfile, НУЛЬ );  утв( fsize >= 0 );  сам.tfname := ltfname;  копируйСтрокуДо0( ltfname^, fname );  возврат истина;
		кон ToTemp;

		проц {перекрыта}Register0*( перем res: целМЗ );
		перем F: File;  ret: Kernel32.BOOL;
			from, to: массив 256 из симв8;
		нач {единолично}
			если ~(Temporary в flags) или (fname = "") то res := 1;  возврат всё;
			если buffer.dirty то WriteBuffer() всё;
			если hfile # Kernel32.InvalidHandleValue то ret := Kernel32.CloseHandle( hfile );  hfile := Kernel32.InvalidHandleValue всё;
			если TraceFile в Trace то ЛогЯдра.пСтроку8( "Register:  existing?: " );  ЛогЯдра.пСтроку8( fname );  ЛогЯдра.пВК_ПС;  всё;
			F := winFS.collection.ByName( fname );
			если (TraceFile в Trace) и (F = НУЛЬ ) то ЛогЯдра.пСтроку8( "Register: not existing: " );  ЛогЯдра.пСтроку8( fname );  ЛогЯдра.пВК_ПС;  всё;
			если (F # НУЛЬ ) то
				если ~F.ToTemp() то res := 1;  возврат всё
			всё;   (* registered file stays alive for its users *)

			если tfname # НУЛЬ то
				копируйСтрокуДо0( tfname^, from );  копируйСтрокуДо0( fname, to );
				если ~MoveFile( tfname^, fname ) то
					(* first try closing file -> for windows versions < 2000 *)
					res := 1;  возврат;
					(* HALT( 1242 )*)
				всё;
				hfile := Kernel32.CreateFileW( UCS2.U8vNovU2(fname)^, {Kernel32.GenericRead, Kernel32.GenericWrite}, {Kernel32.FileShareRead, Kernel32.FileShareWrite}, НУЛЬ , Kernel32.OpenExisting, {Kernel32.FileAttributeNormal}, 0 )
			иначе hfile := Kernel32.CreateFileW( UCS2.U8vNovU2(fname)^, {Kernel32.GenericRead, Kernel32.GenericWrite}, {Kernel32.FileShareRead, Kernel32.FileShareWrite}, НУЛЬ, Kernel32.CreateAlways, {Kernel32.FileAttributeNormal}, 0 )
			всё;
			если hfile = Kernel32.InvalidHandleValue то res := 1;  возврат всё;
			утв( hfile # Kernel32.InvalidHandleValue );  winFS.collection.Register( сам );  res := 0
		кон Register0;

		проц {перекрыта}Update*;
		нач {единолично}
			если buffer.dirty то WriteBuffer() всё
		кон Update;

		проц Finalize*;
		перем res: Kernel32.BOOL;
		нач {единолично}
			если TraceFile в Trace то ЛогЯдра.пСтроку8( "File.Finalize " );  ЛогЯдра.пСтроку8( fname );  ЛогЯдра.пВК_ПС;  всё;
			если hfile # Kernel32.InvalidHandleValue то
				если ~(Temporary в flags) и buffer.dirty то WriteBuffer() всё;

				res := Kernel32.CloseHandle( hfile );  hfile := Kernel32.InvalidHandleValue;
				если (Temporary в flags) и (tfname # НУЛЬ ) то
					res := Kernel32.DeleteFile( tfname^ );
					(*
					KernelLog.String("Deleted: "); KernelLog.String(tfname^); KernelLog.Ln;
					IF res = 0 THEN KernelLog.String("failed!"); KernelLog.Ln; END;
					*)
					(* ASSERT ( res # 0 ) *)
				всё;
				(* ASSERT ( res # 0 ) *)

			всё
		кон Finalize;

		проц {перекрыта}Close*;
		нач
			Finalize;
			fileSystem.collection.oldFiles.Remove(сам);
		кон Close;


	кон File;
перем
	winFS: WinFileSystem;   (* must be unique *)

	проц EnumFinalize( f: динамическиТипизированныйУкль;  перем cont: булево );
	перем F: File;
	нач
		F := f( File );  F.Finalize();  cont := истина;
	кон EnumFinalize;

	проц DebugFile(f: File);
	нач
		ЛогЯдра.пСтроку8("fname = "); ЛогЯдра.пСтроку8(f.fname); ЛогЯдра.пВК_ПС;
		ЛогЯдра.пСтроку8("tname = "); если f.tfname # НУЛЬ то ЛогЯдра.пСтроку8(f.tfname^) иначе ЛогЯдра.пСтроку8("(NIL)") всё; ЛогЯдра.пВК_ПС;
		ЛогЯдра.пСтроку8("hfile = "); ЛогЯдра.пАдресВПамяти(f.hfile); ЛогЯдра.пВК_ПС;
		ЛогЯдра.пСтроку8("fsize = "); ЛогЯдра.пЦел64(f.fsize, 1); ЛогЯдра.пВК_ПС;
		ЛогЯдра.пСтроку8("fpos = "); ЛогЯдра.пЦел64(f.fpos, 1); ЛогЯдра.пВК_ПС;
	кон DebugFile;


	проц IsLocalPath(path: массив из симв8): булево;
	перем prefix, name: Files.FileName;
	нач
		ConvertChar(path, PathDelimiter, Files.PathDelimiter);
		Files.SplitName(path, prefix, name);
		возврат (prefix = "") и (name[0] # "/")
	кон IsLocalPath;


	(* WinAPI functions like e.g. GetCurrentDirectory sometimes yield paths with drive letters in lowercase
	   which have to be capitalized as they are mapped as filesystems which themselves are case sensitive *)
	проц FixDriveLetter (перем path: массив из симв8);
	нач
		если (длинаМассива (path) >= 2) и (path[0] # 0X) и (path[1] = ':') то path[0] := ASCII_вЗаглавную (path[0]) всё;
	кон FixDriveLetter;
	
	проц FixDriveLetterW(перем path: UCS2.String);
	перем pathU8 : укль на массив из симв8;
	нач
		pathU8 := UCS2.U2vNovU8(path);
		FixDriveLetter(pathU8^);
		UCS2.U8вU2ОбрезаяИДобиваяНулём(pathU8^,path) кон FixDriveLetterW;		
	

	проц MoveFile( перем from, to: массив из симв8 ): булево;
	перем fromU2, toU2 : UCS2.PString;
	нач
		fromU2 := UCS2.U8vNovU2(from);
		toU2 := UCS2.U8vNovU2(to);
		(* Надеемся, что имена во время вызовов не поменяются и не нужно их превращать обратно в U8 *)
		если Kernel32.MoveFileExW( fromU2^, toU2^, {Kernel32.MoveFileReplaceExisting, Kernel32.MoveFileCopyAllowed} ) = Kernel32.False то
			если Kernel32.CopyFileW( fromU2^, toU2^, Kernel32.False ) = Kernel32.False то
				если TraceFile в Trace то ЛогЯдра.пСтроку8( "could not copy" );  ЛогЯдра.пВК_ПС;  всё;
				возврат ложь
			иначе
				если Kernel32.DeleteFileW( fromU2^ ) = Kernel32.False то
				всё;
				возврат истина;   (* warning: Could not delete file ! *)
			всё
		иначе возврат истина
		всё
	кон MoveFile;

	проц UpperCase( перем src, dst: массив из симв8 );
	перем i: цел32;  ch: симв8;
	нач
		i := 0;  ch := src[0];
		нцПока ch # 0X делай
			если (ch >= "a") и (ch <= "z") то ch := ASCII_вЗаглавную( ch ) всё;
			dst[i] := ch;  увел( i );  ch := src[i]
		кц;
		dst[i] := 0X
	кон UpperCase;

	проц TempNameU2( перем name: UCS2.String );
	перем temp: FileNameU2;
		pref: массив 4 из UCS2.Char;
		ret: цел32;
	нач
		ret := Kernel32.GetTempPathW( длинаМассива( temp ), temp );  
		утв( ret > 0 );  
		UCS2.U8вU2ОбрезаяИДобиваяНулём("Aos", pref);  
		ret := Kernel32.GetTempFileNameW( temp, pref, 0, name ); 
		FixDriveLetterW (name); утв( ret # 0 )
	кон TempNameU2;

	проц FullPathNameW( name: UCS2.String;  перем fname: UCS2.String ): булево;
	перем i, fp: адресВПамяти;
	нач
		i := Kernel32.GetFullPathNameW( name, Kernel32.MaxPath, fname, fp );
		FixDriveLetterW (fname); возврат i > 0
	кон FullPathNameW;


	(* convert flags from windows file flags to A2 file flags *)
	проц FileFlags( flags: INTEGERSET ): мнвоНаБитахМЗ;
	перем s: мнвоНаБитахМЗ;
	нач
		s := {};
		если Kernel32.FileAttributeDirectory в flags то включиВоМнвоНаБитах( s, Directory ) всё;
		если Kernel32.FileAttributeReadonly в flags то включиВоМнвоНаБитах( s, ReadOnly ) всё;
		если Kernel32.FileAttributeHidden в flags то включиВоМнвоНаБитах( s, Hidden ) всё;
		если Kernel32.FileAttributeSystem в flags то включиВоМнвоНаБитах( s, System ) всё;
		если Kernel32.FileAttributeArchive в flags то включиВоМнвоНаБитах( s, Archive ) всё;
		если Kernel32.FileAttributeTemporary в flags то включиВоМнвоНаБитах( s, Temporary ) всё;
		возврат s
	кон FileFlags;

	(* convert flags from A2 file flags to windows file flags *)
	проц WindowsFlags(flags: мнвоНаБитахМЗ): INTEGERSET;
	перем s: INTEGERSET;
	нач
		s := {};
		если  Directory в flags то включиВоМнвоНаБитах( s,  Kernel32.FileAttributeDirectory) всё;
		если ReadOnly в flags то включиВоМнвоНаБитах( s,  Kernel32.FileAttributeReadonly ) всё;
		если Hidden в flags то включиВоМнвоНаБитах( s,  Kernel32.FileAttributeHidden) всё;
		если System в flags то включиВоМнвоНаБитах( s,  Kernel32.FileAttributeSystem) всё;
		если Archive в flags то включиВоМнвоНаБитах( s,  Kernel32.FileAttributeArchive) всё;
		если Temporary в flags то включиВоМнвоНаБитах( s,  Kernel32.FileAttributeTemporary) всё;
		возврат s
	кон WindowsFlags;


(** Generate a new file system object.  Files.NewVol has volume parameter, Files.Par has mount prefix. *)
	проц NewFS*(context : Files.Parameters);
	перем fs: AliasFileSystem;
	нач
		если (Files.This(context.prefix ) = НУЛЬ) то
			нов( fs );  fs.vol := context.vol;  Files.Add( fs, context.prefix );
		иначе
			context.error.пСтроку8( "Win32FS: " );  context.error.пСтроку8( context.prefix );  context.error.пСтроку8( " already in use" );
			context.error.пВК_ПС;
		 всё;
	кон NewFS;

	проц Join( a1, a2, a3: массив из симв8;  перем res: массив из симв8 );
	перем i, j: цел32;
	нач
		i := 0;
		нцПока (a1[i] # 0X) делай res[j] := a1[i];  увел( i );  увел( j ) кц;
		i := 0;
		нцПока (a2[i] # 0X) делай res[j] := a2[i];  увел( i );  увел( j ) кц;
		i := 0;
		нцПока (a3[i] # 0X) делай res[j] := a3[i];  увел( i );  увел( j ) кц;
		res[j] := 0X
	кон Join;

(*ALEX 2005.02.10, fof 071008*)
	проц MountDrive(конст drive: массив из симв8; context : Commands.Context);
	перем
		p: Files.Parameters; namebuf1, namebuf2: FileName;  size, snum, mlen, sysfl: цел32;
		res: целМЗ; prefix: массив 256 из симв8;
	нач
		копируйСтрокуДо0(drive,prefix);
		size := длинаМассива( namebuf1 );  res := Kernel32.GetVolumeInformation( prefix, namebuf1, size, snum, mlen, sysfl, namebuf2, size );
		если res = 0 то
			если context# НУЛЬ то
				context.error.пСтроку8("Not mounted (no volume information): "); context.error.пСтроку8(prefix); context.error.пВК_ПС;
				context.error.ПротолкниБуферВПоток;
			всё;
		иначе
			если (context = НУЛЬ) то
				нов(context, НУЛЬ, НУЛЬ, НУЛЬ, НУЛЬ, НУЛЬ);
			всё;
			нов(p, context.in, context.arg, context.out, context.error, context.caller);
			если TraceMounting то
				context.out.пСтроку8( "Mounting: " );  context.out.пСтроку8( drive );
				context.out.пСтроку8( " (" );  context.out.пСтроку8( namebuf1 );  context.out.пСтроку8( "), fs = " );
				context.out.пСтроку8( namebuf2 );  context.out.пВК_ПС;
				context.out.ПротолкниБуферВПоток;
			всё;
			prefix[1] := 0X;
			копируйСтрокуДо0( prefix, p.prefix );
			NewFS( p );
		всё;
	кон MountDrive;

	проц AutoMountWindowsLogicalDrives( drives: мнвоНаБитахМЗ );
	(* fof 090221
		implemented asynchronously as it blocked execution on A2 startup for a while;
		now some of the drives may get mounted later in the system,
		should not be a problem since the search path is handled through windows anyway
	*)
	перем
		AutoMountObject: окласс
		перем prefix: массив 4 из симв8;  i: цел32; drives: мнвоНаБитахМЗ;
		проц & Init(drives:мнвоНаБитахМЗ);
		нач
			сам.drives := drives
		кон Init;

		нач {активное}
			нцДля i := 0 до матМаксимум( мнвоНаБитахМЗ ) - 1 делай
				если i в drives то
					prefix := "X:\";  prefix[0] := симв8ИзКода( кодСимв8( "A" ) + i );
					MountDrive(prefix, НУЛЬ);
				всё;
			кц;
		кон;
	нач
		нов(AutoMountObject,drives);
	кон AutoMountWindowsLogicalDrives;

	проц UnmountDrive(конст drive: массив из симв8; context : Commands.Context);
	перем this: Files.FileSystem;
	нач
		this := Files.This( drive );
		если (this # НУЛЬ ) и (this суть AliasFileSystem) то
			если (context # НУЛЬ) то
				context.out.пСтроку8( "Auto Unmount: " );  context.out.пСтроку8( drive );
				context.out.пСтроку8( ":" );  context.out.пВК_ПС;
			иначе
				ЛогЯдра.пСтроку8("Auto Unmount: "); ЛогЯдра.пСтроку8(drive); ЛогЯдра.пСтроку8(":"); ЛогЯдра.пВК_ПС;
			всё;
			Files.Remove( this );
		всё;
	кон UnmountDrive;

	проц AutoUnmountLogicalDrives( drives: мнвоНаБитахМЗ );
	перем i: цел32;
		prefix: массив 4 из симв8;
	нач
		нцДля i := 0 до матМаксимум( мнвоНаБитахМЗ ) - 1 делай
			если i в drives то
				prefix[0] := симв8ИзКода( кодСимв8( "A" ) + i );  prefix[1] := 0X;
				UnmountDrive(prefix, НУЛЬ);
			всё;
		кц;
	кон AutoUnmountLogicalDrives;

	проц Finalization;
	перем ft: Files.FileSystemTable;  i: размерМЗ;
	нач
		Files.GetList( ft );
		если ft # НУЛЬ то
			нцДля i := 0 до длинаМассива( ft^ ) - 1 делай
				если ft[i] суть AliasFileSystem то Files.Remove( ft[i] ) всё
			кц
		всё;
		winFS.Finalize;
	кон Finalization;

	проц FindFile*( name: массив из симв8;  перем fullname: массив из симв8 ): булево;
	(* VAR ret: SIGNED32;  fileName: Kernel32.LPSTR; *)
	перем fullnameU2 : UCS2.PString; rez : булево;
	нач
		нов(fullnameU2, длинаМассива(fullname));
		rez := FindFileU2(UCS2.U8vNovU2(name)^, fullnameU2^);
		UCS2.U2вU8ОбрезаяИДобиваяНулём(fullnameU2^,fullname);
		возврат rez;
		(* ret := Kernel32.SearchPath( workPath, name, NIL , LEN( fullname )(Kernel32.DWORD), fullname, fileName );
		IF (ret <= 0) THEN ret := Kernel32.SearchPath( searchPath, name, NIL , LEN( fullname )(Kernel32.DWORD), fullname, fileName ) END;
		FixDriveLetter (fullname);
		RETURN ret > 0; *)
	кон FindFile;

	проц FindFileU2*( nameU2: UCS2.String;  перем fullname: UCS2.String ): булево;
	перем ret: цел32; fileNameW: Kernel32.LPWSTR; workPathU2, searchPathU2 : UCS2.PString; fullnameU8 : укль на массив из симв8;
	нач
		workPathU2 := UCS2.U8vNovU2(workPath);
		searchPathU2 := UCS2.U8vNovU2(searchPath);
		ret := Kernel32.SearchPathW( workPathU2^, nameU2, НУЛЬ , длинаМассива( fullname )(Kernel32.DWORD), fullname, fileNameW );
		если (ret <= 0) то ret := Kernel32.SearchPathW( searchPathU2^, nameU2, НУЛЬ , длинаМассива( fullname )(Kernel32.DWORD), fullname, fileNameW ) всё;
		fullnameU8 := UCS2.U2vNovU8(fullname);
		FixDriveLetter (fullnameU8^);
		UCS2.U8вU2ОбрезаяИДобиваяНулём(fullnameU8^, fullname);
		возврат ret > 0;
	кон FindFileU2;


	проц ConvertChar*( перем name: массив из симв8;  from, to: симв8 );
	перем i: цел32;
	нач
		i := 0;
		нцПока name[i] # 0X делай
			если name[i] = from то name[i] := to всё;
			увел( i )
		кц
	кон ConvertChar;

	проц SetPaths;
	перем ret, i, j, k: цел32;
		work, files, temp: массив Kernel32.MaxPath из симв8;
		directories, dirs: массив 4 * Kernel32.MaxPath из симв8;
		dir, sysPath: FileName;

		проц SetSysPath(перем dir: массив из симв8);
		перем ch: симв8; i: цел32;
		нач
			если (dir[0] = "~") и (dir[1] = PathDelimiter) то
				неважно Kernel32.SetCurrentDirectory( sysPath );
				i := 2;
				нцДо ch := dir[i]; dir[i-2] := ch; увел(i) кцПри ch = 0X;
			иначе
				неважно Kernel32.SetCurrentDirectory(workPath)
			всё;
		кон SetSysPath;


		проц AddDir;
		нач
			если k > 0 то
				dir[k] := 0X;
				если dir[k - 1] = '"' то dir[k - 1] := 0X всё;
				ConvertChar( dir, Files.PathDelimiter, PathDelimiter );
				SetSysPath(dir);
				если Kernel32.SetCurrentDirectory( dir ) # Kernel32.False то
					неважно Kernel32.GetCurrentDirectory( длинаМассива( dir ), dir );  searchPath[i] := ";";  увел( i );  k := 0;
					нцПока dir[k] # 0X делай searchPath[i] := dir[k];  увел( i );  увел( k ) кц
				всё;
				k := 0
			всё
		кон AddDir;

	нач {единолично}
		Machine.GetConfig( "Paths.Files", files ); Machine.GetConfig( "Paths.Search", directories );
		Machine.GetConfig( "Paths.Temp", temp ); Machine.GetConfig( "Paths.Work", work );

		неважно Kernel32.GetCurrentDirectory( длинаМассива( workPath ), workPath );  i := 0;  ret := 0;

		если files # "" то
			копируйСтрокуДо0( files, sysPath );
			если Kernel32.SetCurrentDirectory( sysPath ) # Kernel32.False то ret := Kernel32.GetCurrentDirectory( длинаМассива( sysPath ), sysPath ) всё
		всё;
		если ret = 0 то
			неважно Kernel32.GetModuleFileName( Kernel32.hInstance, sysPath, длинаМассива( sysPath ) );  j := -1;
			нцПока sysPath[i] # 0X делай
				если sysPath[i] = PathDelimiter то j := i всё;
				увел( i )
			кц;
			i := j + 1;  sysPath[i] := 0X;  копируйСтрокуДо0( sysPath, searchPath )
		иначе
			нцПока sysPath[i] # 0X делай searchPath[i] := sysPath[i];  увел( i ) кц;
			searchPath[i] := 0X
		всё;

		копируйСтрокуДо0( directories, dirs );
		если dirs[0] = '"' то j := 1 иначе j := 0 всё;

		k := 0;
		нцПока dirs[j] # 0X делай
			если (dirs[j] = ";") или (dirs[j] < " ") то AddDir() иначе dir[k] := dirs[j];  увел( k ) всё;
			увел( j )
		кц;
		AddDir();  searchPath[i] := 0X;  ret := 0;

		копируйСтрокуДо0( temp, tempPath );
		если tempPath # "" то
			ConvertChar( tempPath, Files.PathDelimiter, PathDelimiter );
			SetSysPath(tempPath);
			если Kernel32.SetCurrentDirectory( tempPath ) # Kernel32.False то ret := Kernel32.GetCurrentDirectory( длинаМассива( tempPath ), tempPath ) всё
		всё;
		если ret = 0 то неважно Kernel32.GetTempPath( длинаМассива( tempPath ), tempPath ) всё;

		копируйСтрокуДо0( work, dir );
		если dir # "" то
			ConvertChar( dir, Files.PathDelimiter, PathDelimiter );
			SetSysPath(dir);
			если Kernel32.SetCurrentDirectory( dir ) # Kernel32.False то неважно Kernel32.GetCurrentDirectory( длинаМассива( workPath ), workPath ) всё
		всё;
		неважно Kernel32.SetCurrentDirectory( workPath );
	кон SetPaths;

	проц SameName*( перем a, b: массив из симв8 ): булево;   (** non-portable *)
	перем i, j: цел32;
	нач
		i := 0;  j := 0;
		нцПока (a[i] # 0X) и (b[j] # 0X) и (ASCII_вЗаглавную( a[i] ) = ASCII_вЗаглавную( b[j] )) делай увел( i );  увел( j ) кц;
		возврат (a[i] = 0X) и (b[j] = 0X)
	кон SameName;

	проц CheckPath(fullName: массив из симв8 ): булево;
	перем i, j: цел32;  done: булево;
	нач
		i := 0;  j := -1;
		нцПока fullName[i] # 0X делай
			если fullName[i] = PathDelimiter то j := i всё;
			увел( i )
		кц;
		если j > 0 то fullName[j] := 0X всё;
		нач {единолично}
			done := Kernel32.SetCurrentDirectoryW( UCS2.U8vNovU2(fullName)^ ) # Kernel32.False;
			неважно Kernel32.SetCurrentDirectoryW( UCS2.U8vNovU2(workPath)^ );  возврат done
		кон;
	кон CheckPath;

	проц CheckName*( name: массив из симв8 ): булево;
	перем fullNameU2: FileNameU2; fullName: FileName;  
		fileNamePart: Kernel32.LPWSTR;  ret, i: размерМЗ;  ch: UCS2.Char;  stream, ok: булево;
	нач
		ConvertChar( name, Files.PathDelimiter, PathDelimiter );  
		ret := Kernel32.GetFullPathNameW( UCS2.U8vNovU2(name)^, Kernel32.MaxPath, fullNameU2, fileNamePart );
		UCS2.U2вU8ОбрезаяИДобиваяНулём(fullNameU2, fullName);
		если (ret > 0) и CheckPath( fullName ) и (fileNamePart # Kernel32.NULL) то
			ok := истина;  stream := ложь;  i := (fileNamePart - адресОт( fullNameU2 )) DIV 2;
			утв(i < длинаМассива(fullName));  
			fullNameU2[i - 1] := UCS2.IntToUCS2Char(UCS2.KodEot);  ch := fullNameU2[i];
			нцПока (ch.UCS2CharCode # UCS2.KodEot) и ok делай
				если ch.UCS2CharCode = кодСимв8(":") то
					если stream то ok := ложь иначе stream := истина всё
				аесли (ch.UCS2CharCode = кодСимв8(":")) 
					или (ch.UCS2CharCode = кодСимв8("\")) 
					или (ch.UCS2CharCode = кодСимв8("?")) 
					или (ch.UCS2CharCode = кодСимв8("|")) 
					или (ch.UCS2CharCode = кодСимв8(">")) 
					или (ch.UCS2CharCode = кодСимв8("<")) 
					или (ch.UCS2CharCode = кодСимв8("/")) 
					или (ch.UCS2CharCode = кодСимв8("*")) 
					или (ch.UCS2CharCode = кодСимв8('"')) то ok := ложь;
				всё;
				(* \ / : * ? " < > | *)

				увел( i );  ch := fullNameU2[i]
			кц
		иначе ok := ложь
		всё;
		возврат ok
	кон CheckName;

	проц GetAttributes*( file: массив из симв8 ): INTEGERSET;   (** non-portable *)
	перем attrs: INTEGERSET;
	нач
		ConvertChar( file, Files.PathDelimiter, PathDelimiter );  attrs := Kernel32.GetFileAttributes( file );
		если attrs = {0..31} то возврат {} иначе возврат attrs всё
	кон GetAttributes;

	проц SetAttributes*( file: массив из симв8;  attrs: INTEGERSET );   (** non-portable *)
	нач
		ConvertChar( file, Files.PathDelimiter, PathDelimiter ); неважно Kernel32.SetFileAttributes( file, attrs )
	кон SetAttributes;

	проц SetFileAttributes*( file: массив из симв8;  attrs: INTEGERSET );   (** non-portable *)
	нач
		ConvertChar( file, Files.PathDelimiter, PathDelimiter ); неважно Kernel32.SetFileAttributes( file, attrs )
	кон SetFileAttributes;


(** Get the current directory. *)
	проц GetWorkingDirectory*( перем path: массив из симв8 );
	нач {единолично}
		неважно Kernel32.GetCurrentDirectory( Kernel32.MaxPath, workPath );  копируйСтрокуДо0( workPath, path );  ConvertChar( path, PathDelimiter, Files.PathDelimiter ); FixDriveLetter (path);
	кон GetWorkingDirectory;

(** Change to directory path. *)
	проц ChangeDirectory*( path: массив из симв8;  перем done: булево );
	нач {единолично}
		ConvertChar( path, Files.PathDelimiter, PathDelimiter );  done := Kernel32.SetCurrentDirectory( path ) # Kernel32.False; неважно Kernel32.GetCurrentDirectory( Kernel32.MaxPath, workPath );
	кон ChangeDirectory;

(** Get the directory for temporary files. *)
	проц GetTempDirectory*( перем path: массив из симв8 );
	нач
		копируйСтрокуДо0( tempPath, path );  ConvertChar( path, PathDelimiter, Files.PathDelimiter )
	кон GetTempDirectory;

(** Compute the relative filename (relative to the working directory). *)
	проц RelFileName*( fileName: массив из симв8;  перем relFileName: массив из симв8 );
	перем i, j, k, p: цел32;  fullName: FileName;  fileNamePart: Kernel32.LPSTR;
	нач
		если ~FindFile( fileName, fullName ) то  (* file does not exist -> would be created in the current dir *)
			ConvertChar( fileName, Files.PathDelimiter, PathDelimiter ); неважно Kernel32.GetFullPathName( fileName, Kernel32.MaxPath, fullName, fileNamePart ); FixDriveLetter (fullName);
		иначе ConvertChar( fullName, Files.PathDelimiter, PathDelimiter )
		всё;   (* from here on all with PathDelimiter and drive letter *)
		если ASCII_вЗаглавную( workPath[0] ) # ASCII_вЗаглавную( fullName[0] ) то  (* different drive letters -> nothing to be done *)
			копируйСтрокуДо0( fullName, relFileName )
		иначе
			i := 0;  j := -1;  p := 0;
			нцПока ASCII_вЗаглавную( fullName[i] ) = ASCII_вЗаглавную( workPath[i] ) делай
				если workPath[i] = PathDelimiter то j := i всё;
				увел( i )
			кц;
			если workPath[i] = 0X то
				если fullName[i] # PathDelimiter то  (* first part of directories do match *)
					relFileName[p] := ".";  relFileName[p + 1] := ".";  relFileName[p + 2] := PathDelimiter;  увел( p, 3 );  увел( j );
					нцПока fullName[j] # 0X делай relFileName[p] := fullName[j];  увел( j );  увел( p ) кц
				иначе  (* file is in a subdirectory of the current dir *)
					увел( i );
					нцПока fullName[i] # 0X делай relFileName[p] := fullName[i];  увел( i );  увел( p ) кц
				всё
			аесли j > 2 то  (* first part of directories do match *)
				k := j;  i := j + 1;
				нцПока workPath[k] # 0X делай
					если workPath[k] = PathDelimiter то relFileName[p] := ".";  relFileName[p + 1] := ".";  relFileName[p + 2] := PathDelimiter;  увел( p, 3 ) всё;
					увел( k )
				кц;
				нцПока fullName[i] # 0X делай relFileName[p] := fullName[i];  увел( i );  увел( p ) кц
			иначе  (* only drive letters match *)
				i := j;
				нцПока fullName[i] # 0X делай relFileName[p] := fullName[i];  увел( i );  увел( p ) кц
			всё;
			relFileName[p] := 0X
		всё;
		ConvertChar( relFileName, PathDelimiter, Files.PathDelimiter )
	кон RelFileName;

	проц DeviceNotification*( type: цел32;  drives: мнвоНаБитахМЗ );
	перем n: Notification;
	нач
		если type = deviceArrival то AutoMountWindowsLogicalDrives( drives );
		аесли type = deviceRemove то AutoUnmountLogicalDrives( drives );
		иначе
			(* scan for changes *)
		всё;
		n := notifications;
		нцПока(n#НУЛЬ) делай
			n.p(type,drives);
			n := n.next;
		кц;
	кон DeviceNotification;

	проц RegisterNotification*( p: NotificationProc );
	перем n: Notification;
	нач
		нов( n );  n.p := p;  n.next := notifications;  notifications := n;
	кон RegisterNotification;

	проц Init;
	перем
		i, j: цел32;  sysPath: FileName;  p: Files.Parameters;  drives: мнвоНаБитахМЗ;  fs : Files.FileSystem;
	нач
		нов( winFS );

		нов( p, НУЛЬ, НУЛЬ, НУЛЬ, НУЛЬ, НУЛЬ);  p.prefix := "searcher";
		NewFS( p );

		fs := Files.This(p.prefix);
		если (fs # НУЛЬ) и (fs суть AliasFileSystem) то
			fs( AliasFileSystem ).useprefix := ложь;
			исключиИзМнваНаБитах( fs( AliasFileSystem ).flags, Files.NeedsPrefix );
		всё;

		(* now the file system is installed *)

		drives := Kernel32.GetLogicalDrives();
		drives := drives - {0,1}; (* do not scan for diskettes *)
		AutoMountWindowsLogicalDrives( drives );

		неважно Kernel32.GetCurrentDirectory( длинаМассива( workPath ), workPath );  i := 0; неважно Kernel32.GetModuleFileName( Kernel32.hInstance, sysPath, длинаМассива( sysPath ) );  j := -1;
		FixDriveLetter (workPath); FixDriveLetter (sysPath);
		нцПока sysPath[i] # 0X делай
			если sysPath[i] = PathDelimiter то j := i всё;
			увел( i )
		кц;

		i := j + 1;  sysPath[i] := 0X;  копируйСтрокуДо0( sysPath, searchPath ); неважно Kernel32.GetTempPath( длинаМассива( tempPath ), tempPath ); неважно Kernel32.SetCurrentDirectory( workPath );

		notifications := НУЛЬ;
	кон Init;

	проц AddSearchPath*(context: Commands.Context);
	перем name,fullName: FileName; i,j: цел32; ch : симв8; ret: цел32; fileNamePart: Kernel32.LPSTR;
	нач
		если context.arg.ПропустиБелоеПолеИЧитайЦепочкуСимволов8ДоБелогоПоляИлиВКавычках(name) то
			i := 0; j := 0;
			ConvertChar( name, Files.PathDelimiter, PathDelimiter );
			ret := Kernel32.GetFullPathName( name, Kernel32.MaxPath, fullName, fileNamePart );

			нцПока(searchPath[i] # 0X) делай
				увел(i);
			кц;

			searchPath[i] := ";";увел(i);
			нцДо
				ch := fullName[j];
				searchPath[i] := ch;
				увел(j);увел(i);
			кцПри ch = 0X;
		всё;
	кон AddSearchPath;

	проц SetWorkPath*(context: Commands.Context);
	перем name: FileName; done: булево;
	нач
		если context.arg.ПропустиБелоеПолеИЧитайЦепочкуСимволов8ДоБелогоПоляИлиВКавычках(name) то
			ChangeDirectory(name, done);
			если ~done то
				context.error.пСтроку8("could not change directory to "); context.error.пСтроку8(name); context.error.пВК_ПС;
			всё
		всё;
	кон SetWorkPath;

	проц Mount*(context : Commands.Context);
	перем diskname: массив 256 из симв8;
	нач
		context.arg.ПропустиБелоеПоле;
		context.arg.чЦепочкуСимволов8ДоБелогоПоляИлиВКавычках(diskname);
		MountDrive(diskname, context);
	кон Mount;

	проц Unmount*(context : Commands.Context);
	перем diskname: массив 256 из симв8;
	нач
		context.arg.ПропустиБелоеПоле;
		context.arg.чЦепочкуСимволов8ДоБелогоПоляИлиВКавычках(diskname);
		UnmountDrive(diskname, context);
	кон Unmount;

	проц SetU2On*(c : Commands.Context);
	нач UseU2 := истина кон SetU2On;

	проц SetU2Off*(c : Commands.Context);
	нач UseU2 := ложь кон SetU2Off;


нач
	UseU2 := истина;
	Init();  Modules.InstallTermHandler( Finalization ); SetPaths;
кон WinFS.
