(* Aos, Copyright 2001, Pieter Muller, ETH Zurich; this module ported for the windows version, fof. *)

модуль Objects;   (** AUTHOR "pjm, ejz, fof"; PURPOSE "Active object runtime support"; *)

	использует НИЗКОУР, Трассировка, Kernel32, Machine, Modules, Heaps;

конст
	HandleExcp = истина;   (* FALSE -> we asume that it is done correctly by Traps *)
	TraceVerbose = ложь;
	StrongChecks = истина;  defaultStackSize = 0;
	TraceOpenClose = ложь;
	ConcurrentGC=истина; (* if TRUE then release needs to be compiled with --writeBarriers *)

конст
	(* Process flags *)
	Restart* = 0;   (* Restart/Destroy process on exception *)
	PleaseHalt* = 10;   (* Process requested to Halt itself soon *)
	Unbreakable* = 11;
	SelfTermination* = 12;
	Preempted* = 27;   (* Has been preempted. *)
	Resistant* = 28;   (* Can only be destroyed by itself *)
	PleaseStop* = 31;   (* Process requested to Terminate or Halt itself soon *)
(*#IF SHAREDLIB THEN*)
	External = 13; (* external (non A2) process attached in case of a DLL *)
(*#END;*)

	InActive* = 26;   (* needed to prevent processes to call finalizers while in await or lock or unlock, see Kernel.GC *)

	(** Process modes *)
	Unknown* = 0; Ready* = 1; (* for compatibility with native A2 *)
	Running* = 2; AwaitingLock* = 3; AwaitingCond* = 4; AwaitingEvent* = 5; Suspended* = 6; Terminated* = 7;

	(** Process priorities *)
	MinPriority = 0;							(* only system idle processes run at this priority level *)
	Low* = 1; Normal* = 2; High* = 3;		(* "user" priorities *)
	GCPriority* = 4;							(* priority of garbage collector *)
	Realtime* = 5;							(* reserved for interrupt handling and realtime apps, these processes are not allowed to allocate memory *)

	(* Process termination halt codes *)
	halt* = 2222;
	haltUnbreakable* = 2223;


тип
	CpuCyclesArray* = массив Machine.MaxCPU из цел64;

	ProtectedObject = укль на запись кон;   (* protected object (10000) *)

	ProcessQueue = Heaps.ProcessQueue;

	Body = проц (self: ProtectedObject);
	Condition = проц (slink: адресВПамяти): булево;

	EventHandler* = проц {делегат};
	RealtimeEventHandler* = проц {делегат, можетПрерыватьСборщика};

	Timer* = укль на запись
		next, prev : Timer;
		trigger: цел32;
		handler: EventHandler
	кон;

	Clock = окласс
		перем h: Timer;
			ticks: цел32;
			hevent: Kernel32.HANDLE;
			res: Kernel32.BOOL;
			mode: цел32;
			process: Process;
			exiting: булево;

		проц Wakeup;
		перем res: Kernel32.BOOL;
		нач {единолично}
			res := Kernel32.SetEvent(hevent)
		кон Wakeup;

		проц Exit;
		нач
			exiting := истина;
			Wakeup;
		кон Exit;

		проц Finalize(ptr: динамическиТипизированныйУкль);
		нач
			Exit;
		кон Finalize;

		проц &Init*;
		перем fn: Heaps.FinalizerNode;
		нач
			hevent := Kernel32.CreateEvent(НУЛЬ, 0, 0, НУЛЬ);
			утв(hevent # 0);
			нов(fn); fn.finalizer := сам.Finalize; Heaps.AddFinalizer(сам, fn)
		кон Init;

	нач {активное, SAFE, приоритет(High)}
		process := CurrentProcess();
		mode := process.mode;
		нц
			Machine.Acquire(Machine.Objects);
			process.mode := mode;
			нц
				h := event.next;  (* event: head of timer event queue *)
				ticks := Kernel32.GetTickCount();
				если (h = event) или (h.trigger - ticks > 0) то прервиЦикл всё;
				event.next := h.next;  event.next.prev := event;   (* unlink *)
				h.next := НУЛЬ;  h.prev := НУЛЬ;
				Machine.Release(Machine.Objects);
				h.handler();   (* assume handler will return promptly *)
				Machine.Acquire(Machine.Objects)
			кц;
			mode := process.mode;
			process.mode := AwaitingEvent;
			Machine.Release(Machine.Objects);
			если h = event то (* sentinel head of timer event queue: wait forever until a new event has been entered in queue *)
				res := Kernel32.WaitForSingleObject(hevent, матМаксимум(цел32));
			иначе
				res := Kernel32.WaitForSingleObject(hevent, h.trigger - ticks);
			всё;
			если exiting то прервиЦикл; всё;
		кц;
		process.mode := Running; (*! avoid a trap in terminate *)
		если hevent # 0 то res := Kernel32.CloseHandle(hevent); всё;
	кон Clock;

тип

	Win32Event = Kernel32.HANDLE;

	GCContext = запись
		nextPos: размерМЗ; (* 0 to start with *)
		last: массив 32 из запись bp, pc, sp: адресВПамяти кон;

		проц AddContext(bp, pc, sp: адресВПамяти);
		нач
			last[nextPos].bp := bp;
			last[nextPos].pc := pc;
			last[nextPos].sp := sp;
			увел(nextPos);
		кон AddContext;

		проц GetNextContext(перем pos: размерМЗ; перем bp, pc, sp: адресВПамяти): булево;
		нач
			если pos < 1 то возврат ложь всё;
			умень(pos);
			bp := last[pos].bp;
			pc := last[pos].pc;
			sp := last[pos].sp;
			возврат истина;
		кон GetNextContext;

		проц RemoveContext();
		нач
			если nextPos > 0 то
				умень(nextPos);
				last[nextPos].bp := НУЛЬ;
				last[nextPos].pc := НУЛЬ;
				last[nextPos].sp := НУЛЬ;
			всё;
		кон RemoveContext;
	кон;

	Process* = окласс(Heaps.ProcessLink)
	перем
		obj-: ProtectedObject;   (* associated active object *)
		state- {выровнять=16}: Kernel32.Context;
		condition-: Condition;   (* awaited process' condition *)
		condFP-: адресВПамяти;   (* awaited process' condition's context *)
		mode-: цел32;   (* process state *)  (* only changed inside Objects lock ??? *)
		procID-: цел32;   (* processor ID where running,  exported for compatibilty , useless in WinAos *)
		waitingOn-: ProtectedObject;   (* obj this process is waiting on (for lock or condition) *)
		id-: целМЗ;   (* unique process ID for tracing *)
		flags*: мнвоНаБитахМЗ;   (* process flags *)
		priority-: цел32;   (* process priority *)

		stackBottom: адресВПамяти;
		handle-: Kernel32.HANDLE; (* handle to corresponding Windows thread *)
		body: Body;
		event: Win32Event;
		restartPC-: адресВПамяти;   (** entry point of body, for SAFE exception recovery *)
		restartSP-: адресВПамяти;   (** stack level at start of body, for SAFE exception recovery *)

		lastThreadTimes: цел64;   (*ALEX 2005.12.12*)
		gcContext: GCContext;
		context: динамическиТипизированныйУкль; (* commands contect *)

		проц {перекрыта}FindRoots;
		перем sp, bp, sb, n, a0, a1, adr, pc: адресВПамяти; desc {неОтслСборщиком}, pdesc {неОтслСборщиком}: Modules.ProcedureDescPointer; i: размерМЗ; p {неОтслСборщиком}: динамическиТипизированныйУкль;
			contextPos: размерМЗ; suspended: булево;
		нач{UNTRACKED}
			если (mode < Running) или (mode = Terminated) то возврат всё;
			suspended := ложь;
			если сам = CurrentProcess() то
				state.SP := НИЗКОУР.GetStackPointer( );
				state.BP := НИЗКОУР.GetFramePointer( );
				state.PC := Machine.CurrentPC();
			аесли ConcurrentGC то
				suspended := истина;
				Suspend(сам);
			всё;

			sb := stackBottom;
			contextPos := сравнениеСОбменом(gcContext.nextPos,0,0);
			sp := state.SP; bp := state.BP; pc := state.PC;  (* <---- might all be invalid, when A2 was left ! *)

			если TraceProcessHook # НУЛЬ то (* stack trace *)
				TraceProcessHook(сам, pc, bp, sp, sb);
			всё;

			если Machine.ValidHeapAddress(pc) и (bp # НУЛЬ) то (* bp = NIL can happen when code has no procedure activation frame *)
				(* ok, valid stack frame from A2, we can trace this *)
			иначе утв( gcContext.GetNextContext(contextPos, bp, pc, sp) );
			всё;
			если contextPos >= 0 то (* this thread is currently active in A2 *)
				если Heaps.GCType = Heaps.HeuristicStackInspectionGC то
					если (stackBottom # 0) и (sp # 0) и (sp <= stackBottom) то
						Heaps.RegisterCandidates( sp, stackBottom - sp );
					всё;
				аесли Heaps.GCType = Heaps.MetaDataForStackGC то
					нц
						если Machine.ValidHeapAddress(pc) и (bp # НУЛЬ) то (* bp = NIL can happen when code has no procedure activation frame *)
							(* ok, valid stack frame from A2, we can trace this *)
						аесли gcContext.GetNextContext(contextPos, bp, pc, sp) то
								если TraceProcessHook # НУЛЬ то (* stack trace *)
									TraceProcessHook(сам, pc, bp, sp-128, sb);
								всё;
						иначе
								прервиЦикл
						всё;
						если bp > sp то
							НИЗКОУР.прочтиОбъектПоАдресу( bp-размер16_от(адресВПамяти), desc );
							если desc # НУЛЬ то
								a0 := адресОт( desc.offsets );
								a1 :=  НИЗКОУР.подмениТипЗначения( адресВПамяти, desc.offsets );
								утв( a0+размер16_от( адресВПамяти ) = a1, 54321 );
								нцДля i := 0 до длинаМассива( desc.offsets ) - 1 делай
									adr := bp + desc.offsets[i]; (* pointer at offset *)
									НИЗКОУР.прочтиОбъектПоАдресу( adr, p ); (* load pointer *)
									если p # НУЛЬ то
										Heaps.Mark( p );
									всё
								кц
							всё;
						всё;
						НИЗКОУР.прочтиОбъектПоАдресу(bp + размер16_от(адресВПамяти), pc);
						НИЗКОУР.прочтиОбъектПоАдресу(bp, bp);
					кц; (* LOOP *)
				всё; (* gctype *)
			всё; (* contextpos *)
			если ConcurrentGC то
				если suspended то
					Resume(сам);
				всё;
			всё;
		кон FindRoots;

	кон Process;

тип
	ExceptionHandler* = проц(	перем context: Kernel32.Context;
										перем excpRec: Kernel32.ExceptionRecord;
										перем handled: булево);


	GCStatusExt = окласс(Heaps.GCStatus)

	(* called from Heaps.InvokeGC, i.e. this is a hidden upcall. However, it is necessary to take the Machine.Objects lock here since writing
		    the set of variables here must not be interrupted, i.e. atomic writing of the set of variables is absolutely necessary.  They system may hang
		    if the lock is not taken. *)
		проц {перекрыта}SetgcOngoing(value: булево);
		перем time: цел32;
		нач {UNTRACKED}
			если value то
				time := Kernel32.GetTickCount();

				если ConcurrentGC то
					Machine.Acquire(Machine.GC);
					Machine.Acquire(Machine.Heaps); (* to protect agains concurrent LazySweep *)
					gcProcess := CurrentProcess();
					Heaps.CollectGarbage( Modules.root );
					gcProcess := НУЛЬ;
					Machine.Release(Machine.Heaps);
					Machine.Release(Machine.GC);
				иначе
					Machine.Acquire(Machine.GC);
					Machine.Acquire(Machine.Heaps); (* to protect agains concurrent LazySweep *)
					gcProcess := CurrentProcess();
					SuspendActivities;
					Heaps.CollectGarbage(Modules.root);
					gcProcess := НУЛЬ;
					ResumeActivities;
					Machine.Release(Machine.Heaps);
					Machine.Release(Machine.GC);
				всё;

				time := Kernel32.GetTickCount()-time;
				если Heaps.trace то Трассировка.пСтроку8("GC Called -- duration "); Трассировка.пЦел64(time,0); Трассировка.пСтроку8(" ms."); Трассировка.пВК_ПС всё;
				если finalizerCaller # НУЛЬ то finalizerCaller.Activate() всё;
			всё;
		кон SetgcOngoing;

	кон GCStatusExt;

	FinalizerCaller = окласс  (* separate active object that calls finalizers *)
	перем n: Heaps.FinalizerNode;
		event: Kernel32.HANDLE;
		process: Process;
		exiting: булево;

		проц &Init;
		нач
			event := Kernel32.CreateEvent( НУЛЬ, Kernel32.False (* automatic *), Kernel32.False, НУЛЬ );
			утв(event # 0);
		кон Init;

		проц Wait(): булево;
		перем res: Kernel32.BOOL; mode: цел32;
		нач
			mode := process.mode;
			process.mode := AwaitingEvent;
			res := Kernel32.WaitForSingleObject(event, Kernel32.Infinite);
			process.mode := mode;
			утв(res = Kernel32.WaitObject0);
			если ~exiting то
				возврат истина;
			иначе
				возврат ложь;
			всё;
		кон Wait;

		проц Activate;
		перем res: Kernel32.BOOL;
		нач
			res := Kernel32.SetEvent(event);
		кон Activate;

	нач {активное, SAFE, приоритет(High)}
		process := CurrentProcess();
		нцПока Wait() делай
			нц
				n := Heaps.GetFinalizer();
				если n = НУЛЬ то прервиЦикл всё;
				если n.collection # НУЛЬ то
					n.collection.RemoveAll(n.objStrong)	(* remove it if it is not removed yet *)
				всё;
				если n.finalizer # НУЛЬ то
					n.finalizer( n.objStrong ) (* may acquire locks *)
				всё
			кц;
		кц;
		если event # 0 то неважно Kernel32.CloseHandle(event); всё;
	кон FinalizerCaller;

перем
	awc-, awl-: цел32;
	oberonLoop*: динамическиТипизированныйУкль;   (* Oberon Loop Process temporary workaround for Threads.oberonLoop *)
	break: массив 16 из симв8;
	terminateProc: проц;
	ready: ProcessQueue;	(* contains running processes in this implementation *)
	startedMainProcess := ложь: булево;
	gcProcess : Process;

	numberOfProcessors: цел32; (* cached value of Machine.NumberOfProcessors() *)
	finalizerCaller: FinalizerCaller; (* active object for finalizer process, regarded as aprt of GC *)

	event: Timer; (* list of events *)
	clock: Clock;
	tlsIndex: цел32;
	nProcs: цел32;

	(* опубликовано для отладчика, который грязно мутит воду. Если это сработает, 
		то убрать *)
	excplock*: Kernel32.CriticalSection;  exceptionhandler: ExceptionHandler;

(* Set the current process' priority. *)
проц SetPriority*( priority: цел32 );
перем r: Process; prio: цел32; res: Kernel32.BOOL;
нач
	утв((priority >= Low) и (priority <= Realtime));   (* priority in bounds *)
	r := CurrentProcess();  r.priority := priority;
	просей priority из
	MinPriority:
			prio := Kernel32.ThreadPriorityIdle
	| Low:
			prio := Kernel32.ThreadPriorityBelowNormal
	| High:
			prio := Kernel32.ThreadPriorityAboveNormal
	| GCPriority, Realtime:
			prio := Kernel32.ThreadPriorityTimeCritical
	иначе  (* Normal *)
		prio := Kernel32.ThreadPriorityNormal
	всё;
	res := Kernel32.SetThreadPriority( r.handle, prio );
	утв(r.handle # 0);
	утв(res # 0)
кон SetPriority;

(** Return TRUE iff the specified protected object is locked exclusive to the current process. *)
проц LockedByCurrent*( obj: динамическиТипизированныйУкль ): булево;
перем hdr {неОтслСборщиком}: Heaps.ProtRecBlock; res: булево;
нач
	НИЗКОУР.прочтиОбъектПоАдресу(НИЗКОУР.подмениТипЗначения(адресВПамяти, obj) + Heaps.HeapBlockOffset, hdr);
	утв(hdr суть Heaps.ProtRecBlock);
	Machine.Acquire(Machine.Objects);
	res := (hdr.lockedBy = ActiveObject());
	Machine.Release(Machine.Objects);
	возврат res
кон LockedByCurrent;

проц Yield*;
нач
	Kernel32.Sleep(0)
кон Yield;

(** Return current process. (DEPRECATED, use ActiveObject) *)
проц CurrentProcess*( ): Process;
(* The following code replaces RETURN Kernel32.TlsGetValue(tlsIndex) and does not need to leave A2 *)
машКод
#если I386 то
	MOV EAX, [tlsIndex]
	MOV EDX, [FS:18H]
	MOV EAX, [EDX + EAX * 4 + 0E10H]
	MOV EDX, [EBP + RESULT]
	MOV [EDX], EAX
#аесли AMD64 то
	MOV EAX, [tlsIndex]
	MOV RDX, [GS:30H]
	MOV RAX, [RDX + EAX * 8 + 1480H]
	MOV RDX, [RBP + RESULT]
	MOV [RDX], RAX
#иначе
	unimlemented
#кон
кон CurrentProcess;

проц CurrentContext*(): динамическиТипизированныйУкль;
перем p: Process;
нач
	p := CurrentProcess();
	если p # НУЛЬ то возврат p.context
	иначе возврат НУЛЬ
	всё;
кон CurrentContext;

проц SetContext*(context: динамическиТипизированныйУкль);
перем p: Process;
нач
	p := CurrentProcess();
	если p # НУЛЬ то p.context := context всё;
кон SetContext;

(* Return stack bottom of process. For compatibility WinAos/UnixAos/NativeAos  *)
проц GetStackBottom*(p: Process): адресВПамяти;
нач
	возврат p.stackBottom
кон GetStackBottom;

проц GetStack*(p: Process; перем pc, bp, sp, sb: адресВПамяти; перем contextPos: размерМЗ);
нач
	UpdateProcessState(p);
	bp := p.state.BP;
	pc := p.state.PC;
	sp := p.state.SP;
	sb := p.stackBottom;
	contextPos := p.gcContext.nextPos;

	если p = CurrentProcess() то
		sp := НИЗКОУР.GetStackPointer();
		bp := НИЗКОУР.GetFramePointer();
		НИЗКОУР.прочтиОбъектПоАдресу(bp, bp);
		НИЗКОУР.прочтиОбъектПоАдресу(bp+размер16_от(адресВПамяти), pc);
	всё;
кон GetStack;

проц NextValidStackSegment*(p: Process; перем bp, pc, sp: адресВПамяти; перем contextPos: размерМЗ): булево;
нач
	если contextPos > p.gcContext.nextPos то
		contextPos := p.gcContext.nextPos;
	всё;
	bp := НУЛЬ;
	нцПока (contextPos > 0) и (bp = НУЛЬ) делай
		умень(contextPos);
		bp := p.gcContext.last[contextPos].bp;
		pc := p.gcContext.last[contextPos].pc;
		sp := p.gcContext.last[contextPos].sp;
	кц;
	возврат bp  # НУЛЬ;
кон NextValidStackSegment;

(** Return the active object currently executing. *)
проц ActiveObject* (): динамическиТипизированныйУкль;
перем r: Process;
нач
	r := НИЗКОУР.подмениТипЗначения(Process, Kernel32.TlsGetValue(tlsIndex));
	возврат r.obj
кон ActiveObject;

(** Return the ID of the active currently executing process. *)
проц GetProcessID* (): целМЗ;
перем r: Process;
нач
	r := НИЗКОУР.подмениТипЗначения (Process, Kernel32.TlsGetValue( tlsIndex ));
	возврат r.id
кон GetProcessID;

(* Get a process from a queue (NIL if none). Caller must hold lock for specific queue. *)
проц Get(перем queue: ProcessQueue; перем new: Process);
перем t: Heaps.ProcessLink;
нач
	t := queue.head;
	если t = НУЛЬ то  (* zero elements in queue *)
		(* skip *)
		new := НУЛЬ;
	аесли t = queue.tail то  (* one element in queue *)
		new := t(Process);
		queue.head := НУЛЬ; queue.tail := НУЛЬ  (* {(t.next = NIL) & (t.prev = NIL)} *)
	иначе  (* more than one element in queue *)
		new := t(Process);
		queue.head := t.next; t.next := НУЛЬ; queue.head.prev := НУЛЬ
	всё;
кон Get;

(* Put a process in a queue. Caller must hold lock for specific queue. *)
(* If t was running, be careful to protect Put and the subsequent SwitchTo with the ready lock. *)
проц Put(перем queue: ProcessQueue; t: Process);
нач (* {t # NIL & t.next = NIL & t.prev = NIL} *)
	если StrongChecks то
		утв((t.next = НУЛЬ) и (t.prev = НУЛЬ))
	всё;
	t.next := НУЛЬ; t.prev := НУЛЬ; (* ug *)
	если queue.head = НУЛЬ то (* queue empty *)
		queue.head := t
	иначе (* queue not empty *)
		queue.tail.next := t; t.prev := queue.tail
	всё;
	queue.tail := t
кон Put;


проц {WINAPI} ExcpFrmHandler( конст exceptionPointers: Kernel32.ExceptionPointers): Kernel32.DWORD ;
перем m: Modules.Module;  eip, ebp, stack: адресВПамяти;  pc, handler, fp, sp: адресВПамяти;  handled: булево;  t {неОтслСборщиком}: Process;
нач{UNTRACKED}
	handled := ложь;

	Kernel32.EnterCriticalSection( excplock );

	(*
	fof: commenting this resolved a problem with multiple traps that a are catched with FINALLY statements in Windows Vista
	in Windows XP not necessary if Kernel32.SetThreadContext is not used (better to return gracefully from this handler)
	SetCurrent(excpFrame);
	*)
	t := НИЗКОУР.подмениТипЗначения(Process, Kernel32.TlsGetValue(tlsIndex));
	если t = gcProcess то
		(*Machine.Release(Machine.GC); *)
		Machine.Release(Machine.Heaps);
		Heaps.StopMarking
	всё;

	если exceptionhandler = НУЛЬ то
		Трассировка.StringLn ( "Objects: No exception handler installed" );
		если HandleExcp то

			Трассировка.пСтроку8( "EXCEPTION " );  Трассировка.пАдресВПамяти(exceptionPointers.exception.ExceptionCode);
			Трассировка.пСтроку8( " at " );  Трассировка.пАдресВПамяти(exceptionPointers.exception.ExceptionAddress);
			#если I386 то
				Трассировка.пВК_ПС();  Трассировка.пСтроку8( "EAX " );  Трассировка.п16ричное( exceptionPointers.context.RA, 1 );
				Трассировка.пСтроку8( "  EBX " );  Трассировка.п16ричное( exceptionPointers.context.RB, 1 );  Трассировка.пВК_ПС();
				Трассировка.пСтроку8( "ECX " );  Трассировка.п16ричное( exceptionPointers.context.RC, 1 );  Трассировка.пСтроку8( "  EDX " );
				Трассировка.п16ричное( exceptionPointers.context.RD, 1 );  Трассировка.пВК_ПС();  Трассировка.пСтроку8( "EDI " );
				Трассировка.п16ричное( exceptionPointers.context.RDI, 1 );  Трассировка.пСтроку8( "  ESI " );
				Трассировка.п16ричное( exceptionPointers.context.RSI, 1 );  Трассировка.пВК_ПС();
			#аесли AMD64 то
				Трассировка.пВК_ПС();  Трассировка.пСтроку8( "RAX " );  Трассировка.пАдресВПамяти(exceptionPointers.context.RA);
				Трассировка.пСтроку8( "  RBX " );  Трассировка.пАдресВПамяти(exceptionPointers.context.RB);  Трассировка.пВК_ПС();
				Трассировка.пСтроку8( "RCX " );  Трассировка.пАдресВПамяти(exceptionPointers.context.RC);  Трассировка.пСтроку8( "  RDX " );
				Трассировка.пАдресВПамяти(exceptionPointers.context.RD);  Трассировка.пВК_ПС();  Трассировка.пСтроку8( "RDI " );
				Трассировка.пАдресВПамяти(exceptionPointers.context.RDI);  Трассировка.пСтроку8( "  RSI " );
				Трассировка.пАдресВПамяти(exceptionPointers.context.RSI);  Трассировка.пВК_ПС();

				Трассировка.пСтроку8( "R8 " ); Трассировка.пАдресВПамяти(exceptionPointers.context.R8);
				Трассировка.пСтроку8( " R9 " ); Трассировка.пАдресВПамяти(exceptionPointers.context.R9);  Трассировка.пВК_ПС();
				Трассировка.пСтроку8( "R10 " ); Трассировка.пАдресВПамяти(exceptionPointers.context.R10);
				Трассировка.пСтроку8( " R11 " ); Трассировка.пАдресВПамяти(exceptionPointers.context.R11);  Трассировка.пВК_ПС();
				Трассировка.пСтроку8( "R12 " ); Трассировка.пАдресВПамяти(exceptionPointers.context.R12);
				Трассировка.пСтроку8( " R13 " ); Трассировка.пАдресВПамяти(exceptionPointers.context.R13);  Трассировка.пВК_ПС();
				Трассировка.пСтроку8( "R14 " ); Трассировка.пАдресВПамяти(exceptionPointers.context.R14);
				Трассировка.пСтроку8( " R15 " ); Трассировка.пАдресВПамяти(exceptionPointers.context.R15);  Трассировка.пВК_ПС();
				Трассировка.пВК_ПС;
			#иначе
				-- UNIMPLEMENTED --
			#кон

			Трассировка.пСтроку8( "BP " );
			Трассировка.пАдресВПамяти(exceptionPointers.context.BP);  Трассировка.пСтроку8( "  SP " );
			Трассировка.пАдресВПамяти(exceptionPointers.context.SP);  Трассировка.пВК_ПС();  Трассировка.пСтроку8( "PC " );
			Трассировка.пАдресВПамяти(exceptionPointers.context.PC);  Трассировка.пВК_ПС();


			Трассировка.пВК_ПС();


			eip := exceptionPointers.exception.ExceptionAddress;  ebp := exceptionPointers.context.BP;
			если eip = 0 то НИЗКОУР.прочтиОбъектПоАдресу( exceptionPointers.context.SP, eip ) всё;
			stack := t.stackBottom;
			нц
				Трассировка.пСтроку8( "at ebp= " );  Трассировка.пАдресВПамяти(ebp);  Трассировка.пСтроку8( "H : " );
				m := Modules.ThisModuleByAdr( eip );
				если m # НУЛЬ то
					Трассировка.пСтроку8( m.name );  Трассировка.пСтроку8( " " );
					Трассировка.пАдресВПамяти(eip - адресОт( m.code[0] ) );
				иначе Трассировка.пСтроку8( "EIP " );  Трассировка.пАдресВПамяти(eip)
				всё;
				Трассировка.пВК_ПС();
				если (ebp # 0) и (ebp < stack) то  (* if ebp is 0 in first frame *)
					НИЗКОУР.прочтиОбъектПоАдресу( ebp + размер16_от(адресВПамяти), eip );   (* return addr from stack *)
					НИЗКОУР.прочтиОбъектПоАдресу( ebp, ebp );   (* follow dynamic link *)
				иначе прервиЦикл
				всё
			кц;
			Трассировка.пВК_ПС();

			handled := ложь;  fp := exceptionPointers.context.BP;  sp := exceptionPointers.context.SP;
			pc := exceptionPointers.context.PC;  handler := Modules.GetExceptionHandler( pc );
			если handler # -1 то  (* Handler in the current PAF *)
				exceptionPointers.context.PC := handler;  handled := истина;
				(*SetTrapVariable(pc, fp);  SetLastExceptionState(exc)*)
			иначе
				нцПока (fp # 0) и (handler = -1) делай
					НИЗКОУР.прочтиОбъектПоАдресу( fp + размер16_от(адресВПамяти), pc );
					pc := pc - 1;   (*  CALL instruction, machine dependant!!! *)
					handler := Modules.GetExceptionHandler( pc );
					sp := fp;   (* Save the old framepointer into the stack pointer *)
					НИЗКОУР.прочтиОбъектПоАдресу( fp, fp ) (* Unwind PAF *)
				кц;
				если handler = -1 то handled := ложь;
				иначе
					exceptionPointers.context.PC := handler;  exceptionPointers.context.BP := fp;  exceptionPointers.context.SP := sp;
					(* SetTrapVariable(pc, fp); SetLastExceptionState(exc);*)
					handled := истина
				всё
			всё;
		иначе Трассировка.StringLn ( "Warning: FINALLY statement cannot be treated !" );
		всё
	иначе exceptionhandler(exceptionPointers.context^, exceptionPointers.exception^,handled );
	всё;
	если ~handled то
		exceptionPointers.context.PC := t.restartPC ;
		exceptionPointers.context.SP := t.restartSP;
		exceptionPointers.context.BP := t.stackBottom;
	аесли TraceVerbose то Трассировка.StringLn ( "trying to jump to FINALLY pc..." );
	всё;
	Kernel32.LeaveCriticalSection( excplock );

	если TraceVerbose то
		Machine.Acquire (Machine.TraceOutput);
		Трассировка.пСтроку8( "recover process; pc=" );  Трассировка.пАдресВПамяти( exceptionPointers.context.PC );
		Трассировка.пСтроку8( "; sp= " );  Трассировка.пАдресВПамяти( exceptionPointers.context.SP);  Трассировка.пСтроку8( "; bp= " );
		Трассировка.пАдресВПамяти( exceptionPointers.context.BP); Трассировка.пВК_ПС;
		Machine.Release (Machine.TraceOutput);
	всё;

	возврат Kernel32.ExceptionContinueExecution; (* sets thread context and continues where specified in context *)
кон ExcpFrmHandler;

проц InQueue( queue: ProcessQueue;  t: Process ): булево;
перем p: Heaps.ProcessLink;
нач
	p := queue.head;
	нцПока (p # НУЛЬ ) и (p # t) делай p := p.next;  кц;
	возврат (p = t);
кон InQueue;

(* Remove a process from a queue that contains it. Caller must hold lock for specific queue. *)
(* Not intended for frequent use. *)
(* does not check if queue contained t ! *)
проц Remove( перем queue: ProcessQueue;  t: Process );
нач
	если StrongChecks то
		утв(InQueue(queue, t));
		утв(t # НУЛЬ);
	всё;
	если t.prev # НУЛЬ то t.prev.next := t.next всё;
	если t.next # НУЛЬ то t.next.prev := t.prev всё;
	если t = queue.head то queue.head := t.next всё;
	если t = queue.tail то queue.tail := t.prev всё;
	утв((queue.head = НУЛЬ) или (queue.head.prev = НУЛЬ) и (queue.tail.next = НУЛЬ));
	t.prev := НУЛЬ;  t.next := НУЛЬ
кон Remove;

проц WriteType(obj: динамическиТипизированныйУкль);
перем type: цел32;
нач
	если obj = НУЛЬ то Трассировка.пСтроку8(" > NIL");
	иначе
		Трассировка.пСтроку8(" > ");  НИЗКОУР.прочтиОбъектПоАдресу(НИЗКОУР.подмениТипЗначения(адресВПамяти,obj) + Heaps.TypeDescOffset, type);
		Heaps.WriteType(type);
	всё;
кон WriteType;

проц terminate( t: Process );
перем hdr {неОтслСборщиком}: Heaps.ProtRecBlock; res: Kernel32.BOOL; shutdown: булево;
нач
	если t = НУЛЬ то возврат всё;
	(* see Objects.TerminateThis *)
	Machine.Acquire( Machine.GC );
	Machine.Acquire( Machine.Objects );

	если TraceVerbose или TraceOpenClose то
		Machine.Acquire (Machine.TraceOutput);
		Трассировка.пСтроку8( "Terminating process " );  Трассировка.пЦел64( t.id, 1 );  WriteType( t.obj ); Трассировка.пВК_ПС;
		Machine.Release (Machine.TraceOutput);
	всё;

	если (t.mode = Ready) или (t.mode = Running) то Remove( ready, t );
	аесли t.mode = AwaitingLock то
		НИЗКОУР.прочтиОбъектПоАдресу(НИЗКОУР.подмениТипЗначения(адресВПамяти, t.waitingOn) + Heaps.HeapBlockOffset, hdr);
		утв(hdr суть Heaps.ProtRecBlock);
		Remove( hdr.awaitingLock, t );  Machine.Release( Machine.Objects );Machine.Release(Machine.GC);
		СТОП( 97 )
	аесли t.mode = AwaitingCond то
		НИЗКОУР.прочтиОбъектПоАдресу(НИЗКОУР.подмениТипЗначения(адресВПамяти, t.waitingOn) + Heaps.HeapBlockOffset, hdr);
		утв(hdr суть Heaps.ProtRecBlock);
		Remove( hdr.awaitingCond, t ); Machine.Release( Machine.Objects );Machine.Release(Machine.GC);
		СТОП( 98 )
	иначе Machine.Release( Machine.Objects );Machine.Release(Machine.GC);
		СТОП( 99 )
	всё;
	t.mode := Terminated;   (* a process can also be "terminated" if the queue containing it is garbage collected *)
	t.stackBottom := 0;  t.state.SP := 0;
	t.restartPC := 0;
	если t.event # 0 то res := Kernel32.CloseHandle( t.event );  t.event := 0 всё;
	умень( nProcs );  shutdown := (nProcs = 0);

	Machine.Release( Machine.Objects );
	Machine.Release( Machine.GC );
	если shutdown то
		Трассировка.StringLn ( " Objects: shutdown" ); Modules.Shutdown( -1 );
		Kernel32.ExitProcess( 0 )
	всё
кон terminate;

проц {WINAPI} Wrapper( lpParameter: динамическиТипизированныйУкль ): цел32;
перем t: Process;  obj: ProtectedObject; res: Kernel32.BOOL; bp,sp: адресВПамяти;
нач
	(* it may happen that the garbage collector runs right here and ignores this procedure.
	    This is not a problem since lpParameter (being a reference to a process) is protected by the process lists *)
	Machine.Acquire(Machine.GC);
	Machine.Acquire(Machine.Objects);
	res := Kernel32.TlsSetValue(tlsIndex, НИЗКОУР.подмениТипЗначения(адресВПамяти, lpParameter));
	t := lpParameter(Process);  obj := t.obj;
	утв(res # 0);
	SetPriority(t.priority);
	bp := НИЗКОУР.GetFramePointer();
	sp := НИЗКОУР.GetStackPointer();
	t.restartSP := sp;
	t.stackBottom := bp;
	если t.restartPC = НИЗКОУР.подмениТипЗначения(адресВПамяти, terminateProc) то умень(t.restartSP, размер16_от(адресВПамяти))
	иначе умень(t.restartSP, 2*размер16_от(адресВПамяти))
	всё;
	если TraceVerbose то
		Machine.Acquire(Machine.TraceOutput);
		Трассировка.пСтроку8("New process; restartPC= "); Трассировка.пАдресВПамяти(t.restartPC);
		Трассировка.пСтроку8("; stackBottom= ");
		Трассировка.пАдресВПамяти(t.stackBottom);
		Трассировка.пСтроку8("; id= ");
		Трассировка.пЦел64(t.id,0); Трассировка.пВК_ПС;
		Machine.Release(Machine.TraceOutput);
	всё;
	t.mode := Running;
	(* now gc is enabled for this process stack *)
	Machine.Release(Machine.Objects);
	Machine.Release(Machine.GC);
	(* loop all processes that the GC did not see during process suspending because they were in the very moment being generated (just before the locked section) *)

	t.body(obj);
	terminate(t);
	возврат 0
кон Wrapper;

проц FinalizeProcess(t: динамическиТипизированныйУкль);
перем p: Process;  res: Kernel32.BOOL;
нач
	p := t(Process);

	если TraceVerbose то
		Machine.Acquire (Machine.TraceOutput);
		Трассировка.пСтроку8("Finalizing Process"); Трассировка.пЦел64(p.id, 1);
		WriteType(p.obj); Трассировка.пВК_ПС;
		Machine.Release (Machine.TraceOutput);
	всё;
	если p.mode # Terminated то
		если p.mode = AwaitingLock то умень(awl);
		аесли p.mode = AwaitingCond то умень(awc);
		всё;
		(* no reference to the object any more *)
		Трассировка.пСтроку8 ("Closing unreferenced process"); (*Trace.Int(p.mode,20); Trace.Int( p.id, 20 ); *) Трассировка.пВК_ПС; (* Trace.Ln *)
		(* this usually happens, when an objects process waits on its own objtec and no reference exists any more. Then the object is discarded and
		consequently the process is unreferenced (except in the object). This cannot happen when there are still other references on the object.
		example:
			TYPE
			Object= OBJECT VAR active: BOOLEAN; BEGIN{ACTIVE} active := FALSE; AWAIT(active) END Object;
			VAR o: Object;
			BEGIN NEW(o);
			END;
		 *)
	всё;
	Machine.Acquire(Machine.GC);
	p.mode := Terminated; (* fof for GC problem *)
	Machine.Release(Machine.GC);
	если p.handle # 0 то
		res := Kernel32.CloseHandle(p.handle); p.handle := 0
	всё
кон FinalizeProcess;

проц TerminateProc;
нач
	terminate(CurrentProcess());
	Kernel32.ExitThread(0);
	Kernel32.Sleep(999999);   (* wait until dependent threads terminated *)
кон TerminateProc;

(* Allocate a new process associated with "obj". Must be outside lock region, because of potential GC. *)
проц NewProcess(body: Body; priority: цел32;  flags: мнвоНаБитахМЗ; obj: ProtectedObject; перем new: Process);
перем t,r: Process;  fn: Heaps.FinalizerNode;
нач
	нов(t);
	t.gcContext.nextPos := 0;
	t.context := CurrentContext(); (* inherit context from parent process *)
	t.handle := 0;
	если priority = 0 то  (* no priority specified *)
		r := CurrentProcess();
		t.priority := r.priority (* inherit priority of creator *)
	аесли priority > 0 то  (* positive priority specified *)
		t.priority := priority
	иначе  (* negative priority specified (only for Idle process) *)
		t.priority := MinPriority
	всё;

	нов(fn);   (* implicit call Heaps.NewRec -> might invoke GC *)
	Heaps.AddFinalizer(t, fn); (* requires heaps lock *)

	Machine.Acquire(Machine.GC);
	Machine.Acquire(Machine.Objects);
	t.next := НУЛЬ; t.prev := НУЛЬ;
	t.waitingOn := НУЛЬ; t.flags := flags; t.obj := obj; t.mode := Unknown;
	t.body := body; t.event := 0; fn.finalizer := FinalizeProcess;
	если Restart в flags то  (* restart object body *)
		t.restartPC := НИЗКОУР.подмениТипЗначения(адресВПамяти, body);
	иначе  (* terminate process *)
		t.restartPC := НИЗКОУР.подмениТипЗначения(адресВПамяти, terminateProc);
	всё;

	(*! Put the process into the process queue before the thread is created.
		this is highly important in case of a DLL, where Objects.AttachThread
		will be called by Kernel32.EntryPoint (DllMain)
	*)
	Put(ready, t);
	t.handle := Kernel32.CreateThread(0, defaultStackSize, Wrapper, t, {}, t.id);

	если TraceVerbose или TraceOpenClose то
		Machine.Acquire(Machine.TraceOutput);
		Трассировка.пСтроку8("NewProcess: " ); Трассировка.пЦел64(t.id, 1); WriteType(obj); Трассировка.пВК_ПС;
		Machine.Release(Machine.TraceOutput);
	всё;

	утв(t.handle # 0);
	new := t;
кон NewProcess;

(* Create the process associated with an active object (kernel call). *)
проц CreateProcess*(body: Body; priority: цел32; flags: мнвоНаБитахМЗ; obj: ProtectedObject);
перем t : Process; heapBlock {неОтслСборщиком}: Heaps.HeapBlock;
нач
	утв(priority >= 0, 1000); утв(priority <=Realtime, 1001);
	НИЗКОУР.прочтиОбъектПоАдресу(НИЗКОУР.подмениТипЗначения(адресВПамяти, obj) + Heaps.HeapBlockOffset, heapBlock);

	утв(heapBlock суть Heaps.ProtRecBlock); (* protected object *)
	если Restart в flags то включиВоМнвоНаБитах(flags, Resistant) всё;   (* SAFE => Restart & Resistant *)
	NewProcess(body, priority, flags, obj, t);  увел(nProcs);  (* acquires Machine.Objects lock *)
	Machine.Release(Machine.Objects);
	Machine.Release(Machine.GC);

кон CreateProcess;


(* The procedure Lock, Unlock and Await do not use header locks since it turned out that the header locks sometimes were finalized
     too early. *)
проц Lock*(obj: ProtectedObject; exclusive: булево );
перем hdr {неОтслСборщиком}: Heaps.ProtRecBlock; r: Process; res: целМЗ;
нач  (* {called from user level} *)
	НИЗКОУР.прочтиОбъектПоАдресу(НИЗКОУР.подмениТипЗначения(адресВПамяти, obj) + Heaps.HeapBlockOffset, hdr);
	если StrongChecks то
		утв(hdr суть Heaps.ProtRecBlock); (* protected object *)
		утв(exclusive)	(* shared not implemented yet *)
	всё;
	Machine.Acquire(Machine.Objects);
	globalRunning := CurrentProcess();
	r := globalRunning;
	если StrongChecks то
		утв(hdr # НУЛЬ, 1001);
		утв(r # НУЛЬ, 1002);
	всё;
	если hdr.count = 0 то  (* not locked *)
		hdr.count := -1; hdr.lockedBy := r;
		Machine.Release(Machine.Objects)
	иначе  (* already locked *)
		если hdr.lockedBy = r то
			Machine.Release(Machine.Objects);
			СТОП(2203) (* nested locks not allowed *)
		всё;
		утв(r.waitingOn = НУЛЬ); (* sanity check *)
		Remove(ready, r);
		если r.event = 0 то
			r.event := Kernel32.CreateEvent( НУЛЬ, Kernel32.False (* auto *), Kernel32.False, НУЛЬ );   (* auto reset event with initial state = reset *)
			утв ( r.event # 0, 1239 );
		всё;
		r.waitingOn := obj;  r.mode := AwaitingLock;
		Put(hdr.awaitingLock, r); увел(awl);
		globalRunning := НУЛЬ;
		Machine.Release(Machine.Objects);
		res := Kernel32.WaitForSingleObject(r.event, Kernel32.Infinite); (* block execution *)
		утв(res = Kernel32.WaitObject0);
		если StrongChecks то
			утв(hdr.lockedBy = r); (* at this moment only this process can own the lock and only this process can release it*)
			утв(r.mode = Running);
		всё;
	всё
кон Lock;

(* Find the first true condition from the queue and remove it. Assume the object is currently locked. *)
проц FindCondition( перем q: ProcessQueue ): Process;
перем first, cand: Process;
нач
	Get( q, first );
	если first.condition( first.condFP ) то возврат first всё;
	Put( q, first );
	нцПока q.head # first делай
		Get( q, cand );
		если cand.condition( cand.condFP ) то возврат cand всё;
		Put( q, cand )
	кц;
	возврат НУЛЬ
кон FindCondition;

(* The procedure Lock, Unlock and Await do not use header locks since it turned out that the header locks sometimes were finalized
     too early. *)
проц Unlock*( obj: ProtectedObject;  dummy: булево );
перем hdr {неОтслСборщиком}: Heaps.ProtRecBlock; t, c: Process; res: целМЗ;
нач
	НИЗКОУР.прочтиОбъектПоАдресу(НИЗКОУР.подмениТипЗначения(адресВПамяти, obj) + Heaps.HeapBlockOffset, hdr);
	если StrongChecks то
		утв(hdr суть Heaps.ProtRecBlock) (* protected object *)
	всё;
	утв(hdr.count = -1);	(* exclusive locked *)
	Machine.Acquire(Machine.Objects);
	globalRunning := CurrentProcess(); (* protect current process *)

	(* the running process remains reachable, no danger that c or t are not seen by the GC *)
	если hdr.awaitingCond.head # НУЛЬ то  (* evaluate the waiting conditions *)
		(* we are holding the lock, so the queue can not change (to do: except in TerminateThis) *)
		c := FindCondition(hdr.awaitingCond);   (* interrupts should be on during this call *)
	иначе
		c := НУЛЬ
	всё;
	если c = НУЛЬ то  (* no true condition found, check the lock queue *)
		Get(hdr.awaitingLock, t);
		если t # НУЛЬ то
			hdr.lockedBy := t;
			t.waitingOn := НУЛЬ;
		иначе
			hdr.lockedBy := НУЛЬ; hdr.count := 0
		всё
	иначе  (* true condition found, transfer the lock *)
		c.waitingOn := НУЛЬ; hdr.lockedBy := c; t := НУЛЬ
	всё;
	если c # НУЛЬ то
		Put(ready, c); c.mode := Running; умень(awc);
		res := Kernel32.SetEvent(c.event);
		утв (res # 0, 1001);
	аесли t # НУЛЬ то
		Put(ready, t); t.mode := Running; умень(awl);
		res := Kernel32.SetEvent(t.event);
		утв (res # 0, 1002);
	всё;
	globalRunning := НУЛЬ;
	Machine.Release( Machine.Objects )
кон Unlock;

перем globalRunning: Process;
	(* global in order to save a reference to the current processes somewhere when
		it temporarily is not in any queue	 *)

(* The procedure Lock, Unlock and Await do not use header locks since it turned out that the header locks sometimes were finalized
     too early. *)
проц Await*( cond: Condition;  slink: цел32;  obj: ProtectedObject;  flags: мнвоНаБитахМЗ );
перем hdr {неОтслСборщиком}: Heaps.ProtRecBlock; r, c, t: Process;  res: целМЗ;
нач
	если 1 в flags то  (* compiler did not generate IF *)
		если cond(slink) то
			возврат  (* condition already true *)
		всё
	всё;
	НИЗКОУР.прочтиОбъектПоАдресу(НИЗКОУР.подмениТипЗначения(адресВПамяти, obj) + Heaps.HeapBlockOffset, hdr);
	если StrongChecks то
		утв(hdr суть Heaps.ProtRecBlock) (* protected object *)
	всё;
	Machine.Acquire(Machine.Objects);
	globalRunning := CurrentProcess();
	r := globalRunning;
	если hdr.lockedBy = r то  (* current process holds exclusive lock *)
		если StrongChecks то утв(hdr.count = -1) всё; (* exclusive locked *)
		если hdr.awaitingCond.head # НУЛЬ то	(* evaluate the waiting conditions *)
			(* we are holding the lock, so the queue can not change (to do: except in TerminateThis) *)
			c := FindCondition(hdr.awaitingCond)	(* interrupts should be on during this call *)
		иначе
			c := НУЛЬ
		всё;
		если c = НУЛЬ то
			Get(hdr.awaitingLock, t);
			если t = НУЛЬ то	(* none waiting - remove lock *)
				hdr.count := 0; hdr.lockedBy := НУЛЬ;
			иначе	(* transfer lock to first waiting process *)
				если StrongChecks то утв(t.mode = AwaitingLock) всё;
				t.waitingOn := НУЛЬ;
				hdr.lockedBy := t;
			всё;
		иначе
			c.waitingOn := НУЛЬ; hdr.lockedBy := c;	t := НУЛЬ;
		всё;
	иначе  (* no lock, or some other process may hold the lock, but that's the user's indaba (may be monotonic condition) *)
		Machine.Release(Machine.Objects);
		СТОП( 2204 ) (* await must be exclusive region *)
	всё;
	r.condition := cond; r.condFP := slink;
	r.waitingOn := obj; r.mode := AwaitingCond;
	Remove(ready, r);
	если r.event = 0 то
		r.event := Kernel32.CreateEvent( НУЛЬ, Kernel32.False (* auto *), Kernel32.False, НУЛЬ );   (* auto-reset event with initial state = reset *)
		утв ( r.event # 0, 1239 );
	всё;
	если c # НУЛЬ то
		умень(awc); Put(ready, c); c.mode := Running;
		res := Kernel32.SetEvent(c.event); (* restart execution *)
		утв(res # 0, 1002);
	всё;
	если t # НУЛЬ то
		умень(awl); Put(ready, t);  t.mode := Running;
		res := Kernel32.SetEvent( t.event ); (* restart execution *)
		утв(res # 0, 1003);
	всё;
	Put(hdr.awaitingCond, r); увел(awc);
	globalRunning := НУЛЬ;
	Machine.Release(Machine.Objects);
	res := Kernel32.WaitForSingleObject(r.event, Kernel32.Infinite); (* block execution *)
	утв(res = Kernel32.WaitObject0);
	если StrongChecks то
		утв(cond(slink));
		утв(hdr.lockedBy = r); (* lock held again *)
		утв(r.mode = Running);
	всё
кон Await;

	проц Break*( t: Process );
	конст MaxTry = 50;
	перем mod: Modules.Module;  try: цел32;  retBOOL: Kernel32.BOOL;   (* Dan 09.11.05 *)

		проц SafeForBreak( mod: Modules.Module ): булево;
		нач
			Трассировка.пСтроку8( "Safe for break?: " );
			если mod # НУЛЬ то
				Трассировка.StringLn ( mod.name );
				если (mod.name = "Trace") или (mod.name = "Machine") или
					(mod.name = "Heaps") или (mod.name = "Modules") или
					(mod.name = "Objects") или (mod.name = "Kernel") то
					Трассировка.StringLn ( " - no" );  возврат ложь
				иначе Трассировка.StringLn ( " - yes" );  возврат истина
				всё
			иначе Трассировка.StringLn ( "unknown module" );  возврат ложь
			всё
		кон SafeForBreak;

	нач
		если CurrentProcess() # t то
			Machine.Acquire( Machine.Objects );
			нц
				retBOOL := Kernel32.SuspendThread( t.handle );
				t.state.ContextFlags := Kernel32.ContextControl;
				retBOOL := Kernel32.GetThreadContext( t.handle, t.state );
				mod := Modules.ThisModuleByAdr( t.state.PC );  Трассировка.пСтроку8( "Objects Break at adr: " );
				Трассировка.пЦел64( t.state.PC, 5 );  Трассировка.пВК_ПС;
				если mod # НУЛЬ то
					Трассировка.пСтроку8( "In module: " );  Трассировка.StringLn ( mod.name );
				всё;
				если ~SafeForBreak( mod ) (* we do not break Kernel modules *) то
					retBOOL := Kernel32.ResumeThread( t.handle );  увел( try );
					если try > MaxTry то
						Трассировка.StringLn ( "Threads.Break: failed " );
						Machine.Release( Machine.Objects );
						возврат
					всё
				иначе прервиЦикл
				всё;
			кц;
			(* push cont.Eip *) break[0] := 68X;
			НИЗКОУР.копируйПамять( адресОт( t.state.PC ), адресОт( break[1] ), 4 );
			(* push ebp *) break[5] := 055X;
			(* mov ebp, esp *) break[6] := 08BX;  break[7] := 0ECX;
			(* push 13 *) break[8] := 06AX;  break[9] := 0DX;
			(* int 3 *) break[10] := 0CCX;
			(* mov esp, ebp *) break[11] := 08BX;  break[12] := 0E5X;
			(* pop ebp *) break[13] := 05DX;
			(* ret *) break[14] := 0C3X;  t.state.PC := адресОт( break[0] );
			retBOOL := Kernel32.SetThreadContext( t.handle, t.state );
			retBOOL := Kernel32.ResumeThread( t.handle );   (*  INC( Kernel.GClevel ); *)

			Machine.Release( Machine.Objects );
		иначе СТОП( 99 )
		всё;

	кон Break;

(* Attempt to terminate a specific process (mostly ignoring its locks). DEPRECATED *)
проц TerminateThis*( t: Process;  halt: булево );
нач
	terminate(t);
кон TerminateThis;

проц Terminate*;
нач
	TerminateProc();
кон Terminate;

проц Init;   (* can not use NEW *)
перем t: Process;  fn: Heaps.FinalizerNode;  proc: Kernel32.HANDLE;
	res: Kernel32.BOOL;obj: ProtectedObject;
нач
	Kernel32.AddVectoredExceptionHandler(1, ExcpFrmHandler);
	Kernel32.InitializeCriticalSection(excplock);
	numberOfProcessors := Machine.NumberOfProcessors();

#если SHAREDLIB то
	EnterA2; (*! ExitA2 for the DLL loading thread will be called after execution of all module bodies (see Modules.Main) *)
#иначе
	нов(t);
	нов(obj);
	t.obj := obj;
	нов(fn);
	Heaps.AddFinalizer(t, fn);

	Machine.Acquire(Machine.GC);
	Machine.Acquire(Machine.Objects);
	t.gcContext.nextPos := 0;
	nProcs := 1;
	t.next := НУЛЬ;  t.prev := НУЛЬ;
	t.waitingOn := НУЛЬ;
	t.flags := {};
	t.obj := obj;
	t.mode := Unknown; t.body := НУЛЬ;
	t.priority := Normal;

	fn.finalizer := FinalizeProcess;

	t.handle := Kernel32.GetCurrentThread();
	t.id := Kernel32.GetCurrentThreadId();
	proc := Kernel32.GetCurrentProcess();
	res := Kernel32.DuplicateHandle(proc, t.handle, proc, t.handle, {}, 0, {Kernel32.DuplicateSameAccess});
	утв(res # 0);
	res := Kernel32.TlsSetValue(tlsIndex, НИЗКОУР.подмениТипЗначения(адресВПамяти, t));
	утв(res # 0);
	t.stackBottom := Machine.stackBottom;
	t.mode := Running;
	Put( ready, t );
	утв(t.handle # 0);
	Machine.Release(Machine.Objects);
	Machine.Release(Machine.GC);
#кон;
	утв(~сравнениеСОбменом(startedMainProcess, ложь, истина));

	InitEventHandling; (* implicit call of NewProcess! *)
	InitGCHandling; (* do. *)
	Heaps.gcStatus := GCStatusFactory();
кон Init;

(** Set (or reset) an event handler object's timeout value. *)
проц SetTimeout*(t: Timer; h: EventHandler;  ms: цел32 );
перем e: Timer;  trigger: цел32;
нач
	утв(Machine.Second= 1000); (* assume milliseconds for now *)
	утв((t # НУЛЬ) и (h # НУЛЬ));
	утв(ms >= 0);
	Machine.Acquire(Machine.Objects);
	trigger := Kernel32.GetTickCount() + ms;   (* ignore overflow *)
	если t.next # НУЛЬ то  (* cancel previous timeout *)
		t.next.prev := t.prev;  t.prev.next := t.next
	всё;
	t.trigger := trigger;  t.handler := h;
	e := event.next;   (* performance: linear search! *)
	нцПока (e # event) и (e.trigger - trigger <= 0) делай e := e.next кц;
	t.prev := e.prev;  e.prev := t;  t.next := e;  t.prev.next := t;
	Machine.Release(Machine.Objects);
	clock.Wakeup()
кон SetTimeout;

(** Set (or reset) an event handler object's timeout value. Here ms is absolute *)
проц SetTimeoutAt*(t: Timer; h: EventHandler; ms: цел32);
перем e: Timer; trigger: цел32;
нач
	утв(Machine.Second= 1000);	(* assume milliseconds for now *)
	утв((t # НУЛЬ) и (h # НУЛЬ));
	Machine.Acquire(Machine.Objects);
	trigger := ms; (* ignore overflow *)
	если t.next # НУЛЬ то (* cancel previous timeout *)
		t.next.prev := t.prev; t.prev.next := t.next
	всё;
	t.trigger := trigger; t.handler := h;
	e := event.next;	(* performance: linear search! *)
	нцПока (e # event) и (e.trigger - trigger <= 0) делай e := e.next кц;
	t.prev := e.prev; e.prev := t; t.next := e; t.prev.next := t;
	Machine.Release(Machine.Objects);
	clock.Wakeup()
кон SetTimeoutAt;

(** Cancel an event handler object's timeout, if any. It is possible that the timer has expired, but not yet been scheduled to run. *)
проц CancelTimeout*( t: Timer );
нач
	Machine.Acquire(Machine.Objects);
	утв (t # event );
	если t.next # НУЛЬ то
		t.next.prev := t.prev;
		если t.prev#НУЛЬ то t.prev.next := t.next; всё;
		t.next := НУЛЬ;
		t.prev := НУЛЬ
	всё;
	Machine.Release(Machine.Objects);
кон CancelTimeout;

проц InitEventHandling;
нач
	нов(event); event.next := event; event.prev := event;  (* event: head of timer event queue, only a sentinel *)
	нов(clock);
кон InitEventHandling;

проц InitGCHandling;
нач
	нов(finalizerCaller);
кон InitGCHandling;

проц GCStatusFactory(): Heaps.GCStatus;
перем gcStatusExt : GCStatusExt;
нач
	утв(Heaps.gcStatus = НУЛЬ);
	нов(gcStatusExt);
	возврат gcStatusExt
кон GCStatusFactory;

проц InstallExceptionHandler*( e: ExceptionHandler );
нач
	exceptionhandler := e;
кон InstallExceptionHandler;

проц UpdateProcessState*( p: Process );
перем res: Kernel32.BOOL;
нач
	res := Kernel32.GetThreadContext( p.handle, p.state );
	утв (p.handle # 0);
кон UpdateProcessState;

(*ALEX 2005.12.12 added for WMPerfMon needs*)

проц NumReady*( ): цел32;
перем n: цел32; p: Heaps.ProcessLink;
нач
	n := 0;
	Machine.Acquire( Machine.Objects );
	p := ready.head;
	нцПока p # НУЛЬ делай увел( n );  p := p.next кц;
	Machine.Release( Machine.Objects );
	возврат n
кон NumReady;

(** Return number of CPU cycles consumed by the specified process. If all is TRUE,
	return the number of cycles since the process has been created. If FALSE, return the number of cycles
	consumed since the last time asked. *)
проц GetCpuCycles*(process : Process; перем cpuCycles : CpuCyclesArray; all : булево);
перем res : Kernel32.BOOL; temp : цел64;
нач
	утв(process # НУЛЬ);
	если (Kernel32.QueryThreadCycleTime # НУЛЬ) то
		res := Kernel32.QueryThreadCycleTime(process.handle, cpuCycles[0]);
	иначе
		cpuCycles[0] := Machine.GetTimer(); res := Kernel32.True;
	всё;

	если ~all и (res = Kernel32.True) то
		temp := process.lastThreadTimes;
		process.lastThreadTimes := cpuCycles[0];
		cpuCycles[0] := cpuCycles[0] - temp;
	всё;
кон GetCpuCycles;

(* suspend and store state *)
проц Suspend(p: Process);
перем res: целМЗ;
нач{UNTRACKED}
	res := Kernel32.SuspendThread(p.handle);
	утв(res >= 0);
	p.state.ContextFlags := Kernel32.ContextControl + Kernel32.ContextInteger;
	res := Kernel32.GetThreadContext( p.handle, p.state );
кон Suspend;

проц Resume(p: Process);
перем res: целМЗ;
нач
	res := Kernel32.ResumeThread(p.handle);
	утв(res >= 0);
кон Resume;

проц SuspendActivities;
перем r,cur: Process; p: Heaps.ProcessLink;
нач{UNTRACKED}
	r := CurrentProcess();
	p := ready.head;
	нцПока p # НУЛЬ делай
		cur := p(Process);
		если (cur # r) и ((cur.mode = Ready) или (cur.mode = Running)) и (cur.gcContext.nextPos >= 0) то
			Suspend(cur);
			cur.mode := Suspended
		всё;
		p := p.next
	кц;
кон SuspendActivities;

проц ResumeActivities;
перем r,cur: Process; p: Heaps.ProcessLink; res: цел32;
нач{UNTRACKED}
	r := CurrentProcess();
	p := ready.head;
	нцПока (p # НУЛЬ) делай
		cur := p(Process);
		(* only suspended and awaiting processes of ready queue are resumed *)
		если cur.mode = Suspended то
			Resume(cur);
			cur.mode := Running
		всё;
		p := p.next
	кц;
кон ResumeActivities;


проц CurrentProcessTime*(): цел64;
перем res: целМЗ; result: цел64;
нач
	если (Kernel32.QueryThreadCycleTime # НУЛЬ) то
		res := Kernel32.QueryThreadCycleTime(CurrentProcess().handle, result);
	иначе (* fallback *)
		result := Machine.GetTimer();
	всё;
	возврат result;
кон CurrentProcessTime;

проц TimerFrequency*(): цел64;
нач
	возврат 1000000000;
кон TimerFrequency;

перем GetProcedureName*: проц (pc: адресВПамяти; перем n: массив из симв8; перем spc: адресВПамяти);

	(* Leave A2 is called when a process leaves A2 by a call to the underlying OS API *)
	проц LeaveA2*;
	перем cur {неОтслСборщиком}: Process; ebp,pc: адресВПамяти;
	нач{UNTRACKED}
		если сравнениеСОбменом(startedMainProcess,ложь,ложь) то
			cur := CurrentProcess();
			если cur # НУЛЬ то
				ebp := НИЗКОУР.GetFramePointer();
				НИЗКОУР.прочтиОбъектПоАдресу(ebp+размер16_от(адресВПамяти), pc);
				НИЗКОУР.прочтиОбъектПоАдресу(ebp, ebp);
				cur.gcContext.AddContext(ebp, pc, НИЗКОУР.GetStackPointer());
			всё;
		всё;
	кон LeaveA2;

	(* reenter is called when a process returns from a call to the underlying OS API *)
	проц ReenterA2*;
	перем cur{неОтслСборщиком}: Process;
	нач{UNTRACKED}
		если сравнениеСОбменом(startedMainProcess,ложь,ложь) то
			cur := CurrentProcess();
			если cur # НУЛЬ то
				cur.gcContext.RemoveContext();
			всё;
		всё;
	кон ReenterA2;

#если SHAREDLIB то

	проц AcquireLock(перем lock: BOOLEAN);
	нач
		нцДо кцПри CAS(lock, ложь, истина) = ложь;
	кон AcquireLock;

	проц ReleaseLock(перем lock: BOOLEAN);
	нач
		неважно CAS(lock, истина, ложь);
	кон ReleaseLock;

перем
	protect: Process;
	protectLock: BOOLEAN;

    проц RegisterExternalProcess;
    перем
        t: Process;
        proc: Kernel32.HANDLE;
        res: Kernel32.BOOL;
        low, high: размерМЗ;
    нач
        (*! global variable "protect" is used for avoiding problems when GC is invoked
        	by calling NEW while the current external thread is not yet registered.
        *)
		AcquireLock(protectLock);

		нов(protect); t := protect;
		нов(t.obj); (*! required for ActiveObject() to return non-NIL *)

		t.gcContext.nextPos := 0; (*! the registered process is considered as entered into A2 *)
		t.next := НУЛЬ;  t.prev := НУЛЬ;
		t.waitingOn := НУЛЬ;
		t.flags := {External}; (*! mark the process as external (non A2) *)
		t.mode := Unknown; t.body := НУЛЬ;

		t.handle := Kernel32.GetCurrentThread();

		t.priority := Kernel32.GetThreadPriority(t.handle);
		ASSERT(t.priority # Kernel32.ThreadPriorityErrorReturn);
		просей t.priority из
			|Kernel32.ThreadPriorityIdle: t.priority := MinPriority;
			|Kernel32.ThreadPriorityBelowNormal: t.priority := Low;
			|Kernel32.ThreadPriorityAboveNormal,Kernel32.ThreadPriorityHighest: t.priority := High;
			|Kernel32.ThreadPriorityTimeCritical: t.priority := Realtime;
		иначе
			ASSERT(t.priority = Kernel32.ThreadPriorityNormal);
			t.priority := Normal;
		кон;

		t.id := Kernel32.GetCurrentThreadId();
		proc := Kernel32.GetCurrentProcess();
		res := Kernel32.DuplicateHandle(proc, t.handle, proc, t.handle, {}, 0, {Kernel32.DuplicateSameAccess});
		ASSERT(res # 0);
		Kernel32.GetCurrentThreadStackLimits(low,high);
		t.stackBottom := high;
		t.mode := Running;
		res := Kernel32.TlsSetValue(tlsIndex, SYSTEM.VAL(адресВПамяти, t));
		ASSERT(res # 0);

		Machine.Acquire(Machine.Objects);
		Put(ready, t);
		INC(nProcs);
		Machine.Release(Machine.Objects);

		ReleaseLock(protectLock);

		Machine.Acquire(Machine.TraceOutput);
		Trace.String("registered an external thread: id=");
		Trace.Int(t.id,0);
		Trace.String(", handle=");
		Trace.Int(t.handle,0);
		Trace.String(", stackBottom=");
		Trace.Hex(t.stackBottom,-8);
		Trace.Ln;
		Machine.Release(Machine.TraceOutput);
    кон RegisterExternalProcess;

	(* enter A2 should be called when a process enters A2 from windows or from A2 via a call to a WINAPI A2 function *)
	проц EnterA2*;
	перем cur: Process; ebp, n: адресВПамяти;
	нач
		cur := CurrentProcess();
		если cur = НУЛЬ то (* create a process descriptor *)
			RegisterExternalProcess;
			cur := CurrentProcess();
			если TraceVerbose то
				Machine.Acquire(Machine.TraceOutput);
				Trace.String("First Enter: "); Trace.Int(cur.id,0); Trace.Ln;
				Machine.Release(Machine.TraceOutput);
			кон;
		иначе
			ebp := SYSTEM.GetFramePointer();
			SYSTEM.GET(ebp, n);
			если ODD(n) то SYSTEM.GET(ebp + SIZEOF(адресВПамяти), ebp) иначе ebp := n кон;
			если cur.gcContext.nextPos = -1 то (* re-entry *)
				cur.gcContext.nextPos := 0;
				cur.stackBottom := ebp;
				если TraceVerbose то
					Machine.Acquire(Machine.TraceOutput);
					Trace.String("Reenter: "); Trace.Int(cur.id,0); Trace.Ln;
					Machine.Release(Machine.TraceOutput);
				кон;
			иначе
				cur.gcContext.AddContext(НУЛЬ, НУЛЬ, НУЛЬ);
			кон;
		кон;
	кон EnterA2;

	(* exit A2 should be called when a process exits a WINAPI procedure *)
	проц ExitA2*();
	перем cur: Process;
	нач
		cur := CurrentProcess();
		ASSERT(cur # НУЛЬ);
		если cur.gcContext.nextPos > 0 то
			cur.gcContext.RemoveContext();
		иначе
			если TraceVerbose то
				Machine.Acquire(Machine.TraceOutput);
				Trace.String("Exiting: "); Trace.Int(cur.id,0); Trace.Ln;
				Machine.Release(Machine.TraceOutput);
			кон;
			cur.gcContext.nextPos := -1;
		кон;
	кон ExitA2;

	проц AttachThread*();
	нач
	кон AttachThread;

	(* Cleanup resources of an external process. Must be called while Objects lock is taken *)
	проц CleanupExternalProcess(t: Process);
	нач
		ASSERT(External в t.flags);
		если InQueue(ready,t) то
			Remove(ready,t); DEC(nProcs);
		кон;
		если t.event # 0 то неважно Kernel32.CloseHandle(t.event); кон;
	кон CleanupExternalProcess;

	(* Called when a thread is detaching from the DLL *)
	проц DetachThread*();
	перем
		t: Process;
		res: Kernel32.BOOL;
	нач
		t := CurrentProcess();
		если (t = НУЛЬ) или ~(External в t.flags) то возврат; кон;

		Machine.Acquire (Machine.TraceOutput);
		Trace.String("detaching a thread: id="); Trace.Int(t.id,0); Trace.Ln;
		Machine.Release (Machine.TraceOutput);

		Machine.Acquire(Machine.Objects);
		CleanupExternalProcess(t);
		res := Kernel32.TlsSetValue(tlsIndex, НУЛЬ);
        ASSERT(res # 0);
		Machine.Release(Machine.Objects);

		Machine.Acquire (Machine.TraceOutput);
		Trace.String("detached a thread: id="); Trace.Int(t.id,0); Trace.Ln;
		Machine.Release (Machine.TraceOutput);
	кон DetachThread;

	проц CleanupProcesses;
	перем
		t: Process;
		res: Kernel32.BOOL;
	нач
		Machine.Acquire(Machine.Objects);
		Get(ready, t); DEC(nProcs);
		нцПока t # НУЛЬ делай
			если t.mode # Terminated то
				если External в t.flags то
					Machine.Acquire (Machine.TraceOutput);
					Trace.String("cleaning up an external process: id="); Trace.Int(t.id,0); Trace.String(", mode="); Trace.Int(t.mode,0); Trace.Ln;
					Machine.Release (Machine.TraceOutput);
					CleanupExternalProcess(t);
				иначе
					Machine.Acquire (Machine.TraceOutput);
					Trace.String("killing a process: id="); Trace.Int(t.id,0); Trace.String(", mode="); Trace.Int(t.mode,0); Trace.Ln;
					Machine.Release (Machine.TraceOutput);
					res := Kernel32.TerminateThread(t.handle,-1);
					если res = 0 то
						Machine.Acquire (Machine.TraceOutput);
						Trace.String("failed to kill a process: id="); Trace.Int(t.id,0); Trace.String(", error="); Trace.Int(Kernel32.GetLastError(),0); Trace.Ln;
						Machine.Release (Machine.TraceOutput);
					кон;
				кон;
			кон;
			Get(ready, t); DEC(nProcs);
		кон;
		Trace.String("nProcs="); Trace.Int(nProcs,0); Trace.Ln;
		Machine.Release(Machine.Objects);
	кон CleanupProcesses;

	(* Called when the DLL loading process is detaching from the DLL *)
	проц DetachProcess*();
	конст
		TerminationTimeout = 1000;
	перем
		p: Heaps.ProcessLink;
		t: Process;
		res: Kernel32.BOOL;
		tick: SIGNED32;
		numNonTerminated, numExternals: размерМЗ;
	нач
		EnterA2;

		Machine.Acquire(Machine.TraceOutput);
		Trace.String("detaching the process: id="); Trace.Int(Kernel32.GetCurrentThreadId(),0); Trace.Ln;
		Machine.Release(Machine.TraceOutput);

		Modules.Shutdown(-1);
		finalizerCaller.Exit;
		clock.Exit;

		Machine.Acquire(Machine.TraceOutput);
		Trace.StringLn("wait until all A2 processes terminate");
		Machine.Release(Machine.TraceOutput);

		tick := Kernel32.GetTickCount();
		нцДо
			numNonTerminated := 0;
			numExternals := 0;
			Machine.Acquire(Machine.Objects);
			p := ready.head;
			нцПока p # НУЛЬ делай
				t := p(Process);
				если External в t.flags то
					INC(numExternals);
				аесли t.mode # Terminated то
					INC(numNonTerminated);
				кон;
				p := p.next;
			кон;
			Machine.Release(Machine.Objects);
		кцПри (numNonTerminated = 0) или (Kernel32.GetTickCount() - tick >= TerminationTimeout);

		если numNonTerminated # 0 то
			Machine.Acquire(Machine.TraceOutput);
			Trace.String("there are "); Trace.Int(numNonTerminated,0); Trace.StringLn(" A2 processes to terminate forcedly");
			Machine.Release(Machine.TraceOutput);
			CleanupProcesses;
		иначе
			Machine.Acquire(Machine.TraceOutput);
			Trace.StringLn("all A2 processes terminated");
			Machine.Release(Machine.TraceOutput);

			если numExternals # 0 то
				CleanupProcesses;
			кон;
		кон;

		res := Kernel32.TlsFree(tlsIndex);
		если res = 0 то
			Machine.Acquire (Machine.TraceOutput);
			Trace.String("failed free TLS: error="); Trace.Int(Kernel32.GetLastError(),0); Trace.Ln;
			Machine.Release (Machine.TraceOutput);
		кон;

		(*!TODO: free resources allocated in Machine (e.g. critical section objects) *)
	кон DetachProcess;

#кон;

перем
	TraceProcessHook*: проц (prcoess: Process; pc, bp: адресВПамяти; stacklow, stackhigh: адресВПамяти);

нач
	TraceProcessHook := НУЛЬ;
	exceptionhandler := НУЛЬ;
	terminateProc := TerminateProc;
	ready.head := НУЛЬ; ready.tail := НУЛЬ;
	tlsIndex := Kernel32.TlsAlloc();
	утв ( tlsIndex # Kernel32.TLSOutOfIndexes );
	Kernel32.SendToDebugger("Modules.root", адресОт(Modules.root));

	Init;
кон Objects.




		Linker.Link --fileFormat=PE64CUI --fileName=oberon.exe --extension=GofWw --displacement=401000H
			Builtins Trace Kernel32 Heaps Modules Objects Kernel KernelLog Streams Commands Files WinFS Clock Dates Reals Strings Diagnostics BitSets
			StringPool ObjectFile GenericLinker Reflection Traps Loader Shell StdIOShell System ~

