(* Copyright (c) Felix Friedrich, ETH Zürich, 2017
	This is the 64-bit version of Kernel32. The name may be misleading but it copies 1:1 what the Microsoft developers did
	[There is no Kernel64 DLL in WIndows. Kernel32 is chosen according to the bit-width of the application]
*)

модуль Kernel32;   (** AUTHOR "ejz,fof"; PURPOSE "Definition of the Win64 Kernel32 API used by (Win)Aos"; *)

использует НИЗКОУР,Трассировка,UCS2;

конст
	Generic*= истина;

	(** NIL pointer/address value *)
	NULL* = 0;

	(** BOOL values *)
	False* = NULL;  True* = 1;


	(** standard handles *)
	InvalidHandleValue* = -1;  STDInput* = -10;  STDOutput* = -11;
	STDError* = -12;

	(** generic access rights *)
	GenericWrite* = 30;  GenericRead* = 31;

	(** file sharing *)
	FileShareRead* = 0;  FileShareWrite* = 1; FileShareDelete*=2;

	(** file creation *)
	CreateAlways* = 2;  OpenExisting* = 3;

	(** file attributes *)
	FileAttributeReadonly* = 0;  FileAttributeHidden* = 1;
	FileAttributeSystem* = 2;  FileAttributeDirectory* = 4;
	FileAttributeArchive* = 5;  FileAttributeEncrypted* = 6;
	FileAttributeNormal* = 7;  FileAttributeTemporary* = 8;
	FileAttributeSparseFILE* = 9;  FileAttributeReparsePoint* = 10;
	FileAttributeCompressed* = 11;  FileAttributeOffline* = 12;
	FileAttributeNotContentIndexed* = 13;

	(** file creation flags *)
	FileFlagDeleteOnClose*=26;
	FileFlagRandomAccess* = 28;
	FileFlagOverlapped* = 30; (** The file or device is being opened or created for asynchronous I/O *)
	FileFlagWriteThrough*= 31;

	(** move method *)
	FileBegin* = 0;

	(** move file flags *)
	MoveFileReplaceExisting* = 0;  MoveFileCopyAllowed* = 1;  MoveFileWriteThrough*= 3;
	(* (* reason for call values *)
		DLLProcessDetach = 0; DLLProcessAttach = 1; *)

	(** allocation/free type *)
	MEMCommit* = 12;  MEMReserve* = 13;  MEMDecommit* = 14;
	MEMRelease* = 15;  CreateSuspended* = 2;  TLSOutOfIndexes* = -1;

	(** heap allocation options *)
	HeapNoSerialize* = 2H;
	HeapGenerateExceptions* = 4H;
	HeapZeroMemory* = 8H;

	(** protect (VirtualAlloc) flags *)
	PageReadWrite* = 2;  PageExecuteReadWrite* = 6;

	(** global memory flags *)
	GMemMoveable* = 1;  GMemShare* = 13;
	GMemDDEShare* = GMemShare;

	(** maximum length of full path *)
	MaxPath* = 260;

	(** specifies the type of a drive *)
	DriveUnknown* = 0;  DriveNoRootDir* = 1;  DriveRemovable* = 2;
	DriveFixed* = 3;  DriveRemote* = 4;  DriveCDRom* = 5;
	DriveRamDisk* = 6;  Infinite* = -1;  WaitObject0* = 0;

	(** thread context and exception information *)

	SizeOf80387Registers* = 80;  ExceptionMaximumParameters* = 15;

	ExceptionGuardPage* = цел32(080000001H);
	ExceptionBreakPoint* = цел32(080000003H);
	ExceptionSingleStep* = цел32(080000004H);
	ExceptionAccessViolation* = цел32(0C0000005H);
	ExceptionIllegalInstruction* = цел32(0C000001DH);
	ExceptionArrayBoundsExceeded* = цел32(0C000008CH);
	ExceptionFltDenormalOperand* = цел32(0C000008DH);
	ExceptionFltDivideByZero* = цел32(0C000008EH);
	ExceptionFltInexactResult* = цел32(0C000008FH);
	ExceptionFltInvalidOperation* = цел32(0C0000090H);
	ExceptionFltOverflow* = цел32(0C0000091H);
	ExceptionFltStackCheck* = цел32(0C0000092H);
	ExceptionFltUndeflow* = цел32(0C0000093H);
	ExceptionIntDivideByZero* = цел32(0C0000094H);
	ExceptionIntOverflow* =цел32(0C0000095H);
	ExceptionPrivInstruction* = цел32(0C0000096H);
	ExceptionStackOverflow* = цел32(0C00000FDH);

	ContextIntel = 16;
	ContextControl* = {0, ContextIntel};   (* SS:SP, CS:IP, FLAGS, BP *)
	ContextInteger* = {1, ContextIntel};   (* AX, BX, CX, DX, SI, DI *)
	ContextSegments* = {2, ContextIntel};   (* DS, ES, FS, GS *)
	ContextFloatingPoint* = {3, ContextIntel};   (* 387 state *)
	ContextDebugRegisters* = {4, ContextIntel};   (* DB 0-3,6,7 *)
	ContextFull* = ContextControl + ContextInteger + ContextSegments;

	(** exception frame handler return values *)
	ExceptionContinueExecution* = -1;  ExceptionContinueSearch* = 0;
	ExceptionExecuteHandler* = 1;

	(** thread priorities *)
	ThreadPriorityIdle* = -15;  ThreadPriorityBelowNormal* = -1;
	ThreadPriorityNormal* = 0;  ThreadPriorityAboveNormal* = 1; ThreadPriorityHighest* = 2;
	ThreadPriorityTimeCritical* = 15;  ThreadPriorityErrorReturn* = матМаксимум( цел32 );


	(** WaitForSingleObject return values *)
	WaitFailed* = -1;
	WaitTimeout* = 0102H;

	(** SetErrorMode *)
	SEMFailCriticalErrors* = 0;

	(** DuplicateHandle *)
	DuplicateCloseSource* = 0;  DuplicateSameAccess* = 1;

	(** StartupInfo flags *)
	StartFUseShowWindow* = 0;  StartFUseSize* = 1;  StartFUsePosition* = 2;

	(** OSVersionInfo dwPlatformId values *)
	VerPlatformWin32s* = 0;  VerPlatformWin32Windows* = 1;
	VerPlatformWin32NT* = 2;

	(** EscapeCommFunction *)
	SETXOFF* = 1;  SETXON* = 2;  SETRTS* = 3;  CLRRTS* = 4;  SETDTR* = 5;
	CLRDTR* = 6;  RESETDEV* = 7;  SETBREAK* = 8;  CLRBREAK* = 9;

	(** PurgeComm *)
	PurgeTXAbort* = 0;  PurgeRXAbort* = 1;  PurgeTXClear* = 2;
	PurgeRXClear* = 3;

	(** SetCommMask *)
	EVRXChar* = 0;  EVRXFlag* = 1;  EVTXEmpty* = 2;  EVCTS* = 3;
	EVDSR* = 4;  EVRLSD* = 5;  EVBreak* = 6;  EVErr* = 7;  EVRing* = 8;
	EVPErr* = 9;  EVRX80Full* = 10;  EVEvent1* = 11;  EVEvent2* = 12;

	(** GetCommModemStatus *)
	MSCTSOn* = 4;  MSDSROn* = 5;  MSRingOn* = 6;  MSRLSDOn* = 7;
	(** DCB *)
	NoParity* = 0X;  OddParity* = 1X;  EvenParity* = 2X;  MarkParity* = 3X;
	SpaceParity* = 4X;  OneStopBit* = 0X;  One5StopBits* = 1X;
	TwoStopBits* = 2X;

	(** GetLastError *)
	ErrorSuccess* = 0;  ErrorFileNotFound* = 2;  ErrorAccessDenied* = 5;
	ErrorInvalidParameter* = 87;

	ErrorIoPending* = 997; (** Overlapped I/O operation is in progress *)
тип
	(* OutputStringProc* = PROCEDURE (VAR str: ARRAY OF CHAR); *)

	BOOL* = целМЗ;

	HANDLE* = адресВПамяти;  HMODULE* = адресВПамяти;
	HINSTANCE* = адресВПамяти;  ATOM* = цел16;  HGLOBAL* = HANDLE;
	LPSTR* = адресВПамяти;
	LPWSTR* = UCS2.LPWSTR;
	DWORD* = цел32;
	ULONG*= бцел32;

	(** The FILETIME structure is a 64-bit value representing the number of 100-nanosecond intervals since January 1, 1601. *)
	FileTime* = запись
		dwLowDateTime*, dwHighDateTime*: цел32
	кон;

	(** The FindData structure describes a file found by the FindFirstFile or FindNextFile function. *)
	FindData* = запись
		dwFileAttributes*: INTEGERSET;
		ftCreationTime*, ftLastAccessTime*, ftLastWriteTime*: FileTime;
		nFileSizeHigh*, nFileSizeLow*: цел32;
		dwReserved0*, dwReserved1*: цел32;
		cFileName*: массив MaxPath из симв8;
		cAlternateFileName*: массив 14 из симв8
	кон;

	FindDataW* = запись
		dwFileAttributes*: INTEGERSET;
		ftCreationTime*, ftLastAccessTime*, ftLastWriteTime*: FileTime;
		nFileSizeHigh*, nFileSizeLow*: цел32;
		dwReserved0*, dwReserved1*: цел32;
		cFileName*: массив MaxPath из UCS2.Char;
		cAlternateFileName*: массив 14 из UCS2.Char
	кон;


	(** The SYSTEMTIME structure represents a date and time using individual members for the month, day, year, weekday,
			hour, minute, second, and millisecond. *)
	SystemTime* = запись
		wYear*, wMonth*, wDayOfWeek*, wDay*: цел16;
		wHour*, wMinute*, wSecond*, wMilliseconds*: цел16
	кон;

	(** The SMALL_RECT structure defines the coordinates of the upper left and lower right corners of a rectangle. *)
	SmallRect* = запись
		left*, top*, right*, bottom*: цел16
	кон;


	(** Critical-section object. *)
	CriticalSection* = запись
		a-, b-, c-, d-, e-, f-: размерМЗ;
	кон;

	(** thread context and exception information *)

	FloatingSaveArea* = запись
		ControlWord*, StatusWord*, TagWord*, ErrorOffset*, ErrorSelector*, DataOffset*, DataSelector*: цел32;
		RegisterArea*: массив SizeOf80387Registers из НИЗКОУР.октет;
		Cr0NpxState*: цел32
	кон;

	ContextPtr*= укль {опасныйДоступКПамяти,неОтслСборщиком} на Context;
	#если I386 то
	Context* = запись
		ContextFlags*: INTEGERSET;
		DR0*, DR1*, DR2*, DR3*, DR6*, DR7*: размерМЗ;
		FloatSave*: FloatingSaveArea;
		GS*, FS*, ES*, DS*: адресВПамяти;
		RDI*, RSI*, RB*, RD*, RC*, RA*: адресВПамяти;
		BP*, PC*, CS*, FLAGS*, SP*, SS*: адресВПамяти; (* whereas BP is EBP and SP is ESP *)
	кон;
	#аесли AMD64 то
	Context*= запись
		P1Home, P2Home, P3Home, P4Home, P5Home, P6Home: размерМЗ;

		ContextFlags*: INTEGERSET;
		MxCsr*: DWORD;

		CS*, DS*, ES*, FS*, GS*, SS*: цел16;
		FLAGS*: DWORD;

		Dr0*, Dr1*, Dr2*, Dr3*, Dr6*, Dr7*: размерМЗ;

		RA*, RC*, RD*, RB*, SP*, BP*, RSI*, RDI*, R8*, R9*, R10*, R11*, R12*, R13*, R14*, R15*: адресВПамяти;
		PC*: адресВПамяти;

		remainder (* leave enough space for the rest here *): массив 1024 из симв8;

		(*    union {
			XMM_SAVE_AREA32 FltSave;
			struct {
				M128A Header[2];
				M128A Legacy[8];
				M128A Xmm0;
				M128A Xmm1;
				M128A Xmm2;
				M128A Xmm3;
				M128A Xmm4;
				M128A Xmm5;
				M128A Xmm6;
				M128A Xmm7;
				M128A Xmm8;
				M128A Xmm9;
				M128A Xmm10;
				M128A Xmm11;
				M128A Xmm12;
				M128A Xmm13;
				M128A Xmm14;
				M128A Xmm15;
			};
			};

			M128A VectorRegister[26];
			DWORD64 VectorControl;

			DWORD64 DebugControl;
			DWORD64 LastBranchToRip;
			DWORD64 LastBranchFromRip;
			DWORD64 LastExceptionToRip;
			DWORD64 LastExceptionFromRip;
		} CONTEXT, *PCONTEXT;
		*)
	кон;
	#кон;

	(* EXCEPTION_RECORD из WinAPI, см., напр., https://docs.microsoft.com/en-us/windows/win32/api/winnt/ns-winnt-exception_record *)
	ExceptionRecordPtr* = укль {опасныйДоступКПамяти,неОтслСборщиком} на ExceptionRecord;
	ExceptionRecord* = запись
		ExceptionCode*, ExceptionFlags*: цел32;
		nextExceptionRecord* {неОтслСборщиком}: ExceptionRecordPtr;
		ExceptionAddress*: адресВПамяти;
		NumberParameters*: цел32;
		ExceptionInformation*: массив ExceptionMaximumParameters из цел32
	кон;

	ExcpFrmPtr* = адресВПамяти;
	ExcpFrmHandler* = проц {WINAPI} ( перем excpRec: ExceptionRecord;
																														   excpFrame: ExcpFrmPtr;
																														   перем context: Context;
																														   dispatch: цел32 ): цел32;

	ExceptionPointers* = запись
		exception* {неОтслСборщиком}: ExceptionRecordPtr;
		context*: ContextPtr;
	кон;

	VectoredExceptionHandler* = проц {WINAPI} ( конст e: ExceptionPointers): DWORD;

	ExcpFrm* = запись
		link*: ExcpFrmPtr;
		handler*: ExcpFrmHandler
	кон;

	(** Synchronization Objects *)
	Object* = укль на запись
		handle*: HANDLE
	кон;

	(** A 64-bit signed integer value. *)
	LargeInteger* = запись
		LowPart*, HighPart*: цел32;
		QuadPart*{ поСмещению = 0 }: цел64;
	кон;

	(** A 64-bit unsigned integer value. *)
	ULargeInteger* = LargeInteger;

	(* Added by Alexey *)
	MemoryStatusEx* = запись
		  dwLength*: цел32;
		  dwMemoryLoad*: цел32;

		  ullTotalPhys*: цел64;
		  ullAvailPhys*: цел64;
		  ullTotalPageFile*: цел64;
		  ullAvailPageFile*: цел64;
		  ullTotalVirtual*: цел64;
		  ullAvailVirtual*: цел64;
		  ullAvailExtendedVirtual*: цел64;
	кон;

	(** CreateThread *)
	ThreadProc* = проц {WINAPI} ( lpParameter {неОтслСборщиком}: динамическиТипизированныйУкль ): цел32;

	(** CreateProcess *)
	ProcessInformation* = запись
		hProcess*, hThread*: HANDLE;
		dwProcessId*, dwThreadId*: цел32
	кон;

	(** CreateProcess, GetStartupInfo *)
	StartupInfo* = запись
		cb*: цел32;
		lpReserved*, lpDesktop*, lpTitle*: LPSTR;
		dwX*, dwY*, dwXSize*, dwYSize*: цел32;
		dwXCountChars*, dwYCountChars*: цел32;
		dwFillAttribute*: цел32;
		dwFlags*: INTEGERSET;
		wShowWindow*, cbReserved2*: цел16;
		lpReserved2*: адресВПамяти;
		hStdInput*, hStdOutput*, hStdError*: HANDLE
	кон;

	(** The OSVersionInfo data structure contains operating system version information. *)
	OSVersionInfo* = запись
		dwOSVersionInfoSize*, dwMajorVersion*, dwMinorVersion*, dwBuildNumber*, dwPlatformId*: цел32;
		szCSDVersion*: массив 128 из симв8
	кон;

	Exception* = запись
		exc*: ExceptionRecord;
		cont*: Context
	кон;


	CommTimeouts* = запись
		ReadIntervalTimeout*, ReadTotalTimeoutMultiplier*, ReadTotalTimeoutConstant*, WriteTotalTimeoutMultiplier*, WriteTotalTimeoutConstant*: цел32
	кон;

	DCB* = запись
		DCBlength*, BaudRate*: цел32;
		flags*: DWORD;
		wReserved*, XonLim*, XoffLim*: цел16;
		ByteSize*, Parity*, StopBits*, XonChar*, XoffChar*, ErrorChar*, EofChar*, EvtChar*: симв8;
		wReserved1*: цел16
	кон;

	ComStat* = запись
		status*: DWORD;
		cbInQue*, cbOutQue*: цел32
	кон;

	SystemInfo* = запись
		wProcessorArchitecture*: цел16;
		wReserved: цел16;
		dwPageSize*: цел32;
		lpMinimumApplicationAddress*: адресВПамяти;
		lpMaximumApplicationAddress*: адресВПамяти;
		dwActiveProcessorMask*: адресВПамяти;
		dwNumberOfProcessors*: цел32;
		dwProcessorType*: цел32;
		dwAllocationGranularity*: цел32;
		wProcessorLevel*: цел16;
		wProcessorRevision*: цел16;
	кон;

	(*ALEX 2005.10.18 The TIME_ZONE_INFORMATION as defined in winbase.h*)
	TimeZoneInformation* = запись
		Bias*: цел32;
		StandardName*: массив 32 из цел16;
		StandardDate*: SystemTime;
		StandardBias*: цел32;
		DaylightName*: массив 32 из цел16;
		DaylightDate*: SystemTime;
		DaylightBias*: цел32;
	кон;

	(** Contains information used in asynchronous (or overlapped) input and output (I/O). *)
	Overlapped* = запись
		Internal*: цел32;
		InternalHigh*: цел32;
		Offset*: цел32;
		OffsetHigh*: цел32;
		hEvent*: HANDLE;
	кон;
	
	ConsoleReadconsoleControl* = запись
		nLength*, nInitialChars*, dwCtrlWakeupMask*, dwControlKeyState* : ULONG кон;

перем
	hInstance-: HINSTANCE;   (* init by linker/loader *)
	isEXE-: булево;

	(* the procedure variables getProcAddress and LoadLibrary  must be patched by linker / PE loader *)
	(** The GetProcAddress function returns the address of the specified exported dynamic-link library (DLL) function.
			Use the GetProcAddress Oberon wrapper. *)
	getProcAddress-: проц {WINAPI} ( hModule: HMODULE;  конст  lpProcName: массив   из симв8 ): адресВПамяти;
	(** The LoadLibrary function maps the specified executable module into the address space of the calling process. *)
	LoadLibrary-: проц {WINAPI} ( конст lpLibFileName: массив   из симв8 ): HINSTANCE;   (* must be patched by linker / PE loader *)
	(** registers a vectored continue handler. **)
	AddVectoredContinueHandler-: проц {WINAPI} (firstHandler: ULONG; vectoredHandler: VectoredExceptionHandler);
	(** registers a vectored exception handler. **)
	AddVectoredExceptionHandler-: проц {WINAPI} (firstHandler: ULONG; vectoredHandler: VectoredExceptionHandler);
	(** The AllocConsole function allocates a new console for the calling process. *)
	AllocConsole-: проц {WINAPI} ( ): BOOL;
	(** The AttachConsole function attaches the calling process to the console of the specified process. *)
	AttachConsole-: проц {WINAPI} (in: цел32): BOOL;
	(** The Beep function generates simple tones on the speaker. The function is synchronous; it does not return control to its caller until the sound finishes.*)
	Beep-: проц {WINAPI} ( dwFreq, dwDuration: цел32 ): BOOL;
	(** Marks any outstanding I/O operations for the specified file handle. The function only cancels I/O operations in the current process, regardless of which thread created the I/O operation. *)
	CancelIoEx-: проц {WINAPI} ( hFile: HANDLE; перем lpOverlapped: Overlapped): BOOL;
	(** The ClearCommBreak function restores character transmission for a specified communications device and places the transmission line in a nonbreak state. *)
	ClearCommBreak-: проц {WINAPI} ( hFile: HANDLE ): BOOL;
	(** The ClearCommError function retrieves information about a communications error and reports the current status of a communications device. *)
	ClearCommError-: проц {WINAPI} ( hFile: HANDLE;  перем lpErrors: DWORD;  перем lpStat: ComStat ): BOOL;
	(** The CloseHandle function closes an open object handle. *)
	CloseHandle-: проц {WINAPI} ( hObject: HANDLE ): BOOL;
	(** The CopyFile function copies an existing file to a new file. *)
	CopyFile-: проц {WINAPI} ( перем lpExistingFileName, lpNewFileName: массив  из симв8; bFailIfExists: BOOL ): BOOL;
	CopyFileW-: проц {WINAPI} ( перем lpExistingFileName, lpNewFileName: UCS2.String; bFailIfExists: BOOL ): BOOL;
	(** The CreateDirectory function creates a new directory. *)
	CreateDirectory-: проц {WINAPI} ( перем lpPathName: массив   из симв8;
																		 lpSecurityAttributes: динамическиТипизированныйУкль ): BOOL;
	CreateDirectoryW-: проц {WINAPI} ( перем lpPathName: UCS2.String;
																		 lpSecurityAttributes: динамическиТипизированныйУкль ): BOOL;
	(** The CreateEvent function creates a named or unnamed event object. *)
	CreateEvent-: проц {WINAPI} ( lpEventAttributes: динамическиТипизированныйУкль;
																   bManualReset, bInitialState: BOOL;
																   конст lpName: массив   из симв8 ): HANDLE;
	(** The CreateFile function creates or opens the following objects and returns a handle that can be used to access the object:
		 files, pipes, mailslots, communications resources, disk devices (Windows NT only), consoles, directories (open only) *)
	CreateFile-: проц {WINAPI} ( конст lpFileName: массив   из симв8;
																dwDesiredAccess, dwShareMode: INTEGERSET;
																lpSecurityAttributes: динамическиТипизированныйУкль;
																dwCreationDistribution: цел32;
																dwFlagsAndAttributes: INTEGERSET;
																hTemplateFile: HANDLE ): HANDLE;
	CreateFileW-: проц {WINAPI} ( конст lpFileName: UCS2.String;
																dwDesiredAccess, dwShareMode: INTEGERSET;
																lpSecurityAttributes: динамическиТипизированныйУкль;
																dwCreationDistribution: цел32;
																dwFlagsAndAttributes: INTEGERSET;
																hTemplateFile: HANDLE ): HANDLE;

	(** The CreateProcess function creates a new process and its primary thread. The new process executes the specified
			executable file. *)
	CreateProcess-: проц {WINAPI} ( конст lpApplicationName, lpCommandLine: массив   из симв8;
																	   lpProcessAttributes, lpThreadAttributes: динамическиТипизированныйУкль;
																	   bInheritHandles: BOOL;
																	   dwCreationFlags: цел32;
																	   lpEnvironment: динамическиТипизированныйУкль;
																	   перем lpCurrentDirectory: массив   из симв8;
																	   перем lpStartupInfo: StartupInfo;
																	   перем lpProcessInformation: ProcessInformation ): BOOL;
	(** The CreateSemaphore function creates or opens a named or unnamed semaphore object. *)
	CreateSemaphore-: проц {WINAPI} ( lpThreadAttributes: адресВПамяти; lInitialCount: цел32; lMaximumCount: цел32; lpName: LPSTR): HANDLE;
	(** The CreateThread function creates a thread to execute within the address space of the calling process. *)
	CreateThread-: проц {WINAPI} ( lpThreadAttributes: адресВПамяти;
																	  dwStackSize: цел32;
																	  lpStartAddress: ThreadProc;
																	  lpParameter: динамическиТипизированныйУкль;  dwCreationFlags: INTEGERSET;
																	  перем lpThreadId: цел32 ): HANDLE;
	(** The DeleteCriticalSection function releases all resources used by an unowned critical section object. *)
	DeleteCriticalSection-: проц {WINAPI} ( перем lpCriticalSection: CriticalSection );
	(** The DeleteFile function deletes an existing file. *)
	DeleteFile-: проц {WINAPI} ( перем lpFileName: массив   из симв8 ): BOOL;
	DeleteFileW-: проц {WINAPI} ( перем lpFileName: UCS2.String ): BOOL;
	(** The DisableThreadLibraryCalls function disables the DLL_THREAD_ATTACH and DLL_THREAD_DETACH notifications
			for the dynamic-link library (DLL) specified by hLibModule. *)
	DisableThreadLibraryCalls-: проц {WINAPI} ( hLibModule: HMODULE ): BOOL;
	(** The DuplicateHandle function duplicates an object handle. *)
	DuplicateHandle-: проц {WINAPI} ( hSourceProcessHandle, hSourceHandle, hTargetProcessHandle: HANDLE;
																			 перем lpTargetHandle: HANDLE;
																			 dwDesiredAccess: INTEGERSET;
																			 bInheritHandle: BOOL;
																			 dwOptions: INTEGERSET ): BOOL;
	(** The EnterCriticalSection function waits for ownership of the specified critical section object. *)
	EnterCriticalSection-: проц {WINAPI} ( перем lpCriticalSection: CriticalSection );

	(** The EscapeCommFunction function directs a specified communications device to perform an extended function. *)
	EscapeCommFunction-: проц {WINAPI} ( hFile: HANDLE;
																					  dwFunc: цел32 ): BOOL;
	(** The ExitProcess function ends a process and all its threads. *)
	ExitProcess-: проц {WINAPI} ( uExitCode: цел32 );
	(** The ExitThread function ends a thread. *)
	ExitThread-: проц {WINAPI} ( dwExitCode: цел32 );
	(** The FileTimeToLocalFileTime function converts a file time based on the Coordinated Universal Time (UTC) to a
			local file time. *)
	FileTimeToLocalFileTime-: проц {WINAPI} ( перем lpFileTime: FileTime;
																						   перем lpLocalFileTime: FileTime ): BOOL;
	(** The FileTimeToSystemTime function converts a 64-bit file time to system time format. *)
	FileTimeToSystemTime-: проц {WINAPI} ( перем lpFileTime: FileTime;
																					   перем lpSystemTime: SystemTime ): BOOL;
	(** The FindClose function closes the specified search handle. *)
	FindClose-: проц {WINAPI} ( hFindFile: HANDLE ): BOOL;
	(** The FindFirstFile function searches a directory for a file whose name matches the specified filename. *)
	FindFirstFile-: проц {WINAPI} ( перем lpFileName: массив   из симв8;
																	 перем lpFindFileDate: FindData ): HANDLE;
	FindFirstFileW-: проц {WINAPI} ( перем lpFileName: UCS2.String;
																	 перем lpFindFileDate: FindDataW ): HANDLE;
	(** The FindNextFile function continues a file search from a previous call to the FindFirstFile function. *)
	FindNextFile-: проц {WINAPI} ( hFindFile: HANDLE;
																	  перем lpFindFileDate: FindData ): BOOL;
	FindNextFileW-: проц {WINAPI} ( hFindFile: HANDLE;
																	  перем lpFindFileDate: FindDataW ): BOOL;
	(** The FlushFileBuffers function clears the buffers for the specified file and causes all buffered data to be written
			to the file. *)
	FlushFileBuffers-: проц {WINAPI} ( hFile: HANDLE ): BOOL;
	(** The FreeConsole function detaches the calling process from its console *)
	FreeConsole-: проц {WINAPI} ( ): BOOL;
	(** The FreeLibrary function decrements the reference count of the loaded dynamic-link library (DLL) module.
			When the reference count reaches zero, the module is unmapped from the address space of the calling process
			and the handle is no longer valid. *)
	FreeLibrary-: проц {WINAPI} ( hLibModule: HMODULE ): BOOL;
	(** The GetCommandLine function returns a pointer to the command-line string for the current process. *)
	GetCommandLine-: проц {WINAPI} ( ): LPSTR;
	GetCommandLineW-: проц {WINAPI} ( ): LPWSTR;
	(** The GetCommModemStatus function retrieves modem control-register values. *)
	GetCommModemStatus-: проц {WINAPI} ( hFile: HANDLE;
																						перем lpModemStat: INTEGERSET ): BOOL;
	(** The GetCommState function retrieves the current control settings for a specified communications device. *)
	GetCommState-: проц {WINAPI} ( hFile: HANDLE;
																		 перем lpDCB: DCB ): BOOL;
	(** The GetComputerName function retrieves the NetBIOS name of the local computer. *)
	GetComputerName-: проц {WINAPI} ( перем lpBuffer: массив   из симв8;
																			    перем lpnSize: цел32 ): BOOL;
	(** The GetCurrentDirectory function retrieves the current directory for the current process. *)
	GetCurrentDirectory-: проц {WINAPI} ( nBufferLength: цел32;
																				 перем lpBuffer: массив   из симв8 ): цел32;
	(** The GetConsoleWindow function retrieves the window handle used by the console associated with the calling process. *)
	(*
	GetConsoleWindow-: PROCEDURE{WINAPI} (): SIGNED32 ;
	(** The GetCurrentProcess function returns a pseudohandle for the current process. *)
	not in smaller versions than Win2000!
	*)
	GetCurrentProcess-: проц {WINAPI} ( ): HANDLE;
	(** The GetCurrentProcessId function returns the process identifier of the calling process. *)
	GetCurrentProcessId-: проц {WINAPI} ( ): цел32;
	(** The GetCurrentThread function returns a pseudohandle for the current thread. *)
	GetCurrentThread-: проц {WINAPI} ( ): HANDLE;
	(** The GetCurrentThreadId function returns the thread identifier of the calling thread. *)
	GetCurrentThreadId-: проц {WINAPI} ( ): цел32;
	(** Retrieves the boundaries of the stack that was allocated by the system for the current thread. *)
	GetCurrentThreadStackLimits-: проц {WINAPI} (перем lowLimit, highLimit: размерМЗ);
	(** The GetDiskFreeSpace function retrieves information about the specified disk, including the amount of
			free space on the disk. *)
	GetDiskFreeSpace-: проц {WINAPI} ( перем lpRootPathName: массив   из симв8;
																			  перем lpSectorsPerCluster, lpBytesPerSector, lpNumberOfFreeClusters, lpTotalNumberOfClusters: цел32 ): BOOL;
	(** The GetDriveType function determines whether a disk drive is a removable, fixed, CD-ROM, RAM disk, or
			network drive. *)
	GetDriveType-: проц {WINAPI} ( перем lpRootPathName: массив   из симв8 ): цел32;
	(** The GetExitCodeProcess function retrieves the termination status of the specified process. *)
	GetExitCodeProcess-: проц {WINAPI} ( hProcess: HANDLE;
																				  перем lpExitCode: цел32 ): BOOL;
	(** The GetFileAttributes function returns attributes for a specified file or directory. *)
	GetFileAttributes-: проц {WINAPI} ( конст lpFileName: массив   из симв8 ): INTEGERSET;
	GetFileAttributesW-: проц {WINAPI} ( конст lpFileName: UCS2.String ): INTEGERSET;
	(** The GetFileSize function retrieves the size, in bytes, of the specified file. *)
	GetFileSize-: проц {WINAPI} ( hFile: HANDLE;  перем lpFileSizeHigh: цел32 ): цел32;
	GetFileSizeEx-: проц {WINAPI} ( hFile: HANDLE;  перем lpFileSize: цел64 ): BOOL;
	(** The GetFileTime function retrieves the date and time that a file was created, last accessed, and last modified. *)
	GetFileTime-: проц {WINAPI} ( hFile: HANDLE;
																	перем lpCreationTime, lpLastAccessTime, lpLastWriteTime: FileTime ): BOOL;
	(** The GetFullPathName function retrieves the full path and filename of a specified file. *)
	GetFullPathName-: проц {WINAPI} ( конст lpFileName: массив   из симв8;
																			  nBufferLength: цел32;
																			  перем lpBuffer: массив   из симв8;
																			  lpFilePart: LPSTR ): цел32;
	GetFullPathNameW-: проц {WINAPI} ( конст lpFileName: UCS2.String;
																			  nBufferLength: цел32;
																			  перем lpBuffer: UCS2.String;
																			  lpFilePart: LPWSTR ): цел32;
	(** The GetLastError function returns the calling thread's last-error code value. *)
	GetLastError-: проц {WINAPI} ( ): цел32;
	(** The GetLocalTime function retrieves the current local date and time. *)
	GetLocalTime-: проц {WINAPI} ( перем lpSystemTime: SystemTime );
	(** The GetLogicalDriveStrings function retrieves a string containing the drive letters. *)  (*ALEX 2005.02.10*)
	GetLogicalDriveStrings-: проц {WINAPI} ( nBufferLength: цел32;
																					   перем lpBuffer: массив   из симв8 ): цел32;
	(** The GetModuleFileName function retrieves the full path and filename for the executable file containing the
			specified module. *)
	(* The GetLogicalDrives function retrieves a bitmask representing the currently available disk drives.
*)

	GetLogicalDrives-: проц {WINAPI} ( ): INTEGERSET;
	GetModuleFileName-: проц {WINAPI} ( hModule: HMODULE;
																				    перем lpFileName: массив   из симв8;
																				    nSize: DWORD ): цел32;
	(** The GetModuleHandle function returns a module handle for the specified module if the file has been mapped
			into the address space of the calling process. *)
	GetModuleHandle-: проц {WINAPI} ( конст lpModuleName: массив   из симв8 ): HMODULE;

	(** Retrieves the results of an overlapped operation on the specified file, named pipe, or communications device.
			To specify a timeout interval or wait on an alertable thread. *)
	GetOverlappedResult-: проц {WINAPI} ( hFile: HANDLE; перем lpOverlapped: Overlapped; перем lpNumberOfBytesTransferred: цел32; bWait: BOOL ): BOOL;

	(** The GetPrivateProfileString function retrieves a string from the specified section in an initialization file.*)
	GetPrivateProfileString-: проц {WINAPI} ( конст lpAppName: массив из симв8;
																			конст lpKeyName: массив из симв8;
																			конст lpDefault: массив из симв8;
																			перем lpReturnedString: массив из симв8;
																			nSize: DWORD;
																			конст lpFileName: массив из симв8): цел32;
	(** The GetProcessAffinityMask function retrieves the process affinity mask for the specified process and the system affinity mask for the system. *)
	GetProcessAffinityMask- : проц {WINAPI} ( hProcess: HANDLE; lpProcessAffinityMask: адресВПамяти;  lpSystemAffinityMask: адресВПамяти ): BOOL;
	(** The GetProcessHeap function retrieves a handle to the default heap of the calling process. This handle can then be used in subsequent calls to the heap functions. *)
	GetProcessHeap- : проц {WINAPI} (): HANDLE;
	(** The GetProcessTimes function returns the times spent in kernel mode, user mode ... for the specified process *)
	GetProcessTimes- : проц {WINAPI} (конст hProcess: HANDLE; перем lpCreationTime, lpExitTime, lpKernelTime, lpUserTime: FileTime ): цел32;
	(** The GetStartupInfo function retrieves the contents of the StartupInfo structure that was specified when
			the calling process was created. *)
	GetStartupInfo-: проц {WINAPI} ( перем lpStartupInfo: StartupInfo );
	(** Retrieves information about the current system. *)
	GetSystemInfo-: проц {WINAPI} ( перем lpSystemInfo: SystemInfo );
	(** The GetStdHandle function returns a handle for the standard input, standard output, or standard error device. *)
	GetStdHandle-: проц {WINAPI} ( nStdHandle: цел32 ): HANDLE;
	(** The GetSystemTime function retrieves the current system date and time. The system time is expressed in
			Coordinated Universal Time (UTC). *)
	GetSystemTime-: проц {WINAPI} ( перем lpSystemTime: SystemTime );
	(** The GetTempFileName function creates a name for a temporary file. The filename is the concatenation of
			specified path and prefix strings, a hexadecimal string formed from a specified integer, and the .TMP extension. *)
	GetTempFileName-: проц {WINAPI} ( перем lpPathName, lpPrefixName: массив   из симв8;
																			   uUnique: цел32;
																			   перем lpTempFileName: массив   из симв8 ): цел32;
	GetTempFileNameW-: проц {WINAPI} ( перем lpPathName, lpPrefixName: UCS2.String;
																			   uUnique: цел32;
																			   перем lpTempFileName: UCS2.String ): цел32;
	(** The GetTempPath function retrieves the path of the directory designated for temporary files. *)
	GetTempPath-: проц {WINAPI} ( nBufferLength: цел32;
																	   перем lpBuffer: массив   из симв8 ): цел32;
	GetTempPathW-: проц {WINAPI} ( nBufferLength: цел32;
																	   перем lpBuffer: UCS2.String ): цел32;
	(** The GetThreadContext function retrieves the context of the specified thread. *)
	GetThreadContext-: проц {WINAPI} ( hThread: HANDLE;
																			  перем lpContext: Context ): BOOL;


	(** The GetThreadPriority function returns the priority value for the specified thread. This value, together with
			the priority class of the thread's process, determines the thread's base-priority level. *)
	GetThreadPriority-: проц {WINAPI} ( hThread: HANDLE ): цел32;
	(** The GetThreadTimes function returns the times spent in kernel mode, user mode ... specified thread.  *)
	GetThreadTimes-: проц {WINAPI} ( hThread: HANDLE;
																		   перем lpCreationTime, lpExitTime, lpKernelTime, lpUserTime: FileTime ): цел32;   (*ALEX 2005.12.12*)
	 (** The GetTickCount function retrieves the number of milliseconds that have elapsed since the system was started. *)
	GetTickCount-: проц {WINAPI} ( ): цел32;
	(** The GetTimeZoneInformation function retrieves information about timezone setup. *)  (*ALEX 2005.10.18*)
	GetTimeZoneInformation-: проц {WINAPI} ( перем lpTimeZoneInformation: TimeZoneInformation ): цел32;
	(** The GetWindowsDir function retrieves the path of the Windows directory. *) (*ALEX 2006.06.05*)
	GetWindowsDirectory-: проц {WINAPI} (  перем lpBuffer: массив   из симв8; nBufferLength: цел32 ): цел32;
	(** The GetVersion function returns the current version number of the operating system. *)
	GetVersion-: проц {WINAPI} ( ): цел32;
	(** The GetVersionEx function obtains extended information about the version of the operating system that is
			currently running. *)
	GetVersionEx-: проц {WINAPI} ( перем lpVersionInfo: OSVersionInfo ): BOOL;
	(*The GetVolumeInformation function retrieves information about a file system and volume that have a specified
	root directory. *)

	GetVolumeInformation-: проц {WINAPI} ( перем lpRootPathName: массив   из симв8;
																					    перем lpVolumeNameBuffer: массив   из симв8;
																					    nVolumeNameSize: цел32;
																					    перем lpVolumeSerialNumber: цел32;
																					    перем lpMaximumComponentLength: цел32;
																					    перем lpFileSystemFlags: цел32;
																					    перем lpFileSystemNameBuffer: массив   из симв8;
																					    nFileSystemNameSize: цел32 ): цел32;

	(** The GlobalAddAtom function adds a character string to the global atom table and returns a unique value
			(an atom) identifying the string. *)
	GlobalAddAtom-: проц {WINAPI} ( перем lpString: массив   из симв8 ): ATOM;
	(** The GlobalAlloc function allocates the specified number of bytes from the heap. *)
	GlobalAlloc-: проц {WINAPI} ( uFlags: INTEGERSET;  dwBytes: размерМЗ ): HGLOBAL;
	(** The GlobalDeleteAtom function decrements the reference count of a global string atom. *)
	GlobalDeleteAtom-: проц {WINAPI} ( nAtom: ATOM ): ATOM;
	(** The GlobalLock function locks a global memory object and returns a pointer to the first byte of the
			object's memory block. *)
	GlobalLock-: проц {WINAPI} ( hMem: HGLOBAL ): адресВПамяти;

	(* Added by Alexey *)
	GlobalMemoryStatusEx-: проц {WINAPI} (перем lpBuffer: MemoryStatusEx): BOOL;

	(** The GlobalReAlloc function changes the size or attributes of a specified global memory object. *)
	GlobalReAlloc-: проц {WINAPI} ( hMem: HGLOBAL;  dwBytes: цел32;
																		uFlags: DWORD ): HGLOBAL;
	(** The GlobalSize function retrieves the current size, in bytes, of the specified global memory object. *)
	GlobalSize-: проц {WINAPI} ( hMem: HGLOBAL ): размерМЗ;
	(** The GlobalUnlock function decrements the lock count associated with a memory object that was allocated with
			the GMEM_MOVEABLE flag. *)
	GlobalUnlock-: проц {WINAPI} ( hMem: HGLOBAL ): BOOL;
	(** The HeapAlloc function allocates a block of memory from a heap. The allocated memory is not movable. *)
	HeapAlloc-: проц {WINAPI} ( hHeap: HANDLE; dwFlags: цел32; size: размерМЗ): адресВПамяти;
	(** The HeapFree function frees a memory block allocated from a heap by the HeapAlloc or HeapReAlloc function. *)
	HeapFree-: проц {WINAPI} ( hHeap: HANDLE; dwFlags: цел32; lpMem: адресВПамяти): адресВПамяти;
	(** The InitializeCriticalSection function initializes a critical section object. *)
	InitializeCriticalSection-: проц {WINAPI} ( перем lpCriticalSection: CriticalSection );
	(** The InterlockedDecrement function both decrements (decreases by one) the value of the specified 32-bit
			variable and checks the resulting value. *)
	InterlockedDecrement-: проц {WINAPI} ( перем lpAddend: цел32 ): цел32;
	(** The InterlockedIncrement function both increments (increases by one) the value of the specified 32-bit variable
			and checks the resulting value. *)
	InterlockedIncrement-: проц {WINAPI} ( перем lpAddend: цел32 ): цел32;

	(** The LeaveCriticalSection function releases ownership of the specified critical section object. *)
	LeaveCriticalSection-: проц {WINAPI} ( перем lpCriticalSection: CriticalSection );

	(** The LocalFileTimeToFileTime function converts a local file time to a file time based on the Coordinated
			Universal Time (UTC). *)
	LocalFileTimeToFileTime-: проц {WINAPI} ( перем lpLocalFileTime: FileTime;
																						   перем lpFileTime: FileTime ): BOOL;
	(** The MoveFileEx function renames an existing file or directory. *)
	MoveFileEx-: проц {WINAPI} ( перем lpExistingFileName, lpNewFileName: массив   из симв8;
																    dwFlags: INTEGERSET ): BOOL;
	MoveFileExW-: проц {WINAPI} ( перем lpExistingFileName, lpNewFileName: UCS2.String;
																    dwFlags: INTEGERSET ): BOOL;
	(** The OutputDebugString function sends a string to the debugger for the current application. *)
	outputDebugString-: проц {WINAPI} ( конст lpOutputString: массив   из симв8 );

	(* The IsDebuggerPresent Function determines whether the calling process is being debugged by a user-mode debugger. *)

	IsDebuggerPresent-: проц {WINAPI}(): BOOL;


	(** The PurgeComm function discards all characters from the output or input buffer of a specified communications resource. *)
	PurgeComm-: проц {WINAPI} ( hFile: HANDLE;  dwFlags: INTEGERSET ): BOOL;
	(** The QueryDosDevice function retrieves information about MS-DOS device names. *)
	QueryDosDevice-: проц {WINAPI} ( конст lpDeviceName: массив   из симв8;
																		   перем lpTargetPath: массив   из симв8;
																		   ucchMax: цел32 ): цел32;
	(** The QueryPerformanceCounter function retrieves the current value of the high-resolution
	performance counter, if one exists. *)
	QueryPerformanceCounter-: проц {WINAPI} ( перем lpPerformaceCount: LargeInteger ): BOOL;
	(** The QueryPerformanceFrequency function retrieves the frequency of the high-resolution
			performance counter, if one exists. *)
	QueryPerformanceFrequency-: проц {WINAPI} ( перем lpFrequency: LargeInteger ): BOOL;

	(** Retrieves the cycle time for the specified thread (both user and kernel mode, Windows Vista and newer) *)
	QueryThreadCycleTime- : проц {WINAPI} (hThread : HANDLE; перем cycleTime : цел64) : BOOL;
	(** The ReadFile function reads data from a file, starting at the position indicated by the file pointer. *)
	ReadFile-: проц {WINAPI} ( hFile: HANDLE;
															  перем lpBuffer: массив из НИЗКОУР.октет;
															  nNumberOfBytesToRead: цел32;
															  перем lpNumberOfBytesRead: цел32;
															  перем lpOverlapped: Overlapped ): BOOL;
															  
															  
	ReadConsoleW-: проц {WINAPI} ( hConsoleInput: HANDLE;
																перем lpBuffer: UCS2.String;
																(* неясно, почему не DWORD, но так в ReadFile *)
																nNumberOfCharsToRead: цел32;
																перем lpNumberOfCharsRead: цел32;
																перем pInputControl : ConsoleReadconsoleControl): BOOL;

	(** The ReadProcessMemory function reads data from an area of memory in a specified process. *)
	ReadProcessMemory-: проц {WINAPI} ( hProcess: HANDLE;
																				   lpBaseAddress: адресВПамяти;
																				   перем lpBuffer: массив   из НИЗКОУР.октет;
																				   nSize: цел32;
																				   перем lpNumberOfBytesRead: цел32 ): BOOL;
	(** The ReleaseSemaphore function increases the count of the specified semaphore object by a specified amount. *)
	ReleaseSemaphore-: проц {WINAPI} ( hSemaphore: HANDLE; lReleaseCount: цел32; lpPreviousCount: адресВПамяти): BOOL;
	(** The RemoveDirectory function deletes an existing empty directory. *)
	RemoveDirectory-: проц {WINAPI} ( перем lpPathName: массив   из симв8 ): BOOL;
	RemoveDirectoryW-: проц {WINAPI} ( перем lpPathName: UCS2.String ): BOOL;
	(** unregisters a vectored continue handler. **)
	RemoveVectoredContinueHandler-: проц {WINAPI} (vectoredHandler: VectoredExceptionHandler): ULONG;
	(** unregisters a vectored exception handler. **)
	RemoveVectoredExceptionHandler-: проц {WINAPI} (vectoredHandler: VectoredExceptionHandler): ULONG;
	(** The ResetEvent function sets the state of the specified event object to nonsignaled. *)
	ResetEvent-: проц {WINAPI} ( hEvent: HANDLE ): BOOL;
	(** The ResumeThread function decrements a thread's suspend count. *)
	ResumeThread-: проц {WINAPI} ( hThread: HANDLE ): цел32;
	(** The SearchPath function searches for the specified file. *)
	SearchPath-: проц {WINAPI} ( конст lpPath, lpFileName, lpExtension: массив   из симв8;
																  nBufferLength: DWORD;
																  перем lpBuffer: массив   из симв8;
																  перем lpFilePart: LPSTR ): цел32;
	SearchPathW-: проц {WINAPI} ( конст lpPath, lpFileName, lpExtension: UCS2.String;
																  nBufferLength: DWORD;
																  перем lpBuffer: UCS2.String;
																  перем lpFilePart: LPWSTR ): цел32;
	(** The SetCommBreak function suspends character transmission for a specified communications device and places the transmission line in a break state until the ClearCommBreak function is called. *)
	SetCommBreak-: проц {WINAPI} ( hFile: HANDLE ): BOOL;
	(** The SetCommMask function specifies a set of events to be monitored for a communications device. *)
	SetCommMask-: проц {WINAPI} ( hFile: HANDLE;  dwEvtMask: DWORD ): BOOL;
	(** The SetCommState function configures a communications device according to the specifications in a device-control block (a DCB structure)*)
	SetCommState-: проц {WINAPI} ( hFile: HANDLE;
																	    перем lpDCB: DCB ): BOOL;
	(** The SetCommTimeouts function sets the time-out parameters for all read and write operations on a specified communications device. *)
	SetCommTimeouts-: проц {WINAPI} ( hFile: HANDLE;
																			    перем lpCommTimeouts: CommTimeouts ): BOOL;
	(** the SetConsoleCursorPosition  sets the cursor position in the specified console screen buffer. *)
	SetConsoleCursorPosition-: проц {WINAPI} ( hConsoleOutput: HANDLE;  dwCursorPosition:  (* imitate Coord=RECORD x,y: SIGNED16 END; *) цел32 ): BOOL;
	(** The SetConsoleScreenBufferSize function changes the size of the specified console screen buffer. *)
	SetConsoleScreenBufferSize-: проц {WINAPI} ( hConsoleOuput: HANDLE;
																							   dwSize: цел32 ): BOOL;
	(** The SetConsoleTextAttribute function sets the attributes of characters written to the console screen buffer by the WriteFile or WriteConsole function, or echoed by the ReadFile or ReadConsole function. *)
	SetConsoleTextAttribute-: проц {WINAPI} (hConsoleOutput: HANDLE; wAttributes: цел32): BOOL;
	(** The SetConsoleTitle function sets the title bar string for the current console window. *)
	SetConsoleTitle-: проц {WINAPI} ( перем lpConsoleTitle: массив   из симв8 ): BOOL;
	(** The SetConsoleWindowInfo function sets the current size and position of a console screen buffer's window. *)
	SetConsoleWindowInfo-: проц {WINAPI} ( hConsoleOuput: HANDLE;
																						 bAbsolute: BOOL;
																						 перем lpConsoleWindow: SmallRect ): BOOL;
	(** The SetCurrentDirectory function changes the current directory for the current process. *)
	SetCurrentDirectory-: проц {WINAPI} ( перем lpPathName: массив   из симв8 ): BOOL;
	SetCurrentDirectoryW-: проц {WINAPI} ( перем lpPathName: UCS2.String ): BOOL; 
	(** The SetErrorMode function controls whether the system will handle the specified types of serious errors,
			or whether the process will handle them. *)
	SetErrorMode-: проц {WINAPI} ( uMode: DWORD ): DWORD;
	(** The SetEndOfFile function moves the end-of-file (EOF) position for the specified file to the current position of the file pointer. *)
	SetEndOfFile-: проц {WINAPI} ( hFile: HANDLE ): BOOL;
	(** The SetEvent function sets the state of the specified event object to signaled. *)
	SetEvent-: проц {WINAPI} ( hEvent: HANDLE ): BOOL;
	(** The SetFileAttributes function sets a file's attributes. *)
	SetFileAttributes-: проц {WINAPI} ( перем lpFileName: массив   из симв8;
																			dwFileAttributes: INTEGERSET ): BOOL;
	SetFileAttributesW-: проц {WINAPI} ( перем lpFileName: UCS2.String;
																			dwFileAttributes: INTEGERSET ): BOOL;
	(** The SetFilePointer function moves the file pointer of an open file. *)
	SetFilePointer-: проц {WINAPI} ( hFile: HANDLE;  lDistanceToMove: цел32;
																	    перем lpDistanceToMoveHigh: цел32;
																	    dwMoveMethod: цел32 ): цел32;
	SetFilePointerEx-: проц {WINAPI} ( hFile: HANDLE;  lDistanceToMove: цел64;
																		перем lpNewFilePointer: цел64;
																		dwMoveMethod: цел32 ): BOOL;
	(** The SetFileTime function sets the date and time that a file was created, last accessed, or last modified. *)
	SetFileTime-: проц {WINAPI} ( hFile: HANDLE;
																    перем lpCreationTime, lpLastAccessTime, lpLastWriteTime: FileTime ): BOOL;
	(** The SetLocalTime function sets the current local time and date. *)
	SetLocalTime-: проц {WINAPI} ( перем lpSystemTime: SystemTime ): BOOL;
	(** The SetThreadAffinityMask function sets a processor affinity mask for the specified thread. *)
	SetThreadAffinityMask-: проц {WINAPI} ( hThread: HANDLE; dwThreadAffinityMask: DWORD): DWORD;
	(** The SetThreadContext function sets the context in the specified thread. *)
	SetThreadContext-: проц {WINAPI} ( hThread: HANDLE;
																			  перем lpContext: Context ): BOOL;
	(** The SetThreadPriority function sets the priority value for the specified thread. *)
	SetThreadPriority-: проц {WINAPI} ( hThread: HANDLE;
																			 nPriority: цел32 ): BOOL;
	(** The SetupComm function initializes the communications parameters for a specified communications device. *)
	SetupComm-: проц {WINAPI} ( hFile: HANDLE;
																    dwInQueue, dwOutQueue: цел32 ): BOOL;
	(** The Sleep function suspends the execution of the current thread for a specified interval. *)
	Sleep-: проц {WINAPI} ( dwMilliseconds: цел32 );
	(** The SuspendThread function suspends the specified thread. *)
	SuspendThread-: проц {WINAPI} ( hThread: HANDLE ): цел32;
	(** The SystemTimeToFileTime function converts a system time to a file time. *)
	SystemTimeToFileTime-: проц {WINAPI} ( перем lpSystemTime: SystemTime;
																					   перем lpFileTime: FileTime ): BOOL;
	(** The TerminateThread function terminates a thread. *)
	TerminateThread-: проц {WINAPI} ( hThread: HANDLE;
																			 dwExitCode: цел32 ): BOOL;
	TlsAlloc-: проц {WINAPI} ( ): цел32;
	TlsFree-: проц {WINAPI} ( dwTlsIndex: цел32 ): BOOL;
	TlsGetValue-: проц {WINAPI} ( dwTlsIndex: цел32 ): адресВПамяти;
	TlsSetValue-: проц {WINAPI} ( dwTlsIndex: цел32; lpTlsValue: адресВПамяти ): BOOL;
	(** The TryEnterCriticalSection function attempts to enter a critical section without blocking. *)
	TryEnterCriticalSection-: проц {WINAPI} ( перем lpCriticalSection: CriticalSection ): BOOL;
	(** The VirtualAlloc function reserves or commits a region of pages in the virtual address space of the calling process. *)
	VirtualAlloc-: проц {WINAPI} ( lpAddress: адресВПамяти;  dwSize: размерМЗ;
																    flAllocationType, flProtect: INTEGERSET ): адресВПамяти;
	(** The VirtualFree function releases or decommits (or both) a region of pages within the virtual address space of the
			calling process. *)
	VirtualFree-: проц {WINAPI} ( lpAddress: адресВПамяти;  dwSize: размерМЗ;
																  dwFreeType: INTEGERSET ): BOOL;
	(** The WaitForSingleObject function returns when one of the following occurs:
			The specified object is in the signaled state.
			The time-out interval elapses. *)
	WaitForSingleObject-: проц {WINAPI} ( hHandle: HANDLE;
																				   dwMilliseconds: цел32 ): цел32;
	(** The WriteFile function writes data to a file and is designed for both synchronous and asynchronous operation. *)
	WriteFile-: проц {WINAPI} ( hFile: HANDLE;
															   конст lpBuffer: массив   из НИЗКОУР.октет;
															   nNumberOfBytesToWrite: DWORD;
															   перем lpNumberOfBytesWritten: DWORD;
															   перем lpOverlapped: Overlapped ): BOOL;
	(** Thread abort notifier, parameter is the threads id. Note this should only be used in modules which
			can't use the exception handling mechanism provided by module Exceptions. *)

	(** Method used to write text to the Console. *)
	OutputString*: проц ( конст a: массив из симв8 );


	(* OutputString*: OutputStringProc; *)
	Shutdown*: проц ( code: цел32 );

	(** Wrapper for getProcAddress. *)
	проц GetProcAddress*( hModule: HMODULE; конст procName: массив из симв8; перем adr: адресВПамяти );
	нач {безКооперации, безОбычныхДинПроверок}
		adr := getProcAddress( hModule, procName );
	кон GetProcAddress;

(** Copy a zero-terminated string from address lpString. *)
	проц CopyString*( lpString: LPSTR;  перем str: массив из симв8 );
	перем i: цел32;  ch: симв8;
	нач {безКооперации, безОбычныхДинПроверок}
		i := 0;
		если lpString # NULL то
			НИЗКОУР.прочтиОбъектПоАдресу( lpString, ch );
			нцПока ch # 0X делай
				str[i] := ch;  увел( i );  увел( lpString );  НИЗКОУР.прочтиОбъектПоАдресу( lpString, ch )
			кц
		всё;
		str[i] := 0X
	кон CopyString;

	проц OutputDebugString*( конст str: массив из симв8 );
	нач {безКооперации, безОбычныхДинПроверок}
		outputDebugString( str );
	кон OutputDebugString;

	проц NoOutputString(конст str: массив из симв8);
	нач {безКооперации, безОбычныхДинПроверок}
	кон NoOutputString;

	проц ConsoleString(конст str: массив из симв8);
	перем i: цел32;
	нач {безКооперации, безОбычныхДинПроверок}
		i := 0;
		нцПока (i<длинаМассива(str)) и (str[i] # 0X) делай
			TraceChar(str[i]);увел(i);
		кц;
	кон ConsoleString;

	проц TraceChar(c: симв8);
	перем len: цел32; b: BOOL;
	нач {безКооперации, безОбычныхДинПроверок}
		len := 1;
		b := WriteFile(hout,c,len,len,НУЛЬ);
	кон TraceChar;

	проц SendToDebugger*(конст str: массив из симв8;  x: адресВПамяти );
	перем s: массив 16 из симв8;
		d: адресВПамяти; i: размерМЗ;
		pad: массив 256 из симв8;
	нач
		если IsDebuggerPresent() = True то
			OutputDebugString( str );
			s[8] := 0X;
			нцДля i := 7 до 0 шаг -1 делай
				d := x остОтДеленияНа 16;
				если d < 10 то s[i] := симв8ИзКода( d + кодСимв8( "0" ) ) иначе s[i] := симв8ИзКода( d - 10 + кодСимв8( "A" ) ) всё;
				x := x DIV 16
			кц;
			OutputDebugString( s );  s[0] := 0AX;  s[1] := 0X;  OutputDebugString( s )
		всё;
	кон SendToDebugger;

	проц ShutdownP(l: цел32);
	перем i: цел32;
	нач {безКооперации, безОбычныхДинПроверок}
		OutputString("Kernel32.Shutdown");
	#если ~SHAREDLIB то
		ExitProcess(l);
	#кон;
	кон ShutdownP;

	проц Init*;
	перем mod: HMODULE;
	нач {безКооперации, безОбычныхДинПроверок}
		Shutdown := ShutdownP;
		mod := LoadLibrary("Kernel32.DLL");
		GetProcAddress(mod, "AllocConsole",НИЗКОУР.подмениТипЗначения(адресВПамяти,AllocConsole));
		GetProcAddress(mod, "AddVectoredExceptionHandler",НИЗКОУР.подмениТипЗначения(адресВПамяти,AddVectoredExceptionHandler));
		GetProcAddress(mod, "AddVectoredContinueHandler",НИЗКОУР.подмениТипЗначения(адресВПамяти,AddVectoredContinueHandler));
		GetProcAddress(mod, "AttachConsole",НИЗКОУР.подмениТипЗначения(адресВПамяти,AttachConsole));
		GetProcAddress(mod, "Beep",НИЗКОУР.подмениТипЗначения(адресВПамяти,Beep));
		GetProcAddress(mod, "CancelIoEx",НИЗКОУР.подмениТипЗначения(адресВПамяти,CancelIoEx));
		GetProcAddress(mod, "ClearCommBreak",НИЗКОУР.подмениТипЗначения(адресВПамяти,ClearCommBreak));
		GetProcAddress(mod, "ClearCommError",НИЗКОУР.подмениТипЗначения(адресВПамяти,ClearCommError));
		GetProcAddress(mod, "CloseHandle",НИЗКОУР.подмениТипЗначения(адресВПамяти,CloseHandle));
		GetProcAddress(mod, "CopyFileA",НИЗКОУР.подмениТипЗначения(адресВПамяти,CopyFile));
		GetProcAddress(mod, "CopyFileW",НИЗКОУР.подмениТипЗначения(адресВПамяти,CopyFileW));
		GetProcAddress(mod, "CreateDirectoryA",НИЗКОУР.подмениТипЗначения(адресВПамяти,CreateDirectory));
		GetProcAddress(mod, "CreateDirectoryW",НИЗКОУР.подмениТипЗначения(адресВПамяти,CreateDirectoryW));
		GetProcAddress(mod, "CreateEventA",НИЗКОУР.подмениТипЗначения(адресВПамяти,CreateEvent));
		GetProcAddress(mod, "CreateFileA",НИЗКОУР.подмениТипЗначения(адресВПамяти,CreateFile));
		GetProcAddress(mod, "CreateFileW",НИЗКОУР.подмениТипЗначения(адресВПамяти,CreateFileW));
		GetProcAddress(mod, "CreateProcessA",НИЗКОУР.подмениТипЗначения(адресВПамяти,CreateProcess));
		GetProcAddress(mod, "CreateSemaphoreA",НИЗКОУР.подмениТипЗначения(адресВПамяти,CreateSemaphore));
		GetProcAddress(mod, "CreateThread",НИЗКОУР.подмениТипЗначения(адресВПамяти,CreateThread));
		GetProcAddress(mod, "DeleteCriticalSection",НИЗКОУР.подмениТипЗначения(адресВПамяти,DeleteCriticalSection));
		GetProcAddress(mod, "DeleteFileA",НИЗКОУР.подмениТипЗначения(адресВПамяти,DeleteFile));
		GetProcAddress(mod, "DeleteFileW",НИЗКОУР.подмениТипЗначения(адресВПамяти,DeleteFileW));
		GetProcAddress(mod, "DisableThreadLibraryCalls",НИЗКОУР.подмениТипЗначения(адресВПамяти,DisableThreadLibraryCalls));
		GetProcAddress(mod, "DuplicateHandle",НИЗКОУР.подмениТипЗначения(адресВПамяти,DuplicateHandle));
		GetProcAddress(mod, "EnterCriticalSection",НИЗКОУР.подмениТипЗначения(адресВПамяти,EnterCriticalSection));
		GetProcAddress(mod, "EscapeCommFunction",НИЗКОУР.подмениТипЗначения(адресВПамяти,EscapeCommFunction));
		GetProcAddress(mod, "ExitProcess",НИЗКОУР.подмениТипЗначения(адресВПамяти,ExitProcess));
		GetProcAddress(mod, "ExitThread",НИЗКОУР.подмениТипЗначения(адресВПамяти,ExitThread));
		GetProcAddress(mod, "FindClose",НИЗКОУР.подмениТипЗначения(адресВПамяти,FindClose));
		GetProcAddress(mod, "FileTimeToLocalFileTime",НИЗКОУР.подмениТипЗначения(адресВПамяти,FileTimeToLocalFileTime));
		GetProcAddress(mod, "FileTimeToSystemTime",НИЗКОУР.подмениТипЗначения(адресВПамяти,FileTimeToSystemTime));
		GetProcAddress(mod, "FindFirstFileA",НИЗКОУР.подмениТипЗначения(адресВПамяти,FindFirstFile));
		GetProcAddress(mod, "FindFirstFileW",НИЗКОУР.подмениТипЗначения(адресВПамяти,FindFirstFileW));
		GetProcAddress(mod, "FindNextFileA",НИЗКОУР.подмениТипЗначения(адресВПамяти,FindNextFile));
		GetProcAddress(mod, "FindNextFileW",НИЗКОУР.подмениТипЗначения(адресВПамяти,FindNextFileW));
		GetProcAddress(mod, "FlushFileBuffers",НИЗКОУР.подмениТипЗначения(адресВПамяти,FlushFileBuffers));
		GetProcAddress(mod, "FreeConsole",НИЗКОУР.подмениТипЗначения(адресВПамяти,FreeConsole));
		GetProcAddress(mod, "FreeLibrary",НИЗКОУР.подмениТипЗначения(адресВПамяти,FreeLibrary));
		GetProcAddress(mod, "GetCommandLineA",НИЗКОУР.подмениТипЗначения(адресВПамяти,GetCommandLine));
		GetProcAddress(mod, "GetCommandLineW",НИЗКОУР.подмениТипЗначения(адресВПамяти,GetCommandLineW));
		GetProcAddress(mod, "GetCommModemStatus",НИЗКОУР.подмениТипЗначения(адресВПамяти,GetCommModemStatus));
		GetProcAddress(mod, "GetCommState",НИЗКОУР.подмениТипЗначения(адресВПамяти,GetCommState));
		GetProcAddress(mod, "GetComputerNameA",НИЗКОУР.подмениТипЗначения(адресВПамяти,GetComputerName));
		GetProcAddress(mod, "GetCurrentDirectoryA",НИЗКОУР.подмениТипЗначения(адресВПамяти,GetCurrentDirectory));
		GetProcAddress(mod, "GetCurrentProcess",НИЗКОУР.подмениТипЗначения(адресВПамяти,GetCurrentProcess));
		GetProcAddress(mod, "GetCurrentProcessId",НИЗКОУР.подмениТипЗначения(адресВПамяти,GetCurrentProcessId));
		GetProcAddress(mod, "GetCurrentThread",НИЗКОУР.подмениТипЗначения(адресВПамяти,GetCurrentThread));
		GetProcAddress(mod, "GetCurrentThreadId",НИЗКОУР.подмениТипЗначения(адресВПамяти,GetCurrentThreadId));
		GetProcAddress(mod, "GetCurrentThreadStackLimits",НИЗКОУР.подмениТипЗначения(адресВПамяти,GetCurrentThreadStackLimits));
		GetProcAddress(mod, "GetDiskFreeSpaceA",НИЗКОУР.подмениТипЗначения(адресВПамяти,GetDiskFreeSpace));
		GetProcAddress(mod, "GetDriveTypeA",НИЗКОУР.подмениТипЗначения(адресВПамяти,GetDriveType));
		GetProcAddress(mod, "GetExitCodeProcess",НИЗКОУР.подмениТипЗначения(адресВПамяти,GetExitCodeProcess));
		GetProcAddress(mod, "GetFileAttributesA",НИЗКОУР.подмениТипЗначения(адресВПамяти,GetFileAttributes));
		GetProcAddress(mod, "GetFileAttributesW",НИЗКОУР.подмениТипЗначения(адресВПамяти,GetFileAttributesW));
		GetProcAddress(mod, "GetFileSize",НИЗКОУР.подмениТипЗначения(адресВПамяти,GetFileSize));
		GetProcAddress(mod, "GetFileSizeEx",НИЗКОУР.подмениТипЗначения(адресВПамяти,GetFileSizeEx));
		GetProcAddress(mod, "GetFileTime",НИЗКОУР.подмениТипЗначения(адресВПамяти,GetFileTime));
		GetProcAddress(mod, "GetFullPathNameA",НИЗКОУР.подмениТипЗначения(адресВПамяти,GetFullPathName));
		GetProcAddress(mod, "GetFullPathNameW",НИЗКОУР.подмениТипЗначения(адресВПамяти,GetFullPathNameW));
		GetProcAddress(mod, "GetLastError",НИЗКОУР.подмениТипЗначения(адресВПамяти,GetLastError));
		GetProcAddress(mod, "GetLocalTime",НИЗКОУР.подмениТипЗначения(адресВПамяти,GetLocalTime));
		GetProcAddress(mod, "GetLogicalDriveStringsA",НИЗКОУР.подмениТипЗначения(адресВПамяти,GetLogicalDriveStrings));
		GetProcAddress(mod, "GetLogicalDrives",НИЗКОУР.подмениТипЗначения(адресВПамяти,GetLogicalDrives));
		GetProcAddress(mod, "GetModuleFileNameA",НИЗКОУР.подмениТипЗначения(адресВПамяти,GetModuleFileName));

		GetProcAddress(mod, "GetModuleHandleA",НИЗКОУР.подмениТипЗначения(адресВПамяти,GetModuleHandle));

		GetProcAddress(mod, "GetOverlappedResult",НИЗКОУР.подмениТипЗначения(адресВПамяти,GetOverlappedResult));
		GetProcAddress(mod, "GetPrivateProfileStringA",НИЗКОУР.подмениТипЗначения(адресВПамяти,GetPrivateProfileString));
		(* must be done by linker: GetProcAddress(mod, "GetProcAddress",SYSTEM.VAL(ADDRESS,getProcAddress)); *)
		GetProcAddress(mod, "GetProcessAffinityMask",НИЗКОУР.подмениТипЗначения(адресВПамяти,GetProcessAffinityMask));
		GetProcAddress(mod, "GetProcessHeap",НИЗКОУР.подмениТипЗначения(адресВПамяти,GetProcessHeap));
		GetProcAddress(mod, "GetProcessTimes", НИЗКОУР.подмениТипЗначения(адресВПамяти, GetProcessTimes));
		GetProcAddress(mod, "GetStartupInfoA",НИЗКОУР.подмениТипЗначения(адресВПамяти,GetStartupInfo));

		GetProcAddress(mod, "GetStdHandle",НИЗКОУР.подмениТипЗначения(адресВПамяти,GetStdHandle));

		GetProcAddress(mod, "GetSystemInfo",НИЗКОУР.подмениТипЗначения(адресВПамяти,GetSystemInfo));
		GetProcAddress(mod, "GetSystemTime",НИЗКОУР.подмениТипЗначения(адресВПамяти,GetSystemTime));
		GetProcAddress(mod, "GetTempFileNameA",НИЗКОУР.подмениТипЗначения(адресВПамяти,GetTempFileName));
		GetProcAddress(mod, "GetTempFileNameW",НИЗКОУР.подмениТипЗначения(адресВПамяти,GetTempFileNameW));
		GetProcAddress(mod, "GetTempPathA",НИЗКОУР.подмениТипЗначения(адресВПамяти,GetTempPath));
		GetProcAddress(mod, "GetTempPathW",НИЗКОУР.подмениТипЗначения(адресВПамяти,GetTempPathW));
		GetProcAddress(mod, "GetThreadContext",НИЗКОУР.подмениТипЗначения(адресВПамяти,GetThreadContext));
		GetProcAddress(mod, "GetThreadPriority",НИЗКОУР.подмениТипЗначения(адресВПамяти,GetThreadPriority));
		GetProcAddress(mod, "GetThreadTimes",НИЗКОУР.подмениТипЗначения(адресВПамяти,GetThreadTimes));
		GetProcAddress(mod, "GetTickCount",НИЗКОУР.подмениТипЗначения(адресВПамяти,GetTickCount));
		GetProcAddress(mod, "GetWindowsDirectoryA",НИЗКОУР.подмениТипЗначения(адресВПамяти,GetWindowsDirectory));
		GetProcAddress(mod, "GetTimeZoneInformation",НИЗКОУР.подмениТипЗначения(адресВПамяти,GetTimeZoneInformation));
		GetProcAddress(mod, "GetVersion",НИЗКОУР.подмениТипЗначения(адресВПамяти,GetVersion));
		GetProcAddress(mod, "GetVersionExA",НИЗКОУР.подмениТипЗначения(адресВПамяти,GetVersionEx));
		GetProcAddress(mod, "GetVolumeInformationA",НИЗКОУР.подмениТипЗначения(адресВПамяти,GetVolumeInformation));
		GetProcAddress(mod, "GlobalAddAtomA",НИЗКОУР.подмениТипЗначения(адресВПамяти,GlobalAddAtom));
		GetProcAddress(mod, "GlobalAlloc",НИЗКОУР.подмениТипЗначения(адресВПамяти,GlobalAlloc));
		GetProcAddress(mod, "GlobalDeleteAtom",НИЗКОУР.подмениТипЗначения(адресВПамяти,GlobalDeleteAtom));
		GetProcAddress(mod, "GlobalLock",НИЗКОУР.подмениТипЗначения(адресВПамяти,GlobalLock));
		GetProcAddress(mod, "GlobalReAlloc",НИЗКОУР.подмениТипЗначения(адресВПамяти,GlobalReAlloc));
		GetProcAddress(mod, "GlobalSize",НИЗКОУР.подмениТипЗначения(адресВПамяти,GlobalSize));
		GetProcAddress(mod, "GlobalUnlock",НИЗКОУР.подмениТипЗначения(адресВПамяти,GlobalUnlock));
		GetProcAddress(mod, "HeapAlloc",НИЗКОУР.подмениТипЗначения(адресВПамяти,HeapAlloc));
		GetProcAddress(mod, "HeapFree",НИЗКОУР.подмениТипЗначения(адресВПамяти,HeapFree));
		GetProcAddress(mod, "InitializeCriticalSection",НИЗКОУР.подмениТипЗначения(адресВПамяти,InitializeCriticalSection));
		GetProcAddress(mod, "InterlockedDecrement",НИЗКОУР.подмениТипЗначения(адресВПамяти,InterlockedDecrement));
		GetProcAddress(mod, "InterlockedIncrement",НИЗКОУР.подмениТипЗначения(адресВПамяти,InterlockedIncrement));

		GetProcAddress(mod, "IsDebuggerPresent",НИЗКОУР.подмениТипЗначения(адресВПамяти,IsDebuggerPresent));

		GetProcAddress(mod, "LeaveCriticalSection",НИЗКОУР.подмениТипЗначения(адресВПамяти,LeaveCriticalSection));
		(* must be done by linker: GetProcAddress(mod, "LoadLibraryA",SYSTEM.VAL(ADDRESS,LoadLibrary)); *)
		GetProcAddress(mod, "LocalFileTimeToFileTime",НИЗКОУР.подмениТипЗначения(адресВПамяти,LocalFileTimeToFileTime));
		GetProcAddress(mod, "MoveFileExA",НИЗКОУР.подмениТипЗначения(адресВПамяти,MoveFileEx));
		GetProcAddress(mod, "MoveFileExW",НИЗКОУР.подмениТипЗначения(адресВПамяти,MoveFileExW));
		GetProcAddress(mod, "OutputDebugStringA",НИЗКОУР.подмениТипЗначения(адресВПамяти,outputDebugString));
		GetProcAddress(mod, "PurgeComm",НИЗКОУР.подмениТипЗначения(адресВПамяти,PurgeComm));
		GetProcAddress(mod, "QueryDosDeviceA",НИЗКОУР.подмениТипЗначения(адресВПамяти,QueryDosDevice));
		GetProcAddress(mod, "QueryPerformanceCounter",НИЗКОУР.подмениТипЗначения(адресВПамяти,QueryPerformanceCounter));
		GetProcAddress(mod, "QueryPerformanceFrequency",НИЗКОУР.подмениТипЗначения(адресВПамяти,QueryPerformanceFrequency));
		GetProcAddress(mod, "QueryThreadCycleTime", НИЗКОУР.подмениТипЗначения(адресВПамяти, QueryThreadCycleTime));
		GetProcAddress(mod, "ReadFile",НИЗКОУР.подмениТипЗначения(адресВПамяти,ReadFile));
		GetProcAddress(mod, "ReadConsoleW",НИЗКОУР.подмениТипЗначения(адресВПамяти,ReadConsoleW));
		GetProcAddress(mod, "ReadProcessMemory",НИЗКОУР.подмениТипЗначения(адресВПамяти,ReadProcessMemory));
		GetProcAddress(mod, "ReleaseSemaphore",НИЗКОУР.подмениТипЗначения(адресВПамяти,ReleaseSemaphore));
		GetProcAddress(mod, "RemoveDirectoryA",НИЗКОУР.подмениТипЗначения(адресВПамяти,RemoveDirectory));
		GetProcAddress(mod, "RemoveDirectoryW",НИЗКОУР.подмениТипЗначения(адресВПамяти,RemoveDirectoryW));
		GetProcAddress(mod, "RemoveVectoredExceptionHandler",НИЗКОУР.подмениТипЗначения(адресВПамяти,RemoveVectoredExceptionHandler));
		GetProcAddress(mod, "RemoveVectoredExceptionHandler",НИЗКОУР.подмениТипЗначения(адресВПамяти,RemoveVectoredContinueHandler));
		GetProcAddress(mod, "ResetEvent",НИЗКОУР.подмениТипЗначения(адресВПамяти,ResetEvent));
		GetProcAddress(mod, "ResumeThread",НИЗКОУР.подмениТипЗначения(адресВПамяти,ResumeThread));
		GetProcAddress(mod, "SearchPathA",НИЗКОУР.подмениТипЗначения(адресВПамяти,SearchPath));
		GetProcAddress(mod, "SearchPathW",НИЗКОУР.подмениТипЗначения(адресВПамяти,SearchPathW));
		GetProcAddress(mod, "SetCommBreak",НИЗКОУР.подмениТипЗначения(адресВПамяти,SetCommBreak));
		GetProcAddress(mod, "SetCommMask",НИЗКОУР.подмениТипЗначения(адресВПамяти,SetCommMask));
		GetProcAddress(mod, "SetCommState",НИЗКОУР.подмениТипЗначения(адресВПамяти,SetCommState));
		GetProcAddress(mod, "SetCommTimeouts",НИЗКОУР.подмениТипЗначения(адресВПамяти,SetCommTimeouts));
		GetProcAddress(mod, "SetConsoleCursorPosition",НИЗКОУР.подмениТипЗначения(адресВПамяти,SetConsoleCursorPosition));
		GetProcAddress(mod, "SetConsoleScreenBufferSize",НИЗКОУР.подмениТипЗначения(адресВПамяти,SetConsoleScreenBufferSize));
		GetProcAddress(mod, "SetConsoleTextAttribute",НИЗКОУР.подмениТипЗначения(адресВПамяти,SetConsoleTextAttribute));
		GetProcAddress(mod, "SetConsoleTitleA",НИЗКОУР.подмениТипЗначения(адресВПамяти,SetConsoleTitle));
		GetProcAddress(mod, "SetConsoleWindowInfo",НИЗКОУР.подмениТипЗначения(адресВПамяти,SetConsoleWindowInfo));
		GetProcAddress(mod, "SetCurrentDirectoryA",НИЗКОУР.подмениТипЗначения(адресВПамяти,SetCurrentDirectory));
		GetProcAddress(mod, "SetCurrentDirectoryW",НИЗКОУР.подмениТипЗначения(адресВПамяти,SetCurrentDirectoryW));
		GetProcAddress(mod, "SetEndOfFile",НИЗКОУР.подмениТипЗначения(адресВПамяти,SetEndOfFile));
		GetProcAddress(mod, "SetErrorMode",НИЗКОУР.подмениТипЗначения(адресВПамяти,SetErrorMode));
		GetProcAddress(mod, "SetEvent",НИЗКОУР.подмениТипЗначения(адресВПамяти,SetEvent));
		GetProcAddress(mod, "SetFileAttributesA",НИЗКОУР.подмениТипЗначения(адресВПамяти,SetFileAttributes));
		GetProcAddress(mod, "SetFileAttributesW",НИЗКОУР.подмениТипЗначения(адресВПамяти,SetFileAttributesW));
		GetProcAddress(mod, "SetFilePointer",НИЗКОУР.подмениТипЗначения(адресВПамяти,SetFilePointer));
		GetProcAddress(mod, "SetFilePointerEx",НИЗКОУР.подмениТипЗначения(адресВПамяти,SetFilePointerEx));
		GetProcAddress(mod, "SetFileTime",НИЗКОУР.подмениТипЗначения(адресВПамяти,SetFileTime));
		GetProcAddress(mod, "SetLocalTime",НИЗКОУР.подмениТипЗначения(адресВПамяти,SetLocalTime));
		GetProcAddress(mod, "SetThreadAffinityMask",НИЗКОУР.подмениТипЗначения(адресВПамяти,SetThreadAffinityMask));
		GetProcAddress(mod, "SetThreadContext",НИЗКОУР.подмениТипЗначения(адресВПамяти,SetThreadContext));
		GetProcAddress(mod, "SetThreadPriority",НИЗКОУР.подмениТипЗначения(адресВПамяти,SetThreadPriority));
		GetProcAddress(mod, "SetupComm",НИЗКОУР.подмениТипЗначения(адресВПамяти,SetupComm));
		GetProcAddress(mod, "Sleep",НИЗКОУР.подмениТипЗначения(адресВПамяти,Sleep));
		GetProcAddress(mod, "SuspendThread",НИЗКОУР.подмениТипЗначения(адресВПамяти,SuspendThread));
		GetProcAddress(mod, "SystemTimeToFileTime",НИЗКОУР.подмениТипЗначения(адресВПамяти,SystemTimeToFileTime));
		GetProcAddress(mod, "TerminateThread",НИЗКОУР.подмениТипЗначения(адресВПамяти,TerminateThread));
		GetProcAddress(mod, "TlsAlloc",НИЗКОУР.подмениТипЗначения(адресВПамяти,TlsAlloc));
		GetProcAddress(mod, "TlsFree",НИЗКОУР.подмениТипЗначения(адресВПамяти,TlsFree));
		GetProcAddress(mod, "TlsGetValue",НИЗКОУР.подмениТипЗначения(адресВПамяти,TlsGetValue));
		GetProcAddress(mod, "TlsSetValue",НИЗКОУР.подмениТипЗначения(адресВПамяти,TlsSetValue));
		GetProcAddress(mod, "TryEnterCriticalSection", НИЗКОУР.подмениТипЗначения(адресВПамяти, TryEnterCriticalSection));
		GetProcAddress(mod, "VirtualAlloc",НИЗКОУР.подмениТипЗначения(адресВПамяти,VirtualAlloc));
		GetProcAddress(mod, "VirtualFree",НИЗКОУР.подмениТипЗначения(адресВПамяти,VirtualFree));
		GetProcAddress(mod, "WaitForSingleObject",НИЗКОУР.подмениТипЗначения(адресВПамяти,WaitForSingleObject));

		GetProcAddress(mod, "WriteFile",НИЗКОУР.подмениТипЗначения(адресВПамяти,WriteFile));

		GetProcAddress(mod, "GlobalMemoryStatusEx",НИЗКОУР.подмениТипЗначения(адресВПамяти,GlobalMemoryStatusEx));

		isEXE := hInstance = NULL;
		если isEXE то hInstance := GetModuleHandle( НУЛЬ ) всё;

		SetTraceConsole;
		если IsDebuggerPresent()=True то
			OutputString := OutputDebugString
		иначе
			OutputString := ConsoleString
		всё;
	кон Init;

	перем g: булево;

перем hout: HANDLE;


	проц SetTraceConsole;
	перем res: целМЗ;
	нач
		hout := GetStdHandle (STDOutput);
		Трассировка.пСимв8 := TraceChar;
	кон SetTraceConsole;


#если I386 то

	#если SHAREDLIB то

		проц ObjectsAttachThread();
		проц AttachThread отКомпоновщика "Objects.AttachThread"();
		нач
			AttachThread;
		кон ObjectsAttachThread;

		проц ObjectsDetachThread();
		проц DetachThread отКомпоновщика "Objects.DetachThread"();
		нач
			DetachThread;
		кон ObjectsDetachThread;

		проц ObjectsDetachProcess();
		проц DetachProcess отКомпоновщика "Objects.DetachProcess"();
		нач
			DetachProcess;
		кон ObjectsDetachProcess;

		(**
			DLL entry point that corresponds to

			BOOL WINAPI DllMain(HINSTANCE hinstDLL, DWORD fdwReason, LPVOID lpvReserved);
		*)
		проц {INITIAL, NOPAF} EntryPoint*;
		машКод{SYSTEM.i386}
			JMP  DWORD end;
				DB 0
				DB 0
				DB 0

			ImportTable:
				DD Kernel32Import + 1000H
				DD 0
				DD -1
				DD Kernel32Name + 1000H
				DD Kernel32Import + 1000H
				DD 0, 0, 0, 0, 0

			Kernel32Import:
			adrLoadLibrary:
				DD LoadLibraryA + 1000H
			adrGetProcAddress:
				DD GetProcAddress + 1000H
				DD 0

			Kernel32Name:
				DB 'KERNEL32.DLL' , 0

			LoadLibraryA:
				DW 0
				DB 'LoadLibraryA',0,0

			GetProcAddress:
				DW 0
				DB 'GetProcAddress',0

			end:
				PUSH EBP
				MOV EBP, ESP
				MOV EAX, [EBP+12]
				CMP EAX, 1
				JZ ProcessAttach ; call all modules bodies only when fdwReason = DLL_PROCESS_ATTACH (1)
				CMP EAX, 0
				JZ ProcessDetach ; DLL_PROCESS_DETACH (0)
				CMP EAX, 2 ; DLL_THREAD_ATTACH (2)
				JZ ThreadAttach
				CMP EAX, 3 ; DLL_THREAD_DETACH (3)
				JZ ThreadDetach

				JMP ret

			ProcessAttach:
				PUSH EBX
				PUSH ESI
				PUSH EDI

				MOV EDX, EntryPoint;
				MOV EAX,[EDX+adrLoadLibrary]
				MOV LoadLibrary, EAX
				MOV EAX,[EDX+adrGetProcAddress]
				MOV getProcAddress, EAX
				JMP exit

			ProcessDetach:
				PUSH EBX
				PUSH ESI
				PUSH EDI
				CALL ObjectsDetachProcess
				POP EDI
				POP ESI
				POP EBX

				JMP ret

			ThreadAttach:
				PUSH EBX
				PUSH ESI
				PUSH EDI
				CALL ObjectsAttachThread
				POP EDI
				POP ESI
				POP EBX

				JMP ret

			ThreadDetach:
				PUSH EBX
				PUSH ESI
				PUSH EDI
				CALL ObjectsDetachThread
				POP EDI
				POP ESI
				POP EBX

			ret:
				POP EBP
				RET 12

			exit:
			MOV EBP, ESP
			PUSH 0

		кон EntryPoint;

	#иначе
		(* The following procedure is linked as the first block in the code section of a PE32 executable file
			It contains the import table for the two procedures Kernel32.GetProcAddress and Kernel32.LoadLibrary that
			are patched by the PE linker.
			[CF. Microsoft Portable Executable and Common Object File Format Specification]
		*)
		проц {NOPAF, FIXED(401000H)} EntryPoint*;
		машКод{SYSTEM.i386}
			JMP  DWORD end;
			DB 0
			DB 0
			DB 0

		ImportTable:
			DD Kernel32Import + 1000H
			DD 0
			DD -1
			DD Kernel32Name + 1000H
			DD Kernel32Import + 1000H
			DD 0, 0, 0, 0, 0

		Kernel32Import:
		adrLoadLibrary:
			DD LoadLibraryA + 1000H
		adrGetProcAddress:
			DD GetProcAddress + 1000H
			DD 0

		Kernel32Name:
			DB 'KERNEL32.DLL' , 0

		LoadLibraryA:
			DW 0
			DB 'LoadLibraryA',0,0

		GetProcAddress:
			DW 0
			DB 'GetProcAddress',0

		end:
			MOV EAX,[401000H+adrLoadLibrary]
			MOV [LoadLibrary], EAX
			MOV EAX,[401000H+adrGetProcAddress]
			MOV [getProcAddress], EAX
			MOV EBP, ESP
			PUSH 0

		кон EntryPoint;
	#кон;

#аесли AMD64 то
		(* The following procedure is linked as the first block in the code section of a PE32 executable file
			It contains the import table for the two procedures Kernel32.GetProcAddress and Kernel32.LoadLibrary that
			are patched by the PE linker.
			[CF. Microsoft Portable Executable and Common Object File Format Specification]
		*)
		проц {NOPAF, FIXED(401000H)} EntryPoint*;
		машКод{SYSTEM.AMD64}
			JMP  DWORD end;
			DB 0
			DB 0
			DB 0

		ImportTable:
			DD Kernel32Import + 1000H
			DD 0
			DD -1
			DD Kernel32Name + 1000H
			DD Kernel32Import + 1000H
			DD 0, 0, 0, 0, 0

		Kernel32Import:
		adrLoadLibrary:
			DD LoadLibraryA + 1000H
			DD 0
		adrGetProcAddress:
			DD GetProcAddress + 1000H
			DD 0
			DD 0
			DD 0

		Kernel32Name:
			DB 'KERNEL32.DLL' , 0

		LoadLibraryA:
			DW 0
			DB 'LoadLibraryA',0,0

		GetProcAddress:
			DW 0
			DB 'GetProcAddress',0

		end:
			MOV RAX,[401000H+adrLoadLibrary]
			MOV [LoadLibrary], RAX
			MOV RAX,[401000H+adrGetProcAddress]
			MOV [getProcAddress], RAX
			MOV EBP, ESP
			PUSH 0
	кон EntryPoint;
#иначе
	UNIMPLEMENTED
#кон

кон Kernel32.
