модуль WMPartitionsComponents; (** AUTHOR "staubesv"; PURPOSE "Partition view & selection componet"; *)

использует
	AosDisks := Disks, PartitionsLib, Strings, Kernel,
	WMWindowManager,
	WMGraphics, WMGraphicUtilities, WMProperties, WMEvents, XML, WMComponents, WMStandardComponents, WMGrids, WMStringGrids;

конст

	MainPanelMarginH = 5 ;
	MainPanelMarginV = 5 ;

	(* BevelPanel *)
	BevelBorderWidth = 2;

	(* the DiskOverviewPanel contains the DiskPanels & Grids *)
	DiskOverviewPanelMarginH = 7;
	DiskOverviewPanelMarginV = 7;
	DiskOverviewTableColumns = 6;

	(* DiskPanels are graphical representations of disks *)
	DiskPanelHeight = 40;
	DiskPanelMarginH = 5;
	DiskPanelMarginV = 5;
	DiskPanelSpacer = 5; (* spacer between partitions *)
	PanelMinWidth = 10; (* minimum width of the graphical representation of a partition *)
	LabelHeight = 18;
	LabelTxtColor = WMGraphics.Black;
	GridMinSpacerV = 2;
	GridMinSpacerH = 2;

	(* speed of scrolling *)
	Multiplier = 30;

	(* active object states *)
	Initializing = 0;
	Running = 1;
	Terminating = 2;
	Terminated = 3;

тип

	NoWheelGrid* = окласс(WMStringGrids.StringGrid);
		проц {перекрыта}WheelMove*(dz : размерМЗ); (* do nothing *) кон WheelMove;
	кон NoWheelGrid;

	BevelPanel* = окласс(WMStandardComponents.Panel);

		проц {перекрыта}DrawBackground*(canvas : WMGraphics.Canvas);
		нач
			если ~visible.Get() то возврат всё;
			Acquire;
			WMGraphicUtilities.DrawBevelPanel(canvas, GetClientRect(), BevelBorderWidth, истина, fillColor.Get(), 0 );
			Release;
		кон DrawBackground;

	кон BevelPanel;

тип

	Disk = запись (PartitionsLib.Disk);
		panel : BevelPanel; (* disk panel: contains all other fields *)
		label : WMStandardComponents.Label;
		buttons : укль на массив из WMStandardComponents.Button; (* references to the partition buttons; *)
		mapping : укль на массив из цел32; (* maps buttons[i] to correctly ordered partition number *)
		vtable : AosDisks.PartitionTable; (* virtual partition table (order different to disk.table, only used for graphical representation *)
		grid, titlegrid : NoWheelGrid; (* reference to grid (table); *)
	кон;

	Disks = укль на массив из Disk; (* no devices when NIL *)

тип

	DiskModel = окласс
	перем
		disks : Disks;
		diskmodel : PartitionsLib.DisksModel;

		locked : булево; (* Access via Acquire/Release only *)

		проц Acquire;
		нач {единолично}
			дождись(locked = ложь);
			locked := истина;
		кон Acquire;

		проц Release;
		нач {единолично}
			locked := ложь;
		кон Release;

		проц IsLocked() : булево;
		нач {единолично}
			возврат locked;
		кон IsLocked;

		(** Synchronize to PartitionsLib.DiskModel.
		 * force: Force the latter being updated
		 * disk: Just update this disk
		 * diskValid: disk parameter valid?
		 *)
		проц Synchronize;
		перем i : размерМЗ;
		нач (* diskModel must be locked *)
			diskmodel.Acquire;
			если (diskmodel.disks # НУЛЬ) то
				нов(disks, длинаМассива(diskmodel.disks));
				нцДля i := 0 до длинаМассива(disks)-1 делай
					(* copy information from disk model *)
					disks[i].device := diskmodel.disks[i].device;
					disks[i].isDiskette := diskmodel.disks[i].isDiskette;
					disks[i].table := diskmodel.disks[i].table;
					disks[i].size := diskmodel.disks[i].size; disks[i].res := diskmodel.disks[i].res;
					disks[i].geo := diskmodel.disks[i].geo; disks[i].gres := diskmodel.disks[i].gres;
					disks[i].fs := diskmodel.disks[i].fs;
				кц;
			иначе
				disks := НУЛЬ;
			всё;
			diskmodel.Release;
		кон Synchronize;

		проц &Init*(model : PartitionsLib.DisksModel);
		нач
			утв(model # НУЛЬ);
			сам.diskmodel := model;
		кон Init;

	кон DiskModel;

тип

	Selection* = PartitionsLib.Selection;

	SelectionWrapper* = окласс
	перем
		selection- : PartitionsLib.Selection;
	кон SelectionWrapper;

тип

	PartitionSelector* = окласс(WMComponents.VisualComponent)
	перем
		(** Show detailed textual disk information? (default = FALSE) *)
		showDetails- : WMProperties.BooleanProperty;

		(** Show disk geometry information in title? (default = FALSE) *)
		showDiskGeometry- : WMProperties.BooleanProperty;

		(** Generates an event whenever the user selects a partition *)
		onSelection- : WMEvents.EventSource;

		(** use fillColor property for overall background of the component *)
		clSelected-, clBackground- : WMProperties.ColorProperty;

		(* Internal fields *)
		model : DiskModel;
		selection : Selection;

		diskOverviewScrollPanel : WMStandardComponents.Panel;
		diskOverviewPanel : WMStandardComponents.Panel;

		scrollbarX, scrollbarY : WMStandardComponents.Scrollbar;
		scrollX, scrollY : цел32; (* current position of scrollbars *)

		titleGrid : NoWheelGrid; (* prototype; for layouting only *)
		maxWidths : массив DiskOverviewTableColumns из размерМЗ; (* maximum cell widths per column*)
		maxHeight : размерМЗ; (* maximum height of test *)
		minWidth, minHeight : размерМЗ; (* of the diskoverview panel *)

		firstAlign : булево;

		проц &{перекрыта}Init*;
		перем vc : WMComponents.VisualComponent;
		нач
			Init^;
			SetNameAsString(StrPartitionSelector);
			SetGenerator("WMPartitionsComponents.GenPartitionSelector");
			firstAlign := истина;

			нов(showDetails, PrototypeShowDetails, НУЛЬ, НУЛЬ); properties.Add(showDetails);
			нов(showDiskGeometry, PrototypeShowDiskGeometry, НУЛЬ, НУЛЬ); properties.Add(showDiskGeometry);
			нов(clSelected, PrototypeClSelected, НУЛЬ, НУЛЬ); properties.Add(clSelected);
			нов(clBackground, PrototypeClBackground, НУЛЬ, НУЛЬ); properties.Add(clBackground);

			нов(onSelection, сам, Strings.NewString("onSelection"), Strings.NewString("Generates an event when a disk is selected"),
				сам.StringToCompCommand); events.Add(onSelection);

			vc := CreateContent();
			AddInternalComponent(vc);
			PartitionsLib.diskModel.onChanged.Add(DiskEventHandler);
		кон Init;

		проц GetSelection*() : Selection;
		перем s : Selection;
		нач
			model.Acquire;
			s := selection;
			model.Release;
			возврат s;
		кон GetSelection;

		проц ClearSelection*;
		нач
			model.Acquire;
			UpdateSelection(-1, -1);
			model.Release;
		кон ClearSelection;

		проц Synchronize*;
		нач
			DiskEventHandler(НУЛЬ, НУЛЬ);
		кон Synchronize;

		проц {перекрыта}AlignSubComponents*;
		нач
			AlignSubComponents^;
			если firstAlign то
				(* When the component is created, layouting will be incorrect since it's depended on the
				not yet known size of the component. The first time the component is visible, Resized is not
				called... therefore we do the layouting here. *)
				firstAlign := ложь;
				model.Acquire;
				UpdateLayout(bounds.GetWidth(), bounds.GetHeight(), ложь);
				model.Release;
			всё;
		кон AlignSubComponents;

		проц {перекрыта}Resized*;
		нач
			model.Acquire;
			UpdateLayout(bounds.GetWidth(), bounds.GetHeight(), ложь);
			model.Release;
			Resized^;
		кон Resized;

		проц CreateContent() : WMComponents.VisualComponent;
		перем noDisksLabel : WMStandardComponents.Label; i : размерМЗ;
		нач
			titleGrid := BuildTitleGrid();

			нов(model, PartitionsLib.diskModel);
			model.Acquire;
			model.Synchronize;

			нов(diskOverviewPanel);

			если model.disks # НУЛЬ то
				BuildSkeleton;
				UpdateDiskGrids;
				нцДля i := 0 до длинаМассива(model.disks)-1 делай diskOverviewPanel.AddInternalComponent(BuildDiskPanel(model.disks[i])); кц;
			иначе
				нов(noDisksLabel);
				noDisksLabel.alignment.Set(WMComponents.AlignClient);
				noDisksLabel.alignV.Set(WMGraphics.AlignCenter); noDisksLabel.alignH.Set(WMGraphics.AlignCenter);
				noDisksLabel.caption.SetAOC("No Disks");
				diskOverviewPanel.AddInternalComponent(noDisksLabel);
			всё;

			(* build & add the diskoverview panel *)
			нов(diskOverviewScrollPanel);
			diskOverviewScrollPanel.alignment.Set(WMComponents.AlignClient);
			diskOverviewPanel.bounds.SetTop(0);
			diskOverviewScrollPanel.AddInternalComponent(diskOverviewPanel);

			нов(scrollbarY);
			scrollbarY.vertical.Set(истина); scrollbarY.alignment.Set(WMComponents.AlignRight);
			scrollbarY.min.Set(0); scrollbarY.onPositionChanged.Add(ScrollY);
			diskOverviewScrollPanel.AddInternalComponent(scrollbarY);

			нов(scrollbarX);
			scrollbarX.vertical.Set(ложь); scrollbarX.alignment.Set(WMComponents.AlignBottom);
			scrollbarX.min.Set(0); scrollbarX.onPositionChanged.Add(ScrollX);
			diskOverviewScrollPanel.AddInternalComponent(scrollbarX);

			UpdateSelection(-1, -1);
			UpdateLayout(bounds.GetWidth(), bounds.GetHeight(), истина);
			model.Release;

			возврат diskOverviewScrollPanel;
		кон CreateContent;

		проц ScrollY(sender, data : динамическиТипизированныйУкль);
		перем y : WMProperties.Int32Property;
		нач
			если data # НУЛЬ то y := data (WMProperties.Int32Property); scrollY := y.Get(); всё;
			diskOverviewPanel.bounds.SetTop(-scrollY);
		кон ScrollY;

		проц ScrollX(sender, data : динамическиТипизированныйУкль);
		перем x : WMProperties.Int32Property;
		нач
			если data # НУЛЬ то x := data (WMProperties.Int32Property); scrollX := x.Get(); всё;
			diskOverviewPanel.bounds.SetLeft(-scrollX);
		кон ScrollX;

		проц {перекрыта}Finalize*;
		нач
			Finalize^;
			PartitionsLib.diskModel.onChanged.Remove(DiskEventHandler);
		кон Finalize;

		проц {перекрыта}PropertyChanged*(sender, property : динамическиТипизированныйУкль);
		нач
			если (property = showDetails) или (property = showDiskGeometry) или
				(property = clSelected) или (property = clBackground) то
				scrollbarY.pos.Set(0); scrollY := 0;
				model.Acquire;
				UpdateLayout(bounds.GetWidth(), bounds.GetHeight(), ложь);
				model.Release;
				diskOverviewPanel.bounds.SetTop(0);
				Invalidate;
			иначе PropertyChanged^(sender, property)
			всё;
		кон PropertyChanged;

		проц GridClicked(sender, x : динамическиТипизированныйУкль);
		перем ignore, row, i : размерМЗ; grid : NoWheelGrid;
		нач
			grid := sender (NoWheelGrid);
			grid.GetSelection(ignore, row, ignore, ignore);
			model.Acquire;
			i := 0;
			нц
				если model.disks[i].grid = grid то UpdateSelection(i, row); прервиЦикл всё;
				увел(i); если i >= длинаМассива(model.disks) то прервиЦикл; всё;
			кц;
			model.Release;
		кон GridClicked;

		проц UpdateDiskOverview(disk : Disk;  top : размерМЗ; updateContent : булево): WMStandardComponents.Panel;
		перем
			height : размерМЗ;
			msg : массив 32 из симв8;
			(* updateContent variables *)
			dev : AosDisks.Device;
			string : Strings.String;
			caption, temp : массив 256 из симв8;
		нач
			утв(model.IsLocked());
			утв(disk.panel # НУЛЬ);
			disk.panel.bounds.SetExtents(diskOverviewPanel.bounds.GetWidth() - 2*MainPanelMarginH , height);
			disk.panel.bounds.SetLeft(MainPanelMarginH); disk.panel.bounds.SetTop(top);
			disk.panel.fillColor.Set(clBackground.Get());

			disk.label.bounds.SetExtents(disk.panel.bounds.GetWidth() - 2*DiskOverviewPanelMarginH, LabelHeight);
			disk.label.fillColor.Set(clBackground.Get());
			disk.label.bounds.SetLeft(DiskOverviewPanelMarginH); disk.label.bounds.SetTop(DiskOverviewPanelMarginV);

			если updateContent то
				утв(disk.device # НУЛЬ ); dev := disk.device;
				Strings.Append(caption, dev.name); Strings.Append(caption, " ("); Strings.Append(caption, dev.desc); Strings.Append(caption, ")");
				если AosDisks.ReadOnly в dev.flags то Strings.Append(caption, ", readonly"); всё;
				если AosDisks.Removable в dev.flags то Strings.Append(caption, ", removable"); всё;
			всё;

			если (disk.table # НУЛЬ) то

				если updateContent то
					Strings.Append(caption,", Size: " );
					если disk.res = AosDisks.Ok то
						string := GetSizeString(disk.size, dev.blockSize);
					иначе
						string := Strings.NewString("GetSize Error");
					всё;
					Strings.Append(caption, string^);
					Strings.IntToStr(dev.openCount, temp); Strings.Append(caption, ", Open count: "); Strings.Append(caption, temp);

					если showDiskGeometry.Get() то
						если disk.gres # AosDisks.MediaMissing то
							Strings.Append(caption, ", CHS: ");
							если disk.gres = AosDisks.Ok то
								Strings.IntToStr(disk.geo.cyls, temp); Strings.Append(caption, temp); Strings.Append(caption, "x");
								Strings.IntToStr(disk.geo.hds, temp); Strings.Append(caption, temp); Strings.Append(caption, "x");
								Strings.IntToStr(disk.geo.spt, temp); Strings.Append(caption, temp);
							иначе
								PartitionsLib.GetErrorMsg("Unknown", disk.gres, temp); Strings.Append(caption, temp);
							всё;
						всё;
					всё;

					disk.label.caption.Set(Strings.NewString(caption));
				всё;

				UpdateDiskPanel(disk);

				height :=  2*DiskOverviewPanelMarginV + LabelHeight + DiskPanelHeight;

				если showDetails.Get() и (disk.grid#НУЛЬ) то
	 			  	утв(disk.titlegrid#НУЛЬ);
					disk.titlegrid.bounds.SetLeft(DiskOverviewPanelMarginH); disk.titlegrid.bounds.SetTop(height);
					SetGridBounds(disk.titlegrid);
					height := height + disk.titlegrid.bounds.GetHeight();
					disk.grid.bounds.SetLeft(DiskOverviewPanelMarginH); disk.grid.bounds.SetTop(height);
					SetGridBounds(disk.grid);
					height := height + disk.grid.bounds.GetHeight() + DiskOverviewPanelMarginV;
					disk.grid.visible.Set(истина);
					disk.titlegrid.visible.Set(истина);
				аесли disk.grid # НУЛЬ то
					disk.grid.visible.Set(ложь);
					disk.titlegrid.visible.Set(ложь);
				всё;
				disk.panel.bounds.SetExtents(diskOverviewPanel.bounds.GetWidth() - 2*MainPanelMarginH , height);
			иначе
				если updateContent то
					если  disk.res = AosDisks.MediaMissing то
						msg := "No Media";
					иначе
						Strings.IntToStr(disk.res, temp);
						msg := "Error: "; Strings.Append(msg, temp);
					всё;
					disk.label.caption.Set(Strings.NewString(caption));
					disk.buttons[0].caption.Set(Strings.NewString(msg));
				всё;

				(* update empty disk panel (no partition table) *)
				disk.buttons[0].bounds.SetExtents(diskOverviewPanel.bounds.GetWidth() - 2*MainPanelMarginH - 2*DiskOverviewPanelMarginH, DiskPanelHeight);
				disk.buttons[0].bounds.SetLeft(DiskOverviewPanelMarginH); disk.buttons[0].bounds.SetTop(DiskOverviewPanelMarginV + LabelHeight);

				height := DiskPanelHeight + LabelHeight + 2*DiskOverviewPanelMarginV;
				disk.panel.bounds.SetExtents(diskOverviewPanel.bounds.GetWidth() - 2*MainPanelMarginH , height);
			всё;
			возврат disk.panel;
		кон UpdateDiskOverview;

		(* changes the order of the partition of disk.table so that it's sequential *)
		проц BuildVTable(перем disk : Disk);
		перем part: цел32; i : размерМЗ; isIncluded : укль на массив из булево;

			проц GetNext(lastStart : цел32) : цел32;
			перем i, min, next : цел32;
			нач
				min := матМаксимум(цел32);
				нцДля i := 1 до длинаМассива(disk.table)(цел32)-1 делай
					(* Note: Extended partitions that do not contain logical drives will be found twice: The extended partition and a pseudo *)
					(* partition (free) with the same boundaries -> Therefor, isIncluded is used *)
					если ~isIncluded[i] и (disk.table[i].start >= lastStart) и (disk.table[i].start < min) то min := disk.table[i].start; next := i; всё;
				кц;
				утв((next > 0) и (next < длинаМассива(disk.table)));
				возврат next;
		 	кон GetNext;

		нач
			утв(model.IsLocked());
			если disk.table # НУЛЬ то
				нов(disk.vtable, длинаМассива(disk.table)); нов(disk.mapping, длинаМассива(disk.table)); нов(isIncluded, длинаМассива(disk.table));
				disk.vtable[0] := disk.table[0]; disk.mapping[0] := 0; (* whole disk;  not mapped *)
				если длинаМассива(disk.table) > 1 то
					нцДля i := 1 до длинаМассива(disk.vtable)-1 делай
						part := GetNext(disk.vtable[i-1].start);
						isIncluded[part] := истина;
						disk.vtable[i] := disk.table[part];
						disk.mapping[i] := part;
					кц;
				всё;
			иначе
				disk.vtable := НУЛЬ;
			всё;
		кон BuildVTable;

		проц BuildDiskPanel(перем disk  : Disk): WMStandardComponents.Panel;
		перем
			diskSelected : булево;
			fillColor : цел32;
			text : массив 32 из симв8;
			logical : цел32; (* nbr of logical partitions on disk *)
			i, k : цел32;
		нач
			утв(model.IsLocked());
			BuildVTable(disk);
			(* disk.buttons[0]: representation of "whole disk" *)
			(* disk.buttons[i]: primary or extended partitions *)
			если (disk.vtable # НУЛЬ) то

				PartitionsLib.WriteType(disk.vtable[0].type, text, fillColor); (* get whole disk color *)

				если selection.disk.device = disk.device то diskSelected := истина; иначе diskSelected := ложь; всё;
				disk.buttons[0].onClick.Add(DiskPanelHandler);
				disk.buttons[0].clDefault.Set(fillColor);
				disk.buttons[0].clPressed.Set(clSelected.Get());

				если diskSelected и (selection.partition = 0) то disk.buttons[0].SetPressed(истина); всё;

				i := 1;
				нцПока i < длинаМассива(disk.vtable) делай (* draw bar for each partition *)

					PartitionsLib.WriteType(disk.vtable[i].type, text, fillColor);

					если ((disk.vtable[i].type = 15) или (disk.vtable[i].type=5)) и (disk.vtable[i].flags * {AosDisks.Primary} = {AosDisks.Primary}) то (* it's an extended partition *)

						disk.buttons[i].clDefault.Set(fillColor);
						disk.buttons[i].clPressed.Set(clSelected.Get());
						disk.buttons[i].onClick.Add(DiskPanelHandler);

						если diskSelected и (selection.partition = i) то disk.buttons[i].SetPressed(истина); всё;

						(* how many logical drives does the extented partition contain? *)
						logical := 0;
						нцПока(i+logical+1 < длинаМассива(disk.vtable)) и (disk.vtable[i+logical+1].flags * {AosDisks.Primary} = {}) делай
							увел(logical);
						кц;

						если logical > 0 то (* extended partition contains at least one logical drive *)
								нцДля k := 1 до logical делай
									PartitionsLib.WriteType(disk.vtable[i+k].type, text, fillColor);

									disk.buttons[i+k].clDefault.Set(fillColor);
									disk.buttons[i+k].clPressed.Set(clSelected.Get());
									disk.buttons[i+k].onClick.Add(DiskPanelHandler);

									если diskSelected и (selection.partition = i+k) то disk.buttons[i+k].SetPressed(истина); всё;

									disk.buttons[i].AddInternalComponent(disk.buttons[i+k]); (* add logical drives to extended partition *)
								кц;
						всё;

						(* Add extended partition to whole disk *)
						disk.buttons[0].AddInternalComponent(disk.buttons[i]);
						i := i + 1 + logical;

					иначе (* It's a primary partition *)
						disk.buttons[i].clDefault.Set(fillColor);
						disk.buttons[i].clPressed.Set(clSelected.Get());
						disk.buttons[i].onClick.Add(DiskPanelHandler);
						если diskSelected и (selection.partition = i) то disk.buttons[i].SetPressed(истина); всё;
						(* add primary partition to whole disk *)
						disk.buttons[0].AddInternalComponent(disk.buttons[i]);
						увел(i);
					всё;
				кц;
			иначе (* unpartitioned space or unpartitioned device *)
				PartitionsLib.WriteType(-1, text, fillColor); (* get color of unallocated space *)
				disk.buttons[0].clDefault.Set(fillColor);
				disk.buttons[0].clTextDefault.Set(WMGraphics.Black);
				disk.buttons[0].clPressed.Set(clSelected.Get());
				disk.buttons[0].onClick.Add(DiskPanelHandler);
				если diskSelected и (selection.partition = 0) то disk.buttons[0].SetPressed(истина); всё;
			всё;
			disk.panel.AddInternalComponent(disk.buttons[0]);
			возврат disk.panel;
		кон BuildDiskPanel;

		проц UpdateDiskPanel(disk  : Disk);
		перем
			width, offset, extWidth, extOffset, totalWidth, extTotalWidth : размерМЗ;
			fillColor : цел32;
			text : массив 32 из симв8;
			primary, logical : цел32; (* nbr of primary/logical partitions on disk *)
			i, k : размерМЗ;
		нач
			утв(model.IsLocked());
			disk.buttons[0].bounds.SetExtents(diskOverviewPanel.bounds.GetWidth() - 2*MainPanelMarginH - 2*DiskOverviewPanelMarginH, DiskPanelHeight);
			disk.buttons[0].bounds.SetLeft(DiskOverviewPanelMarginH); disk.buttons[0].bounds.SetTop(DiskOverviewPanelMarginV + LabelHeight);

			(* For the case we deal with an unpartitioned device which is mounted *)
			если (disk.table # НУЛЬ) и (длинаМассива(disk.table) = 1) и (disk.fs#НУЛЬ) и (disk.fs[0] # НУЛЬ) то
				disk.buttons[0].caption.Set(Strings.NewString(disk.fs[0].prefix));
			всё;

			(* how many primary partitions does the drive contain? (needed for layout only) *)
			primary := 0;
			нцДля i := 1 до длинаМассива(disk.vtable)-1 делай (* table[0] is whole disk *) (* should also count reserved / free *)
				если disk.vtable[i].flags * {AosDisks.Primary} # {} то увел(primary) всё;
			кц;

			(* the graphical representation of some partition may have to be enlarged to PanelMinWidth... how many pixels are added? (Layouting) *)
			totalWidth :=disk.buttons[0].bounds.GetWidth() - 2*DiskPanelMarginH - (primary-1)*DiskPanelSpacer;

			i := 1;
			нцПока i < длинаМассива(disk.vtable) делай

				если disk.vtable[i].type = 15 то
					нцПока (i+1 < длинаМассива(disk.vtable)) и (disk.vtable[i+1].flags * {AosDisks.Primary} = {}) делай увел(i); кц; (* skip logical drives *)
				всё;
				width := округлиВниз((disk.vtable[i].size / disk.vtable[0].size) * totalWidth);
				если width < PanelMinWidth то
					totalWidth := totalWidth - (PanelMinWidth - width);
				всё;
				увел(i);
			кц;

			offset := DiskPanelMarginH;

			i := 1;
			нцПока i < длинаМассива(disk.vtable) делай (* draw bar for each partition *)

				width := округлиВниз((disk.vtable[i].size / disk.vtable[0].size) * totalWidth);
				если width < PanelMinWidth то width := PanelMinWidth; всё;

				PartitionsLib.WriteType(disk.vtable[i].type, text, fillColor);

				если ((disk.vtable[i].type = 15) или (disk.vtable[i].type=5)) и (disk.vtable[i].flags * {AosDisks.Primary} = {AosDisks.Primary}) то (* it's an extended partition *)

					disk.buttons[i].bounds.SetExtents(width, DiskPanelHeight - 2*DiskPanelMarginV);
					disk.buttons[i].bounds.SetLeft(offset); disk.buttons[i].bounds.SetTop(DiskPanelMarginV);

					(* how many logical drives does the extented partition contain? *)
					logical := 0;
					нцПока(i+logical+1 < длинаМассива(disk.vtable)) и (disk.vtable[i+logical+1].flags * {AosDisks.Primary} = {}) делай
						увел(logical);
					кц;

					extTotalWidth := disk.buttons[i].bounds.GetWidth() - 2*DiskPanelMarginH-(logical-1)*DiskPanelSpacer;

					logical := 0;
					нцПока(i+logical+1 < длинаМассива(disk.vtable)) и (disk.vtable[i+logical+1].flags * {AosDisks.Primary} = {}) делай
						extWidth := округлиВниз((disk.vtable[i+logical+1].size / disk.vtable[i].size) * extTotalWidth);
						если extWidth < PanelMinWidth то
							extTotalWidth := extTotalWidth - (PanelMinWidth - extWidth);
						всё;
						увел(logical);
					кц;

					если logical > 0 то (* extended partition contains at least one logical drive *)

							extOffset := DiskPanelMarginH;

							нцДля k := 1 до logical делай
								extWidth := округлиВниз((disk.vtable[i+k].size / disk.vtable[i].size) * extTotalWidth);
								если extWidth < PanelMinWidth то
									extWidth := PanelMinWidth;
								всё;

								PartitionsLib.WriteType(disk.vtable[i+k].type, text, fillColor);
								disk.buttons[i+k].clDefault.Set(fillColor);
								disk.buttons[i+k].bounds.SetExtents(extWidth, disk.buttons[i].bounds.GetHeight() - 2*DiskPanelMarginV);
								disk.buttons[i+k].bounds.SetLeft(extOffset); disk.buttons[i+k].bounds.SetTop(DiskPanelMarginV);

								если (disk.fs#НУЛЬ) и (disk.mapping[i+k] < длинаМассива(disk.fs)) и (disk.fs[disk.mapping[i+k]]#НУЛЬ) то
									disk.buttons[i+k].caption.Set(Strings.NewString(disk.fs[disk.mapping[i+k]].prefix));
								всё;

								extOffset := extOffset + extWidth + DiskPanelSpacer;
							кц;
					всё;

					offset := offset + width + DiskPanelSpacer;
					i := i + 1 + logical;

				иначе (* It's a primary partition *)
					disk.buttons[i].clDefault.Set(fillColor);
					disk.buttons[i].bounds.SetExtents(width, DiskPanelHeight - 2*DiskPanelMarginV);
					disk.buttons[i].bounds.SetLeft(offset); disk.buttons[i].bounds.SetTop(DiskPanelMarginV);

					если (disk.fs#НУЛЬ) и (disk.mapping[i] < длинаМассива(disk.fs)) и (disk.fs[disk.mapping[i]]#НУЛЬ) то
						disk.buttons[i].caption.Set(Strings.NewString(disk.fs[disk.mapping[i]].prefix));
					всё;

					offset := offset + width + DiskPanelSpacer;
					увел(i);
				всё;
			кц;
		кон UpdateDiskPanel;

		проц DiskEventHandler(sender, data : динамическиТипизированныйУкль);
		нач
			если ~IsCallFromSequencer() то sequencer.ScheduleEvent(сам.DiskEventHandler, sender, data)
			иначе
				model.Acquire;
				model.Synchronize;
				RebuildDiskOverview;
				UpdateLayout(bounds.GetWidth(), bounds.GetHeight(), истина);
				ScrollX(НУЛЬ, НУЛЬ); ScrollY(НУЛЬ, НУЛЬ);
				model.Release;
				Reset(сам, НУЛЬ); (* UGLY HACK *)
				Invalidate;
			всё;
		кон DiskEventHandler;

		проц DiskPanelHandler(owner, par : динамическиТипизированныйУкль);
		перем
			found : булево;
			disk, partition : цел32;
			button : WMStandardComponents.Button;
		нач
			button := owner (WMStandardComponents.Button); found := ложь;
			model.Acquire;
			disk := 0;
			нц
				если model.disks[disk].buttons#НУЛЬ то
					partition := 0;
					нц
						если model.disks[disk].buttons[partition] = button то
							found := истина;
						всё;
						если found или (model.disks[disk].table = НУЛЬ) или (partition >= длинаМассива(model.disks[disk].table)-1) то прервиЦикл всё;
						увел(partition);
					кц;
				всё;
				если found или (disk >= длинаМассива(model.disks)-1) то прервиЦикл всё;
				увел(disk);
			кц;
			если model.disks[disk].table # НУЛЬ то partition := model.disks[disk].mapping[partition]; всё; (* map to oberon partition numbering *)
			если found то UpdateSelection(disk, partition); всё;
			model.Release;
		кон DiskPanelHandler;

		(* called when disks[] has changed *)
		проц RebuildDiskOverview;
		перем
			panel : WMStandardComponents.Panel;
			label : WMStandardComponents.Label;
			top: размерМЗ; i : размерМЗ;
			minHeight, minWidth, min : размерМЗ;
			width, height : размерМЗ;
		нач
			утв(model.IsLocked());
			diskOverviewScrollPanel.RemoveContent(diskOverviewPanel);
			нов(diskOverviewPanel);
			diskOverviewScrollPanel.AddInternalComponent(diskOverviewPanel);

			если model.disks # НУЛЬ то
				BuildSkeleton;
				CalcDiskPanelBounds(minWidth, minHeight);
				UpdateDiskGrids;

				если showDetails.Get() то (* also consider the bounds of the grids *)
					(* minWidth *)
					min := 0;
					нцДля i := 0 до DiskOverviewTableColumns-1 делай
						min := min + maxWidths[i] (* cell width *) + GridMinSpacerH +1; (* spacing between cells *)
					кц;
					min := min - 1; (* counted one spacing to much *)
					если min > minWidth то minWidth := min; всё;

					нцДля i := 0 до длинаМассива(model.disks)-1 делай
						если model.disks[i].grid # НУЛЬ то
							SetGridBounds(model.disks[i].grid);
						всё;
					кц;

					(* minHeight *)
					нцДля i := 0 до длинаМассива(model.disks)-1 делай
						если model.disks[i].grid # НУЛЬ то
							minHeight := minHeight + model.disks[i].grid.bounds.GetHeight() + titleGrid.bounds.GetHeight() + DiskOverviewPanelMarginV + 8;
						всё;
					кц;
				всё;

				если bounds.GetWidth() >= (minWidth + 2*MainPanelMarginH + 2*DiskOverviewPanelMarginH) то
					width := bounds.GetWidth();
				иначе
					width := minWidth + 2*MainPanelMarginH + 2*DiskOverviewPanelMarginH;
				всё;

				height := bounds.GetHeight() - 2*MainPanelMarginV;
				если height  < minHeight то
					height := minHeight + 2*MainPanelMarginV;
					width := width- scrollbarY.bounds.GetWidth();
				всё;

				diskOverviewPanel.bounds.SetLeft(0); diskOverviewPanel.bounds.SetTop(-scrollbarY.pos.Get());
				diskOverviewPanel.bounds.SetExtents(width, height);

				нцДля i := 0 до длинаМассива(model.disks)-1 делай diskOverviewPanel.AddInternalComponent(BuildDiskPanel(model.disks[i])); кц;

				top := 0;
				нцДля i := 0 до длинаМассива(model.disks)-1 делай
					top := top + MainPanelMarginV;
					panel := UpdateDiskOverview(model.disks[i], top, истина);
					top := top + panel.bounds.GetHeight();
				кц;
			иначе
				нов(label);
				label.alignment.Set(WMComponents.AlignClient);
				label.alignV.Set(WMGraphics.AlignCenter); label.alignH.Set(WMGraphics.AlignCenter);
				label.caption.SetAOC("No Disks");
				diskOverviewPanel.AddInternalComponent(label);
				diskOverviewPanel.bounds.SetLeft(0); diskOverviewPanel.bounds.SetTop(0);
				height := bounds.GetHeight() - 2*MainPanelMarginV;
				если height < 0 то height := 10; всё;
				diskOverviewPanel.bounds.SetExtents(bounds.GetWidth(), height);
			всё;
		кон RebuildDiskOverview;

		проц BuildSkeleton;
		перем grid : WMStringGrids.StringGrid; i, j : цел32;
		нач
			утв(model.IsLocked());
			утв(model.disks # НУЛЬ);
			нцДля i := 0 до длинаМассива(model.disks)(цел32)-1 делай
				(* build skeleton for graphical representation of the disk models data *)
				нов(model.disks[i].label);
				model.disks[i].label.fillColor.Set(clBackground.Get()); model.disks[i].label.textColor.Set(LabelTxtColor);
				нов(model.disks[i].panel);
				model.disks[i].panel.AddInternalComponent(model.disks[i].label);

				если model.disks[i].table # НУЛЬ то
					нов(model.disks[i].grid);
					model.disks[i].panel.AddInternalComponent(model.disks[i].grid);
					grid := model.disks[i].grid;
					grid.alwaysShowScrollX.Set(ложь); grid.showScrollX.Set(ложь);
					grid.alwaysShowScrollY.Set(ложь); grid.showScrollY.Set(ложь);
					grid.SetSelectionMode(WMGrids.GridSelectRows);
					grid.onClick.Add(GridClicked);
					grid.Acquire;
					grid.model.Acquire;
					grid.model.SetNofCols(DiskOverviewTableColumns);
					grid.model.SetNofRows(длинаМассива(model.disks[i].table)(цел32));
					grid.allowColResize.Set(ложь); grid.allowRowResize.Set(ложь);
					нцДля j := 0 до длинаМассива(model.disks[i].table)(цел32) -1 делай
						grid.model.SetTextAlign(0, j, WMGraphics.AlignLeft);
						grid.model.SetTextAlign(1, j, WMGraphics.AlignRight);
						grid.model.SetTextAlign(2, j,  WMGraphics.AlignRight);
						grid.model.SetTextAlign(3, j, WMGraphics.AlignRight);
						grid.model.SetTextAlign(4, j, WMGraphics.AlignCenter);
						grid.model.SetTextAlign(5, j, WMGraphics.AlignCenter);
					кц;
					grid.model.Release;
					grid.Release;
					model.disks[i].titlegrid := BuildTitleGrid(); model.disks[i].panel.AddInternalComponent(model.disks[i].titlegrid);
					нов(model.disks[i].buttons, длинаМассива(model.disks[i].table)(цел32));
					нцДля j := 0 до длинаМассива(model.disks[i].table)(цел32)-1 делай
						нов(model.disks[i].buttons[j]);
						model.disks[i].buttons[j].isToggle.Set(истина);
						model.disks[i].buttons[j].indicateToggle.Set(ложь);
						model.disks[i].buttons[j].useBgBitmaps.Set(ложь);
					кц;
				иначе
					нов(model.disks[i].buttons, 1);
					нов(model.disks[i].buttons[0]);
				всё;
			кц;
		кон BuildSkeleton;

		проц GetSizeString(nbrOfBlocks, blockSize : цел32) : Strings.String;
		перем sizeKB : цел64; caption : массив 128 из симв8;
		нач
			sizeKB := (устарПреобразуйКБолееШирокомуЦел(nbrOfBlocks) * устарПреобразуйКБолееШирокомуЦел(blockSize)) DIV  1024;
			если sizeKB > 4*1024 то
				Strings.IntToStr(устарПреобразуйКБолееУзкомуЦел(sizeKB DIV 1024), caption);
				Strings.Append(caption, " MB");
			иначе
				Strings.IntToStr(устарПреобразуйКБолееУзкомуЦел (sizeKB), caption);
				Strings.Append(caption, " KB");
			всё;
			возврат Strings.NewString(caption);
		кон GetSizeString;

		проц UpdateDiskGrids;
		перем
			table : AosDisks.PartitionTable;
			caption, temp : массив 128 из симв8;
			fillColor : цел32;
			grid : NoWheelGrid;
			disk: размерМЗ; partition : цел32;
			width, height : размерМЗ;
			minHeights : укль на массив из цел32; (* minimum heights of each grid *)
			col, row : размерМЗ;
			string : Strings.String;
			font : WMGraphics.Font;
		нач
			утв(model.IsLocked());
			утв(model.disks # НУЛЬ);
			нцДля disk := 0 до длинаМассива(model.disks)-1 делай
				table := model.disks[disk].table;	grid := model.disks[disk].grid;
				если (table # НУЛЬ) и (grid # НУЛЬ) то
					нцДля partition := 0 до длинаМассива(table)(цел32)-1 делай
						grid.Acquire;
						grid.model.Acquire;
						(* Column 1: Partition : dev#part *)
						caption := "";
						Strings.Append(caption, model.disks[disk].device.name); Strings.Append(caption, "#");
						Strings.IntToStr(partition, temp); Strings.Append(caption, temp);
						grid.model.SetCellText(0, partition, Strings.NewString(caption));
						(* Column 2: Start *)
						Strings.IntToStr(table[partition].start, caption);
						grid.model.SetCellText(1, partition, Strings.NewString(caption));
						(* Column 3: End *)
						Strings.IntToStr(table[partition].start + table[partition].size -1, caption);
						grid.model.SetCellText(2, partition, Strings.NewString(caption));
						(* Column 4: Size in MB or KB*)
						grid.model.SetCellText(3, partition, GetSizeString(table[partition].size, model.disks[disk].device.blockSize));
						(* Column 5: Type: Number and description *)
						Strings.IntToStr(table[partition].type, caption);
						PartitionsLib.WriteType(table[partition].type, temp, fillColor);
						Strings.Append(caption, " ("); Strings.Append(caption, temp); Strings.Append(caption, ")");
						grid.model.SetCellText(4, partition, Strings.NewString(caption));
						(* Column 6: Flags *)
						caption := "";
						если AosDisks.Mounted в table[partition].flags то Strings.Append(caption, "[M]"); всё;
						если AosDisks.Valid в table[partition].flags то Strings.Append(caption, "[V]"); всё;
						если AosDisks.Primary в table[partition].flags то Strings.Append(caption, "[P]"); всё;
						если AosDisks.Boot в table[partition].flags то Strings.Append(caption, "[B]"); всё;
						grid.model.SetCellText(5, partition, Strings.NewString(caption));
						grid.model.Release;
						grid.Release;
					кц;
				иначе (* no partition table available *)
					model.disks[disk].grid := НУЛЬ;
				всё;
			кц;

			(* now we calculate the minimum column widths so that the cell text does fit into the cells *)
			(* also consider alignment of title grid ... *)
			font := titleGrid.GetFont();
			titleGrid.Acquire;
			titleGrid.model.Acquire;
			нцДля col := 0 до titleGrid.model.GetNofCols() -1 делай
				string := titleGrid.model.GetCellText(col, row);
				если string # НУЛЬ то font.GetStringSize(string^, width, height); всё;
				если width  > maxWidths[col] то maxWidths[col] := width; всё;
				если height > maxHeight то maxHeight := height; всё;
			кц;
			titleGrid.model.Release;
			titleGrid.Release;

			нов(minHeights, длинаМассива(model.disks));

			нцДля disk := 0 до длинаМассива(model.disks)-1 делай
				grid := model.disks[disk].grid;
				если grid # НУЛЬ то
					font := grid.GetFont();
					grid.Acquire;
					grid.model.Acquire;
					(* determine minimum heigths and widths needed to show the text in the cells *)
					нцДля col := 0 до grid.model.GetNofCols() -1 делай
						нцДля row := 0 до grid.model.GetNofRows() - 1 делай
							string := grid.model.GetCellText(col, row);
							если string # НУЛЬ то font.GetStringSize(string^, width, height); всё;
							если width  > maxWidths[col] то maxWidths[col] := width; всё;
							если height > maxHeight то maxHeight := height; всё;
						кц;
					кц;
					grid.model.Release;
					grid.Release;
				всё;
			кц;
		кон UpdateDiskGrids;

		(* calculates the minimum width/height which is needed to display the disk panels correctly *)
		проц CalcDiskPanelBounds(перем minWidth, minHeight : размерМЗ);
		перем i, j : размерМЗ;
		нач
			утв(model.IsLocked());
			утв(model.disks # НУЛЬ);
			minWidth := 0; minHeight := MainPanelMarginV;
			(*determine the minimum width and height required for  the disk panels *)
			нцДля i := 0 до длинаМассива(model.disks)-1 делай (* traverse all model.disks ... *)
				minHeight := minHeight + MainPanelMarginV + 2*DiskOverviewPanelMarginV + LabelHeight + DiskPanelHeight;
				если model.disks[i].table#НУЛЬ то
					нцПока j < длинаМассива(model.disks[i].table) делай (* ... and all partitions *)
						если model.disks[i].table[j].flags * {AosDisks.Primary} # {} то (* primary partition *)
							minWidth := minWidth + PanelMinWidth + DiskPanelMarginH;
						иначе (* extended partition *)
							minWidth := minWidth + DiskPanelMarginH + PanelMinWidth;
						всё;
						увел(j);
					кц;
				всё;
				minWidth := minWidth + 2*DiskOverviewPanelMarginH + DiskPanelMarginH;
			кц;
		кон CalcDiskPanelBounds;

		проц BuildTitleGrid() : NoWheelGrid;
		перем grid : NoWheelGrid;
		нач
			нов(grid);
			grid.Acquire;
			grid.model.Acquire;
			grid.alwaysShowScrollX.Set(ложь); grid.showScrollX.Set(ложь);
			grid.alwaysShowScrollY.Set(ложь); grid.showScrollY.Set(ложь);
			grid.SetSelectionMode(WMGrids.GridSelectNone);
			grid.allowColResize.Set(ложь); grid.allowRowResize.Set(ложь);
			grid.model.SetNofCols(DiskOverviewTableColumns); grid.model.SetNofRows(1);
			grid.fixedCols.Set(DiskOverviewTableColumns); grid.fixedRows.Set(1);
			grid.model.SetCellText(0, 0, Strings.NewString("Partition"));
			grid.model.SetCellText(1, 0, Strings.NewString("Start"));
			grid.model.SetCellText(2, 0, Strings.NewString("End"));
			grid.model.SetCellText(3, 0, Strings.NewString("Size"));
			grid.model.SetCellText(4, 0, Strings.NewString("Type"));
			grid.model.SetCellText(5, 0, Strings.NewString("Flags"));
			grid.model.Release;
			grid.Release;
			возврат grid;
		кон BuildTitleGrid;

		(** calculates the length/height of the largest string per row/column *)
		проц SetGridBounds(перем grid : NoWheelGrid);
		перем
			col, row : размерМЗ;
			widths, heights : WMGrids.Spacings;
			width, height: размерМЗ;
			spacer : размерМЗ;
		нач
			утв(grid#НУЛЬ);
			grid.Acquire;
			grid.model.Acquire;
			(* set the widths ... *)
			если bounds.GetWidth() >= (minWidth + 2*MainPanelMarginH + 2*DiskOverviewPanelMarginH) то
			 	spacer := (bounds.GetWidth() - 2*MainPanelMarginH  - minWidth) DIV DiskOverviewTableColumns;
				width := bounds.GetWidth() - 2*MainPanelMarginH - 2*DiskOverviewPanelMarginH;
				если GridMinSpacerH > spacer то spacer := GridMinSpacerH; всё;
			иначе
				spacer := GridMinSpacerH;
				width := minWidth;
			всё;

			нов(widths, DiskOverviewTableColumns);
			нцДля col := 0 до DiskOverviewTableColumns-1 делай widths[col] := maxWidths[col] + spacer; кц;
			(* Correct integer division rounding error *)
			если (bounds.GetWidth() - 2*MainPanelMarginH -2*DiskOverviewPanelMarginH - minWidth) остОтДеленияНа DiskOverviewTableColumns # 0 то увел(widths[0]); всё;
			grid.SetColSpacings(widths);

			(* set the heights *)
			height := 0;
			spacer := GridMinSpacerV;
			нов(heights, grid.model.GetNofRows());
			нцДля row := 0 до grid.model.GetNofRows()-1 делай heights[row] := maxHeight + spacer; height := height + maxHeight + spacer + 1; кц;
			grid.SetRowSpacings(heights);
			grid.bounds.SetExtents(width, height);
			grid.model.Release;
			grid.Release;
		кон SetGridBounds;

		проц UpdateLayout(w, h : размерМЗ; updateContent : булево);
		перем
			panel : WMStandardComponents.Panel;
			min, top : размерМЗ;
			width, height : размерМЗ;
			i : размерМЗ;
		нач
			утв(model.IsLocked());
			если model.disks # НУЛЬ то
				CalcDiskPanelBounds(minWidth, minHeight);
				если updateContent то UpdateDiskGrids; всё;
			иначе
				minWidth := 0; minHeight := 0;
			всё;

			если showDetails.Get() и (model.disks # НУЛЬ) то (* also consider the bounds of the grids *)
				(* minWidth *)
				min := 0;
				нцДля i := 0 до DiskOverviewTableColumns-1 делай
					min := min + maxWidths[i] (* cell width *) + GridMinSpacerH +1; (* spacing between cells *)
				кц;
				min := min - 1; (* counted one spacing to much *)
				если min > minWidth то minWidth := min; всё;

				нцДля i := 0 до длинаМассива(model.disks)-1 делай
					если model.disks[i].grid # НУЛЬ то
						SetGridBounds(model.disks[i].grid);
					всё;
				кц;

				(* minHeight *)
				нцДля i := 0 до длинаМассива(model.disks)-1 делай
					если model.disks[i].grid # НУЛЬ то
						minHeight := minHeight + model.disks[i].grid.bounds.GetHeight() + titleGrid.bounds.GetHeight() + DiskOverviewPanelMarginV + 13;
					всё;
				кц;
			всё;

			(* if the actual diskoverview panel bounds are bigger then minWidth&minHeight, then use them *)
			если w >= (minWidth + 2*MainPanelMarginH + 2*DiskOverviewPanelMarginH) то
				width := w;
			иначе
				width := minWidth + 2*MainPanelMarginH + 2*DiskOverviewPanelMarginH;
			всё;

			если (h >= minHeight) то
				height := h;
			иначе
				height := minHeight;
				width := width - scrollbarY.bounds.GetWidth();
			всё;

			diskOverviewPanel.bounds.SetExtents(width, height); diskOverviewPanel.bounds.SetLeft(0);

			если (model.disks # НУЛЬ) то
				top := 0;
				нцДля i := 0 до длинаМассива(model.disks)-1 делай
					top := top + MainPanelMarginV;
					panel := UpdateDiskOverview(model.disks[i], top, updateContent);
					top := top + panel.bounds.GetHeight();
				кц;
			всё;

			(* do we need scrollbars for the diskoverview panel ? *)
			если (minHeight > h) то (* need a vertical scrollbar ... *)
				scrollbarY.max.Set(minHeight - h);
				scrollbarY.pos.Set(scrollY);
				scrollbarY.visible.Set(истина);
			иначе
				scrollY := 0; diskOverviewPanel.bounds.SetTop(0);
				scrollbarY.visible.Set(ложь);
			всё;

			если (minWidth > w)  то (* need a horizontal scrollbar *)
				scrollbarX.max.Set(w - 2 * MainPanelMarginH - scrollbarY.bounds.GetWidth());
				scrollbarX.pos.Set(scrollX);
				scrollbarX.visible.Set(истина);
			иначе
				scrollX := 0; diskOverviewPanel.bounds.SetLeft(0);
				scrollbarX.visible.Set(ложь);
			всё;
		кон UpdateLayout;

		(* UpdateSelection(-1,-1) means "no selection" *)
		проц UpdateSelection(disk, partition : размерМЗ);
		перем
			caption, temp : массив 128 из симв8;
			selectionNone : цел32;
			wrapper : SelectionWrapper;
			i, j : размерМЗ;
		нач
			утв(model.IsLocked());
			selection.partition := partition(цел32);

			caption := "Selection: ";
			если (disk = -1) и (partition = -1) то (* selection: none *)
				Strings.Append(caption, "none");
				selection.disk.device := НУЛЬ;
			иначе
				Strings.IntToStr(selection.partition, temp);
				selection.disk := model.disks[disk];
				Strings.Append(caption, selection.disk.device.name); Strings.Append(caption, "#");
				Strings.IntToStr(selection.partition, temp); Strings.Append(caption, temp);
				Strings.Append(caption, " ("); Strings.Append(caption, selection.disk.device.desc); Strings.Append(caption, ")");
				Strings.Append(caption, "");
			всё;

			(* update grids & buttons *)
			если model.disks # НУЛЬ то
				нцДля i := 0 до длинаМассива(model.disks)-1 делай
					если (model.disks[i].grid # НУЛЬ) то
						если i = disk то
							model.disks[i].grid.SetSelection(disk,partition,disk,partition);
						иначе
							selectionNone := длинаМассива(model.disks[i].table)(цел32); (* not visible *)
							model.disks[i].grid.SetSelection(selectionNone,selectionNone,selectionNone,selectionNone);
						всё;
					всё;

					если model.disks[i].buttons#НУЛЬ то
						нцДля j := 0 до длинаМассива(model.disks[i].buttons)-1 делай (* for all partitions... *)
							если model.disks[i].table#НУЛЬ то
								если (i = disk) и (model.disks[i].mapping[j] = partition) то (* selected *)
									model.disks[i].buttons[j].SetPressed(истина);
								иначе
									model.disks[i].buttons[j].SetPressed(ложь);
								всё;
							иначе (* no partition table *)
								если (i = disk) и (partition = 0) то
									model.disks[i].buttons[0].SetPressed(истина);
								иначе
									model.disks[i].buttons[0].SetPressed(ложь);
								всё;
							всё;
						кц;
					всё;
				кц;
			всё;

			нов(wrapper); wrapper.selection := selection;
			onSelection.Call(wrapper);
		кон UpdateSelection;

		проц {перекрыта}WheelMove*(dz : размерМЗ);
		перем pos : размерМЗ;
		нач
			если scrollbarY.visible.Get() то
				pos := scrollbarY.pos.Get() + Multiplier*dz;
				если pos < scrollbarY.min.Get() то pos := scrollbarY.min.Get(); всё;
				если pos > scrollbarY.max.Get() то pos := scrollbarY.max.Get(); всё;
				scrollbarY.pos.Set(pos);
				scrollbarY.onPositionChanged.Call(scrollbarY.pos)
			всё;
		кон WheelMove;

	кон PartitionSelector;

тип

	Operation* = PartitionsLib.Operation;

	OperationWrapper* = окласс
	перем
		operation- : PartitionsLib.Operation;
	кон OperationWrapper;

тип

	OperationSelector* = окласс(WMComponents.VisualComponent)
	перем
		(** Generates an event whenever the user selects an operation *)
		onSelection- : WMEvents.EventSource;

		grid, titleGrid : NoWheelGrid;
		spacings : WMGrids.Spacings; noOfCols : цел32;

		operations : PartitionsLib.AllOperations;

		selectedOperation: PartitionsLib.Operation; (* NIL if no operation is selected *)

		scrollbarY : WMStandardComponents.Scrollbar;
		scrollPanel : WMStandardComponents.Panel;
		scrollY : цел32; (* current position of scrollbar *)

		state : цел32;
		timer : Kernel.Timer;

		проц &{перекрыта}Init*;
		нач
			Init^;
			SetNameAsString(StrOperationSelector);
			SetGenerator("WMPartitionsComponents.GenOperationSelector");
			нов(onSelection, сам, Strings.NewString("onSelection"), Strings.NewString("Generates an event when an  is selected"),
				сам.StringToCompCommand); events.Add(onSelection);

			state := Initializing;
			нов(timer); noOfCols := 6;

			нов(scrollbarY);
			scrollbarY.vertical.Set(истина); scrollbarY.alignment.Set(WMComponents.AlignRight);
			scrollbarY.min.Set(0); scrollbarY.onPositionChanged.Add(ScrollY);
			AddInternalComponent(scrollbarY);

			нов(scrollPanel);
			AddInternalComponent(scrollPanel);

			scrollY := 0;

			нов(titleGrid);
			titleGrid.bounds.SetLeft(0); titleGrid.bounds.SetTop(0);
			titleGrid.alwaysShowScrollX.Set(ложь); titleGrid.showScrollX.Set(ложь);
			titleGrid.alwaysShowScrollY.Set(ложь); titleGrid.showScrollY.Set(ложь);
			titleGrid.allowColResize.Set(ложь); titleGrid.allowRowResize.Set(ложь);
			titleGrid.fixedCols.Set(noOfCols); titleGrid.fixedRows.Set(1);
			titleGrid.Acquire;
			titleGrid.model.Acquire;
			titleGrid.SetSelectionMode(WMGrids.GridSelectNone);
			titleGrid.model.SetNofCols(noOfCols); titleGrid.model.SetNofRows(1);
			titleGrid.model.SetCellText(0, 0, Strings.NewString("UID")); titleGrid.model.SetTextAlign(0, 0, WMGraphics.AlignCenter);
			titleGrid.model.SetCellText(1, 0, Strings.NewString("Operation")); titleGrid.model.SetTextAlign(1, 0, WMGraphics.AlignLeft);
			titleGrid.model.SetCellText(2, 0, Strings.NewString("Device")); titleGrid.model.SetTextAlign(2, 0, WMGraphics.AlignCenter);
			titleGrid.model.SetCellText(3, 0, Strings.NewString("Status")); titleGrid.model.SetTextAlign(3, 0, WMGraphics.AlignLeft);
			titleGrid.model.SetCellText(4, 0, Strings.NewString("Errors")); titleGrid.model.SetTextAlign(4, 0, WMGraphics.AlignCenter);
			titleGrid.model.SetCellText(5, 0, Strings.NewString("Progress")); titleGrid.model.SetTextAlign(5, 0, WMGraphics.AlignCenter);
			titleGrid.model.Release;
			titleGrid.Release;

			нов(spacings, noOfCols);
			spacings[0] := 30; spacings[1] := 100; spacings[2] := 50;
			spacings[3] := 0; (* will be set later *)
			spacings[4] := 35; spacings[5] := 50;

			operations := PartitionsLib.operations.GetAll();

			нов(grid);
			grid.bounds.SetLeft(0); grid.bounds.SetTop(15);
			grid.SetSelectionMode(WMGrids.GridSelectSingleRow); grid.onClick.Add(GridClicked);
			grid.alwaysShowScrollX.Set(ложь); grid.showScrollX.Set(ложь);
			grid.alwaysShowScrollY.Set(ложь); grid.showScrollY.Set(ложь);
			grid.allowColResize.Set(ложь); grid.allowRowResize.Set(ложь);

			UpdateGrid(истина);

			если operations = НУЛЬ то grid.SetSelection(-1, -1, -1, -1); всё; (* no selection *)

			scrollPanel.AddInternalComponent(titleGrid);
			scrollPanel.AddInternalComponent(grid);
		кон Init;

		проц {перекрыта}Initialize*;
		нач
			Initialize^;
			утв(PartitionsLib.operations # НУЛЬ);
			PartitionsLib.operations.onChanged.Add(OperationEventHandler);
			UpdateGrid(ложь);
			нач {единолично} state := Running; кон;
		кон Initialize;

		проц ScrollY(sender, data : динамическиТипизированныйУкль);
		перем y : WMProperties.Int32Property;
		нач
			если data # НУЛЬ то y := data (WMProperties.Int32Property); scrollY := y.Get(); всё;
			scrollPanel.bounds.SetTop(-scrollY);
		кон ScrollY;

		проц GetSelection*() : Operation;
		нач
			возврат selectedOperation;
		кон GetSelection;

		проц GridClicked(sender, x : динамическиТипизированныйУкль);
		перем wrapper : OperationWrapper; grid : NoWheelGrid; ignore, row : размерМЗ;
		нач
			нач {единолично} (* lock operations *)
				grid := sender (NoWheelGrid);
				если operations # НУЛЬ то
					grid.Acquire;
					grid.model.Acquire;
					grid.GetSelection(ignore, row, ignore, ignore);
					если row < длинаМассива(operations) то
						selectedOperation := operations[row];
					иначе
						selectedOperation := НУЛЬ;
						grid.model.SetTextAlign(0, 0, WMGraphics.AlignLeft);
					всё;
					grid.model.Release;
					grid.Release;
				иначе
					selectedOperation := НУЛЬ;
				всё;
			кон;
			нов(wrapper); wrapper.operation := selectedOperation;
			onSelection.Call(wrapper);
		кон GridClicked;

		проц {перекрыта}Resized*;
		нач
			Resized^;
			UpdateGrid(ложь);
		кон Resized;

		проц UpdateGrid(updateContent : булево);
		конст
			ColStatus = 3;
		перем
			caption : массив 128 из симв8;
			operation : PartitionsLib.Operation;
			width, height, minWidth : размерМЗ;
			row, i, ignore, cellHeight : размерМЗ;
			font : WMGraphics.Font;
			operationState : PartitionsLib.OperationState;
			widths, heights : WMGrids.Spacings;
		нач (* caller must hold lock *)
			утв((grid # НУЛЬ) и (titleGrid#НУЛЬ));
			если operations # НУЛЬ то
				если updateContent то
					grid.Acquire;
					grid.model.Acquire;
					grid.SetSelectionMode(WMGrids.GridSelectSingleRow);
					grid.model.SetNofCols(noOfCols); grid.model.SetNofRows(длинаМассива(operations)(цел32));

					нцДля row := 0 до длинаМассива(operations)(цел32)-1 делай
						operation := operations[row];
						нцДля i := 0 до длинаМассива(operations)(цел32) -1 делай
							grid.model.SetTextAlign(0, i, WMGraphics.AlignCenter); (* uid *)
							grid.model.SetTextAlign(1, i, WMGraphics.AlignLeft); (* operation *)
							grid.model.SetTextAlign(2, i,  WMGraphics.AlignCenter); (* device *)
							grid.model.SetTextAlign(3, i, WMGraphics.AlignLeft); (* status *)
							grid.model.SetTextAlign(4, i, WMGraphics.AlignCenter); (* errors *)
							grid.model.SetTextAlign(5, i, WMGraphics.AlignCenter); (* progress *)
						кц;
						operationState := operation.GetState();
						(* Column 1: UID *)
						Strings.IntToStr(operation.uid, caption);
						grid.model.SetCellText(0, row, Strings.NewString(caption));
						(* Column 2: Operation Name *)
						grid.model.SetCellText(1, row, Strings.NewString(operation.name));
						(* Column 3: Device#partition *)
						grid.model.SetCellText(2, row, Strings.NewString(operation.diskpartString));
						(* Column 4: Status *)
						grid.model.SetCellText(3, row, Strings.NewString(operationState.statusString));
						(* Column 5: Errors *)
						Strings.IntToStr(operationState.errorCount, caption);
						grid.model.SetCellText(4, row, Strings.NewString(caption));
						(* Column 6: Progress *)
						если operationState.progressValid то
							Strings.IntToStr(округлиВниз(operationState.cur*100.0 / operationState.max), caption); Strings.Append(caption, "%");
						иначе
							caption := "";
						всё;
						grid.model.SetCellText(5, row, Strings.NewString(caption));
					кц;
					grid.model.Release;
					grid.Release;
				всё;

			иначе (* no operations registered *)
				grid.Acquire;
				grid.model.Acquire;
				grid.model.SetNofCols(1); grid.model.SetNofRows(1);
				grid.model.SetCellText(0, 0, Strings.NewString("No operations"));
				grid.SetSelectionMode(WMGrids.GridSelectNone);
				grid.model.Release;
				grid.Release;
			всё;

			(* Determine cell height *)
			font := titleGrid.GetFont(); font.GetStringSize("TestString", ignore, height);
			cellHeight := height + GridMinSpacerV;

			grid.Acquire;
			grid.model.Acquire;
			(* only the column "Status" is resizable, all others have a fixed width *)
			minWidth := 0;
			нцДля i := 0 до noOfCols-1 делай
				если i # ColStatus то
					minWidth := minWidth + spacings[i] (* cell width *) +1; (* spacing between cells *)
				всё;
			кц;

			(* Calculate the grid height and set row spacings *)
			height := 0;
			если operations # НУЛЬ то
				нов(heights, grid.model.GetNofRows());
				нцДля row := 0 до grid.model.GetNofRows()-1 делай heights[row] := cellHeight; height := height + cellHeight + 1; кц;
			иначе
				нов(heights, 1); heights[0] := cellHeight; height := height + cellHeight + 1;
			всё;
			grid.SetRowSpacings(heights);

			(* Calculate the grid width and set column spacings *)
			width := bounds.GetWidth() - 2*DiskOverviewPanelMarginH;
			если (height > bounds.GetHeight()) то
				width := width - scrollbarY.bounds.GetWidth();
			всё;

			если width > minWidth то
			 	spacings[ColStatus] := width- minWidth;
			иначе (* should not be the case *)
				spacings[ColStatus] := 0;	width := minWidth;
			всё;

			если operations # НУЛЬ то
				grid.SetColSpacings(spacings);
			иначе
				нов(widths, 1);widths[0] := width;
				grid.SetColSpacings(widths);
			всё;
			grid.model.Release;
			grid.Release;

			titleGrid.Acquire; titleGrid.model.Acquire;
			titleGrid.SetColSpacings(spacings);
			titleGrid.model.Release; titleGrid.Release;

			titleGrid.bounds.SetTop(DiskOverviewPanelMarginV); titleGrid.bounds.SetLeft(DiskOverviewPanelMarginH);
			titleGrid.bounds.SetExtents(width, cellHeight);

			grid.bounds.SetExtents(width, height); grid.bounds.SetTop(titleGrid.bounds.GetHeight() + DiskOverviewPanelMarginV + 1);
			grid.bounds.SetLeft(DiskOverviewPanelMarginH);

			scrollPanel.bounds.SetExtents(width + DiskOverviewPanelMarginH, height + titleGrid.bounds.GetHeight() + DiskOverviewPanelMarginV + 1);

			(* do we need scrollbars for the scrollPanel ? *)
			если (height > bounds.GetHeight()) то (* need a vertical scrollbar ... *)
				scrollbarY.max.Set(height - bounds.GetHeight());
				scrollbarY.pos.Set(scrollY);
				scrollbarY.visible.Set(истина);
			иначе
				scrollY := 0; scrollPanel.bounds.SetTop(0);
				scrollbarY.visible.Set(ложь);
			всё;
		кон UpdateGrid;

		проц OperationEventHandler(sender, data :  динамическиТипизированныйУкль);
		нач (*{EXCLUSIVE}*) (* can lead to deadlock: we hold exclusive lock. Other component has lock but needs exclusive lock, cf. WMComponents.VisualComponent.Draw *)
			operations := PartitionsLib.operations.GetAllInternal();
			UpdateGrid(истина);
		кон OperationEventHandler;

		проц {перекрыта}WheelMove*(dz : размерМЗ);
		перем pos : размерМЗ;
		нач
			если scrollbarY.visible.Get() то
				pos := scrollbarY.pos.Get() + Multiplier*dz;
				если pos < scrollbarY.min.Get() то pos := scrollbarY.min.Get(); всё;
				если pos > scrollbarY.max.Get() то pos := scrollbarY.max.Get(); всё;
				scrollbarY.pos.Set(pos);
				scrollbarY.onPositionChanged.Call(scrollbarY.pos)
			всё;
		кон WheelMove;

		проц {перекрыта}Finalize*;
		нач
			Finalize^;
			утв(PartitionsLib.operations # НУЛЬ);
			PartitionsLib.operations.onChanged.Remove(OperationEventHandler);
			нач {единолично} state := Terminating; кон;
			timer.Wakeup;
			нач {единолично} дождись(state = Terminated); кон;
		кон Finalize;

		проц PollStatus;
		перем
			operation : PartitionsLib.Operation;
			state : PartitionsLib.OperationState;
			caption : массив 32 из симв8;
			i : цел32;
		нач {единолично} (* lock operations *)
			если operations # НУЛЬ то
				grid.Acquire;
				grid.model.Acquire;
				нцДля i := 0 до длинаМассива(operations)(цел32)-1 делай
					operation := operations[i];
					state := operation.GetState();
					(* Column 4: Status *)
					grid.model.SetCellText(3, i, Strings.NewString(state.statusString));

					(* Column 5: errors *)
					Strings.IntToStr(state.errorCount, caption);
					grid.model.SetCellText(4, i, Strings.NewString(caption));

					(* Column 6: Progress *)
					если state.progressValid то
						Strings.IntToStr(округлиВниз(state.cur*100.0 / state.max), caption); Strings.Append(caption, "%");
						grid.model.SetCellText(5, i, Strings.NewString(caption));
					иначе
						caption := "";
						grid.model.SetCellText(5, i, Strings.NewString(caption));
					всё;
				кц;
				grid.model.Release;
				grid.Release;
			всё;
		кон PollStatus;

	нач {активное}
		нач {единолично} дождись(state > Initializing); кон;
		нцПока (state = Running) делай
			PollStatus;
			timer.Sleep(100);
		кц;
		нач {единолично} state := Terminated; кон;
	кон OperationSelector;

тип

	TestWindow = окласс(WMComponents.FormWindow)
	перем
		showDetailsBtn, showGeometryBtn : WMStandardComponents.Button;
		showDetails, showGeometry : булево;

		selectionLabel : WMStandardComponents.Label;

		selector : PartitionSelector;

		проц HandleButtons(sender, data : динамическиТипизированныйУкль);
		нач
			если sender = showDetailsBtn то
				showDetails := ~showDetails;
				selector.showDetails.Set(showDetails);
			аесли sender = showGeometryBtn то
				showGeometry := ~showGeometry;
				selector.showDiskGeometry.Set(showGeometry);
			всё;
		кон HandleButtons;

		проц HandleSelection(sender, data : динамическиТипизированныйУкль);
		перем selection : PartitionsLib.Selection; caption : массив 128 из симв8; nbr : массив 4 из симв8;
		нач
			если (data # НУЛЬ) и (data суть SelectionWrapper) то
				selection := data(SelectionWrapper).selection;
				caption := " Selection: ";
				если (selection.disk.device # НУЛЬ) то
					Strings.Append(caption, selection.disk.device.name);
					Strings.Append(caption, "#");
					Strings.IntToStr(selection.partition, nbr); Strings.Append(caption, nbr);
				иначе
					caption := "None";
				всё;
				selectionLabel.caption.SetAOC(caption);
			всё;
		кон HandleSelection;

		проц CreateForm() : WMComponents.VisualComponent;
		перем panel, toolbar : WMStandardComponents.Panel;
		нач
			нов(panel);
			panel.alignment.Set(WMComponents.AlignClient);
			panel.fillColor.Set(WMGraphics.White);

			нов(toolbar);
			toolbar.bounds.SetHeight(20);
			toolbar.alignment.Set(WMComponents.AlignBottom);
			panel.AddInternalComponent(toolbar);

			нов(showDetailsBtn); showDetailsBtn.alignment.Set(WMComponents.AlignLeft);
			showDetailsBtn.caption.SetAOC("Details");
			showDetailsBtn.onClick.Add(HandleButtons);
			showDetailsBtn.isToggle.Set(истина);
			showDetailsBtn.SetPressed(showDetails);
			toolbar.AddInternalComponent(showDetailsBtn);

			нов(showGeometryBtn); showGeometryBtn.alignment.Set(WMComponents.AlignLeft);
			showGeometryBtn.caption.SetAOC("Geometry");
			showGeometryBtn.onClick.Add(HandleButtons);
			showGeometryBtn.isToggle.Set(истина);
			showGeometryBtn.SetPressed(showGeometry);
			toolbar.AddInternalComponent(showGeometryBtn);

			нов(selectionLabel);
			selectionLabel.alignment.Set(WMComponents.AlignClient);
			selectionLabel.fillColor.Set(WMGraphics.White);
			toolbar.AddInternalComponent(selectionLabel);

			нов(selector);
			selector.alignment.Set(WMComponents.AlignClient);
			selector.onSelection.Add(HandleSelection);
			panel.AddInternalComponent(selector);

			возврат panel;
		кон CreateForm;

		проц &New*;
		перем vc : WMComponents.VisualComponent;
		нач
			showDetails := ложь; showGeometry := ложь;
			Init(400, 300, ложь);
			vc := CreateForm();
			SetContent(vc);
			WMWindowManager.DefaultAddWindow(сам);
			SetTitle(Strings.NewString("Partition Selector Test Window"))
		кон New;

	кон TestWindow;

перем
	PrototypeShowDetails, PrototypeShowDiskGeometry : WMProperties.BooleanProperty;
	PrototypeClSelected, PrototypeClBackground : WMProperties.ColorProperty;

	StrPartitionSelector, StrOperationSelector : Strings.String;

проц TestPartitionSelector*;
перем window : TestWindow;
нач
	нов(window);
кон TestPartitionSelector;

проц GenPartitionSelector*() : XML.Element;
перем p : PartitionSelector;
нач
	нов(p); возврат p;
кон GenPartitionSelector;

проц GenOperationSelector*() : XML.Element;
перем o : OperationSelector;
нач
	нов(o); возврат o;
кон GenOperationSelector;

проц InitStrings;
нач
	StrPartitionSelector := Strings.NewString("PartitionSelector");
	StrOperationSelector := Strings.NewString("OperationSelector");
кон InitStrings;

проц InitPrototypes;
нач
	нов(PrototypeShowDetails, НУЛЬ, Strings.NewString("showDetails"), Strings.NewString("Show detailed textual information as grid"));
	PrototypeShowDetails.Set(ложь);
	нов(PrototypeShowDiskGeometry, НУЛЬ, Strings.NewString("showDiskGeometry"), Strings.NewString("Show disk geometry information in title"));
	PrototypeShowDiskGeometry.Set(ложь);
	нов(PrototypeClSelected, НУЛЬ, Strings.NewString("clSelected"), Strings.NewString("Color of selected partition"));
	PrototypeClSelected.Set(WMGraphics.Yellow);
	нов(PrototypeClBackground, НУЛЬ, Strings.NewString("clBackground"), Strings.NewString("Background color of disk panels"));
	PrototypeClBackground.Set(цел32(0999999FFH));
кон InitPrototypes;

нач
	InitStrings;
	InitPrototypes;
кон WMPartitionsComponents.

WMPartitionsComponents.TestPartitionSelector ~

System.Free WMPartitionsComponents ~
