модуль XML; (** AUTHOR "swalthert"; PURPOSE "XML base"; *)

использует
	Потоки, Strings, UCS32, UTF8Strings, Modules, DynamicStrings, Objects := XMLObjects, ЛогЯдра;

конст
	Ok* = 0;
	InvalidString* = 1;
	BufferError* = 2;

	Tab = DynamicStrings.Tab;
	Space = 20X;

тип

	String* = Strings.String;

тип

	Content* = окласс
	перем
		pos: Потоки.ТипМестоВПотоке;
		previous, next : Content;

		проц &Init*;
		нач
			pos := 0;
			previous := НУЛЬ; next := НУЛЬ;
		кон Init;

		проц GetPos*(): Потоки.ТипМестоВПотоке;
		нач
			возврат pos
		кон GetPos;

		проц SetPos*(pos : Потоки.ТипМестоВПотоке);
		нач
			сам.pos := pos
		кон SetPos;

		(** write the content to stream w. level is the current hierarchy level. used for formatting *)
		проц Write*(w: Потоки.Писарь; context: динамическиТипизированныйУкль; level : цел32);
		кон Write;

	кон Content;

	NameContent* = окласс (Content)
	перем
		name: String;

		проц &{перекрыта}Init*;
		нач
			Init^;
			name := StrNoName;
		кон Init;

		проц GetName*(): String;
		нач
			возврат name
		кон GetName;

		проц SetName*(конст name: массив из симв8);
		нач
			сам.name := NewString(name)
		кон SetName;

		проц SetNameAsString*(name : String);
		нач
			если (name # НУЛЬ) то
				сам.name := name;
			иначе
				сам.name := StrNoName;
			всё;
		кон SetNameAsString;

		проц {перекрыта}Write*(w: Потоки.Писарь; context: динамическиТипизированныйУкль; level : цел32);
		нач
			w.пСтроку8(name^)
		кон Write;

	кон NameContent;

	Container* = окласс (Content)
	перем
		first, last : Content;
		nofContents : цел32;

		проц &{перекрыта}Init*;
		нач
			Init^;
			first := НУЛЬ; last := НУЛЬ;
			nofContents := 0;
		кон Init;

		проц RemoveContent0(c: Content): булево;
		перем cur : Content;
		нач
			(*ASSERT(c # NIL);*)
			если c=НУЛЬ то возврат ложь всё;(*PH 12/13*)
			если (first # НУЛЬ) то
				если (first = c) то
					если (first.next # НУЛЬ) то first.next.previous := НУЛЬ; всё;
					first := first.next;
					если (last = c) то last := НУЛЬ; утв(first = НУЛЬ); всё;
					c.next := НУЛЬ; c.previous := НУЛЬ;
					возврат истина
				иначе
					cur := first;
					нцПока (cur.next # НУЛЬ) и (cur.next # c) делай cur := cur.next; кц;
					если (cur.next # НУЛЬ) то
						если (cur.next.next # НУЛЬ) то cur.next.next.previous := cur; всё;
						cur.next := cur.next.next;
						если (last = c) то last := cur; утв(cur.next = НУЛЬ); всё;
						c.next := НУЛЬ; c.previous := НУЛЬ;
						возврат истина
					всё;
				всё;
			всё;
			возврат ложь
		кон RemoveContent0;

		(* Move this after previous. If previous = NIL then move this to end *)
		проц MoveContentAfter*(this, previous: Content);
		перем current: Content;
		нач{единолично}
			если RemoveContent0(this) то
				если (previous = НУЛЬ) или (previous = last) то (* insert as last *)
					если last = НУЛЬ то
						first := this; last := this
					иначе
						last.next := this;
						this.previous := last;
						last := this;
					всё;
				иначе
					this.next := previous.next;
					this.next.previous := this;
					previous.next := this;
					this.previous := previous;
				всё
			всё;
		кон MoveContentAfter;

		(* Move this before next. If next = NIL then move this to front *)
		проц MoveContentBefore*(this, next: Content);
		перем current: Content;
		нач{единолично}
			если RemoveContent0(this) то
				если (next = НУЛЬ) или (next = first) то (* insert as first *)
					если first = НУЛЬ то
						first := this; last := this
					иначе
						this.next := first;
						first.previous := this;
						first := this;
					всё;
				иначе
					next.previous.next := this;
					this.previous := next.previous;
					this.next := next;
					next.previous := this;
				всё;
			всё;
		кон MoveContentBefore;

		проц AddContent*(c: Content);
		нач {единолично}
			утв((c # НУЛЬ) и (c.next = НУЛЬ) и (c.previous = НУЛЬ)); (* may not be in more than one list! *)
			если (first = НУЛЬ) то
				утв(last = НУЛЬ);
				first := c; last := c;
			иначе
				утв(last # НУЛЬ);
				last.next := c;
				c.previous := last;
				last := c;
			всё;
			утв((first # НУЛЬ) и (last # НУЛЬ));
			увел(nofContents);
		кон AddContent;

		проц RemoveContent*(c: Content);
		перем b: булево;
		нач {единолично}
			если RemoveContent0(c) то умень(nofContents) всё
		кон RemoveContent;

		проц GetContents*(): Objects.Enumerator;
		перем c : Content; array : Objects.PTRArray; enumerator : Objects.ArrayEnumerator; i : цел32;
		нач {единолично}
			нов(array, nofContents);
			c := first;
			нцДля i := 0 до nofContents - 1 делай
				array[i] := c;
				c := c.next;
			кц;
			нов(enumerator, array);
			возврат enumerator;
		кон GetContents;

		проц GetNumberOfContents*(): цел32;
		нач
			возврат nofContents;
		кон GetNumberOfContents;

		проц GetFirst*() : Content;
		нач
			возврат first;
		кон GetFirst;

		проц GetLast*() : Content;
		нач
			возврат last;
		кон GetLast;

		проц GetNext*(content : Content) : Content;
		нач
			утв(content # НУЛЬ);
			возврат content.next;
		кон GetNext;

		проц GetPrevious*(content : Content) : Content;
		нач
			утв(content # НУЛЬ);
			возврат content.previous;
		кон GetPrevious;

	кон Container;

тип

	Document* = окласс (Container)
	перем
		xmldecl: XMLDecl;
		dtd: DocTypeDecl;
		root: Element;

		проц &{перекрыта}Init*;
		нач
			Init^;
			xmldecl := НУЛЬ;
			нов(dtd);
			root := НУЛЬ;
		кон Init;

		проц GetXMLDecl*(): XMLDecl;
		нач
			возврат xmldecl
		кон GetXMLDecl;

		проц GetDocTypeDecl*(): DocTypeDecl;
		нач
			возврат dtd
		кон GetDocTypeDecl;

		проц GetRoot*(): Element;
		нач
			возврат root
		кон GetRoot;

		проц {перекрыта}AddContent*(c: Content);
		нач
			если (c суть XMLDecl) и (xmldecl = НУЛЬ) то xmldecl := c(XMLDecl)
			аесли (c суть DocTypeDecl) то dtd := c(DocTypeDecl)
			аесли (c суть Element) и (root = НУЛЬ) то root := c(Element); root.SetDocument(сам)
			всё;
			AddContent^(c)
		кон AddContent;

		проц {перекрыта}Write*(w: Потоки.Писарь; context: динамическиТипизированныйУкль; level : цел32);
		перем e: Objects.Enumerator; c: динамическиТипизированныйУкль;
		нач
			e := GetContents();
			нцПока e.HasMoreElements() делай
				c := e.GetNext();
				c(Content).Write(w, context, level + 1)
			кц
		кон Write;

	кон Document;

	TextDecl* = окласс (Content)
	перем
		version, encoding: String;

		проц &{перекрыта}Init*;
		нач
			Init^;
			version := НУЛЬ; encoding := НУЛЬ;
		кон Init;

		проц GetVersion*(): String;
		нач
			возврат version
		кон GetVersion;

		проц SetVersion*(конст version: массив из симв8);
		нач
			сам.version := NewString(version)
		кон SetVersion;

		проц GetEncoding*(): String;
		нач
			возврат encoding
		кон GetEncoding;

		проц SetEncoding*(конст encoding: массив из симв8);
		нач
			сам.encoding := NewString(encoding)
		кон SetEncoding;

		проц {перекрыта}Write*(w: Потоки.Писарь; context: динамическиТипизированныйУкль; level : цел32);
		нач
			w.пСтроку8('<?xml version="'); w.пСтроку8(version^);
			если encoding # НУЛЬ то w.пСтроку8('" encoding="'); w.пСтроку8(encoding^) всё;
			w.пСтроку8('"?>'); NewLine(w, level)
		кон Write;

	кон TextDecl;

	XMLDecl* = окласс (TextDecl)
	перем
		standalone: булево;

		проц &{перекрыта}Init*;
		нач
			Init^;
			standalone := ложь;
		кон Init;

		проц IsStandalone*(): булево;
		нач
			возврат standalone
		кон IsStandalone;

		проц SetStandalone*(standalone: булево);
		нач
			сам.standalone := standalone
		кон SetStandalone;

		проц {перекрыта}Write*(w: Потоки.Писарь; context: динамическиТипизированныйУкль; level : цел32);
		нач
			w.пСтроку8('<?xml version="'); w.пСтроку8(version^);
			если encoding # НУЛЬ то w.пСтроку8('" encoding="'); w.пСтроку8(encoding^) всё;
			w.пСтроку8('" standalone="');
			если standalone то w.пСтроку8("yes") иначе w.пСтроку8("no") всё;
			w.пСтроку8('"?>'); NewLine(w, level)
		кон Write;

	кон XMLDecl;

	DocTypeDecl* = окласс (NameContent)
	перем
		elementDecls, notationDecls, generalEntities, parameterEntities: Objects.Dictionary;
		allMarkupDecls: Objects.Collection;
		externalSubset: EntityDecl;

		проц & {перекрыта}Init*;
		перем (* ed: EntityDecl; *) arrDict: Objects.ArrayDict; arrColl: Objects.ArrayCollection;
		нач
			Init^;
			нов(arrDict); elementDecls := arrDict;
			нов(arrDict); notationDecls := arrDict;
			нов(arrDict); generalEntities := arrDict;
			нов(arrDict); parameterEntities := arrDict;
			нов(arrColl); allMarkupDecls := arrColl;

			externalSubset := НУЛЬ;

			(* add predefined entities *)
(*			NEW(ed); NEW(ed.name, 3); ed.name[0] := 'l'; ed.name[1] := 't'; ed.name[2] := 0X;
			NEW(ed.value, 10); COPY("&#38;#60;", ed.value^); ed.type := GeneralEntity; AddMarkupDecl(ed);
			NEW(ed); NEW(ed.name, 3); ed.name[0] := 'g'; ed.name[1] := 't'; ed.name[2] := 0X;
			NEW(ed.value, 10); COPY("&#62;", ed.value^); ed.type := GeneralEntity; AddMarkupDecl(ed);
			NEW(ed); NEW(ed.name, 4); ed.name[0] := 'a'; ed.name[1] := 'm'; ed.name[2] := 'p'; ed.name[3] := 0X;
			NEW(ed.value, 10); COPY("&#38;#38;", ed.value^); ed.type := GeneralEntity; AddMarkupDecl(ed);
			NEW(ed); NEW(ed.name, 5); ed.name[0] := 'a'; ed.name[1] := 'p'; ed.name[2] := 'o'; ed.name[3] := 's'; ed.name[4] := 0X;
			NEW(ed.value, 10); COPY("&#39;", ed.value^); ed.type := GeneralEntity; AddMarkupDecl(ed);
			NEW(ed); NEW(ed.name, 5); ed.name[0] := 'q'; ed.name[1] := 'u'; ed.name[2] := 'o'; ed.name[3] := 't'; ed.name[4] := 0X;
			NEW(ed.value, 10); COPY("&#34;", ed.value^); ed.type := GeneralEntity; AddMarkupDecl(ed)
*)
		кон Init;

		проц AddMarkupDecl*(c: Content);
		нач
			если c суть ElementDecl то
				elementDecls.Add(c(ElementDecl).name^, c); allMarkupDecls.Add(c)
			аесли (c суть EntityDecl) и (c(EntityDecl).type = GeneralEntity) то
				generalEntities.Add(c(EntityDecl).name^, c); allMarkupDecls.Add(c)
			аесли (c суть EntityDecl) и (c(EntityDecl).type = ParameterEntity) то
				parameterEntities.Add(c(EntityDecl).name^, c); allMarkupDecls.Add(c)
			аесли c суть NotationDecl то
				notationDecls.Add(c(NotationDecl).name^, c); allMarkupDecls.Add(c)
			аесли (c суть ProcessingInstruction) или (c суть Comment) то
				allMarkupDecls.Add(c)
			всё
		кон AddMarkupDecl;

		проц GetElementDecl*(конст name: массив из симв8): ElementDecl;
		перем p: динамическиТипизированныйУкль;
		нач
			p := elementDecls.Get(name);
			если p # НУЛЬ то возврат p(ElementDecl)
			иначе возврат НУЛЬ
			всё
		кон GetElementDecl;

		проц GetNotationDecl*(конст name: массив из симв8): NotationDecl;
		перем p: динамическиТипизированныйУкль;
		нач
			p := elementDecls.Get(name);
			если p # НУЛЬ то возврат p(NotationDecl)
			иначе возврат НУЛЬ
			всё
		кон GetNotationDecl;

		проц GetEntityDecl*(конст name: массив из симв8; type: цел8): EntityDecl;
		перем p: динамическиТипизированныйУкль;
		нач
			p := НУЛЬ;
			если type = GeneralEntity то p := generalEntities.Get(name)
			аесли type = ParameterEntity то p := parameterEntities.Get(name)
			всё;
			если p # НУЛЬ то возврат p(EntityDecl)
			иначе возврат НУЛЬ
			всё
		кон GetEntityDecl;

		проц GetExternalSubset*(): EntityDecl;
		нач
			возврат externalSubset
		кон GetExternalSubset;

		проц SetExternalSubset*(externalSubset: EntityDecl);
		нач
			сам.externalSubset := externalSubset
		кон SetExternalSubset;

		проц {перекрыта}Write*(w: Потоки.Писарь; context: динамическиТипизированныйУкль;  level : цел32);
		перем e: Objects.Enumerator; p: динамическиТипизированныйУкль; s: String;
		нач
			w.пСтроку8("<!DOCTYPE "); w.пСтроку8(name^);
			если externalSubset # НУЛЬ то
				s := externalSubset.GetPublicId();
				если s # НУЛЬ то
					w.пСтроку8(' PUBLIC "'); w.пСтроку8(s^); w.пСтроку8('" "');
				иначе
					w.пСтроку8(' SYSTEM "')
				всё;
				s := externalSubset.GetSystemId();
				w.пСтроку8(s^); w.пСимв8('"')
			всё;
			e := allMarkupDecls.GetEnumerator();
			если e.HasMoreElements() то
				w.пСтроку8(" ["); NewLine(w, level + 1);
				нцПока e.HasMoreElements() делай
					p := e.GetNext(); p(Content).Write(w, context, level + 1)
				кц;
				w.пСтроку8("]")
			всё;
			w.пСимв8('>'); NewLine(w, level)
		кон Write;

	кон DocTypeDecl;

	NotationDecl* = окласс (NameContent)
	перем
		systemId, publicId: String;

		проц &{перекрыта}Init*;
		нач
			Init^;
			systemId := НУЛЬ; publicId := НУЛЬ;
		кон Init;

		проц GetSystemId*(): String;
		нач
			возврат systemId
		кон GetSystemId;

		проц SetSystemId*(конст systemId: массив из симв8);
		нач
			сам.systemId := NewString(systemId)
		кон SetSystemId;

		проц GetPublicId*(): String;
		нач
			возврат publicId
		кон GetPublicId;

		проц SetPublicId*(конст publicId: массив из симв8);
		нач
			сам.publicId := NewString(publicId)
		кон SetPublicId;

		проц {перекрыта}Write*(w: Потоки.Писарь; context: динамическиТипизированныйУкль; level : цел32);
		нач
			w.пСтроку8("<!NOTATION "); w.пСтроку8(name^);
			если publicId # НУЛЬ то
				w.пСтроку8(' PUBLIC "'); w.пСтроку8(publicId^); w.пСтроку8('" "');
				если systemId # НУЛЬ то w.пСтроку8(systemId^); w.пСимв8('"') всё
			иначе
				w.пСтроку8(' SYSTEM "'); w.пСтроку8(systemId^); w.пСимв8('"')
			всё;
			w.пСимв8('>'); NewLine(w, level)
		кон Write;

	кон NotationDecl;

конст
	(** EntityDecl.SetType *)
	GeneralEntity* = 0;
	ParameterEntity* = 1;

тип
	EntityDecl* = окласс (NotationDecl)
	перем
		value, notationName: String;
		type: цел8;

		проц &{перекрыта}Init*;
		нач
			Init^;
			value := НУЛЬ; notationName := НУЛЬ;
			type := GeneralEntity;
		кон Init;

		проц GetType*(): цел8;
		нач
			возврат type
		кон GetType;

		проц SetType*(type: цел8);
		нач
			сам.type := type
		кон SetType;

		проц GetValue*(): String;
		нач
			возврат value
		кон GetValue;

		проц SetValue*(конст value: массив из симв8);
		нач
			сам.value := NewString(value)
		кон SetValue;

		проц GetNotationName*(): String;
		нач
			возврат notationName
		кон GetNotationName;

		проц SetNotationName*(конст notationName: массив из симв8);
		нач
			сам.notationName := NewString(notationName)
		кон SetNotationName;

		проц {перекрыта}Write*(w: Потоки.Писарь; context: динамическиТипизированныйУкль; level : цел32);
		нач
			w.пСтроку8("<!ENTITY ");
			если type = ParameterEntity то w.пСтроку8("% ") всё;
			w.пСтроку8(name^);
			если value # НУЛЬ то
				w.пСтроку8(' "'); w.пСтроку8(value^); w.пСимв8('"')
			иначе
				если publicId # НУЛЬ то
					w.пСтроку8(' PUBLIC "'); w.пСтроку8(publicId^); w.пСтроку8('" "');
					если systemId # НУЛЬ то w.пСтроку8(systemId^); w.пСимв8('"') всё
				иначе
					w.пСтроку8(' SYSTEM "'); w.пСтроку8(systemId^); w.пСимв8('"')
				всё;
				если (type = GeneralEntity) и (notationName # НУЛЬ) то
					w.пСтроку8(' NDATA '); w.пСтроку8(notationName^)
				всё
			всё;
			w.пСимв8('>'); NewLine(w, level)
		кон Write;

	кон EntityDecl;

конст
	(** ElementDecl.SetContentType *)
	Any* = 0;	(** 'ANY' *)
	Empty* = 1;	(** 'EMPTY' *)
	ElementContent* = 2;	(** children *)
	MixedContent* = 3;	(** Mixed *)

тип
	ElementDecl* = окласс (NameContent)
	перем
		contentType: цел8;
		content: CollectionCP;	(* for contentType = Mixed or contentType = Element *)
		attributeDecls: Objects.Dictionary;

		проц & {перекрыта}Init*;
		перем arrDict: Objects.ArrayDict;
		нач
			Init^;
			contentType := Any;
			content := НУЛЬ;
			нов(arrDict); attributeDecls := arrDict
		кон Init;

		проц GetContentType*(): цел8;
		нач
			возврат contentType
		кон GetContentType;

		проц SetContentType*(contentType: цел8);
		нач
			сам.contentType := contentType
		кон SetContentType;

		проц GetContent*(): CollectionCP;
		нач
			возврат content
		кон GetContent;

		проц SetContent*(lcp: CollectionCP);
		нач
			content := lcp
		кон SetContent;

		проц GetAttributeDecl*(конст name: массив из симв8): AttributeDecl;
		перем nc: динамическиТипизированныйУкль;
		нач
			nc := attributeDecls.Get(name);
			если nc # НУЛЬ то возврат nc (AttributeDecl) иначе возврат НУЛЬ всё
		кон GetAttributeDecl;

		проц GetAttributeDecls*(): Objects.Enumerator;
		нач
			возврат attributeDecls.GetEnumerator()
		кон GetAttributeDecls;

		проц AddAttributeDecl*(attributeDecl: AttributeDecl);
		нач
			attributeDecls.Add(attributeDecl.name^, attributeDecl)
		кон AddAttributeDecl;

		проц {перекрыта}Write*(w: Потоки.Писарь; context: динамическиТипизированныйУкль; level : цел32);
		перем e: Objects.Enumerator; p: динамическиТипизированныйУкль;
		нач
			w.пСтроку8("<!ELEMENT "); w.пСтроку8(name^); w.пСимв8(Space);
			если contentType = Empty то
				w.пСтроку8("EMPTY")
			аесли contentType = Any то
				w.пСтроку8("ANY")
			аесли content # НУЛЬ то
				content.Write(w, context, level + 1)
			всё;
			w.пСимв8('>'); NewLine(w, level);
			e := GetAttributeDecls();
			если e.HasMoreElements() то
				w.пСтроку8("<!ATTLIST "); w.пСтроку8(name^); NewLine(w, level+1);
				нцПока e.HasMoreElements() делай
					p := e.GetNext(); p(Content).Write(w, context, level + 1)
				кц;
				w.пСимв8('>'); NewLine(w, level)
			всё
		кон Write;

	кон ElementDecl;

конст
	(** ContentParticle.SetOccurence *)
	ZeroOrOnce* = 0;	(** '?' *)
	ZeroOrMore* = 1;	(** '*' *)
	Once* = 2;	(** nothing *)
	OnceOrMore* = 3;	(** '+' *)

тип
	ContentParticle* = окласс (Content)
	перем
		occurence: цел8;

		проц &{перекрыта}Init*;
		нач
			Init^;
			occurence := ZeroOrOnce;
		кон Init;

		проц GetOccurence*(): цел8;
		нач
			возврат occurence
		кон GetOccurence;

		проц SetOccurence*(occ: цел8);
		нач
			occurence := occ
		кон SetOccurence;

		проц GetOccurenceChar(): симв8;
		нач
			просей occurence из
			| ZeroOrOnce: возврат '?'
			| ZeroOrMore: возврат '*'
			| Once: возврат 0X
			| OnceOrMore: возврат '+'
			всё
		кон GetOccurenceChar;

	кон ContentParticle;

	NameContentParticle* = окласс (ContentParticle)
	перем
		name: String;

		проц &{перекрыта}Init*;
		нач
			Init^;
			name := НУЛЬ;
		кон Init;

		проц GetName*(): String;
		нач
			возврат name
		кон GetName;

		проц SetName*(конст name: массив из симв8);
		нач
			сам.name := NewString(name)
		кон SetName;

		проц SetNameAsString*(name : String);
		нач
			сам.name := name;
		кон SetNameAsString;

		проц {перекрыта}Write*(w: Потоки.Писарь; context: динамическиТипизированныйУкль; level : цел32);
		перем ch: симв8;
		нач
			w.пСтроку8(name^);
			ch := GetOccurenceChar(); если ch # 0X то w.пСимв8(ch) всё
		кон Write;

	кон NameContentParticle;

конст
	(** CollectionCP.SetType *)
	Choice* = 1;
	Sequence* = 2;

тип
	CollectionCP* = окласс (ContentParticle)
	перем
		children: Objects.Collection;
		type: цел8;

		проц & {перекрыта}Init*;
		перем arrColl: Objects.ArrayCollection;
		нач
			Init^;
			нов(arrColl); children := arrColl;
			type := 0;
		кон Init;

		проц GetType*(): цел8;
		нач
			возврат type
		кон GetType;

		проц SetType*(type: цел8);
		нач
			сам.type := type
		кон SetType;

		проц GetChildren*(): Objects.Enumerator;
		нач
			возврат children.GetEnumerator()
		кон GetChildren;

		проц AddChild*(cp: ContentParticle);
		нач
			children.Add(cp)
		кон AddChild;

		проц {перекрыта}Write*(w: Потоки.Писарь; context: динамическиТипизированныйУкль; level : цел32);
		перем e: Objects.Enumerator; ch: симв8; p: динамическиТипизированныйУкль;
		нач
			e := GetChildren();
			p := e.GetNext();
			w.пСимв8('(');
			p(Content).Write(w, context, level + 1);
			нцПока e.HasMoreElements() делай
				p := e.GetNext();
				если type = Choice то w.пСтроку8(" | ")
				аесли type = Sequence то w.пСтроку8(", ")
				всё;
				p(Content).Write(w, context, level + 1)
			кц;
			w.пСимв8(')');
			ch := GetOccurenceChar(); если ch # 0X то w.пСимв8(ch) всё
		кон Write;

	кон CollectionCP;

конст
	(** AttributeDecl.SetType *)
	CData* = 0;	(** CDATA *)
	Id* = 1;	(** ID *)
	IdRef* = 2;	(** IDREF *)
	IdRefs* = 3;	(** IDREFS *)
	Entity* = 4;	(** ENTITY *)
	Entities* = 5;	(** ENTITIES *)
	NmToken* = 6;	(** NMTOKEN *)
	NmTokens* = 7;	(** NMTOKENS *)
	Notation* = 8;	(** NOTATION *)
	Enumeration* = 9;	(** Enumeration *)

тип
	AttributeDecl* = окласс (NameContent)
	перем
		defaultValue: String;
		type: цел8;
		allowedValues: Objects.Dictionary;
		required: булево;

		проц &{перекрыта}Init*;
		перем arrDict: Objects.ArrayDict;
		нач
			Init^;
			defaultValue := НУЛЬ;
			type := CData;
			нов(arrDict); allowedValues := arrDict;
			required := ложь;
		кон Init;

		проц GetDefaultValue*(): String;
		нач
			возврат defaultValue
		кон GetDefaultValue;

		проц SetDefaultValue*(конст defaultValue: массив из симв8);
		нач
			сам.defaultValue := NewString(defaultValue)
		кон SetDefaultValue;

		проц GetType*(): цел8;
		нач
			возврат type
		кон GetType;

		проц SetType*(type: цел8);
		нач
			сам.type := type
		кон SetType;

		(** Collection of NameContents *)
		проц GetAllowedValues*(): Objects.Enumerator;
		нач
			возврат allowedValues.GetEnumerator()
		кон GetAllowedValues;

		проц AddAllowedValue*(конст value: массив из симв8);
		перем nameContent: NameContent;
		нач
			нов(nameContent); nameContent.SetName(value);
			allowedValues.Add(value, nameContent)
		кон AddAllowedValue;

		проц IsRequired*(): булево;
		нач
			возврат required
		кон IsRequired;

		проц SetRequired*(required: булево);
		нач
			сам.required := required
		кон SetRequired;

		проц {перекрыта}Write*(w: Потоки.Писарь; context: динамическиТипизированныйУкль; level : цел32);
		перем e: Objects.Enumerator; p: динамическиТипизированныйУкль;
		нач
			w.пСтроку8(name^); w.пСимв8(Space);
			просей type из
			| CData: w.пСтроку8("CDATA")
			| Id: w.пСтроку8("ID")
			| IdRef: w.пСтроку8("IDREF")
			| IdRefs: w.пСтроку8("IDREFS")
			| Entity: w.пСтроку8("ENTITY")
			| Entities: w.пСтроку8("ENTITIES")
			| NmToken: w.пСтроку8("NMTOKEN")
			| NmTokens: w.пСтроку8("NMTOKENS")
			| Notation: w.пСтроку8("NOTATION")
			| Enumeration:
			всё;
			если type # Enumeration то w.пСимв8(Space) всё;
			если (type = Notation) или (type = Enumeration) то
				w.пСимв8('('); e := GetAllowedValues();
				p := e.GetNext(); p(Content).Write(w, context, level + 1);
				нцПока e.HasMoreElements() делай
					w.пСимв8('|'); p := e.GetNext(); p(Content).Write(w, context, level + 1)
				кц;
				w.пСтроку8(") ")
			всё;
			если required то
				если defaultValue = НУЛЬ то w.пСтроку8('#REQUIRED')
				иначе w.пСтроку8('#FIXED "'); w.пСтроку8(defaultValue^); w.пСтроку8('"')
				всё
			иначе
				если defaultValue = НУЛЬ то w.пСтроку8('#IMPLIED')
				иначе w.пСтроку8('"'); w.пСтроку8(defaultValue^); w.пСтроку8('"')
				всё
			всё;
			NewLine(w, level)
		кон Write;

	кон AttributeDecl;

тип
	CharReference* = окласс (Content)
	перем
		code: цел32;

		проц &{перекрыта}Init*;
		нач
			Init^;
			code := 0;
		кон Init;

		проц SetCode*(code: цел32);
		нач
			сам.code := code
		кон SetCode;

		проц GetCode*(): цел32;
		нач
			возврат code
		кон GetCode;

		проц {перекрыта}Write*(w: Потоки.Писарь; context: динамическиТипизированныйУкль; level : цел32);
		перем codeArray: массив 16 из симв8; codeStr: String;
		нач
			DynamicStrings.IntToStr(code, codeArray);
			codeStr := NewString(codeArray);
			w.пСтроку8('&#'); w.пСтроку8(codeStr^); w.пСимв8(';')
		кон Write;

	кон CharReference;

тип
	EntityRef* = окласс (NameContent)
	перем
		decl: EntityDecl;

		проц &{перекрыта}Init*;
		нач
			Init^;
			decl := НУЛЬ;
		кон Init;

		проц GetEntityDecl*(): EntityDecl;
		нач
			возврат decl
		кон GetEntityDecl;

		проц SetDocument(document: Document);
		перем dtd: DocTypeDecl;
		нач
			dtd := document.GetDocTypeDecl();
			если dtd # НУЛЬ то
				decl := dtd.GetEntityDecl(name^, GeneralEntity)
			всё
		кон SetDocument;

		проц {перекрыта}Write*(w: Потоки.Писарь; context: динамическиТипизированныйУкль; level : цел32);
		нач
			w.пСимв8('&'); w.пСтроку8(name^); w.пСимв8(';')
		кон Write;

	кон EntityRef;

тип
	InternalEntityRef* = окласс (EntityRef)

		проц GetValue*(): String;
		нач
			если decl # НУЛЬ то возврат decl.value
			иначе возврат НУЛЬ
			всё
		кон GetValue;

	кон InternalEntityRef;

тип
	ExternalEntityRef* = окласс (EntityRef)
	перем
		coll: Objects.Collection;
		textDecl: TextDecl;

		проц &{перекрыта}Init*;
		нач
			Init^;
			coll := НУЛЬ;
			textDecl := НУЛЬ;
		кон Init;

		проц GetTextDecl*(): TextDecl;
		нач
			возврат textDecl
		кон GetTextDecl;

		проц GetContents*(): Objects.Enumerator;
		нач
			если IsParsed() то возврат coll.GetEnumerator()
			иначе возврат НУЛЬ
			всё
		кон GetContents;

		проц AddContent*(c: Content);
		перем arrColl: Objects.ArrayCollection;
		нач
			если coll = НУЛЬ то нов(arrColl); coll := arrColl всё;
			если c суть TextDecl то
				textDecl := c(TextDecl)
			всё;
			coll.Add(c)
		кон AddContent;

		проц IsParsed*(): булево;
		нач
			возврат coll # НУЛЬ
		кон IsParsed;

		проц GetIdElement(конст name, id: массив из симв8): Element;
		перем contents: Objects.Enumerator; p: динамическиТипизированныйУкль; retElement: Element;
		нач
			retElement := НУЛЬ;
			если IsParsed() то
				contents := GetContents();
				нцПока contents.HasMoreElements() и (retElement = НУЛЬ) делай
					p := contents.GetNext();
					если p суть Element то
						retElement := p(Element).GetIdElement(name, id)
					аесли p суть ExternalEntityRef то
						retElement := p(ExternalEntityRef).GetIdElement(name, id)
					всё
				кц
			всё;
			возврат retElement
		кон GetIdElement;

	кон ExternalEntityRef;

тип
	Chars* = окласс (Content)

		проц GetStr*(): String;
		нач
			возврат НУЛЬ
		кон GetStr;

		проц GetLength*(): размерМЗ;
		нач
			возврат 0
		кон GetLength;

		проц {перекрыта}Write*(w: Потоки.Писарь; context: динамическиТипизированныйУкль; level : цел32);
		перем s: String;
		нач
			s := GetStr(); w.пСтроку8(s^)
		кон Write;

	кон Chars;

тип
	ArrayChars* = окласс (Chars)
	перем
		str: String;
		len: размерМЗ;

		проц &{перекрыта}Init*;
		нач
			str := НУЛЬ;
			len := 0;
		кон Init;

		проц {перекрыта}GetStr*(): String;
		нач
			возврат str
		кон GetStr;

		проц {перекрыта}GetLength*(): размерМЗ;
		нач
			возврат len
		кон GetLength;

		проц SetStr*(конст str: массив из симв8);
		нач
			сам.str := NewString(str);
			len := DynamicStrings.StringLength(str)
		кон SetStr;

		проц SetStrAsString*(str : String);
		нач
			сам.str := str;
			len := DynamicStrings.StringLength(str^)
		кон SetStrAsString;

	кон ArrayChars;

	Comment* = окласс (ArrayChars)

		проц {перекрыта}Write*(w: Потоки.Писарь; context: динамическиТипизированныйУкль; level : цел32);
		нач
			NewLine(w, level-1); w.пСтроку8("<!--"); Write^(w, context, level); w.пСтроку8("-->"); NewLine(w, level)
		кон Write;

	кон Comment;

тип
	CDataSect* = окласс (ArrayChars)

		проц {перекрыта}Write*(w: Потоки.Писарь; context: динамическиТипизированныйУкль; level : цел32);
		перем s : String; i, j : цел32; buf : массив 4 из симв8;
		нач
			w.пСтроку8("<![CDATA[");
			s := GetStr(); копируйСтрокуДо0("   ", buf);

			если (длинаМассива(s^) < 3) то
				w.пСтроку8(s^);
			иначе
				buf[1] := s^[0];
				buf[2] := s^[1]; i := 2;
				нцПока (i < длинаМассива(s^)) делай
					buf[0] := buf[1];
					buf[1] := buf[2];
					buf[2] := s^[i];
					увел(i);
					если (buf = "]]>") то
						w.пСтроку8("]]]]><![CDATA[>");
						если ((i+2) < длинаМассива(s^)) то
							buf[1] := s^[i]; увел(i);
							buf[2] := s^[i]; увел(i);
						иначе
							j := 0;
							нцПока (i < длинаМассива(s^)) делай
								buf[j] := s^[i]; увел(i); увел(j);
							кц;
							buf[j] := 0X;
						всё;
					аесли (i < длинаМассива(s^)) то w.пСимв8(buf[0]); всё;
				кц;
				w.пСтроку8(buf);
			всё;

			w.пСтроку8("]]>"); NewLine(w, level)

		кон Write;

	кон CDataSect;

тип
	ProcessingInstruction* = окласс (Content)
	перем
		target, instruction: String;

		проц &{перекрыта}Init*;
		нач
			Init^;
			target := НУЛЬ; instruction := НУЛЬ;
		кон Init;

		проц GetTarget*(): String;
		нач
			возврат target
		кон GetTarget;

		проц SetTarget*(конст target: массив из симв8);
		нач
			сам.target := NewString(target)
		кон SetTarget;

		проц GetInstruction*(): String;
		нач
			возврат instruction
		кон GetInstruction;

		проц SetInstruction*(конст instruction: массив из симв8);
		нач
			сам.instruction := NewString(instruction)
		кон SetInstruction;

		проц {перекрыта}Write*(w: Потоки.Писарь; context: динамическиТипизированныйУкль; level : цел32);
		нач
			w.пСтроку8("<?"); w.пСтроку8(target^); w.пСимв8(Space);
			w.пСтроку8(instruction^); w.пСтроку8("?>"); NewLine(w, level)
		кон Write;

	кон ProcessingInstruction;

тип
	Attribute* = окласс (NameContent)
	перем
		value, elementName: String;
		document: Document;
		decl: AttributeDecl;

		проц &{перекрыта}Init*;
		нач
			Init^;
			value := НУЛЬ; elementName := НУЛЬ;
			document := НУЛЬ;
			decl := НУЛЬ;
		кон Init;

		проц SetDocument(document: Document; elementName: String);
		перем dtd: DocTypeDecl; elementDecl: ElementDecl;
		нач
			сам.document := document;
			сам.elementName := elementName;
			dtd := document.GetDocTypeDecl();
			если dtd # НУЛЬ то
				elementDecl := dtd.GetElementDecl(elementName^);
				если elementDecl # НУЛЬ то
					decl := elementDecl.GetAttributeDecl(name^);
					если (decl # НУЛЬ) и ((value = НУЛЬ) или ~IsAllowedValue(value^)) то
						value := decl.defaultValue
					всё
				всё
			всё
		кон SetDocument;

		проц IsAllowedValue*(конст value: массив из симв8): булево;
		нач
			если decl = НУЛЬ то
				возврат истина
			иначе
				просей decl.GetType() из
				| CData: возврат истина
				| Id: возврат document.root.GetIdElement(elementName^, value) = НУЛЬ
				| IdRef: возврат истина
				| IdRefs: возврат истина
				| Entity: возврат истина
				| Entities: возврат истина
				| NmToken: возврат истина
				| NmTokens: возврат истина
				| Notation:
					возврат decl.allowedValues.Get(value) # НУЛЬ
				| Enumeration:
					возврат decl.allowedValues.Get(value) # НУЛЬ
				иначе
				всё
			всё
		кон IsAllowedValue;

		проц GetValue*(): String;
		нач
			возврат value
		кон GetValue;

		проц SetValue*(конст value: массив из симв8);
		нач
			если IsAllowedValue(value) то
				сам.value := NewString(value)
			всё
		кон SetValue;

		проц SetValueAsString*(value : String);
		нач
			утв(value # НУЛЬ);
			если IsAllowedValue(value^) то
				сам.value := value;
			всё;
		кон SetValueAsString;

		проц {перекрыта}Write*(w: Потоки.Писарь; context: динамическиТипизированныйУкль; level : цел32);
		нач
			если value = НУЛЬ то ЛогЯдра.пСтроку8("NIL attribute "); ЛогЯдра.пВК_ПС; возврат всё;
			w.пСимв8(Space); w.пСтроку8(name^);
			если Strings.ContainsChar(value^, '"', ложь) то
				w.пСтроку8("='"); w.пСтроку8(value^); w.пСимв8("'")
			иначе
				w.пСтроку8('="'); w.пСтроку8(value^); w.пСимв8('"')
			всё;
		кон Write;

	кон Attribute;

	TraverseProc* = проц  {делегат} (c: Content; data: динамическиТипизированныйУкль);

тип

	Element* = окласс (Container)
	перем
		root, parent : Element;
		name: String; (* { name # NIL } *)
		document: Document;
		attributes : Attribute;
		idAttribute: Attribute;

		проц &{перекрыта}Init*;
		нач
			Init^;
			root := НУЛЬ; parent := НУЛЬ;
			name := StrNoName;
			document := НУЛЬ; attributes := НУЛЬ;
			idAttribute := НУЛЬ;
		кон Init;

		проц {перекрыта}AddContent*(content: Content);
		нач
			утв(content # НУЛЬ);
			AddContent^(content);
			если (content суть Element) то
				просейТип content: Element делай
					если root # НУЛЬ то content.root := root иначе content.root := сам; всё;
					content.parent := сам;
				всё;
			всё;
		кон AddContent;

		проц {перекрыта}RemoveContent*(content : Content);
		нач
			(*ASSERT(content # NIL);*)
			если content=НУЛЬ то возврат всё; (*PH 12/13: removing nothing is logically correct *)
			RemoveContent^(content);
			если (content суть Element) то
				если (content(Element).parent = сам) то
					content(Element).parent := НУЛЬ;
					content(Element).root := НУЛЬ;
				всё;
			всё;
		кон RemoveContent;

		проц SetDocument(document: Document);
		перем
			dtd: DocTypeDecl; elementDecl: ElementDecl;
			enum : Objects.Enumerator; c : Content; p: динамическиТипизированныйУкль; attribute: Attribute;
		нач
			утв(document # НУЛЬ);
			сам.document := document;
			root := document.GetRoot();
			dtd := document.GetDocTypeDecl();
			если dtd # НУЛЬ то
				elementDecl := dtd.GetElementDecl(name^);
				если elementDecl # НУЛЬ то
					enum := elementDecl.GetAttributeDecls();
					нцПока enum.HasMoreElements() делай
						p := enum.GetNext();
						просейТип p: AttributeDecl делай
							attribute := GetAttribute(p.name^);
							если attribute # НУЛЬ то
								attribute.SetDocument(document, name);
							иначе
								нов(attribute);
								attribute.name := p.name;
								attribute.value := p.defaultValue;
								attribute.SetDocument(document, name);
								AddAttribute(attribute);
							всё;
							если p.type = Id то idAttribute := attribute всё
						всё
					кц
				всё
			всё;
			c := GetFirst();
			нцПока (c # НУЛЬ) делай
				если (c суть Element) то c(Element).SetDocument(document);
				аесли (c суть EntityRef) то c(EntityRef).SetDocument(document);
				всё;
				c := GetNext(c);
			кц;
		кон SetDocument;

		проц SetName*(конст name: массив из симв8);
		нач
			сам.name := NewString(name)
		кон SetName;


		(* См. также SetName, SetNameAsPStringJQ *)
		проц SetNameAsString*(name : String);
		нач
			утв(name # НУЛЬ);
			сам.name := name
		кон SetNameAsString;

		(* SetNameAsPStringJQ - аналог SetNameAsString *)
		проц SetNameAsPStringJQ*(name : UCS32.PStringJQ);
		нач
			утв(name # НУЛЬ);
			сам.name := UCS32.JQvNovU8(name^);
		кон SetNameAsPStringJQ;


		проц GetName*(): String;
		нач
			утв(name # НУЛЬ);
			возврат name
		кон GetName;

		проц GetId*(): String;
		нач
			если idAttribute # НУЛЬ то возврат idAttribute.value
			иначе возврат НУЛЬ
			всё
		кон GetId;

		проц GetIdElement*(конст name, id: массив из симв8): Element;
		перем contents: Objects.Enumerator; content: динамическиТипизированныйУкль; idString: String; retElement: Element;
		нач
			retElement := НУЛЬ;
			если сам.name^ = name то
				idString := GetId();
				если (idString # НУЛЬ) и (idString^ = id) то retElement := сам всё
			всё;
			если retElement = НУЛЬ то
				contents := GetContents();
				нцПока contents.HasMoreElements() и (retElement = НУЛЬ) делай
					content := contents.GetNext();
					если content суть Element то
						retElement := content(Element).GetIdElement(name, id)
					аесли content суть ExternalEntityRef то
						retElement := content(ExternalEntityRef).GetIdElement(name, id)
					всё
				кц
			всё;
			возврат retElement
		кон GetIdElement;

		проц AddAttribute*(attribute : Attribute);
		перем a : Attribute;
		нач {единолично}
			утв((attribute # НУЛЬ) и (attribute.next = НУЛЬ) и (attribute.name # НУЛЬ) и (attribute.name^ # ""));
			RemoveAttributeInternal(attribute.name^);
			если (attributes = НУЛЬ) то
				attributes := attribute;
			иначе
				a := attributes;
				нцПока (a.next # НУЛЬ) делай a := a.next (Attribute); кц;
				a.next := attribute;
			всё;
		кон AddAttribute;

		проц RemoveAttributeInternal(конст name : массив из симв8);
		перем a : Attribute;
		нач (* caller holds object lock *)
			если (attributes # НУЛЬ) то
				если (attributes.name^ = name) то
					если (attributes.next = НУЛЬ) то attributes := НУЛЬ; иначе attributes := attributes.next (Attribute); всё;
				иначе
					a := attributes;
					нцПока (a.next # НУЛЬ) и (a.next(Attribute).name^ # name) делай a := a.next (Attribute); кц;
					если (a.next # НУЛЬ) то
						a.next := a.next.next;
					всё;
				всё;
			всё;
		кон RemoveAttributeInternal;

		проц RemoveAttribute*(конст name: массив из симв8);
		нач {единолично}
			RemoveAttributeInternal(name);
		кон RemoveAttribute;

		проц SetAttributeValue*(конст name, value: массив из симв8);
		перем attribute: Attribute;
		нач
			нов(attribute); attribute.SetName(name); attribute.SetValue(value); AddAttribute(attribute)
		кон SetAttributeValue;

		проц GetAttribute*(конст name: массив из симв8): Attribute;
		перем a : Attribute;
		нач {единолично}
			a := attributes;
			нцПока (a # НУЛЬ) и (a.name^ # name) делай
				если (a.next = НУЛЬ) то a := НУЛЬ; иначе a := a.next (Attribute); всё;
			кц;
			возврат a;
		кон GetAttribute;
		
		
		(* См. также GetAttributeValueJQ *)
		проц GetAttributeValue*(конст name: массив из симв8): String;
		перем a : Attribute;
		нач
			a := GetAttribute(name);
			если (a # НУЛЬ) то
				возврат a.GetValue();
			иначе
				возврат НУЛЬ;
			всё;
		кон GetAttributeValue;

		(* См. также GetAttributeValue *)
		проц GetAttributeValueJQ*(конст name: UCS32.StringJQ): UCS32.PStringJQ;
		перем a : Attribute; v : String;
		нач
			a := GetAttribute(UCS32.JQvNovU8(name)^);
			если (a # НУЛЬ) то
				v := a.GetValue();
				если (v # НУЛЬ) то
					возврат UCS32.U8vNovJQ(v^) всё всё;
			возврат НУЛЬ кон GetAttributeValueJQ;


		проц GetAttributes*(): Objects.Enumerator;
		перем a : Attribute; array : Objects.PTRArray; enumerator : Objects.ArrayEnumerator; i, nofAttributes : цел32;
		нач {единолично}
			nofAttributes := 0;
			a := attributes;
			нцПока (a # НУЛЬ) делай
				увел(nofAttributes);
				если (a.next # НУЛЬ) то a := a.next (Attribute); иначе a := НУЛЬ; всё;
			кц;
			нов(array, nofAttributes);
			a := attributes; i := 0;
			нцПока (a # НУЛЬ) делай
				array[i] := a; увел(i);
				если (a.next # НУЛЬ) то a := a.next (Attribute); иначе a := НУЛЬ; всё;
			кц;
			нов(enumerator, array);
			возврат enumerator;
		кон GetAttributes;

		проц HasAttribute*(конст name : массив из симв8) : булево;
		нач
			возврат GetAttribute(name) # НУЛЬ;
		кон HasAttribute;

		проц GetRoot*(): Element;
		нач
			возврат root
		кон GetRoot;

		проц GetParent*(): Element;
		нач
			возврат parent
		кон GetParent;

		проц GetFirstChild*() : Element;
		перем c : Content;
		нач
			c := GetFirst();
			нцПока (c # НУЛЬ) и ~(c суть Element) делай
				c := GetNext(c);
			кц;
			если (c # НУЛЬ) то
				возврат c(Element);
			иначе
				возврат НУЛЬ;
			всё;
		кон GetFirstChild;

		проц GetNextSibling*(): Element;
		перем c : Content;
		нач
			c := next;
			нцПока (c # НУЛЬ) и ~(c суть Element) делай c := c.next; кц;
			если (c # НУЛЬ) то
				возврат c(Element);
			иначе
				возврат НУЛЬ;
			всё;
		кон GetNextSibling;

		проц GetPreviousSibling*() : Element;
		перем c : Content;
		нач
			c := previous;
			нцПока	(c # НУЛЬ) и ~(c суть Element) делай c := c.previous; кц;
			если (c # НУЛЬ) то
				возврат c(Element);
			иначе
				возврат НУЛЬ;
			всё;
		кон GetPreviousSibling;

		проц Traverse*(traverseProc: TraverseProc; data: динамическиТипизированныйУкль);
		перем c : Content;
		нач
			утв(traverseProc # НУЛЬ);
			traverseProc(сам, data);
			c := GetFirst();
			нцПока (c # НУЛЬ) делай
				если (c суть Element) то c(Element).Traverse(traverseProc, data);
				иначе traverseProc(c, data);
				всё;
				c := GetNext(c);
			кц;
		кон Traverse;

		проц WriteAttributes*(w: Потоки.Писарь; context: динамическиТипизированныйУкль; level : цел32);
		перем a : Attribute;
		нач {единолично}
			a := attributes;
			нцПока (a # НУЛЬ) делай
				a.Write(w, context, level + 1);
				если (a.next # НУЛЬ) то
					a := a.next (Attribute);
				иначе
					a := НУЛЬ;
				всё;
			кц;
		кон WriteAttributes;

		проц {перекрыта}Write*(w: Потоки.Писарь; context: динамическиТипизированныйУкль; level : цел32);
		перем c : Content;
		нач
			w.пСимв8('<'); w.пСтроку8(name^);
			WriteAttributes(w, context, level);
			c := GetFirst();
			если (c = НУЛЬ) то w.пСтроку8("/>")
			иначе
				w.пСимв8('>');
				если ~(c суть ArrayChars)  то NewLine(w, level + 1) всё;
				c.Write(w, context,  level + 1);
				нцПока (GetNext(c) # НУЛЬ) делай c := GetNext(c); NewLine(w, level + 1); c.Write(w, context, level + 1); кц;
				если ~(c суть ArrayChars)  то NewLine(w, level); всё;
				w.пСтроку8("</"); w.пСтроку8(name^); w.пСимв8('>');
			всё;
		кон Write;

	кон Element;

тип

	GeneratorProcedure* = проц(): Element;

	ElementEntry* = окласс
	перем
		name- : массив 32 из симв8;
		generator-: GeneratorProcedure;
		generatorModule-, generatorProcedure- : Modules.Name;

		проц &Init*;
		нач
			generator := НУЛЬ;
			копируйСтрокуДо0("", generatorModule); копируйСтрокуДо0("", generatorProcedure);
		кон Init;

	кон ElementEntry;

	ElementArray* = укль на массив из ElementEntry;

тип

	ElementRegistry* = окласс
	перем
		generators: Objects.Dictionary;
		timestamp : цел32;

		проц  &Init*;
		перем arrDict: Objects.ArrayDict;
		нач
			нов(arrDict); generators := arrDict;
			timestamp := 0;
		кон Init;

		проц RegisterElement*(конст name: массив из симв8; generator: GeneratorProcedure);
		перем e: ElementEntry; p: динамическиТипизированныйУкль;
		нач
			утв(generator # НУЛЬ);
			p := generators.Get(name);
			если p = НУЛЬ то
				нов(e); копируйСтрокуДо0(name, e.name);  e.generator := generator; generators.Add(name, e)
			иначе (* redefinition *)
				p(ElementEntry).generator := generator
			всё;
			увел(timestamp);
		кон RegisterElement;

		проц RegisterElementByName*(конст name: массив из симв8; конст generatorModule, generatorProcedure: Modules.Name);
		перем e: ElementEntry; p: динамическиТипизированныйУкль;
		нач
			утв((generatorModule # "") и (generatorProcedure # ""));
			p := generators.Get(name);
			если p = НУЛЬ то
				нов(e);
				копируйСтрокуДо0(name, e.name);
				e.generatorModule := generatorModule;
				e.generatorProcedure := generatorProcedure;
				generators.Add(name, e)
			иначе (* redefinition *)
				p(ElementEntry).generatorModule := generatorModule;
				p(ElementEntry).generatorProcedure := generatorProcedure;
			всё;
			увел(timestamp);
		кон RegisterElementByName;

		проц UnregisterElement*(конст name: массив из симв8);
		нач
			generators.Remove(name);
			увел(timestamp);
		кон UnregisterElement;

		проц InstantiateElement*(конст name: массив из симв8): Element;
		перем element : Element; entry : ElementEntry; p: динамическиТипизированныйУкль; generator : GeneratorProcedure;
		нач
			element := НУЛЬ;
			p := generators.Get(name);
			если (p # НУЛЬ) то entry := p (ElementEntry); всё;
			если (entry # НУЛЬ) то
				если entry.generator # НУЛЬ то
					element := entry.generator();
				иначе
					дайПроцПоИмени(entry.generatorModule, entry.generatorProcedure, generator);
					если (generator # НУЛЬ) то
						element := generator();
					иначе
						ЛогЯдра.пСтроку8("Warning: XML.ElementRegistry.InstantiateElement: Factory procedure ");
						ЛогЯдра.пСтроку8(entry.generatorModule); ЛогЯдра.пСтроку8("."); ЛогЯдра.пСтроку8(entry.generatorProcedure);
						ЛогЯдра.пСтроку8(" not found."); ЛогЯдра.пВК_ПС;
					всё
				всё
			всё;
			возврат element;
		кон InstantiateElement;

		(** fof, late time instantiation to be able to react on generator properties *)
		проц InstantiateLate*(e: Element): Element;
		нач
			возврат e (* stub *)
		кон InstantiateLate;

		проц GetTimestamp*() : цел32;
		нач
			возврат timestamp;
		кон GetTimestamp;

		проц GetElements*() : ElementArray;
		перем enumerator : Objects.Enumerator; nofElements, i : цел32; ptr : динамическиТипизированныйУкль; ea : ElementArray;
		нач
			enumerator := generators.GetEnumerator();
			nofElements := 0;
			нцПока enumerator.HasMoreElements() делай увел(nofElements); ptr := enumerator.GetNext(); кц;
			если (nofElements = 0) то
				ea := НУЛЬ;
			иначе
				нов(ea, nofElements);
				enumerator.Reset;
				i := 0;
				нцПока (i < nofElements) и enumerator.HasMoreElements() делай
					ptr := enumerator.GetNext();
					если (ptr # НУЛЬ) и (ptr суть ElementEntry) то
						ea[i] := ptr (ElementEntry);
					иначе
						ea[i] := НУЛЬ;
					всё;
					увел(i);
				кц;
			всё;
			возврат ea;
		кон GetElements;

	кон ElementRegistry;

перем
	StrNoName : Strings.String;

(**	Write an 0X-terminated UTF8 string to a stream (excl. 0X). XML special characters are escaped.
	Also works for ASCII strings. *)
проц UTF8ToStream*(конст string : массив из симв8; w : Потоки.Писарь; перем res : целМЗ);
перем codeLength, stringLength, i : размерМЗ; ch : симв8;
нач
	утв(w # НУЛЬ);
	res := Ok;
	stringLength := длинаМассива(string);
	i := 0;
	нцПока (res = Ok) и (i < stringLength) и (string[i] # 0X) делай
		ch := string[i];
		codeLength := кодСимв8(UCS32.CodeLength[кодСимв8(ch)]);
		если (codeLength = 1) то
			просей ch из
				|'&': w.пСтроку8("&amp;");
				|'<': w.пСтроку8("&lt;");
				|'>': w.пСтроку8("&gt;");
				|'"': w.пСтроку8("&quot;");
				|"'": w.пСтроку8("&apos;");
			иначе
				w.пСимв8(ch);
			всё;
		аесли (codeLength > 0) и (i + codeLength <= stringLength) то
			w.пБайты(string, i, codeLength);
		иначе
			res := InvalidString;
		всё;
		увел(i, codeLength);
	кц;
	если (i >= stringLength) или (string[i] # 0X) то
		res := InvalidString;
	всё;
кон UTF8ToStream;

(**	Read an UTF8 string from a stream and undo escaping of XML special characters. If the string array is to small, the string
	will be truncated and an error will be reported. <string> is always a valid 0X-terminated string.
	Also works for ASCII strings. *)
проц UTF8FromStream*(перем string : массив из симв8; r : Потоки.Чтец; перем res : целМЗ);
перем ch : симв8;  escapeBuffer : массив 8 из симв8; escaping : булево; escapeIdx, codeLength, stringLength, i, len, actLen : размерМЗ;

	проц FlushEscapeBuffer;
	перем j : цел32;
	нач
		если escaping то
			j := 0;
			нцПока (i < stringLength - 1) и (escapeBuffer[j] # 0X) делай
				string[i] := escapeBuffer[j];
				увел(i); увел(j);
			кц;
			если (escapeBuffer[j] # 0X) то res := BufferError; всё;
			escaping := ложь;
		всё;
	кон FlushEscapeBuffer;

	проц CheckEscapeBuffer;
	нач
		утв(i < stringLength);
		если (escapeIdx = 4) то
			если (escapeBuffer = "&lt;") то string[i] := "<"; увел(i); escaping := ложь;
			аесли (escapeBuffer = "&gt;") то string[i] := ">"; увел(i); escaping := ложь;
			всё;
		аесли (escapeIdx = 5) и (escapeBuffer = "&amp;") то
			string[i] := "&"; увел(i); escaping := ложь;
		аесли (escapeIdx = 6) то
			если (escapeBuffer = "&quot;") то string[i] := '"'; увел(i); escaping := ложь;
			аесли (escapeBuffer = "&apos;") то string[i] := "'"; увел(i); escaping := ложь;
			всё;
		аесли (escapeIdx > 6) то
			FlushEscapeBuffer;
		всё;
	кон CheckEscapeBuffer;

нач
	утв((r # НУЛЬ) и (длинаМассива(string) >= 1));
	res := Ok;
	escaping := ложь;
	stringLength := длинаМассива(string);
	i := 0;
	ch := r.ПодглядиСимв8();
	нцПока (res = Ok) и (ch # 0X) и (i < stringLength - 1) делай
		codeLength := кодСимв8(UCS32.CodeLength[кодСимв8(ch)]);
		если (codeLength = 1) то
			ch := r.чИДайСимв8();
			если (ch = "&") то
				FlushEscapeBuffer;
				escaping := истина;
				escapeBuffer[0] := ch;
				escapeBuffer[1] := 0X;
				escapeIdx := 1;
			аесли escaping то
				escapeBuffer[escapeIdx] := ch;
				escapeBuffer[escapeIdx + 1] := 0X;
				увел(escapeIdx);
				CheckEscapeBuffer;
			иначе
				string[i] := ch;
				увел(i);
			всё;
		аесли (codeLength > 0) то
			FlushEscapeBuffer;
			len := матМинимум(codeLength, stringLength - 1 - i);
			если (len > 0) то
				r.чБайты(string, i, len, actLen);
				если (actLen # len) то
					res := InvalidString;
				аесли (len # codeLength) то
					res := BufferError;
				всё;
				увел(i, actLen);
			иначе
				res := BufferError;
			всё;
		иначе
			res := InvalidString;
		всё;
		ch := r.ПодглядиСимв8();
	кц;
	string[i] := 0X;
кон UTF8FromStream;

проц NewLine(w : Потоки.Писарь; level : цел32);
нач
	w.пВК_ПС; нцПока level > 0 делай w.пСимв8(Tab); умень(level) кц
кон NewLine;

проц NewString(конст value: массив из симв8): String;
перем s: String;
нач
	нов(s, DynamicStrings.StringLength(value) + 1);
	копируйСтрокуДо0(value, s^);
	возврат s
кон NewString;

нач
	StrNoName := Strings.NewString("");
кон XML.
