модуль YMF754;	(** AUTHOR "mvt"; PURPOSE "Sound driver for Yamaha YMF754"; *)

использует
	НИЗКОУР, PCI, Strings, Files, Machine, Modules, SoundDevices,
	Plugins, Objects, Kernel, ЛогЯдра;

конст
	(* Driver related constants *)
	Logging = истина; (* output to kernel log? *)
	FNameInstRAM = "YMF754.Bin"; (* name of instruction RAM file *)
	PluginDescPrefix = "Sound driver for Yamaha ";
	BufferSizeMS = 100; (* size of sound buffer in milliseconds *)

	(* Device related constants *)
	SizeDSPInstRAM = 80H;
	SizeCtrlInstRAM = 3000H;
	NofPlaySlots = 64;
	NofPlaySlotPairs = NofPlaySlots DIV 2;
	NofBanks = 2;
	NofMixerChannels = 6;
	NofNativeFreq = 7;
	WorkBitTimeout = 250000;

	(* PCI configuration register offsets *)
	PCIRegDS1EControl = 48H;

	(* PCI Audio control register offsets *)
	PCCRegAC97CmdData = 0060H;
	PCCRegAC97CmdAddress = 0062H;
	PCCRegAC97StatusData = 0064H;
	PCCRegAC97StatusAddress = 0066H;

	PCCRegVolLegOut = 0080H;
	PCCRegVolDACOut = 0084H;
	PCCRegVolZVOut = 0088H;
	PCCRegVolSecAC97Out = 008CH;
	PCCRegVolADCOut = 0090H;
	PCCRegVolADCIn = 00A8H;
	PCCRegVolRECIn = 00ACH;
	PCCRegVolP44Out = 00B0H;
	PCCRegVolSPDIFOut = 00B8H;

	PCCRegADCSlotSamplingRate = 00C0H;
	PCCRegADCSlotFormat = 00C8H;

	PCCRegStatus = 0100H;
	PCCRegControlSelect = 0104H;
	PCCRegMode = 0108H;
	PCCRegConfig = 0114H;
	PCCRegPlayCtrlSize = 0140H;
	PCCRegRecCtrlSize = 0144H;
	PCCRegMapOfRec = 0150H;
	PCCRegMapOfEff = 0154H;
	PCCRegPlayCtrlBase = 0158H;
	PCCRegRecCtrlBase = 015CH;
	PCCRegEffCtrlBase = 0160H;
	PCCRegWorkBase = 0164H;

	PCCRegDSPInstRAM = 1000H;
	PCCRegCtrlInstRAM = 4000H;

	(* AC97 control register offsets *)
	ACCRegReset = 00H;
	ACCRegVolMasterOut = 02H;
	ACCRegVolMic = 0EH;
	ACCRegVolLineIn = 10H;
	ACCRegVolCD = 12H;
	ACCRegVolPCM = 18H;
	ACCRegRecordSelect = 1AH;
	ACCRegRecordGain= 1CH;

тип
	BufferListener = SoundDevices.BufferListener;
	Buffer = SoundDevices.Buffer;
	MixerChangedProc = SoundDevices.MixerChangedProc;

	(* Native frequencies table *)
	NativeFreqTable = массив NofNativeFreq из запись
		hz: цел32; (* frequency in Hz *)
		valRec: цел32; (* corresponding value to write to record register *)
		valLpfK: цел32; (* corresponding value to write to LpfK registers *)
		valLpfQ: цел32; (* corresponding value to write to LpfQ registers *)
	кон;

	(* Mixer channel listener list type *)
	ListMixerChangedProc = укль на запись
		proc: MixerChangedProc;
		next: ListMixerChangedProc
	кон;

	(* Buffer list type *)
	ListBuffer = укль на запись
		buff: Buffer;
		next: ListBuffer;
	кон;

	(* Player channel list type *)
	ListPlayerChannel = укль на запись
		channel: PlayerChannel;
		next: ListPlayerChannel;
	кон;

	(* String types *)
	NameStr = массив 32 из симв8;
	DescStr = массив 128 из симв8;

	(* Buffer type for playing and recording data *)
	PlayRecBuffer = укль на массив из симв8;

	(* PCI Audio play control data table *)
	PlayCtrlDataTable = запись
		numOfPlay: цел32;
		playSlotBase: массив NofPlaySlots из цел32;
	кон;

	(* PCI Audio record slot control data *)
	RecSlotCtrlData = запись
		recSlotREC: массив NofBanks из RecBank;
		recSlotADC: массив NofBanks из RecBank;
	кон;

	(* Bank for record slot control data
		For description of the fields, see YMF754 hardware specification manual *)
	RecBank = запись;
		pgBase,
		pgLoopEndAdr,
		pgStartAdr,
		numOfLoops: цел32;
	кон;

	(* Bank for play slot control data
		For description of the fields, see YMF754 hardware specification manual *)
	PlayBank = запись
		format, loopDefault, pgBase, pgLoop, pgLoopEnd, pgLoopFrac,
		pgDeltaEnd, lpfKEnd, egGainEnd, lchGainEnd, rchGainEnd, effect1GainEnd,
		effect2GainEnd, effect3GainEnd, lpfQ, status, numOfFrames, loopCount,
		pgStart, pgStartFrac, pgDelta, lpfK, egGain, lchGain,
		rchGain, effect1Gain, effect2Gain, effect3Gain, lpfD1, lpfD2: цел32;
	кон;

	(* PCI Audio play slot control data *)
	PlaySlotCtrlData = массив NofBanks из PlayBank;

	(* Active object for calling buffer listeners *)
	BufferListenerCaller = окласс
		перем
			bufferListener: BufferListener; (* this one will be called - NIL if none is registered *)
			first, last: ListBuffer; (* first and last pointer of queue *)
			close: булево; (* close state: return all buffers and end ACTIVE part *)
			actualListener: BufferListener; (* used by ACTIVE part *)
			actualBuffer: Buffer; (* used by ACTIVE part *)

		(* Constructor *)
		проц &Constr*;
		нач
			bufferListener := НУЛЬ;
			first := НУЛЬ;
			last := НУЛЬ;
			close := ложь;
		кон Constr;

		(* Go to close state *)
		проц Close;
		нач {единолично}
			close := истина;
		кон Close;

		(* Register a new buffer listener *)
		проц RegisterBufferListener(bufferListener: BufferListener);
		нач {единолично}
			сам.bufferListener := bufferListener;
		кон RegisterBufferListener;

		(* Queue a buffer to be returned by listener *)
		проц ReturnBuffer(buffer: Buffer);
		перем item: ListBuffer;
		нач {единолично}
			если bufferListener = НУЛЬ то возврат всё;
			нов(item);
			item.buff := buffer;
			item.next := НУЛЬ;
			если first = НУЛЬ то
				first := item;
				last := item;
			иначе
				last.next := item;
				last := item;
			всё;
		кон ReturnBuffer;

	(* Active part of object *)
	нач {активное, SAFE, приоритет(Objects.High)}
		нцПока ~close делай
			нач {единолично}
				дождись((first # НУЛЬ) или close);
				если ~close то
					(* get actual listener and buffer for calling afterwards *)
					actualListener := bufferListener;
					actualBuffer := first.buff;
					first := first.next;
				всё;
			кон;
			(* Do listener calls outside of EXCLUSIVE region! *)
			если close то
				(* return all buffers *)
				нцПока first # НУЛЬ делай
					bufferListener(first.buff);
					first := first.next;
				кц;
			иначе
				(* return actual buffer *)
				actualListener(actualBuffer);
			всё;
		кц;
		bufferListener := НУЛЬ;
	кон BufferListenerCaller;

	(* PCI Audio control object *)
	PCIAudioControl = окласс
		перем base: адресВПамяти;
		CntrlInst1E: булево; (* What Cntrl code to load: CntrlInst or CntrlInst1E *)

		(* Constructor *)
		проц &Constr*(base: адресВПамяти; CntrlInst1E: булево);
		нач
			сам.base := base;
			сам.CntrlInst1E := CntrlInst1E;
		кон Constr;

		(* Routines for reading and writing PCI Audio registers *)

		проц RegRead8(offset: цел32): цел32;
		нач
			возврат НИЗКОУР.прочти8битПоАдресу(base + offset);
		кон RegRead8;

		проц RegRead16(offset: цел32): цел32;
		нач
			возврат НИЗКОУР.прочти16битПоАдресу(base + offset);
		кон RegRead16;

		проц RegRead32(offset: цел32): цел32;
		нач
			возврат НИЗКОУР.прочти32битаПоАдресу(base + offset);
		кон RegRead32;

		проц RegWrite8(offset: цел32; val: цел32);
		нач
			НИЗКОУР.запиши8битПоАдресу(base + offset, val);
		кон RegWrite8;

		проц RegWrite16(offset: цел32; val: цел32);
		нач
			НИЗКОУР.запиши16битПоАдресу(base + offset, val);
		кон RegWrite16;

		проц RegWrite32(offset: цел32; val: цел32);
		нач
			НИЗКОУР.запиши32битаПоАдресу(base + offset, val);
		кон RegWrite32;

		(* Initialize PCI Audio device *)
		проц Initialize;
		перем
			cnt: цел32;
			t: Kernel.Timer;
		нач {единолично}
			(* Mute DAC volume before resetting *)
			RegWrite32(PCCRegVolDACOut, 0);

			(* Reset PCI Audio *)
			RegWrite32(PCCRegConfig, 0);
			cnt := 0;
			нцПока (cnt < WorkBitTimeout) и (1 в НИЗКОУР.подмениТипЗначения(мнвоНаБитахМЗ, RegRead32(PCCRegStatus))) делай
				увел(cnt);
			кц;
			RegWrite32(PCCRegMode, 10000H);
			RegWrite32(PCCRegMode, 0);

			(* Init registers *)
			RegWrite32(PCCRegMapOfRec, 0);
			RegWrite32(PCCRegMapOfEff, 0);
			RegWrite32(PCCRegPlayCtrlBase, 0);
			RegWrite32(PCCRegRecCtrlBase, 0);
			RegWrite32(PCCRegEffCtrlBase, 0);
			RegWrite32(PCCRegWorkBase, 0);

			(* Load instruction code *)
			LoadInstructionCode;

			(* Enable DSP *)
			RegWrite32(PCCRegConfig, 1);

			(* Wait until instruction code takes effect *)
			нов(t);
			cnt := 50; (* timeout = 50*2ms *)
			нцПока (cnt >= 0) и ~((размер16_от(PlayBank) DIV 4 = RegRead32(PCCRegPlayCtrlSize)) и (размер16_от(RecBank) DIV 4 = RegRead32(PCCRegRecCtrlSize))) делай
					t.Sleep(2); (* sleep for 2ms *)
					умень(cnt);
			кц;
			утв(cnt >= 0); (* timeout - instruction code could not be correctly loaded! *)

			(* Sleep for 10ms before volume init to prevent scratching sounds *)
			t.Sleep(10);

			(* Mute unused native volumes *)
			RegWrite32(PCCRegVolLegOut, 0);
			RegWrite32(PCCRegVolZVOut, 0);
			RegWrite32(PCCRegVolSecAC97Out, 0);
			RegWrite32(PCCRegVolADCOut, 0);
			RegWrite32(PCCRegVolRECIn, 0);
			RegWrite32(PCCRegVolP44Out, 0);
			RegWrite32(PCCRegVolSPDIFOut, 0);

			(* Maximize DAC volume *)
			RegWrite32(PCCRegVolDACOut, 3FFF3FFFH);

			(* Minimize ADC volume (record channel volume) *)
			RegWrite32(PCCRegVolADCIn, 0);

		кон Initialize;

		(* Uninitialize PCI Audio device *)
		проц UnInitialize;
		перем cnt: цел32;
		нач {единолично}
			(* Mute volumes *)
			RegWrite32(PCCRegVolDACOut, 0);
			RegWrite32(PCCRegVolADCIn, 0);

			(* Reset PCI Audio *)
			RegWrite32(PCCRegConfig, 0);
			cnt := 0;
			нцПока (cnt < WorkBitTimeout) и (1 в НИЗКОУР.подмениТипЗначения(мнвоНаБитахМЗ, RegRead32(PCCRegStatus))) делай
				увел(cnt);
			кц;
			RegWrite32(PCCRegMode, 10000H);

			(* Init registers *)
			RegWrite32(PCCRegMapOfRec, 0);
			RegWrite32(PCCRegMapOfEff, 0);
			RegWrite32(PCCRegPlayCtrlBase, 0);
			RegWrite32(PCCRegRecCtrlBase, 0);
			RegWrite32(PCCRegEffCtrlBase, 0);
			RegWrite32(PCCRegWorkBase, 0);
		кон UnInitialize;

		(* Load instruction code into device RAM *)
		проц LoadInstructionCode;
		перем
			f: Files.File;
			r: Files.Reader;
			offset, data: цел32;
		нач
			f := Files.Old(FNameInstRAM);
			утв(f # НУЛЬ); (* assert existance of file *)
			утв(f.Length() = SizeDSPInstRAM + SizeCtrlInstRAM * 2); (* assert length of file *)
			Files.OpenReader(r, f, 0);
			offset := PCCRegDSPInstRAM; (* begin with DSP instruction code *)
			нцПока offset < (PCCRegCtrlInstRAM + SizeCtrlInstRAM) делай
				r.чЦел32_мз(data);
				RegWrite32(offset, data);
				увел(offset, размер16_от(цел32));
				если offset = PCCRegDSPInstRAM + SizeDSPInstRAM то
					(* Switch to controller instruction code *)
					offset := PCCRegCtrlInstRAM;
					(* Skip CtrlInst code *)
					если CntrlInst1E то
						r.ПропустиБайты(SizeCtrlInstRAM);
					всё;
				всё;
			кц;
		кон LoadInstructionCode;

	кон PCIAudioControl;

	(* AC97 control object *)
	AC97Control = окласс
		перем PCC: PCIAudioControl;

		(* Constructor *)
		проц &Constr*(PCC: PCIAudioControl);
		нач
			сам.PCC := PCC;
		кон Constr;

		(* Routines for reading and writing AC97 registers (always 16 Bit) *)

		проц RegRead16(offset: цел32): цел32;
		нач {единолично}
			PCC.RegWrite16(PCCRegAC97CmdAddress, offset + 8000H);
			утв(BusyWait());
			возврат PCC.RegRead16(PCCRegAC97StatusData);
		кон RegRead16;

		проц RegWrite16(offset: цел32; val: цел32);
		нач {единолично}
			PCC.RegWrite16(PCCRegAC97CmdAddress, offset);
			PCC.RegWrite16(PCCRegAC97CmdData, val);
			утв(BusyWait());
		кон RegWrite16;

		(* Wait while AC97 controller is busy. Return FALSE when timeout occurs. *)
		проц BusyWait(): булево;
		перем t: Kernel.MilliTimer;
		нач
			Kernel.SetTimer(t, 2); (* timeout is 2 ms *)
			нцПока ~Kernel.Expired(t) делай
				если ~(15 в НИЗКОУР.подмениТипЗначения(мнвоНаБитахМЗ, PCC.RegRead16(PCCRegAC97StatusAddress))) то
					возврат истина;
				всё;
			кц;
			возврат ложь;
		кон BusyWait;

		проц Reset;
		нач
			RegWrite16(ACCRegReset, 0);
			RegWrite16(ACCRegRecordSelect, 0505H); (* select stereo mix (also works for mono) *)
		кон Reset;

	кон AC97Control;

	(** MixerChannel object, allows to set and get volume information *)
	MixerChannel* = окласс(SoundDevices. MixerChannel)
		перем
			drv: Driver; (*  driver object *)
			name: NameStr; (* name of mixer channel *)
			desc: DescStr; (* description of mixer channel *)
			regVol: цел32; (* volume register offset *)
			inverted: булево; (* is maximum register value = maximum volume or inverted? *)
			volBits: цел32; (* number of bits for volume range *)
			volume: цел32; (* current volume *)
			mute: булево; (* current mute state *)

		(* Constructor *)
		проц &Constr*(drv: Driver; regVol: цел32; inverted, mute: булево; name: NameStr; desc: DescStr);
		перем tmpVol: цел32;
		нач
			сам.drv := drv;
			сам.regVol := regVol;
			сам.inverted := inverted;
			сам.name := name;
			сам.desc := desc;

			(* Get number of volume bits *)
			drv.ACC.RegWrite16(regVol, 803FH); (* set first 6 bits and mute bit *)
			tmpVol := drv.ACC.RegRead16(regVol); (* read back volume value *)
			сам.volBits := 0;
			нцПока нечётноеЛи¿(tmpVol) делай
				tmpVol := логСдвиг(tmpVol, -1);
				увел(сам.volBits);
			кц;

			сам.mute := mute; (* set mute state of channel *)
			SetVolume(128); (* set volume to middle position *)
		кон Constr;

		(* Call mixer channel listeners *)
		проц CallListeners;
		перем item: ListMixerChangedProc;
		нач
			item := drv.mixerChannelListeners;
			нцПока item # НУЛЬ делай
				item.proc(сам);
				item := item.next;
			кц;
		кон CallListeners;

		(** Return the name (as UTF-8 Unicode) of this channel *)
		проц {перекрыта}GetName*(перем name : массив из симв8);
		нач
			копируйСтрокуДо0(сам.name, name);
		кон GetName;

		(** Return the description string (as UTF-8 Unicode) of this channel *)
		проц {перекрыта}GetDesc*(перем desc : массив из симв8);
		нач
			копируйСтрокуДо0(сам.desc, desc);
		кон GetDesc;

		(** Set the volume of the channel (0-255) *)
		проц {перекрыта}SetVolume*(volume : цел32);
		нач {единолично}
			утв((volume >= 0) и (volume <= 255));
			сам.volume := volume;
			если inverted то
				volume := 255 - volume;
			всё;
			volume := логСдвиг(volume, volBits - 8); (* adapt volume resolution *)
			volume := volume + логСдвиг(volume, 8); (* set L and R (also works for mono) *)
			если сам.mute то
				volume := НИЗКОУР.подмениТипЗначения(цел32, НИЗКОУР.подмениТипЗначения(мнвоНаБитахМЗ, volume) + {15});
			всё;
			drv.ACC.RegWrite16(regVol, volume);
			CallListeners;
		кон SetVolume;

		(** Get the volume of the channel (0-255) *)
		проц {перекрыта}GetVolume*() : цел32;
		нач
			возврат сам.volume;
		кон GetVolume;

		(** Mute or unmute the channel *)
		проц {перекрыта}SetMute*(mute : булево);
		перем volume: мнвоНаБитахМЗ;
		нач {единолично}
			сам.mute := mute;
			volume := НИЗКОУР.подмениТипЗначения(мнвоНаБитахМЗ, drv.ACC.RegRead16(regVol));
			если mute то
				volume := volume + {15};
			иначе
				volume := volume - {15};
			всё;
			drv.ACC.RegWrite16(regVol, НИЗКОУР.подмениТипЗначения(цел32, volume));
			CallListeners;
		кон SetMute;

		(** Get the mute-state of the channel *)
		проц {перекрыта}GetIsMute*() : булево;
		нач
			возврат сам.mute;
		кон GetIsMute;

	кон MixerChannel;


	(** Channel object *)
	Channel* = окласс(SoundDevices.Channel)
		перем
			drv: Driver; (* driver object *)
			bufferListenerCaller: BufferListenerCaller; (* buffer listener call object *)
			buffFirst, buffLast: ListBuffer; (* buffer queue (FIFO) *)
			buffFirstPos: размерМЗ; (* position in currently used buffer *)
			playRecBuff: PlayRecBuffer; (* ring buffer for playing/recording *)
			playRecBuffSize: цел32; (* size of ring buffer for playing/recording *)
			playRecBuffPhys: цел32; (* physical address of ring buffer *)
			playRecBuffPos: размерМЗ; (* position marker in ring buffer in bytes *)
			samplePosition: размерМЗ; (* current absolute position in samples *)
			bytesPerSampleExp: цел32; (* bytesPerSampleExp^2 = bytes per sample *)
			running: булево; (* is channel currently playing/recording? *)
			closed: булево; (* has channel been closed? *)
			volume: цел32; (* current volume *)

		(* Constructor *)
		проц &Constr*(drv: Driver);
		нач
			сам.drv := drv;
			buffFirst := НУЛЬ;
			buffLast := НУЛЬ;
			buffFirstPos := 0;
			samplePosition := 0;
			running := ложь;
			closed := ложь;
			volume := 0;
			нов(bufferListenerCaller);
		кон Constr;

		(** Register a delegate that handles reuse / processing of buffers.
			Only one Buffer listener can be registered per channel.
		*)
		проц {перекрыта}RegisterBufferListener*(bufferListener : BufferListener);
		нач {единолично}
			утв(~closed);
			bufferListenerCaller.RegisterBufferListener(bufferListener);
			если Logging то
				если bufferListener = НУЛЬ то
					ЛогЯдра.пСтроку8("YMF754 - BufferListener unregistered");
				иначе
					ЛогЯдра.пСтроку8("YMF754 - BufferListener registered");
				всё;
				ЛогЯдра.пВК_ПС;
			всё;
		кон RegisterBufferListener;

		(** Queue another buffer for playing / recording *)
		проц {перекрыта}QueueBuffer*(x : Buffer);
		перем buffItem: ListBuffer;
		нач {единолично}
			утв(~closed);
			утв(x # НУЛЬ);
			утв(x.data # НУЛЬ);
			утв(x.len остОтДеленияНа логСдвиг(1, bytesPerSampleExp) = 0); (* Buffer length must be sample aligned *)
			нов(buffItem);
			buffItem.buff := x;
			buffItem.next := НУЛЬ;
			если buffFirst = НУЛЬ то
				buffFirst := buffItem;
			иначе
				buffLast.next := buffItem;
			всё;
			buffLast := buffItem;
		кон QueueBuffer;

		(* Removes current buffer from queue and returns it to listener (if registered) - queue must not be empty! *)
		проц ReturnCurrentBuffer;
		нач
			bufferListenerCaller.ReturnBuffer(buffFirst.buff);
			buffFirst := buffFirst.next;
			buffFirstPos := 0;
		кон ReturnCurrentBuffer;

		(* Prepare data - this procedure is called for each channel every time PCI Audio generates an interrupt *)
		проц PrepareData;
		нач
			СТОП(99); (* abstract *)
		кон PrepareData;

		(* Activate channel - init banks and start playback/record *)
		проц Activate;
		нач
			СТОП(99); (* abstract *)
		кон Activate;

		(* Deactivate channel - stop playback/record *)
		проц Deactivate;
		нач
			СТОП(99); (* abstract *)
		кон Deactivate;

		(* Set volume for play or record channel (0-255) *)
		проц SetPlayRecVol(volume: цел32);
		нач
			СТОП(99); (* abstract *)
		кон SetPlayRecVol;

		(** Set the current volume of the channel (8.8 bit fixed point value) *)
		проц {перекрыта}SetVolume*(volume : цел32);
		нач {единолично}
			утв(~closed);
			утв(volume >= 0);
			сам.volume := volume;
			если volume > 255 то (* 1.0 fix point value is maximum volume *)
				volume := 255;
			всё;
			SetPlayRecVol(volume);
		кон SetVolume;

		(** Get the current volume of the channel (8.8 bit fixed point value) *)
		проц {перекрыта}GetVolume*() : цел32;
		нач
			утв(~closed);
			возврат сам.volume;
		кон GetVolume;

		(** GetPosition returns the current position in samples. MAY CHANGE TO SIGNED64*)
		проц {перекрыта}GetPosition*() : цел32;
		нач
			утв(~closed);
			возврат samplePosition(цел32);
		кон GetPosition;

		(** Start playing / recording *)
		проц {перекрыта}Start*;
		нач {единолично}
			утв(~closed);
			если ~running то
				Activate;
				running := истина;
			всё;
		кон Start;

		(** Pause playing / recording, no buffers are returned *)
		проц {перекрыта}Pause*;
		нач {единолично}
			утв(~closed);
			PauseChannel;
		кон Pause;

		(** Stop the playing / recording and return all buffers *)
		проц {перекрыта}Stop*;
		нач {единолично}
			утв(~closed);
			StopChannel;
		кон Stop;

		(* Used to prevent recursive calls of EXCLUSIVE sections *)
		проц PauseChannel;
		нач
			если running то
				Deactivate;
				running := ложь;
			всё;
		кон PauseChannel;

		(* Used to prevent recursive calls of EXCLUSIVE sections *)
		проц StopChannel;
		нач
			PauseChannel;
			(* Return all buffers *)
			нцПока buffFirst # НУЛЬ делай
				ReturnCurrentBuffer;
			кц;
			samplePosition := 0;
		кон StopChannel;

	кон Channel;

	(** Player channel *)
	PlayerChannel* = окласс(Channel)
		перем
			playSlotPair: цел32; (* play slot pair this channel is using *)
			playSlot: массив 2 из укль на PlaySlotCtrlData; (* play slot control data *)
			playSlotPhys: массив 2 из цел32; (* physical address *)
			nofSubCh: цел32; (* number of sub channels *)
			silentData: симв8; (* silent data byte *)

		(* Constructor *)
		проц &ConstrPlay*(drv: Driver; sRate, sRes, nofSubCh, playslotpair: цел32);
		перем
			i, j: цел32;
			pgDelta, lpfK, lpfQ: цел32;
		нач
			Constr(drv); (* call parent constructor *)
			сам.bytesPerSampleExp := nofSubCh - sRes;
			сам.nofSubCh := nofSubCh;
			сам.playSlotPair := playslotpair;
			включиВоМнвоНаБитах(drv.playSlotPairsUsed, playSlotPair); (* occupy this channels play slot pair *)
			drv.PlayerChannelListAdd(сам); (* add to list of currently active player channels *)
			silentData := симв8ИзКода(логСдвиг(sRes, 7)); (* calculate silent data byte *)

			(* Allocate buffer memory / init buffer *)
			playRecBuffSize := sRate * nofSubCh * (2-sRes) * BufferSizeMS DIV 1000; (* calculate buffer size *)
			нов(playRecBuff, playRecBuffSize);
			playRecBuffPhys := GetPhysicalAdr(адресОт(playRecBuff^), playRecBuffSize);
			playRecBuffPos := 0;

			(* Calculate pgDelta *)
			pgDelta := логСдвиг(логСдвиг(sRate, 15) DIV 48000, 13); (* sRate * 2^28 / 48000 *)

			(* Calculate lpfK and lpfQ *)
			i := 0;
			нцПока sRate > NativeFreqTab[i].hz делай
				увел(i); (* "i" can't go above upper array bound because sRate is asserted to be <= 48000 *)
			кц;
			lpfK := NativeFreqTab[i].valLpfK;
			lpfQ := NativeFreqTab[i].valLpfQ;

			(* Allocate control data memory and init banks *)
			нцДля i := 0 до nofSubCh - 1 делай
				нов(playSlot[i]);
				playSlotPhys[i] := GetPhysicalAdr(адресОт(playSlot[i]^), размер16_от(PlaySlotCtrlData));
				нцДля j := 0 до NofBanks - 1 делай
					playSlot[i][j].format := i + логСдвиг(nofSubCh-1, 16) + логСдвиг(sRes, 31);
					playSlot[i][j].loopDefault := 0;
					playSlot[i][j].pgBase := playRecBuffPhys;
					playSlot[i][j].pgLoop := 0;
					playSlot[i][j].pgLoopEnd := логСдвиг(playRecBuffSize, -bytesPerSampleExp);
					playSlot[i][j].pgLoopFrac := 0;
					playSlot[i][j].pgDeltaEnd := pgDelta;
					playSlot[i][j].lpfKEnd := lpfK;
					playSlot[i][j].egGainEnd := 0;
					playSlot[i][j].lchGainEnd := 40000000H;
					playSlot[i][j].rchGainEnd := 40000000H;
					playSlot[i][j].effect1GainEnd := 0;
					playSlot[i][j].effect2GainEnd := 0;
					playSlot[i][j].effect3GainEnd := 0;
					playSlot[i][j].lpfQ := lpfQ;
					playSlot[i][j].status := 0;
					playSlot[i][j].numOfFrames := 0;
					playSlot[i][j].loopCount := 0;
					playSlot[i][j].pgStart := 0;
					playSlot[i][j].pgStartFrac := 0;
					playSlot[i][j].pgDelta := pgDelta;
					playSlot[i][j].lpfK := lpfK;
					playSlot[i][j].egGain := 0;
					playSlot[i][j].lchGain := 40000000H;
					playSlot[i][j].rchGain := 40000000H;
					playSlot[i][j].effect1Gain := 0;
					playSlot[i][j].effect2Gain := 0;
					playSlot[i][j].effect3Gain := 0;
					playSlot[i][j].lpfD1 := 0;
					playSlot[i][j].lpfD2 := 0;
				кц;
			кц;

			SetVolume(255); (* set initial volume to maximum *)

		кон ConstrPlay;

		(* Prepare data - this procedure is called for each channel every time PCI Audio generates an interrupt *)
		проц {перекрыта}PrepareData;
		перем
			curBuffPos: размерМЗ; (* current recording position in ring buffer in bytes *)
			copySize: размерМЗ; (* size of next block to copy in bytes *)
		нач
			если ~running то возврат всё;
			curBuffPos := логСдвиг(playSlot[0][drv.inactiveBank].pgStart, bytesPerSampleExp);
			нцПока (buffFirst # НУЛЬ) и (playRecBuffPos # curBuffPos) делай
				(* Calculate copy size *)
				copySize := curBuffPos - playRecBuffPos;
				если copySize < 0 то
					copySize := playRecBuffSize - playRecBuffPos;
				всё;
				copySize := матМинимум(copySize, buffFirst.buff.len - buffFirstPos);
				(* Copy *)
				НИЗКОУР.копируйПамять(
					адресОт(buffFirst.buff.data^) + buffFirstPos,
					адресОт(playRecBuff^) + playRecBuffPos,
					copySize);
				увел(playRecBuffPos, copySize);
				увел(buffFirstPos, copySize);
				увел(samplePosition, логСдвиг(copySize, -bytesPerSampleExp));
				(* Handle special cases *)
				если playRecBuffPos = playRecBuffSize то
					playRecBuffPos := 0;
				всё;
				если buffFirstPos = buffFirst.buff.len то
					ReturnCurrentBuffer;
				всё;
			кц;
			(* Output silent data if no PCM data is available *)
			нцПока playRecBuffPos # curBuffPos делай
				playRecBuff[playRecBuffPos] := silentData;
				playRecBuffPos := (playRecBuffPos + 1) остОтДеленияНа playRecBuffSize;
			кц;
		кон PrepareData;

		(* Init banks and start playback/record *)
		проц {перекрыта}Activate;
		перем copySize, i, j: размерМЗ;
		нач
			если Logging то
				ЛогЯдра.пСтроку8("YMF754 - Starting PlayerChannel number ");
				ЛогЯдра.пЦел64(playSlotPair, 0);
				ЛогЯдра.пВК_ПС;
			всё;
			(* Init buffer *)
			playRecBuffPos := 0;
			нцПока (buffFirst # НУЛЬ) и (playRecBuffPos < playRecBuffSize) делай
				(* Calculate copy size *)
				copySize := матМинимум(buffFirst.buff.len, playRecBuffSize - playRecBuffPos);
				(* Copy *)
				НИЗКОУР.копируйПамять(
					адресОт(buffFirst.buff.data^),
					адресОт(playRecBuff^) + playRecBuffPos,
					copySize);
				увел(playRecBuffPos, copySize);
				увел(buffFirstPos, copySize);
				увел(samplePosition, логСдвиг(copySize, -bytesPerSampleExp));
				(* Handle special cases *)
				если buffFirstPos = buffFirst.buff.len то
					ReturnCurrentBuffer;
				всё;
			кц;
			(* Output silent data if no PCM data is available *)
			нцДля i := playRecBuffPos до playRecBuffSize - 1 делай
				playRecBuff[i] := silentData;
			кц;
			(* Init banks and start *)
			нцДля i := 0 до nofSubCh - 1 делай
				нцДля j := 0 до NofBanks - 1 делай
					playSlot[i][j].pgStart := 0;
					playSlot[i][j].pgStartFrac := 0;
				кц;
				drv.PCD.playSlotBase[2*playSlotPair+i] := playSlotPhys[i];
			кц;
		кон Activate;

		(* Stop playback/record *)
		проц {перекрыта}Deactivate;
		перем i: цел32;
		нач
			если Logging то
				ЛогЯдра.пСтроку8("YMF754 - Stopping/Pausing PlayerChannel number ");
				ЛогЯдра.пЦел64(playSlotPair, 0);
				ЛогЯдра.пВК_ПС;
			всё;
			нцДля i := 0 до nofSubCh - 1 делай
				drv.PCD.playSlotBase[2*playSlotPair+i] := 0;
			кц;
		кон Deactivate;

		(* Set volume for play or record channel (0-255) *)
		проц {перекрыта}SetPlayRecVol(volume: цел32);
		перем i, j: цел32;
		нач
			volume := логСдвиг(volume, 22);
			нцДля i := 0 до nofSubCh - 1 делай
				если running то
					playSlot[i][drv.inactiveBank].egGainEnd := volume;
				иначе
					нцДля j := 0 до NofBanks - 1 делай
						playSlot[i][j].egGainEnd := volume;
						playSlot[i][j].egGain := volume;
					кц;
				всё;
			кц;
		кон SetPlayRecVol;

		(** Get kind of channel *)
		проц {перекрыта}GetChannelKind*(): цел32;
		нач
			утв(~closed);
			возврат SoundDevices.ChannelPlay;
		кон GetChannelKind;

		(** Close the channel, the driver may release any ressources reserved for it.
		The object is still there but can never be opened again *)
		проц {перекрыта}Close*;
		нач {единолично}
			утв(~closed);
			если Logging то
				ЛогЯдра.пСтроку8("YMF754 - Closing PlayerChannel number ");
				ЛогЯдра.пЦел64(playSlotPair, 0);
				ЛогЯдра.пВК_ПС;
			всё;
			StopChannel; (* stop playing *)
			bufferListenerCaller.Close; (* close buffer listener caller object *)
			drv.PlayerChannelListRemove(сам); (* remove from list uf currently active player channels *)
			исключиИзМнваНаБитах(drv.playSlotPairsUsed, playSlotPair); (* free used play slot pair *)
			closed := истина;
			если Logging то
				ЛогЯдра.пСтроку8("YMF754 - Closing done"); ЛогЯдра.пВК_ПС;
			всё;
		кон Close;

	кон PlayerChannel;

	(** Recoder channel *)
	RecordChannel* = окласс(Channel)
		перем
			recSlot: укль на RecSlotCtrlData; (* record slot control data *)
			recSlotPhys: цел32; (* physical address of it *)

		(* Constructor *)
		проц &ConstrRec*(drv: Driver; sRate, sRes, nofSubCh: цел32);
		перем i: цел32;
		нач
			Constr(drv); (* call parent constructor *)
			bytesPerSampleExp := nofSubCh - sRes;

			(* Allocate buffer memory / init buffer *)
			playRecBuffSize := NativeFreqTab[sRate].hz * nofSubCh * (2-sRes) * BufferSizeMS DIV 1000; (* calculate buffer size *)
			нов(playRecBuff, playRecBuffSize);
			playRecBuffPhys := GetPhysicalAdr(адресОт(playRecBuff^), playRecBuffSize);
			playRecBuffPos := 0;

			(* Allocate control data memory *)
			нов(recSlot);
			recSlotPhys := GetPhysicalAdr(адресОт(recSlot^), размер16_от(RecSlotCtrlData));

			(* Register control data memory *)
			drv.PCC.RegWrite32(PCCRegRecCtrlBase, recSlotPhys);

			(* Set channel config *)
			drv.PCC.RegWrite16(PCCRegADCSlotSamplingRate, NativeFreqTab[sRate].valRec);
			drv.PCC.RegWrite16(PCCRegADCSlotFormat, логСдвиг(nofSubCh-1, 1) + sRes);

			(* Init ADC slot *)
			нцДля i := 0 до NofBanks - 1 делай
				recSlot.recSlotADC[i].pgBase := playRecBuffPhys;
				recSlot.recSlotADC[i].pgLoopEndAdr := playRecBuffSize;
				recSlot.recSlotADC[i].pgStartAdr := 0;
				recSlot.recSlotADC[i].numOfLoops := 0;
			кц;

			SetVolume(255); (* set initial volume to maximum *)

		кон ConstrRec;

		(* Prepare data - this procedure is called for each channel every time PCI Audio generates an interrupt *)
		проц {перекрыта}PrepareData;
		перем
			curBuffPos: размерМЗ; (* current recording position in ring buffer in bytes *)
			copySize: размерМЗ; (* size of next block to copy in bytes *)
		нач
			если ~running то возврат всё;
			curBuffPos := recSlot.recSlotADC[drv.inactiveBank].pgStartAdr;
			нцПока (buffFirst # НУЛЬ) и (playRecBuffPos # curBuffPos) делай
				(* Calculate copy size *)
				copySize := curBuffPos - playRecBuffPos;
				если copySize < 0 то
					copySize := playRecBuffSize - playRecBuffPos;
				всё;
				copySize := матМинимум(copySize, buffFirst.buff.len - buffFirstPos);
				(* Copy *)
				НИЗКОУР.копируйПамять(
					адресОт(playRecBuff^) + playRecBuffPos,
					адресОт(buffFirst.buff.data^) + buffFirstPos,
					copySize);
				увел(playRecBuffPos, copySize);
				увел(buffFirstPos, copySize);
				увел(samplePosition, логСдвиг(copySize, -bytesPerSampleExp));
				(* Handle special cases *)
				если playRecBuffPos = playRecBuffSize то
					playRecBuffPos := 0;
				всё;
				если buffFirstPos = buffFirst.buff.len то
					ReturnCurrentBuffer;
				всё;
			кц;
		кон PrepareData;

		(* Init banks and start playback/record *)
		проц {перекрыта}Activate;
		перем i: цел32;
		нач
			если Logging то
				ЛогЯдра.пСтроку8("YMF754 - Starting RecordChannel"); ЛогЯдра.пВК_ПС;
			всё;
			нцДля i := 0 до NofBanks - 1 делай
				recSlot.recSlotADC[i].pgStartAdr := 0;
			кц;
			drv.PCC.RegWrite32(PCCRegMapOfRec, 2); (* activate ADC slot *)
		кон Activate;

		(* Stop playback/record *)
		проц {перекрыта}Deactivate;
		нач
			если Logging то
				ЛогЯдра.пСтроку8("YMF754 - Stopping/Pausing RecordChannel"); ЛогЯдра.пВК_ПС;
			всё;
			drv.PCC.RegWrite32(PCCRegMapOfRec, 0); (* deactivate ADC slot *)
			playRecBuffPos := 0;
		кон Deactivate;

		(* Set volume for play or record channel (0-255) *)
		проц {перекрыта}SetPlayRecVol(volume: цел32);
		нач
			volume := логСдвиг(volume, 6);
			drv.PCC.RegWrite32(PCCRegVolADCIn, volume + логСдвиг(volume, 16));
		кон SetPlayRecVol;

		(** Get kind of channel *)
		проц {перекрыта}GetChannelKind*(): цел32;
		нач
			утв(~closed);
			возврат SoundDevices.ChannelRecord;
		кон GetChannelKind;

		(** Close the channel, the driver may release any ressources reserved for it.
		The object is still there but can never be opened again *)
		проц {перекрыта}Close*;
		нач {единолично}
			утв(~closed);
			если Logging то
				ЛогЯдра.пСтроку8("YMF754 - Closing RecordChannel"); ЛогЯдра.пВК_ПС;
			всё;
			StopChannel; (* stop recording *)
			bufferListenerCaller.Close; (* close buffer listener caller object *)
			SetPlayRecVol(0); (* mute ADC slot *)
			drv.recSlot := НУЛЬ; (* free record slot *)
			closed := истина;
			если Logging то
				ЛогЯдра.пСтроку8("YMF754 - Closing done"); ЛогЯдра.пВК_ПС;
			всё;
		кон Close;

	кон RecordChannel;

	(** Driver object *)
	Driver* = окласс (SoundDevices.Driver)
		перем
			base: адресВПамяти; (* virtual PCI Audio register base address *)
			irq: цел32; (* IRQ number *)
			ACC: AC97Control; (* AC97 controller object *)
			PCC: PCIAudioControl; (* PCI Audio controller object *)
			PCD: укль на PlayCtrlDataTable; (* PCI Audio play control data table *)
			mixerChannels: массив NofMixerChannels из MixerChannel; (* array of mixer channels *)
			mixerChannelListeners: ListMixerChangedProc; (* list of mixer channel listeners *)
			playChannels: ListPlayerChannel; (* list of currently active player channels *)
			playSlotPairsUsed: мнвоНаБитахМЗ; (* set of currently used PlaySlotPairs *)
			recSlot: RecordChannel; (* record channel currently using record slot *)
			inactiveBank: цел32; (* bank that is currently not used by PCI Audio *)

		(* Constructor *)
		проц &Constr*(name: массив из симв8; physbase, irq: цел32; CntrlInst1E: булево);
		перем
			i: цел32; res: целМЗ;
			PCDbase: цел32; (* physical base address of PCI Audio play control data table *)
		нач
			сам.irq := irq;

			сам.SetName(name);
			сам.desc := PluginDescPrefix;
			Strings.Append(сам.desc, name);

			(* Map base address *)
			Machine.MapPhysical(physbase, 8000H (* 32KB *), base);
			утв(base # Machine.NilAdr);

			если Logging то
				ЛогЯдра.пСтроку8("  Initializing driver object:"); ЛогЯдра.пВК_ПС;
				ЛогЯдра.пСтроку8("    Device name: "); ЛогЯдра.пСтроку8(name); ЛогЯдра.пВК_ПС;
				ЛогЯдра.пСтроку8("    Physical base address: "); ЛогЯдра.п16ричное(physbase, 0); ЛогЯдра.пСимв8("h"); ЛогЯдра.пВК_ПС;
				ЛогЯдра.пСтроку8("    Mapped base address: "); ЛогЯдра.п16ричное(base, 0); ЛогЯдра.пСимв8("h"); ЛогЯдра.пВК_ПС;
				ЛогЯдра.пСтроку8("    Mapped space: 32KB"); ЛогЯдра.пВК_ПС;
				ЛогЯдра.пСтроку8("    Hardware interrupt (IRQ): "); ЛогЯдра.пЦел64(irq, 0); ЛогЯдра.пВК_ПС;
			всё;

			(* Create controller register objects *)
			нов(PCC, base, CntrlInst1E);
			нов(ACC, PCC);

			(* Initialize PCI Audio *)
			PCC.Initialize;

			(* Reset AC97 controller *)
			ACC.Reset;

			(* Init used slots and channels *)
			playChannels := НУЛЬ;
			playSlotPairsUsed := {};
			recSlot := НУЛЬ;
			inactiveBank := 0;

			(* Init mixer channel listener list *)
			mixerChannelListeners := НУЛЬ;

			(* Create mixer channel objects *)
			нов(mixerChannels[0], сам, ACCRegVolMasterOut, истина, ложь, "MasterOut", "Master output mixer channel");
			нов(mixerChannels[1], сам, ACCRegRecordGain, ложь, ложь, "MasterIn", "Master input mixer channel");
			нов(mixerChannels[2], сам, ACCRegVolLineIn, истина, истина, "LineIn", "LineIn mixer channel");
			нов(mixerChannels[3], сам, ACCRegVolPCM, истина, ложь, "PCM", "PCM mixer channel");
			нов(mixerChannels[4], сам, ACCRegVolCD, истина, истина, "CD", "CD mixer channel");
			нов(mixerChannels[5], сам, ACCRegVolMic, истина, истина, "Mic", "Microphone mixer channel");

			(* Allocate DMA memory for PCI Audio control data table *)
			нов(PCD);
			PCDbase := GetPhysicalAdr(адресОт(PCD^), размер16_от(PlayCtrlDataTable));

			(* Initialize PCI Audio play control data *)
			PCD.numOfPlay := NofPlaySlots;
			нцДля i := 0 до NofPlaySlots - 1 делай
				PCD.playSlotBase[i] := 0;
			кц;
			PCC.RegWrite32(PCCRegPlayCtrlBase, PCDbase);

			утв((irq >= 1) и (irq <= 15));
			(* Install Objects interrupt handler *)
			Objects.InstallHandler(HandleInterrupt, Machine.IRQ0+irq);

			(* Register in SoundDevices *)
			SoundDevices.devices.Add(сам, res);
			утв(res = Plugins.Ok);

			(* Update table of all active sound drivers *)
			SoundDevices.devices.GetAll(DriverTab);

			если Logging то
				ЛогЯдра.пСтроку8("  Initializing finished."); ЛогЯдра.пВК_ПС;
			всё;

		кон Constr;

		(** Finalizer *)
		проц Finalize*;
		перем
			item: ListPlayerChannel;
		нач
			если Logging то
				ЛогЯдра.пСтроку8("  Finalizing driver object:"); ЛогЯдра.пВК_ПС;
				ЛогЯдра.пСтроку8("    Device name: "); ЛогЯдра.пСтроку8(name); ЛогЯдра.пВК_ПС;
				ЛогЯдра.пСтроку8("    Mapped base address: "); ЛогЯдра.п16ричное(base, 0); ЛогЯдра.пСимв8("h"); ЛогЯдра.пВК_ПС;
				ЛогЯдра.пСтроку8("    Hardware interrupt (IRQ): "); ЛогЯдра.пЦел64(irq, 0); ЛогЯдра.пВК_ПС;
			всё;

			(* Close all channels *)
			item := playChannels;
			нцПока item # НУЛЬ делай
				item.channel.Close;
				item := item.next;
			кц;
			если recSlot # НУЛЬ то
				recSlot.Close;
			всё;

			(* Reset AC97 controller *)
			ACC.Reset;

			(* Uninitialize PCI Audio *)
			PCC.UnInitialize;

			(* Unmap base address *)
			Machine.UnmapPhysical(base, 8000H (* 32KB *));

			(* Remove plugin *)
			SoundDevices.devices.Remove(сам);

			(* Update table of all active sound drivers *)
			SoundDevices.devices.GetAll(DriverTab);

			(* Remove Objects interrupt handler *)
			Objects.RemoveHandler(HandleInterrupt, Machine.IRQ0+irq);

			если Logging то
				ЛогЯдра.пСтроку8("  Finalizing finished."); ЛогЯдра.пВК_ПС;
			всё;

		кон Finalize;

		(* Interrupt handler *)
		проц HandleInterrupt;
		перем
			item: ListPlayerChannel;
			regMode: мнвоНаБитахМЗ;
		нач
			(* Check if PCI Audio generated the interrupt *)
			если ~(31 в НИЗКОУР.подмениТипЗначения(мнвоНаБитахМЗ, PCC.RegRead32(PCCRegStatus))) то возврат всё;

			(* Handle PCI Audio interrupt *)
			PCC.RegWrite32(PCCRegStatus, НИЗКОУР.подмениТипЗначения(цел32, {31})); (* deassert INTA# *)
			inactiveBank := PCC.RegRead32(PCCRegControlSelect) остОтДеленияНа 2; (* get inactive bank *)

			(* Prepare data in channels *)
			item := playChannels;
			нцПока item # НУЛЬ делай
					item.channel.PrepareData;
					item := item.next;
			кц;
			если recSlot # НУЛЬ то
				recSlot.PrepareData;
			всё;

			если (playChannels = НУЛЬ) и (recSlot = НУЛЬ) то
				(* Stop PCI Audio operation *)
				PCC.RegWrite32(PCCRegMode, 0);
			иначе
				(* Notify PCI Audio that interrupt has been finished *)
				regMode := НИЗКОУР.подмениТипЗначения(мнвоНаБитахМЗ, PCC.RegRead32(PCCRegMode));
				включиВоМнвоНаБитах(regMode, 1);
				PCC.RegWrite32(PCCRegMode, НИЗКОУР.подмениТипЗначения(цел32, regMode));
			всё;
		кон HandleInterrupt;

		(** Sound device routines *)
		проц {перекрыта}Init*;
			(* Not used *)
		кон Init;

		проц {перекрыта}Enable*;
			(* Not used *)
		кон Enable;

		проц {перекрыта}Disable*;
			(* Not used *)
		кон Disable;

		(** Capabilities *)
		проц {перекрыта}NofNativeFrequencies*():цел32;
		нач
			возврат NofNativeFreq;
		кон NofNativeFrequencies;

		проц GetNativeFrequeny*(nr : цел32):цел32;
		нач
			возврат NativeFreqTab[nr].hz;
		кон GetNativeFrequeny;

		проц {перекрыта}NofSamplingResolutions*():цел32;
		нач
			возврат 2; (* 16 Bit and 8 Bit *)
		кон NofSamplingResolutions;

		проц {перекрыта}GetSamplingResolution*(nr : цел32):цел32;
		нач
			утв((nr >= 0) и (nr < 2));
			если nr = 0 то
				возврат 16;
			иначе
				возврат 8;
			всё;
		кон GetSamplingResolution;

		(** How many different sub channel settings are possible *)
		проц {перекрыта}NofSubChannelSettings*():цел32;
		нач
			возврат 2; (* mono and stereo *)
		кон NofSubChannelSettings;

		(** Get sub channel setting nr. *)
		проц {перекрыта}GetSubChannelSetting*(nr : цел32):цел32;
		нач
			утв((nr >= 0) и (nr < 2));
			если nr = 0 то
				возврат 1; (* mono *)
			иначе
				возврат 2; (* stereo *)
			всё;
		кон GetSubChannelSetting;

		(** How many different wave formats are possible *)
		проц {перекрыта}NofWaveFormats*():цел32;
		нач
			возврат 1; (* only PCM *)
		кон NofWaveFormats;

		(** Get wave format nr. *)
		проц {перекрыта}GetWaveFormat*(nr : цел32):цел32;
		нач
			утв(nr = 0);
			возврат SoundDevices.FormatPCM; (* PCM *)
		кон GetWaveFormat;

		(** Playing *)
		(** Open a new channel for playing
			The maximum number of playing channels opened at the same time is 32.
			res is the result code (see constants in SoundDevices)
			channel is the resulting Play channel, NIL if an error occured.
			samplingRate is the desired samplingRate ( IMPORTANT: all values from 8000 to 48000 are allowed ! )
			samplingResolution = 8/16 Bit
			nofSubChannes = 1 for Mono, 2 for Stereo
			format is the wave format
		*)
		проц {перекрыта}OpenPlayChannel*(перем channel : SoundDevices.Channel; samplingRate, samplingResolution, nofSubChannels, format : цел32; перем res : целМЗ);
		перем
			playSlotPair: цел32;
			playChannel: PlayerChannel;
		нач {единолично}
			(* Searching for free play slot pair *)
			если Logging то
				ЛогЯдра.пСтроку8("YMF754 - Opening PlayerChannel");
			всё;
			playSlotPair := 0;
			нцПока (playSlotPair < NofPlaySlotPairs) и (playSlotPair в playSlotPairsUsed) делай
				увел(playSlotPair);
			кц;
			если playSlotPair = NofPlaySlotPairs то
				если Logging то
					ЛогЯдра.пСтроку8(" - rejected: no more channels available"); ЛогЯдра.пВК_ПС;
				всё;
				res := SoundDevices.ResNoMoreChannels;
				channel := НУЛЬ;
				возврат;
			всё;
			(* Free play slot pair found *)
			CheckChannelParam(ложь, samplingRate, samplingResolution, nofSubChannels, format, res);
			если res = SoundDevices.ResOK то
				нов(playChannel, сам, samplingRate, samplingResolution, nofSubChannels, playSlotPair);
				если Logging то
					ЛогЯдра.пСтроку8(" number ");
					ЛогЯдра.пЦел64(playSlotPair, 0);
					ЛогЯдра.пСтроку8(" - done");
					ЛогЯдра.пВК_ПС;
				всё;
				channel := playChannel;
				StartPCIAudio;
			иначе
				если Logging то
					ЛогЯдра.пСтроку8(" - rejected: invalid parameters"); ЛогЯдра.пВК_ПС;
				всё;
				channel := НУЛЬ;
			всё;
		кон OpenPlayChannel;

		(** Recording *)
		(** Open a new channel for recording.
			Only one record channel can be opened at the same time!
			res is the result code (see constants in SoundDevices)
			channel is the resulting Recorder channel, NIL if an error occured.
			samplingRate is the desired samplingRate ( IMPORTANT: only native frequencies are allowed ! )
			samplingResolution = 8/16 Bit
			nofSubChannes = 1 for Mono, 2 for Stereo
			format is the wave format
		*)
		проц {перекрыта}OpenRecordChannel*(перем channel : SoundDevices.Channel; samplingRate, samplingResolution, nofSubChannels, format : цел32; перем res : целМЗ);
		нач {единолично}
			если Logging то
				ЛогЯдра.пСтроку8("YMF754 - Opening RecordChannel");
			всё;
			(* Testing for free record slot *)
			если recSlot # НУЛЬ то
				если Logging то
					ЛогЯдра.пСтроку8(" - rejected: RecordChannel currently in use"); ЛогЯдра.пВК_ПС;
				всё;
				res := SoundDevices.ResNoMoreChannels;
				channel := НУЛЬ;
				возврат;
			всё;
			(* RecSlot is available *)
			CheckChannelParam(истина, samplingRate, samplingResolution, nofSubChannels, format, res);
			если res = SoundDevices.ResOK то
				нов(recSlot, сам, samplingRate, samplingResolution, nofSubChannels);
				если Logging то
					ЛогЯдра.пСтроку8(" - done"); ЛогЯдра.пВК_ПС;
				всё;
				channel := recSlot;
				StartPCIAudio;
			иначе
				если Logging то
					ЛогЯдра.пСтроку8(" - rejected: invalid parameters"); ЛогЯдра.пВК_ПС;
				всё;
				channel := НУЛЬ;
			всё;
		кон OpenRecordChannel;

		(* Start PCI Audio operation - if not already operating *)
		проц StartPCIAudio;
		нач
			если ~нечётноеЛи¿(PCC.RegRead32(PCCRegMode)) то
				(* Not operating - starting operation *)
				PCC.RegWrite32(PCCRegMode, 3);
			всё;
		кон StartPCIAudio;

		(* Check channel parameters and convert the values for internal use *)
		проц CheckChannelParam(onlyNativeFreq: булево; перем sRate, sResolution, nofSubCh, format: цел32; перем res: целМЗ);
		перем i: цел32;
		нач
			res := SoundDevices.ResOK;

			(* Samling rate *)
			если onlyNativeFreq то
				(* only native freqencies are allowed *)
				i := 0;
				нцПока (i < NofNativeFreq) и (NativeFreqTab[i].hz # sRate) делай увел(i) кц;
				если i < NofNativeFreq то
					sRate := i; (* corresponding array position is returned as sRate *)
				иначе
					res := SoundDevices.ResUnsupportedFrequency;
				всё;
			иначе
				(* all frequencies in specified range are allowed *)
				если (sRate < 8000) или (sRate > 48000) то
					res := SoundDevices.ResUnsupportedFrequency;
				всё;
			всё;

			(* Sampling resolution *)
			если sResolution = 16 то
				sResolution := 0;
			аесли sResolution = 8 то
				sResolution := 1;
			иначе
				res := SoundDevices.ResUnsupportedSamplingRes;
			всё;

			(* Sub channel setting *)
			если (nofSubCh # 1) и (nofSubCh # 2) то
				res := SoundDevices.ResUnsupportedSubChannels;
			всё;

			(* Format *)
			если format # SoundDevices.FormatPCM то
				res := SoundDevices.ResUnsupportedFormat;
			всё;
		кон CheckChannelParam;

		(* Add a player channel to the list of currently active player channels - always called by the channel itself *)
		проц PlayerChannelListAdd(channel: PlayerChannel);
		перем item: ListPlayerChannel;
		нач (* can't be exclusive because it is called by ConstrPlay() of object created in OpenPlayChannel() *)
			утв(channel # НУЛЬ);
			нов(item);
			item.channel := channel;
			item.next := playChannels;
			playChannels := item;
		кон PlayerChannelListAdd;

		(* Remove a player channel from the list of currently active player channels - always called by the channel itself *)
		проц PlayerChannelListRemove(channel: PlayerChannel);
		перем item: ListPlayerChannel;
		нач {единолично}
			item := playChannels;
			если item = НУЛЬ то
				(* not found - empty list *)
				возврат;
			всё;
			если item.channel = channel то
				(* found - remove first item *)
				playChannels := item.next;
				возврат;
			всё;
			нцПока (item.next # НУЛЬ) и (item.next.channel # channel) делай
				item := item.next;
			кц;
			если item.next # НУЛЬ то
				(* found - remove item *)
				item.next := item.next.next;
			всё;
		кон PlayerChannelListRemove;

		(** Mixer *)
		(** Register a listener for channel changes, the number of listeners is not limited.
			Listeners run in the thread of the changeing program, therefore they have to
			return control immediately after beeing called.
		*)
		проц {перекрыта}RegisterMixerChangeListener*(mixChangedProc : MixerChangedProc);
		перем item: ListMixerChangedProc;
		нач {единолично}
			утв(mixChangedProc # НУЛЬ);
			нов(item);
			item.proc := mixChangedProc;
			item.next := mixerChannelListeners;
			mixerChannelListeners := item;
			если Logging то
				ЛогЯдра.пСтроку8("YMF754 - MixerChangeListener registered"); ЛогЯдра.пВК_ПС;
			всё;
		кон RegisterMixerChangeListener;

		(** Unregister a previously registered listener *)
		проц {перекрыта}UnregisterMixerChangeListener*(mixChangedProc : MixerChangedProc);
		перем item: ListMixerChangedProc;
		нач {единолично}
			если Logging то
				ЛогЯдра.пСтроку8("YMF754 - Unregistering MixerChangeListener");
			всё;
			item := mixerChannelListeners;
			если item = НУЛЬ то
				(* not found - empty list *)
				если Logging то
					ЛогЯдра.пСтроку8(" - failed: no listener was registered"); ЛогЯдра.пВК_ПС;
				всё;
				возврат;
			всё;
			если item.proc = mixChangedProc то
				(* found - remove first item *)
				mixerChannelListeners := item.next;
				если Logging то
					ЛогЯдра.пСтроку8(" - done"); ЛогЯдра.пВК_ПС;
				всё;
				возврат;
			всё;
			нцПока (item.next # НУЛЬ) и (item.next.proc # mixChangedProc) делай
				item := item.next;
			кц;
			если item.next # НУЛЬ то
				(* found - remove item *)
				item.next := item.next.next;
				если Logging то
					ЛогЯдра.пСтроку8(" - done"); ЛогЯдра.пВК_ПС;
				всё;
			иначе
				если Logging то
					ЛогЯдра.пСтроку8(" - failed: listener was not registered"); ЛогЯдра.пВК_ПС;
				всё;
			всё;
		кон UnregisterMixerChangeListener;

		(** Return channel object
			channel 0 is always present and is specified as the master output volume
			channel 1 is always present and is specified as the master input volume
			Drivers may ignore channel 0 or 1 but need to return a generic "Channel" object for these channel numbers
			GetMixerChannel returns NIL if the channelNr is invalid
		*)
		проц {перекрыта}GetMixerChannel*(channelNr : цел32; перем channel : SoundDevices.MixerChannel);
		перем name: NameStr;
		нач
			если (channelNr >= 0) и (channelNr < NofMixerChannels) то
				channel := mixerChannels[channelNr];
				если Logging то
					channel.GetName(name);
					ЛогЯдра.пСтроку8("YMF754 - GetMixerChannel (");
					ЛогЯдра.пСтроку8(name);
					ЛогЯдра.пСтроку8(")");
					ЛогЯдра.пВК_ПС;
				всё;
			иначе
				channel := НУЛЬ;
			всё;
		кон GetMixerChannel;

		(** Returns the number of mixer channels available, at least 2 *)
		проц {перекрыта}GetNofMixerChannels*() : цел32;
		нач
			возврат NofMixerChannels;
		кон GetNofMixerChannels;

	кон Driver;

(* Module variables *)

перем
	NativeFreqTab: NativeFreqTable; (* parameter of native frequencies *)
	DriverTab: Plugins.Table; (* table of all active sound drivers *)

(** Module routines *)

(* Fill native frequencies table *)
проц FillNativeFreqTable;
нач
	NativeFreqTab[0].hz := 8000;
	NativeFreqTab[0].valRec := 24575;
	NativeFreqTab[0].valLpfK := 18B00000H;
	NativeFreqTab[0].valLpfQ := 32020000H;
	NativeFreqTab[1].hz := 11025;
	NativeFreqTab[1].valRec := 17832;
	NativeFreqTab[1].valLpfK := 20900000H;
	NativeFreqTab[1].valLpfQ := 31780000H;
	NativeFreqTab[2].hz := 16000;
	NativeFreqTab[2].valRec := 12287;
	NativeFreqTab[2].valLpfK := 2B980000H;
	NativeFreqTab[2].valLpfQ := 31380000H;
	NativeFreqTab[3].hz := 22050;
	NativeFreqTab[3].valRec := 8915;
	NativeFreqTab[3].valLpfK := 35A00000H;
	NativeFreqTab[3].valLpfQ := 31C80000H;
	NativeFreqTab[4].hz := 32000;
	NativeFreqTab[4].valRec := 6143;
	NativeFreqTab[4].valLpfK := 40000000H;
	NativeFreqTab[4].valLpfQ := 33D00000H;
	NativeFreqTab[5].hz := 44100;
	NativeFreqTab[5].valRec := 4457;
	NativeFreqTab[5].valLpfK := 40000000H;
	NativeFreqTab[5].valLpfQ := 40000000H;
	NativeFreqTab[6].hz := 48000;
	NativeFreqTab[6].valRec := 4095;
	NativeFreqTab[6].valLpfK := 40000000H;
	NativeFreqTab[6].valLpfQ := 40000000H;
кон FillNativeFreqTable;

(*  Get physical address for DMA access *)
проц GetPhysicalAdr(adr: адресВПамяти; size: размерМЗ): Machine.Address32;
перем physadr: Machine.Address32;
нач
	(* All data must be continous in physical memory ! *)
	(* This can not be forced, but Aos seems to do it anyway. *)
	physadr := Machine.PhysicalAdr(adr, size)(Machine.Address32);
	утв(physadr # Machine.NilAdr); (* check if it is continous in physical memory ! *)
	утв(physadr остОтДеленияНа 4 = 0); (* must be 4 byte aligned in physical memory *)
	возврат physadr;
кон GetPhysicalAdr;

(* Scan the PCI bus for the specified card *)
проц ScanPCI(vendor, device: цел32; name: Plugins.Name; CntrlInst1E: булево);
перем
	reg, index: цел32; res: целМЗ;
	bus, dev, fct: цел32;
	base, irq: цел32;
	len: размерМЗ;
	d: Driver;
нач
	index := 0;
	нцПока (index < 10) и (PCI.FindPCIDevice(device, vendor, index, bus, dev, fct) = PCI.Done) делай
		(* Get physical base address *)
		res := PCI.ReadConfigDword(bus, dev, fct, PCI.Adr0Reg, base); утв(res = PCI.Done);
		утв(~нечётноеЛи¿(base)); (* memory mapped *)
		умень(base, base остОтДеленияНа 16); (* zero last 4 bits *)

		(* Get IRQ number *)
		res := PCI.ReadConfigByte(bus, dev, fct, PCI.IntlReg, irq); утв(res = PCI.Done);

		(* Reset AC97 link (must be done here at PCI bus level) *)
		res := PCI.ReadConfigByte(bus, dev, fct, PCIRegDS1EControl, reg); утв(res = PCI.Done);
		если нечётноеЛи¿(reg) то
			умень(reg);
			res := PCI.WriteConfigByte(bus, dev, fct, PCIRegDS1EControl, reg); утв(res = PCI.Done);
		всё;
		res := PCI.WriteConfigByte(bus, dev, fct, PCIRegDS1EControl, reg + 1); утв(res = PCI.Done);
		res := PCI.WriteConfigByte(bus, dev, fct, PCIRegDS1EControl, reg); утв(res = PCI.Done);

		(* Add digit to name *)
		len := Strings.Length(name);
		name[len] := "#";
		увел(len);
		name[len] := симв8ИзКода(кодСимв8("0") + index);
		увел(len);
		name[len] := 0X;

		(* Instanciate new driver object *)
		нов(d, name, base, irq, CntrlInst1E);

		увел(index)
	кц
кон ScanPCI;

(* Initialize the driver module *)
проц Init;
нач
	FillNativeFreqTable; (* fill native frequencies table *)
	DriverTab := НУЛЬ; (* init table of active sound drivers *)

	если Logging то
		ЛогЯдра.пСтроку8("Scanning for devices..."); ЛогЯдра.пВК_ПС;
	всё;

	(* Scan for Yamaha YMF724 - YMF724E *)
	ScanPCI(1073H, 0004H, "YMF724", ложь);

	(* Scan for Yamaha YMF740 and YMF740B *)
	ScanPCI(1073H, 000AH, "YMF740", ложь);

	(* Scan for Yamaha YMF740C *)
	ScanPCI(1073H, 000CH, "YMF740C", истина);

	(* Scan for Yamaha YMF724F *)
	ScanPCI(1073H, 000DH, "YMF724F", истина);

	(* Scan for Yamaha YMF744 *)
	ScanPCI(1073H, 0010H, "YMF744", истина);

	(* Scan for Yamaha YMF754 *)
	ScanPCI(1073H, 0012H, "YMF754", истина);

	если Logging то
		ЛогЯдра.пСтроку8("Scanning finished."); ЛогЯдра.пВК_ПС;
	всё;

кон Init;

проц Install*;
	(* Init routines are called implicitly *)
кон Install;

(** Called when unloading module *)
проц Close*;
перем
	i: размерМЗ;
нач
	если Logging то
		ЛогЯдра.пСтроку8("Unloading driver module..."); ЛогЯдра.пВК_ПС;
	всё;

	(* Finalize all driver objects of this module *)
	если DriverTab # НУЛЬ то
		нцДля i := 0 до длинаМассива(DriverTab^) - 1 делай
			если DriverTab[i] суть Driver то
				DriverTab[i](Driver).Finalize;
			всё;
		кц;
	всё;

	если Logging то
		ЛогЯдра.пСтроку8("Unloading finished."); ЛогЯдра.пВК_ПС;
	всё;
кон Close;

нач
	утв(BufferSizeMS <= 10000);
	Modules.InstallTermHandler(Close);
	Init;
кон YMF754.

Aos.Call YMF754.Install ~
System.Free YMF754 ~

Installation
add YMF754.Install to Configuration.XML, section 'Autostart' to load driver at system startup.
